207.9087771195399	130.4302796902993
257.8156167807659	118.74995565228716
603.9779514522482	33.80214446674424
402.2268975026113	161.22386124505863
525.4012251771264	149.54353720704646
221.71279660030456	165.47125180433576
28.45652386959969	106.00778397445572
200.47584355297434	349.1708934930723
457.44297542566983	479.7781531908446
457.44297542566983	353.41828405234946
79.42521118319218	135.73951788939573
