244.3125	236
304.3125	254
274.3125	253
290.3125	312
249.3125	362
596.3125	333
538.3125	383
576.3125	402
559.3125	421
470.3125	487
474.3125	530
496.3125	590
531.3125	548
341.3125	313
361.3125	371
349.3125	440
268.3125	147
238.3125	121
318.3125	137
315.3125	113
366.3125	87
332.3125	25
289.3125	76
173.3125	112
144.3125	159
129.3125	109
146.3125	56
245.3125	14
514.3125	29
537.3125	64
559.3125	23
477.3125	191
559.3125	201
602.3125	135
507.3125	93
472.3125	32
352.3125	242
452.3125	327
430.3125	350
400.3125	289
418.3125	404
416.3125	432
493.3125	364
476.3125	401
261.3125	414
216.3125	199
