349.5827426701312	452.0227727342668
283.5098097220315	302.04769964609943
576.1185127779017	402.73026619479924
536.2649976663495	334.5597784274504
575.0697360644399	314.63302046468687
181.77846851622712	57.68272041852593
555.1429785086638	24.12186490229266
472.28961814517356	538.0224649946146
451.3140838759356	435.2423449761502
488.0212688471021	364.97430373903677
477.5335017124831	401.6814894599169
400.9728016297643	280.0233882135713
385.24115092783586	113.26788736728729
342.24130567589793	134.24342206493307
325.4608782605075	160.46284043699032
490.1188222740259	598.8515156177874
531.02111409904	591.5100784736113
531.02111409904	547.4614556085552
418.80200575861664	398.53515925527006
308.6804508451171	261.1454069856901
547.8015415144305	111.1703338975227
