223.6283715560191	209.6994602112823
509.80389137253326	313.4380855712155
117.50494962406175	296.7445136742147
60.26984566075892	154.84915254970844
10.189129692868939	27.262567336917044
370.2933254619826	256.20298192435575
376.25531545816	222.8158381303543
