604.0331024900461	26.612525378728723
469.9059777589754	81.96657816648447
478.4219856784084	126.67562080274871
576.3560767518886	174.5781664844604
584.8720846713217	104.3210994846166
600.8395995202586	72.38606903014212
596.5815955605422	261.8672497266906
497.58300349713284	267.18975480243637
465.64797379925886	318.2858035295955
538.0340411144398	431.1229111354053
546.5500490338729	286.350773075121
531.6470351748651	258.6737466812432
608.2911064497625	474.7674527565204
451.80946093018014	418.3488989536155
420.9389322222353	430.05841012025616
480.5509876582667	414.0908948930189
565.7110668525972	590.7980634077776
567.8400688324556	476.8964547868187
314.4888332293221	349.1563329689208
209.103235226338	145.8366390754334
267.6507896724403	157.54615024207402
317.6823361991095	176.7071685147587
363.45587876606214	121.35311572700297
397.5199104437944	162.8686553178198
383.6813975747157	192.67468374199595
336.84335401783386	268.25425581758554
343.23035995740867	329.99531469623616
189.9422174076136	110.70810557551148
159.07168869966878	93.6760893331251
191.00671839754276	78.77307512103701
562.5175638828099	23.419022333281276
508.22801339642416	20.22551928783383
