488.52023320497045	134.41577649958916
428.90033707287773	142.00376388263047
358.440459825859	204.87565934211574
357.35646171436645	181.02769899541443
351.93647115690345	49.863917088557265
329.17251081555895	144.17176027778515
284.7285882443626	138.75176928989848
246.78865434212173	221.13563230577572
234.8646751157032	196.20367376149707
157.9008091997289	220.05163410819839
256.5446373455551	276.4195403822196
220.77269966629945	320.86346648289026
255.46063923406248	308.9394863095396
343.2644862649627	272.0835475919103
477.6802520900445	330.61945026108623
483.1002426475075	291.5955151483023
374.70043149824795	354.46741060778754
571.9880877899003	423.84329525273677
593.6680500197522	457.44723937763405
560.0641085634818	345.7954250271689
604.5080311346782	320.86346648289026
478.7642502015371	221.13563230577572
407.2203748430258	265.5795584064463
113.45688662853252	198.37167015665173
11.56106414822856	59.619900866753255
144.89283186181777	32.51994592731996
163.3207997571919	7.587987383041323
472.2602615325815	32.51994592731996
446.24430685675924	45.52792429824794
422.39634840392216	79.13186842314524
390.9604031706369	81.2998648182999
359.52445793735166	78.04787022556789
284.7285882443626	172.35571341479576
547.0561312255707	172.35571341479576
580.660072681841	209.21165213242506
187.16875821002898	284.00752776526093
435.4043257418333	381.56736554722085
448.41230307974445	422.75929705515944
511.28419354631495	117.07180533835185
575.2400821243781	270.999549394333
574.1560840128855	302.4354971240756
161.1528035342067	152.8437458584038
269.55261468346623	352.2994142126329
379.03642394421837	163.68372783417712
224.02469400077723	118.15580353592918
493.94022376243345	207.0436557372704
407.2203748430258	212.46364672515705
557.8961123404965	532.24311501047
398.5483899510851	466.11922495825274
564.4001010094521	88.88785220134122
532.9641557761669	83.46786121345455
460.336282306163	175.60770800752778
544.8881350025854	31.435947729742626
516.704184103778	41.19193150793861
487.4362350934779	52.03191348371193
112.37288851703993	239.56360166459035
407.2203748430258	324.11546107562225
441.9083144107889	307.85548811196225
311.82854103167745	409.7513186842315
355.18846549138124	439.01927001881944
164.40479786868448	310.0234845071169
152.48081864226594	285.09152596283826
359.52445793735166	339.29143584170487
