412.97225319487245	33.12758201701094
122.55381094468764	4.417010935601458
86.11347408439829	58.52539489671932
30.900842477899268	90.54872417982989
52.985895120498874	123.67630619684083
8.81578983529966	101.59125151883353
9.92004246742964	183.3059538274605
87.21772671652826	163.42940461725394
167.82816886201684	94.96573511543134
209.78976888295608	117.05078979343864
149.05587411580717	142.44860267314704
160.09840043710696	196.5569866342649
152.3686320121971	256.18663426488456
126.97082147320756	271.64617253948967
81.69646355587837	268.33341433778855
182.18345307970657	289.3142162818955
224.14505310064584	151.28262454434994
293.71296892483457	173.36767922235722
152.3686320121971	356.67363304981774
458.24661111220166	206.49526123936818
517.8762532472206	218.64204131227217
373.2191584381932	329.06731470230864
386.47019002375293	373.2374240583232
426.22328478043227	462.68189550425274
435.0573058374721	491.3924665856622
446.0998321587719	526.7285540704738
514.5634953508306	329.06731470230864
558.7336006360299	306.98226002430135
538.8570532576903	286.0014580801944
513.4592427187007	271.64617253948967
534.4400427291703	372.13317132442285
562.0463585324198	386.4884568651276
324.632042624474	392.0097205346294
242.9173478468555	11.042527339003644
