217.928490858367	63.97538082781967
269.3185498180001	63.97538082781967
253.5868991160716	17.829204492998922
259.87955939684304	50.341283274349905
335.39148276609984	44.04862286505617
353.22068689495217	71.31681797199569
301.83062793531906	82.85336205570088
332.2451526257142	96.48745960917064
210.5870538641337	14.682874288352055
166.53843189873388	13.634097553469765
143.46534420257206	38.80473919064472
10.270701592910674	51.390060009232194
18.66091530060588	92.29235266964149
83.68507153524372	89.14602246499462
394.1229787199663	22.024311432528084
426.6350568372852	11.536544083705186
436.0740472584423	59.78027388829051
490.6104363584612	63.97538082781967
515.7810774815467	81.80458532081859
578.7076802892608	110.12155716264041
574.5125734354134	159.41406370210802
316.51350192378567	194.02369595322358
364.75723074303306	219.19433759039853
331.1963759122523	212.9016771811048
161.29454833142435	227.58455146945684
82.63629482178182	214.99923065086938
114.09959622563883	219.19433759039853
138.22146063526256	153.12140329281428
125.63614007371974	205.56024003692877
300.78185122185715	128.99953839052162
451.8056979603708	182.48715186951839
480.12266922384214	153.12140329281428
545.14682545848	375.46207108785967
352.17191018149026	371.26696414833054
381.5376581584235	390.14494537621175
542.0004953180943	442.58378212032625
578.7076802892608	327.21834128327436
608.073428266194	210.80412371134022
501.0982034930802	30.4145253115864
268.2697731045382	109.07278042775812
56.4168769852343	104.87767348822896
79.48996468139612	114.31666410216957
236.80647170068121	182.48715186951839
418.24484312959004	179.34082166487153
489.5616596449993	120.60932451146331
490.6104363584612	174.09693799046008
249.39179226222402	199.26757962763503
237.85524841414312	119.56054777658102
318.6110553507095	145.77996614863827
432.92771711805665	102.78012001846439
598.6344378450369	18.877981227881214
518.9274076219325	388.04739190644716
551.4394857392514	508.6567164179105
232.6113648468336	376.510847822742
295.53796765454763	278.97461147868904
602.8295446988845	337.70610863209725
259.87955939684304	383.85228496691803
281.9038703795429	309.3891367902755
189.61151959489567	187.73103554392983
604.9270981258084	292.6087090321588
