509.8728684251423	83.33084289886573
537.6498142156793	118.05202744005977
501.53978468798124	134.71819601983293
466.81860244980993	156.9397541261971
518.2059521623034	216.66019153705088
498.7620901089275	243.04829178835837
447.37474039643405	222.21558106364193
486.26246450318587	188.88324390409565
580.7040801910117	398.59919853290774
586.2594693491191	374.9887930448958
536.2609669261525	272.2140868029614
362.6550557352962	283.32486585614345
357.09966657718877	273.6029341846091
369.5992921829304	163.88399103443592
351.54427741908137	152.77321198125384
340.43349910286656	306.9352713441554
291.82384396942683	204.16056510222103
383.48776507819895	61.10928479250153
