157.171875	23
231.171875	50
418.171875	99
544.171875	195
589.171875	236
520.171875	313
581.171875	309
551.171875	372
532.171875	347
512.171875	376
445.171875	349
466.171875	314
396.171875	353
373.171875	410
307.171875	367
304.171875	412
334.171875	453
485.171875	482
508.171875	500
569.171875	419
560.171875	474
441.171875	551
450.171875	470
410.171875	463
363.171875	253
219.171875	247
301.171875	267
200.171875	287
282.171875	151
327.171875	77
