474.3871715720974	198.21880289275273
455.5091907297832	212.9016771811048
580.3136196317494	251.70641637174953
391.53381120860723	286.3160486228651
236.31485761624594	265.3405139252193
252.04650831817446	285.2672718879829
335.9486453951265	59.78027388829051
259.38794531240774	92.29235266964149
284.5585864354934	131.0970918602862
309.729227558579	334.5597784274504
310.7780042720409	265.3405139252193
238.41241104316975	52.43883674411448
146.1200602585225	177.24326819510694
