299.7396270831257	126.74743880391426
266.87918334751254	130.2682009929119
246.9281996508903	186.60039601687376
286.8301670441348	221.80801790684995
199.9847086000144	221.80801790684995
183.5544867322078	171.34375986455075
75.58445731519323	103.27569087726347
66.19575910501804	70.41524377995236
52.112711789755274	32.8604470973111
86.1467428016403	28.166097511980947
121.35436108979724	62.20013200562459
108.44490105080637	26.992510115648408
25.12020443550163	55.15860762762935
40.3768390270363	96.23416649926823
276.2678815576877	69.24165638361983
352.55105451536105	73.93600596894998
419.4455292628592	75.10959336528252
380.7171491458866	123.22667661491664
431.1814020255782	117.35873963325395
529.7627332324176	107.97004046259363
533.2834950612333	63.37371940195713
566.1439387968464	99.75492868826585
555.5816533103994	221.80801790684995
536.804256890049	181.90604643154361
500.4230513256202	278.14021293081186
468.73619486627894	305.1327230464602
548.540129652768	450.65756019169515
574.3590497307497	503.4689930266594
590.7892715985563	348.5554567107642
535.6306696137771	293.39684908313484
440.5701002357534	275.79303813814676
370.1548636594395	435.4009240393721
405.36248194759645	458.8726719660229
352.55105451536105	468.26137113668324
336.1208326475545	445.963210606365
327.9057217136512	420.14428788704913
153.04121754913848	313.347834820788
