487.1542381791346	276.8396975455271
447.96080859694973	225.58704287975362
479.61704018256063	153.23035393983812
374.09626823052446	135.14118170485924
447.96080859694973	61.27706174536216
310.7838050593027	29.62101033414913
175.11424112097052	25.09871727540441
87.68274436071196	109.5148543719725
95.21994235728597	142.67833680276712
268.5754962784883	175.84181923356172
280.6350130730067	59.76963072578059
111.80177794974881	59.76963072578059
143.45800953535965	129.11145762653294
57.53395237441592	174.33438821398013
40.95211678195309	138.15604374402238
28.89259998743467	86.9033890782489
597.1973289291152	258.75052531054826
536.8997449565231	367.2855587204215
428.36409380585735	261.7653873497114
381.63346622709844	340.1518003679532
324.35076145313593	227.09447389933518
89.19018396002677	35.65073441247542
223.35230829904418	193.93099146854058
173.6068015216557	199.96071554686688
343.94747624422837	263.27281836929296
300.2317278640991	242.16878409515093
267.0680566791735	297.94373181966915
313.79868425793234	294.928869780506
533.8848657578935	401.95647217079767
577.6006141380228	356.7335415833505
612.2717249222633	441.14967867991857
452.48312739489415	433.6125235820107
248.97878148739582	272.3174044867824
138.93569073741526	89.91825111741205
360.5293118366912	406.4787652295424
248.97878148739582	350.7038175050242
292.6945298675251	353.71867954418735
324.35076145313593	373.3152827987478
212.80023110384056	337.13693832879005
469.064962987357	412.5084893078687
405.7524998161353	438.13481664075545
203.75559350795174	240.66135307556937
99.74226115523038	199.96071554686688
434.3938522031165	477.32802314987634
166.0696035250817	260.2579563301298
463.0352045900978	266.2876804084561
30.40003958674947	10.024407079588679
