230.3125	365
199.3125	329
323.3125	370
456.3125	265
431.3125	238
491.3125	198
464.3125	91
532.3125	150
578.3125	173
525.3125	205
534.3125	242
566.3125	259
585.3125	325
514.3125	310
493.3125	352
480.3125	384
431.3125	381
434.3125	307
446.3125	414
481.3125	541
453.3125	541
427.3125	478
251.3125	234
278.3125	259
267.3125	303
157.3125	359
152.3125	324
98.3125	197
98.3125	229
86.3125	149
35.3125	76
164.3125	58
207.3125	50
233.3125	48
282.3125	65
322.3125	58
181.3125	107
280.3125	168
200.3125	175
153.3125	135
48.3125	205
131.3125	277
185.3125	222
213.3125	211
435.3125	197
408.3125	217
342.3125	196
364.3125	310
327.3125	346
285.3125	349
314.3125	318
271.3125	364
477.3125	319
382.3125	171
344.3125	245
315.3125	170
230.3125	438
233.3125	402
194.3125	372
272.3125	472
301.3125	440
300.3125	404
359.3125	400
610.3125	386
543.3125	430
567.3125	498
599.3125	555
