400.9728016297643	397.4863825203878
458.65552087016886	431.047238036621
427.1922194663119	460.41298661332513
519.4845702509591	351.340206185567
566.6795223567447	409.02292660409296
514.2406866836496	482.43729804585325
563.5331922163589	566.3394368364364
580.3136196317494	597.8027388829051
473.33839485863547	180.38959839975382
547.8015415144305	120.60932451146331
606.5330374682968	90.19479919987691
591.8501634798303	190.87736574857672
523.6796771048067	80.75580858593631
451.3140838759356	66.07293429758425
433.48487974708326	35.658408985997845
394.68014134899295	46.146176334820744
336.9974221085884	69.21926450223111
327.5584316874313	122.70687798122789
239.46118775663166	149.97507308816742
288.75369328934096	300.9989229112171
300.29023713742185	237.02354208339747
367.41194679898354	218.14556085551624
489.070045560564	520.1932605016157
356.92417966436454	305.1940298507463
402.0215783432262	189.82858901369443
