396.234375	395
427.234375	459
458.234375	430
521.234375	347
571.234375	416
554.234375	348
511.234375	548
485.234375	525
528.234375	514
505.234375	483
376.234375	463
291.234375	300
306.234375	249
197.234375	207
235.234375	156
406.234375	74
394.234375	46
339.234375	77
412.234375	192
575.234375	595
562.234375	566
373.234375	215
330.234375	132
409.234375	153
454.234375	61
527.234375	79
549.234375	132
476.234375	179
597.234375	92
592.234375	193
