370.3125	113
332.3125	102
312.3125	72
243.3125	87
223.3125	154
167.3125	166
179.3125	196
217.3125	234
208.3125	290
205.3125	324
323.3125	419
337.3125	454
451.3125	97
567.3125	95
336.3125	239
414.3125	373
529.3125	417
464.3125	481
386.3125	436
440.3125	391
352.3125	392
374.3125	479
346.3125	498
437.3125	565
497.3125	535
524.3125	606
191.3125	61
168.3125	91
586.3125	321
607.3125	572
