350.0298531634636	17.668043742405832
292.6087162927046	20.980801944106926
587.4441690714094	53.0041312272175
258.37688469667523	110.42527339003645
225.2493057327758	123.67630619684083
161.20265306923696	62.94240583232078
139.11760042663735	121.46780072904009
97.1560004056981	118.155042527339
55.194400384758836	66.25516403402187
101.573010934218	43.06585662211422
124.7623162089476	99.38274605103281
44.15187406345903	119.25929526123937
32.005095110029245	101.59125151883353
12.1285477316896	118.155042527339
23.171074052989404	167.8464155528554
8.81578983529966	215.32928311057108
75.07094776309849	218.64204131227217
32.005095110029245	213.12077764277035
154.57713727645708	178.88894289185905
188.80896887248647	205.3910085054678
358.8638742205034	202.0782503037667
426.22328478043227	206.49526123936818
396.40846371292275	269.43766707168896
427.3275374125622	250.66537059538274
340.0915794742938	240.72709599027945
255.0641268002853	274.9589307411908
325.736295256604	315.81628189550423
337.8830742100338	375.44592952612396
303.65124261400445	367.7161603888214
265.0024004894551	389.80121506682866
235.18757942194563	378.758687727825
218.62378993999593	347.8396111786148
238.5003373183356	329.06731470230864
192.1217267688764	312.5035236938032
158.994147804977	309.19076549210206
152.3686320121971	236.310085054678
112.61553725551782	276.06318347509114
125.86656884107758	383.1756986634265
144.63886358728723	431.7628189550425
219.7280425721259	441.7010935601458
218.62378993999593	407.46925880923453
369.90640054180324	512.3732685297691
433.9530532053421	533.354070473876
395.3042110807928	555.4391251518833
470.3933900656315	490.28821385176184
451.6210953194218	419.6160388821385
441.68282163025196	345.6311057108141
377.6361689667131	343.42260024301333
505.7294742937908	323.5460510328068
542.1698111540802	305.87800729040094
483.64442165119124	292.6269744835966
565.3591164288098	197.66123936816524
557.6293480038998	269.43766707168896
608.424969081879	464.89040097205344
574.1931374858497	440.59684082624545
