511.0943565432639	189.82858901369443
472.28961814517356	383.85228496691803
548.8503182278923	101.73134328358209
539.4113278067352	253.8039698415141
383.14359750091205	127.95076165563934
571.9234059240541	523.3395907062626
289.80247000280286	11.536544083705186
