418.234375	276
280.234375	103
182.234375	43
433.234375	458
489.234375	469
565.234375	376
478.234375	333
517.234375	413
520.234375	450
523.234375	514
418.234375	494
366.234375	494
323.234375	285
265.234375	307
300.234375	316
280.234375	233
507.234375	490
