473.3387453837329	12.6313188510244
441.0587067445217	82.80531246782662
405.97170822364006	134.73406774426027
539.3023026029905	134.73406774426027
521.057063372132	234.38113868011942
490.1805046737561	249.8194172758159
592.6345403547306	108.06795016987542
442.462186685357	138.9445073612684
435.44478698118064	214.73242046741478
407.37518816447533	214.73242046741478
400.357788460299	251.22289714815196
414.3925878686516	327.01081025429835
425.62042739533376	342.44908884999484
478.95266514707396	373.3256460413878
526.6709831354731	377.53608565839596
501.4083442004382	416.8335220838052
542.1092624846609	322.8003706372902
592.6345403547306	304.5551322969216
379.30558934776997	172.62802429733347
318.9559518918535	157.18974570163698
345.6220707677235	234.38113868011942
369.4812297619231	259.6437763821682
262.81675425844276	162.80366519098115
182.81839763083252	195.08370225471018
158.959238636633	188.06630289302996
189.83579733500886	293.3272933182333
178.60795780832672	359.2908473180274
354.04295041273514	352.2734479563471
90.18872153570489	251.22289714815196
556.1440618930136	357.8873674456913
