436.1615584696021	216.43353584447144
440.57856899812197	141.34434993924665
542.1698111540802	132.51032806804375
407.45099003422257	33.12758201701094
393.0957058165328	56.31688942891859
433.9530532053421	83.9232077764277
479.2274111226713	13.251032806804375
406.3467374020926	129.19756986634266
376.5319163345831	174.4719319562576
492.47844270823106	242.93560145808019
543.2740637862101	320.2332928311057
478.1231584905413	383.1756986634265
503.5209690295309	418.5117861482382
515.6677479829607	500.2264884568651
610.633474346139	450.53511543134874
596.2781901284492	304.7737545565006
415.18075845913245	331.27582017010934
369.90640054180324	371.0289185905225
344.5085900028137	295.9397326852977
399.7212216093127	244.03985419198057
405.24248476996263	283.79295261239366
367.6978952775433	256.18663426488456
346.71709526707366	232.99732685297693
284.87894786779475	235.20583232077763
352.23835842772354	354.46512758201703
325.736295256604	432.8670716889429
406.3467374020926	387.59270959902796
462.6636216407216	496.913730255164
229.66631626129575	415.19902794653706
179.97494781544663	358.88213851761844
192.1217267688764	294.8354799513973
191.01747413674642	111.52952612393682
239.60458995046557	55.212636695018226
97.15600040569808	119.25929526123937
26.483831949379347	115.94653705953827
40.83911616706909	149.0741190765492
181.0792004475766	193.2442284325638
268.31515838584505	165.63791008505467
318.00652683169415	151.28262454434994
316.9022741995642	199.86974483596597
522.2932637757406	231.8930741190766
499.1039585010109	170.0549210206561
595.1739374963192	101.59125151883353
570.8803795894597	129.19756986634266
609.5292217140089	215.32928311057108
430.640295308952	439.4925880923451
473.7061479620214	446.1181044957473
494.686947972491	475.9329283110571
267.21090575371505	401.94799513973265
175.5579372869267	257.2908869987849
217.51953730786596	172.26342648845687
138.01334779450735	72.88068043742406
85.0092214522683	252.87387606318347
280.4619373392748	11.042527339003644
513.4592427187007	358.88213851761844
8.81578983529966	41.96160388821385
