426.85665420654254	177.34925025314328
523.3327885626899	130.61888864611453
482.6319193811902	5.50211402084396
524.8402281620047	19.068993197078118
588.1526913332264	88.41082009783048
503.73607377159743	94.44054417615676
426.85665420654254	35.65073441247542
334.9028386483396	47.71018256912801
245.96390228876623	92.9331131565752
208.27791230589617	144.18576782234868
291.1870902682103	142.67833680276712
325.85820105245074	196.94585350770373
331.88795944970997	236.1390600168247
282.1424526723215	224.07961186017204
288.17221106958067	269.30254244761926
518.8104697647454	297.94373181966915
547.4518221517267	222.57218084059048
487.1542381791346	177.34925025314328
209.78535190521097	56.754768686617446
152.50264713124847	34.14330339289385
294.2019694668399	71.82907888243318
414.7971374120241	329.59978323088217
420.8268958092833	404.9713342099608
371.0813890318948	406.4787652295424
524.8402281620047	401.95647217079767
579.1080537373376	403.46390319037926
598.70476852843	355.2261105637689
606.241966525004	205.99043962519318
573.0782953400784	165.2898020964907
396.70786222024645	490.89490232611047
472.0798421859866	447.17940275824486
304.75404666204355	397.43417911205296
328.87308025108035	432.10509256242915
261.03829828191425	311.5106109959033
248.97878148739582	337.13693832879005
160.03984512782247	177.34925025314328
271.59037547711785	8.516976060007106
288.17221106958067	427.5827995036844
494.69143617570865	542.147556991884
571.5708557407636	290.40657672176127
609.2568457236337	270.8099734672008
447.96080859694973	138.15604374402238
258.02341908328464	121.57430252862508
203.75559350795174	91.42568213699363
573.0782953400784	121.57430252862508
356.0069930387468	8.516976060007106
