431.38732632015945	405.8765963994461
378.94849064706443	435.2423449761502
330.704761827817	407.9741498692107
405.16790848361194	348.19387598092015
398.87524820284057	205.56024003692877
357.9729563778264	196.12124942298817
334.8998686816646	275.8282812740422
322.3145481201218	306.24280658562856
242.60751789701735	300.9989229112171
287.70491657587905	336.657331897215
255.19283845856015	190.87736574857672
242.60751789701735	229.68210493922143
62.21792318157044	147.87751961840283
91.58367115850366	222.3406677950454
104.16899172004646	194.02369595322358
135.63229312390348	144.73118941375597
102.07143829312267	70.26804123711341
163.9492643873748	35.658408985997845
254.14406174509824	88.09724573011233
284.5585864354934	38.80473919064472
275.11959601433625	125.85320818587476
341.19252896243603	132.1458685951685
411.46056876438337	104.87767348822896
456.5579674432451	255.90152331127868
400.9728016297643	266.38929066010155
430.33854960669754	334.5597784274504
443.97264688170225	310.43791352515774
493.2651524144116	306.24280658562856
512.1431332567258	360.77919679950764
531.02111409904	269.53562086474847
577.1672894913637	121.6581012463456
531.02111409904	412.1692568087398
441.8750934547785	19.926757962763503
461.80185101055457	167.80427758116633
428.24099617977373	167.80427758116633
431.38732632015945	135.29219879981537
