413.5581221913072	518.0957070318511
390.4850344951453	487.6811817202647
463.8994044374784	477.1934143714418
506.8992496894163	443.6325588552085
560.3868620759732	361.8279735343899
503.7529195490306	327.21834128327436
449.21653044901177	293.6574857670411
496.4114825547973	264.291737190337
345.3876358162836	261.1454069856901
323.3633248335837	248.56008616710264
343.2900823893598	217.09678412063397
350.6315193835931	173.04816125557778
370.55827693936925	141.5848592091091
352.7290728105169	120.60932451146331
544.6552113740447	587.3149715340822
553.04542508174	484.5348515156178
374.7533837932168	82.85336205570088
174.43703152199382	79.70703185105401
301.33901385088376	226.53577473457457
416.70445233169283	185.63348207416527
393.63136463553104	148.92629635328512
334.8998686816646	382.8035082320357
386.2899276412977	309.3891367902755
412.5093454778453	276.87705800892445
387.3387043547596	343.99876904139103
361.1192865182121	363.9255270041545
440.8263167413166	366.0230804739191
