294.171875	4
201.171875	166
171.171875	83
318.171875	103
355.171875	167
269.171875	317
306.171875	355
392.171875	307
410.171875	272
451.171875	293
420.171875	185
367.171875	84
537.171875	46
498.171875	74
501.171875	197
505.171875	444
475.171875	478
386.171875	487
316.171875	427
547.171875	588
498.171875	327
538.171875	431
559.171875	354
514.171875	369
548.171875	310
595.171875	360
402.171875	445
366.171875	365
