377.90832601008185	56.66799343011061	6
152.72837521546512	58.319480007841506	2
20.835248166118163	203.07528404329656	6
437.24785696150343	56.88633449640837	7
440.5228013498381	122.44388268234539	7
461.6577531786365	204.23084112331605	3
344.53177246159225	268.0499543011619	9
48.441489521437305	91.62264523272339	7
329.96282335685623	293.6047467047979	4
77.8708221041608	46.227361695228595	2
231.85529980647297	35.84454819574729	8
308.0439280424828	70.69717944783143	2
502.7458229679288	222.62107799777942	6
109.95126305528689	243.9377135702813	3
93.19432226527306	117.05542670505835	4
411.18471394532855	246.44908056178838	4
494.2017783009993	130.61374704556715	8
72.42426613301524	89.44902617307199	5
320.3179807503314	34.784416976957324	4
489.00477178572646	98.31232299547571	9
52.26304091258565	133.85700615434456	4
149.83107823523832	127.77660830249887	10
113.00864929091088	87.31045636860725	10
204.67397383240973	166.77081248491874	4
143.69962623513754	231.67247264658383	3
191.83748904528682	196.26471416888438	2
516.7963787412298	165.5832651813029	6
458.5643963461124	211.42781755996415	2
305.22087906456	63.651579614739205	6
102.4247508250042	180.12491126224455	2
188.54866162527412	79.9249363135861	2
509.6520743323296	189.2738097559078	4
177.85754922525823	225.60257119326394	2
90.58046943949279	50.181261152072786	3
190.01416481304688	69.03070071877991	7
58.3828125	128.5	2
437.92579336719626	24.298317146650504	4
53.372970847504135	194.99061360874848	4
540.8375896228547	53.91654296535433	3
83.06363774970634	48.2385820200565	5
52.51236991450441	59.02371223584021	5
462.1978358462313	38.437593589274385	4
36.22411663533957	170.9753341433779	2
390.4916629484693	151.43191642455355	3
99.38659395284904	281.6879708383961	3
86.03652894937349	121.29129172308355	2
81.65279032974422	92.9307411907655	2
108.2020431255596	186.94691818531635	3
409.8346749320399	176.92090961678088	4
547.0009355927998	12.685175648054594	2
12.957019665155224	14.70072786082686	3
485.4850725287063	23.03561477515349	5
249.11792409301273	67.15339291184424	3
380.1615573884773	228.94603143880227	3
48.05325113926355	155.1077459503375	3
231.22810897649333	179.2424714757778	2
230.8655551706098	87.34634328823492	2
404.9207913763372	26.248924496539686	2
241.52179315122902	113.67586565726675	4
101.07115098249388	163.093116777854	2
179.84498226180713	168.13328615669226	2
425.25737667631773	151.08120830475715	2
263.1642638294058	145.39397718062224	2
212.52896987062934	119.5573913585635	2
533.7249442497473	147.13527303246332	5
246.58767336177482	158.76843942889207	3
44.046883653732124	26.870763704513507	3
67.64453125	273.0	3
151.64453125	200.25	3
75.6171875	236.0	2
315.1171875	245.0	2
317.6171875	132.5	2
295.1171875	280.5	2
196.1171875	137.5	2
270.1171875	179.5	2
210.6171875	263.5	2
583.1171875	172.0	2
50.1796875	103.5	2
148.4375	142.0	1
153.4375	72.0	1
441.4375	133.0	1
50.4375	73.0	1
76.4375	104.0	1
90.4375	129.0	1
490.4375	110.0	1
495.4375	143.0	1
330.4375	306.0	1
251.921875	75.0	1
165.921875	78.0	1
452.921875	122.0	1
443.921875	159.0	1
400.921875	196.0	1
364.921875	112.0	1
332.921875	243.0	1
294.921875	141.0	1
272.921875	121.0	1
286.921875	129.0	1
331.921875	153.0	1
340.921875	121.0	1
288.921875	162.0	1
167.921875	180.0	1
214.921875	149.0	1
257.921875	206.0	1
188.921875	161.0	1
581.921875	50.0	1
537.921875	185.0	1
224.921875	202.0	1
143.921875	243.0	1
131.921875	221.0	1
47.921875	208.0	1
88.921875	198.0	1
564.921875	144.0	1
549.921875	168.0	1
374.921875	291.0	1
132.921875	282.0	1
156.921875	288.0	1
178.921875	296.0	1
204.921875	283.0	1
395.921875	288.0	1
455.921875	275.0	1
381.921875	87.0	1
559.921875	123.0	1
593.921875	107.0	1
511.921875	19.0	1
167.3125	294.0	1
340.17508834102455	110.91564311989525	1
539.9423688081527	-0.5420011733659899	1
134.91741383551172	209.0823617432508	1
511.0106683642464	66.29440738200636	1
59.69876292976479	186.13429764947938	1
9.97795978867783	100.7165035226635	1
6.153282623978835	132.5888147640127	1
583.6303725352819	38.665596451638564	1
387.66322462435767	52.232475627872724	1
571.4048082529298	228.2983443242877	1
403.5803348118883	168.94691622676947	1
