381.11651030962565	515.1149227406972	5
300.79152035210217	129.70040400040892	4
301.5571609103561	204.73208287865157	3
499.541785989898	433.97248146672166	7
402.4346995286101	299.79135477269085	6
142.08642524004634	62.86465410464413	8
469.75435867944736	552.3769439644532	2
168.99259546414345	138.56267829669866	8
546.9135616024716	506.1714052188692	5
301.05346929713824	422.05589505776516	6
541.3488604475269	541.9244672545135	8
599.630227264169	525.1362927115465	7
414.12631499176507	482.5403296812706	7
358.4123161002268	152.5226816675647	2
482.9109460695744	385.6448475101438	4
366.0345415133957	176.73586768699084	2
320.24792233917765	462.1617580030847	6
307.7486890988554	336.6939027400642	2
263.57242565932614	347.7568808145717	2
459.78615832574764	410.1280589302662	3
223.37075857484973	265.4265584122479	4
373.8377574036629	330.8165856603583	7
225.4888723160448	217.56389371910745	6
570.966875089103	142.91524377995236	2
392.6874484543028	222.6643900479238	2
583.7136082379454	64.04392218844112	3
273.1159408384836	353.00294439290434	4
276.59183515422853	245.24741084341076	4
249.10242168627457	401.1581781812587	3
555.546875	605.0	2
447.68762199881746	508.4846062609631	2
308.84540043033655	130.3020133034757	2
297.33052123170694	196.71921124406109	2
150.3151671123701	8.390213879058317	1
442.921875	421.0	1
390.921875	261.0	1
252.921875	390.0	1
484.139358980505	376.33014483791095	1
245.96390228876623	19.068993197078118	1
372.58882863120965	444.1645407190817	1
574.5857349393932	135.14118170485924	1
438.1792917067788	502.52085904714886	1
109.52170809713773	192.93211552703036	1
