327.54938370567703	443.6396111480833	7
235.11411557101587	386.54424385286796	3
467.86147347441874	456.13332820433914	2
263.83508005558366	261.881968262448	7
402.8981720705617	377.2310355439298	2
57.253373204702854	271.7618500773269	7
178.17260943289466	322.8466677388156	7
76.83474350608691	176.45424730250326	7
112.30594850875049	326.4433845991668	3
174.25462519341923	76.67749607778273	5
488.61535789458196	328.9663113741497	7
363.1164509993513	339.7762431189169	7
156.82977564062094	290.9246400955097	7
420.78838577825695	545.6087859670719	2
186.2247143405201	244.93398436219894	5
232.04889783801957	391.0467054978868	4
72.93950399127726	340.0389012826298	4
344.9048077762341	488.6923240503078	3
53.54732039305012	36.32347117710951	5
171.68254975370982	174.99874140816195	6
604.0113672552134	137.01918249701038	2
232.396945894933	76.35137194117789	1
12.310764394971844	10.024407079588679	1
48.0266632775391	50.341283274349905	1
599.6832145584988	209.75534697645793	1
105.70938251794364	140.53608247422682	1
330.1475991987904	525.4371441760271	1
299.73307450839525	45.097399599938456	1
513.6835240546229	283.1697184182182	1
268.3534490859977	506.3355525653347	1
243.234375	71.0	1
182.234375	178.0	1
242.234375	329.0	1
169.234375	364.0	1
286.234375	383.0	1
290.234375	476.0	1
255.234375	172.0	1
