341.9618204491154	142.42730386622637	9
370.1280116275411	351.50155052357013	5
286.26994493387787	362.2251678900515	4
500.9500850384611	205.6349862874824	9
449.9424465487493	355.05574351167274	7
287.57192801434735	168.6685465049803	4
574.4123465013856	396.6953309996911	3
475.9470293360599	174.5803334374512	4
522.314405863257	317.6015281558746	9
400.2954575554743	25.92737779166016	4
314.4161472988714	105.032674522199	9
158.29922445523664	15.294409305644336	7
111.99850078620615	66.73323188562698	5
448.04940087130797	59.07650710604404	4
575.192776038615	183.75408878708623	8
495.2785633742832	37.266008121193195	3
327.0666786977532	357.72366582717797	8
541.2312525352467	395.2504037095979	6
588.3172532776132	95.89659542183769	5
209.28702033230212	244.60398435086995	3
204.60189332052965	136.46266787075655	5
419.1118155941365	90.82667377448209	4
480.27870201562575	258.7009859220431	5
495.36025163791794	353.7628529003623	5
180.96323709024952	85.2824795709341	6
570.6875802030785	364.0148367952522	3
449.6199634950491	493.5838083710761	4
534.0123432273015	352.49342578253015	5
532.9729555823972	428.96470404497893	2
462.6108495602033	432.8959759542224	6
295.1931784519423	403.8131292393016	3
477.7761548310245	268.27371935030453	4
422.4380680177998	320.4246853049956	8
295.90472008681866	205.96030298844363	3
429.4894614705411	251.88481166464157	2
347.45103818866795	225.91735132298444	4
238.51577380368138	165.40947752126368	3
603.1659892399875	215.48235202248947	2
451.79114694948134	238.95798863268263	4
368.72811497125093	73.18788799979737	5
284.850079992003	54.22812750498096	4
321.11436076994914	443.0101003241107	5
409.26414866147195	463.96446977979076	2
278.5868599928512	168.0812879708384	3
412.2734375	440.5	2
509.23119419821205	413.10994846165863	2
342.7734375	314.0	2
419.9139203080765	171.49941433702952	3
227.70196793241786	209.41907028293923	6
585.8566047760246	433.7640489369599	3
475.6346773694168	365.02967359050444	2
408.7905562010463	364.5453219927096	2
218.94555745369803	276.79635267757817	5
238.15267381527963	37.953190608366484	2
522.2176824248206	158.48376257647072	6
304.90411561041725	248.69859231380687	6
551.809950435123	76.7194007616178	5
555.3013100345283	525.0479018985823	3
144.02780810970862	153.64131227217496	2
358.88981243568173	386.9478503477584	5
556.5844964454902	147.57525631063638	5
589.6509832570115	514.7518889326825	3
568.1379584675639	396.698018691971	5
142.95610845892008	109.01427737207024	4
442.98375956074744	377.54088368504677	3
499.4956738487855	388.8228870118553	2
191.04596329647248	243.14206783571848	3
458.878286648943	383.77674251003805	3
253.84507845371405	240.71509486544585	3
479.80180941456666	143.1446587537092	3
347.92687094345627	279.5786350148368	2
124.16007851096828	29.370763704513507	2
455.15773194998377	100.62829923473372	2
446.39972799026725	25.177260659066064	2
349.2559039742458	266.1684366703108	3
513.4637596679995	64.87052943932531	2
506.705755708283	110.45080431047947	2
597.5115487702002	13.79025456817117	2
164.72756592801005	218.708522847987	2
418.7955901211885	525.4317507418398	2
537.5043970421136	255.3368733406216	2
274.03779561201503	65.99906293924722	1
379.42339361499916	326.8018116507887	1
268.7152906623694	371.51085428705295	1
605.0976034799752	374.7043573325004	1
608.2911064497625	289.5442761205685	1
350.6818668869126	304.44729033265656	1
332.58535005811734	204.38419490863657	1
175.03920354860577	147.9656411057317	1
114.36264712264524	139.4496329845385	1
383.6813975747157	472.6384507262221	1
385.81039955457396	490.73496798375766	1
588.065587641109	605.7010776198657	1
614.6781123893373	545.0245197563643	1
614.6781123893373	405.57488677182573	1
435.8419460812431	36.19303451507106	1
465.64797379925886	41.51553959081681	1
135.65266692122802	191.61018272684697	1
426.26143717188097	242.70623145400594	1
527.3890312151485	267.18975480243637	1
524.1955282453611	9.58050913634234	1
600.8395995202586	230.9967202873653	1
584.8720846713217	257.609245666094	1
571.0335718022429	266.1252537872872	1
573.1625737821012	234.19022333281276	1
442.2289520208179	120.28861471185382	1
393.2619064840779	121.35311572700297	1
488.0024945877706	75.57957207558957	1
507.163512406495	91.54708730282681	1
526.3245302252194	119.22411369670468	1
427.3259381618101	150.09464313603	1
384.7458985646448	189.4811806965485	1
352.8108688667708	192.67468374199595	1
369.84288470563695	195.8681867874434	1
505.03451042663676	576.9595502108386	1
562.5175638828099	599.3140715289708	1
514.6150193359989	601.4430735592691	1
605.0976034799752	350.22083398407	1
352.8108688667708	6.387006090894893	1
319.81133817896773	10.645010151491489	1
103.71763722335392	5.322505075745744	1
102.65313623342479	29.80602842417617	1
321.940340158826	185.22317663595192	1
351.78125	388.0	1
459.70429758363076	531.7298045853208	1
116.3125	123.0	1
479.3125	84.0	1
184.3125	141.0	1
371.3125	340.0	1
165.3125	202.0	1
263.3125	235.0	1
238.95759526424322	252.626377020488	1
356.234375	403.0	1
512.234375	160.0	1
439.234375	398.0	1
243.234375	242.0	1
381.234375	161.0	1
369.234375	326.0	1
252.234375	395.0	1
187.234375	297.0	1
206.234375	321.0	1
467.234375	464.0	1
273.234375	231.0	1
393.234375	97.0	1
435.234375	295.0	1
611.234375	395.0	1
575.234375	290.0	1
296.109375	243.0	1
546.109375	87.0	1
489.109375	147.0	1
