41.66692651033654	46.46397373001844	7
171.01635033741115	98.08266851821617	7
520.4942272379835	87.98792488591593	9
141.45388224490358	200.73933174116905	8
417.342567783398	314.5097874110255	5
105.15103692243773	158.12118197445943	8
453.50579364890405	117.13242782056142	9
507.49612754104675	396.3432736742666	2
353.7155146851319	381.452319757782	8
372.3637863396504	345.8193190750304	5
182.37806400042285	266.49402617193175	7
79.43479448165517	96.48981917129626	9
498.5148709777072	369.1202229085635	6
320.0298762670789	209.86746268490893	8
424.4256091748783	132.5327405750136	9
232.11565420885074	250.0730277495692	7
451.9902101100563	429.17823653490336	6
305.1310698220159	355.71605931585157	8
230.67727943404108	213.25113742411284	6
454.49879631868606	142.74268744023118	3
502.08571220116033	403.5701675920739	5
51.90966177915525	83.16834972902231	2
368.9950855869458	63.513066269277424	6
604.166804204963	343.8964798909793	5
349.4747731804724	78.45193382713562	5
208.17579058603178	17.17422598679927	3
412.7926813843668	324.5058567419919	3
590.3344112351458	7.0113233972614335	3
132.39967510740559	107.26567762419897	2
396.4656320003688	150.4875365440837	2
381.3722705361137	347.70005361656496	1
90.40844884942989	42.85244004306233	1
411.515625	462.0	1
126.515625	119.0	1
236.515625	106.0	1
173.515625	109.0	1
389.9278718661187	87.04846899523004	1
221.63198362777933	337.70610863209725	1
252.5	227.48333740234375	1
177.5	274.48333740234375	1
135.5	186.48333740234375	1
44.5	36.48333740234375	1
410.5	149.48333740234375	1
417.5	333.48333740234375	1
468.5	424.48333740234375	1
441.5	448.48333740234375	1
370.5	335.48333740234375	1
302.234375	366.0	1
