534.963247028894	328.59172837270484	6
451.1974949546682	216.09867063102632	9
376.7950314383084	319.0751495020169	8
513.0640826886654	234.7379788533153	8
438.448569480116	253.1408423217866	10
538.007026490269	178.04377581645076	8
472.64597795678026	387.83501419708875	8
280.7123895153197	49.49279440799816	7
82.27540408633732	140.03182565835328	8
536.7365177210455	403.7458302996697	7
574.0037857337419	254.04259101141687	8
158.78406206875417	97.15096437353256	6
285.33895735317776	212.54766674697575	8
372.5816966770881	147.1193139571199	9
494.1945894771751	329.99477772538114	10
211.52914042933705	251.7428816908328	7
571.946477331069	338.2351830012028	6
403.7132202726964	310.8804663569762	6
159.98736070000456	241.41629579772098	8
496.00329043434806	136.78497294312507	8
151.27833695857987	189.66258571111393	10
198.7048734556663	303.40196555556076	7
530.2121296888317	119.48382342953676	7
314.1003479013608	201.27148328329753	9
341.7995144109975	73.69509329112711	5
473.2279864730979	247.61619272967556	9
426.2610612989431	347.9523493618679	4
96.47821206168362	40.262322185656814	7
100.6422058936046	122.56314199449506	9
342.2676899340056	362.6755546128439	6
400.1922844773884	165.1466914218999	8
570.3761179688789	104.24102512311782	10
238.1383567373805	270.73211236272266	7
141.05676061341157	263.218962028795	5
566.3911242589995	436.51453107905104	4
23.16920305350687	138.7503989653332	9
210.41095996299737	179.69989680146296	9
250.04780626535964	360.56970230327613	5
281.97516777504427	338.63310409220446	2
170.42612075225725	55.095205964064434	5
326.01854921714016	333.95877514235485	3
348.46844572487964	73.85941352771299	3
143.09627861925986	51.05072714489105	5
300.99466710556356	359.7422951721186	2
205.3399856212493	23.21633607053042	6
350.8373602421037	358.92658102159703	3
480.9878185483026	366.17483294184046	5
74.20478769761422	142.2764277035237	2
596.9195897768366	84.702048811737	5
599.0366589381265	393.9766450235063	5
194.71829867862965	228.46610963610806	2
612.9249936946687	370.1586756208028	2
256.5565768916099	315.6429017647978	2
603.8811399069655	205.91842511720017	3
202.58700700514933	216.37241198397544	4
394.727453573445	274.8653639021388	2
373.1665213686332	366.98715186951836	2
407.10161765363097	219.82987305655237	3
602.4844509628447	345.3444777329305	2
571.8246975042447	76.353515925527	2
585.4684631156415	226.1128571132305	2
42.644539903732124	64.06403248477277	2
577.3125	248.0	1
271.3125	49.0	1
230.5138114199098	9.438990613940607	1
594.4393309911893	349.2426527158025	1
605.9758748392702	141.5848592091091	1
431.87894040459474	380.7059547622711	1
487.4641062180755	202.4139098322819	1
423.4887266968995	183.53592860440068	1
238.90402512760502	204.51146330204648	1
173.87986889296718	9.438990613940607	1
447.61059110652326	386.9986151715649	1
545.9443825524119	328.0923522113006	1
616.8071143691956	219.28720912072467	1
268.7152906623694	311.8987974387006	1
16.428556049165078	35.128533499921915	1
252.234375	281.0	1
539.234375	129.0	1
544.234375	187.0	1
458.234375	85.0	1
398.234375	347.0	1
475.171875	381.0	1
591.8611795999293	293.73122721749695	1
418.4935163555224	345.6311057108141	1
520.0847585114806	439.4925880923451	1
414.606898904769	191.92614248345902	1
512.1431332567258	225.48699799969228	1
582.5575040326775	84.95253027757775	1
