600.6293104326601	355.57456121595004	5
494.7183107494602	539.6075907654156	7
284.1369836474317	223.44473116745144	8
300.85503740276016	493.84157717880515	3
598.5604544401448	249.06208991494532	3
262.9890558740286	310.5561321115293	6
178.16967444773644	289.9659986847057	4
516.2006075358104	622.5862303068656	4
330.68723135812866	233.77002982991667	7
520.4808496305191	130.42182765360323	6
247.5324212564748	91.71713935576905	4
546.2774522596578	229.23265167765243	7
417.33313982665857	405.95777009369255	5
468.55325645155585	448.145215325247	5
603.9930406118061	210.45641794156694	6
522.1490638543592	21.420379643951712	3
185.21748135348068	34.14840575375797	3
155.2321244456162	181.8058373266004	4
247.7896498639633	338.34512266791296	7
322.82624638267464	197.37745934289734	6
295.12381636471514	71.89383086217828	4
483.5398872201613	184.97066051420893	7
207.33003828702988	313.40091236399144	6
206.26827174343757	147.75705688912177	7
561.5495103515698	89.41250021909937	6
504.37873740762547	92.29102352832024	7
263.3729938873853	125.15433009424005	5
396.7060828450064	497.5376728275463	5
524.433593380071	398.5302904009633	4
425.6354601322144	171.367555894129	7
289.0503940786079	144.2588873073013	5
609.7846728618168	274.90498673360037	2
308.8168291204796	400.3965235593794	6
290.94370762028433	271.14780789746555	4
524.9077495025266	302.0332545229323	3
329.93379054051434	431.328774590375	7
590.9199931559389	85.99457004837143	6
151.27477105618505	265.6214802277274	2
284.5754495367261	428.86055549799215	5
578.2856451496832	403.08042156550465	3
270.6850835647082	9.580993105749297	2
572.8989652563969	291.03992743631403	2
335.2489246045859	49.87741753924949	3
208.9890493497814	58.86825412241215	4
152.09685444613453	36.99116984758585	5
480.8018248688697	8.103706638794186	4
207.0450941478979	91.75703078774825	3
422.8612795158766	34.59326768005231	5
575.5442273420881	161.24413031987638	3
592.6395261355865	318.0766741905155	3
410.59722518332916	403.55107732878366	3
300.1482660156546	259.86050146787375	2
563.0001393566183	124.35159157761315	4
564.8536124994394	176.9094533171682	3
503.139090445135	589.3519454766622	3
222.61621938462247	338.2316201932155	3
157.3765393041279	267.1697064844111	2
555.2633256675733	413.60033626400445	2
131.94337379768442	17.270526554893678	2
292.6702188286753	81.80458532081859	2
601.9041005101877	278.899265969077	1
307.0373262998182	288.4797751054193	1
383.6813975747157	385.3493674839919	1
611.48460941955	626.9910979228487	1
346.42386292719607	488.60596595345936	1
577.4205777418177	461.9934405747306	1
550.8080529935894	493.92847102920507	1
550.8080529935894	468.3804466656255	1
569.9690708123138	486.476963923161	1
235.7576949872193	144.73118941375597	1
290.29408408723816	263.2429604554547	1
319.11077946382414	47.48286755771567	1
347.82134789920366	54.10838396111786	1
409.6594952984825	450.53511543134874	1
115.92829515190776	102.6955042527339	1
217.90539615171423	349.4664882116751	1
536.49534272132	404.2022032327808	1
610.8797795855891	145.9619067229486	1
243.16803508674903	151.5758262122928	1
414.7971374120241	329.59978323088217	1
371.0813890318948	406.4787652295424	1
447.96080859694973	138.15604374402238	1
573.0782953400784	121.57430252862508	1
356.0069930387468	8.516976060007106	1
514.234375	143.0	1
568.234375	133.0	1
577.234375	174.0	1
489.234375	14.0	1
283.234375	252.0	1
168.234375	284.0	1
330.3125	38.0	1
578.3125	301.0	1
