585.624266144172	130.66623079769977	4
349.2872806358546	60.265107965854334	6
103.81494934825423	168.22764744738572	7
164.26175904403456	283.8872805286103	6
336.2574888025746	376.08424461105795	3
583.0634599749444	239.83604077898778	6
163.23387068012812	94.12300105506952	7
119.16944383646168	12.987673689369629	5
472.6140177062787	193.8549076876005	9
562.1207889084133	303.0567376823411	5
258.46425469792933	120.0289392641474	6
265.90903348156843	81.99647088776369	8
77.75327086957742	209.8234539787449	7
541.7579098107315	146.42382293915261	5
363.98609184012304	168.9053417616923	6
539.7914581126242	414.23113628449363	5
296.2303840859155	276.7280258079618	7
76.85584750781223	79.50760586680519	4
553.070080151829	330.04093148436294	4
327.26479394103376	380.9441838748371	3
476.1529658457581	159.1133305001518	6
241.21854280451277	150.22561080646625	7
462.43008039344215	410.22896969087117	7
186.78904703082395	312.3427208523848	3
271.35922222860756	233.52361296307197	4
445.3834302820576	318.29246639686136	5
127.0515502291293	270.52683882083	2
202.05415303570555	54.17364124125611	8
483.5007525485392	438.75832224265025	5
593.6709010362576	309.43815700675134	6
41.575269976290556	167.98540974536422	5
420.80485964501986	431.13132179324225	3
190.2028025016401	247.276401075445	3
397.7438125374704	374.51755894238596	6
139.28977177908223	49.5741772052865	5
114.43473234804455	51.44386444418197	5
605.6620248809425	365.7937713430046	2
28.20269243487946	21.534699791502547	2
216.62068750535644	102.87740257120785	2
473.10062669503475	273.5104056351316	3
318.71684151358	334.5748082583119	3
412.7703471065869	321.8798752751905	3
71.20670438412458	53.12366883351794	2
146.29317980644237	151.4943519409644	2
508.4305030074727	348.0262404917909	2
183.3887800879195	141.37022740004147	3
446.11013405345363	275.0791618556001	2
224.39119818083242	185.46950349792843	2
371.7884840518335	198.35135459455688	2
225.0094609852485	115.92600379745468	2
478.6794273909377	381.9262189483278	2
374.09626823052446	237.64649103640622	1
30.40003958674947	112.52971641113565	1
352.9921138401172	216.54245676226418	1
233.9043854942478	177.34925025314328	1
12.310764394971844	52.232475627872724	1
609.2568457236337	350.7038175050242	1
441.93105019969056	371.8078517791662	1
473.5872817853014	337.13693832879005	1
362.171875	238.0	1
160.171875	136.0	1
160.234375	102.0	1
150.234375	140.0	1
334.234375	387.0	1
149.234375	193.0	1
209.234375	277.0	1
304.3234695751685	268.04754465801807	1
273.76882920557773	199.99402295727774	1
464.04090787075626	304.1575765808599	1
189.04914454443988	204.16056510222103	1
173.77182435964454	183.3278543775046	1
96.3125	172.0	1
223.04080046851584	319.12904009720535	1
341.1958321064238	62.94240583232078	1
488.3407273862947	272.8965538213565	1
451.37638940999494	445.7942627545785	1
565.8465973366006	433.8702828281494	1
211.14421649316034	58.73149715340822	1
