277.89444108674275	308.07466710697	7
485.7967591497212	371.39482369525604	7
307.76755928528576	52.681019121220686	6
180.59301408835694	67.18681431547427	6
587.2687041552791	301.59583373468183	6
375.9061124727749	261.16043282390046	7
359.3394110139469	163.71246534208828	3
277.8833857859318	136.71051213659985	4
412.8526884196648	249.9319494426557	4
479.5200240691668	539.089203696732	7
463.79504536288187	311.5528720182982	8
231.41928378357426	149.0729524728855	4
416.9883910214219	528.6254264680738	8
508.7629159944846	199.76152913496213	3
383.99925835676345	481.80281069947796	7
553.7665160765933	60.921920158031924	5
392.9573779869907	304.0093058231905	5
458.3544616142112	161.1050083355195	7
298.09909462094674	333.0461108875219	3
558.8426554066226	10.912872452285495	4
522.7593033632381	391.8068426846215	8
268.28818034290913	58.600595986877195	3
507.51182758642886	602.5523260167552	7
553.5794635728282	274.2653739391926	3
458.57339339636627	414.27790515207397	8
199.41197523954725	132.55706157845066	7
537.6812132303459	351.7553597854071	8
400.1535517053011	168.7818826300504	5
459.9355916589988	53.08901703281526	4
597.3929421817089	209.42946003726786	3
608.5041016867513	548.8935766522769	3
543.3846734274103	227.2978358357011	4
238.09576623380096	69.43964759579785	7
184.43075746266265	180.47033167752764	5
441.0207550635198	487.05376293886286	8
607.7104768698973	614.2013822202272	4
222.0921666970629	29.201441082339834	7
314.5196958677022	467.0567007109506	5
204.0267012829642	89.23118645093831	5
526.0466684050427	474.2595732396527	4
356.1832176430362	158.69073883732892	4
444.6556864240414	444.5864076937335	3
548.3831217728953	437.70028666761146	5
513.5006044394999	198.17529432229503	5
409.5275593882061	169.67187993227537	2
265.19280779982273	384.8600217465763	2
412.23239666447796	556.8798318363131	2
454.2701739992362	561.2270066289782	2
557.4020982909854	459.4412992603407	2
398.82871675973183	311.0845258931329	3
235.28902525045106	155.89313291465047	2
553.0070097260891	141.42399361680222	3
363.23582127887335	96.24679553176156	4
333.31430312052066	271.3392875527643	2
314.7569535642562	401.2941418717183	2
538.4817975219129	293.8171265314527	4
414.2564585311605	407.0463790198611	3
358.84910252887335	370.96108308452585	2
552.7734375	69.5	2
375.7421875	361.0	2
437.38484040023275	441.133751346361	3
502.7734375	301.0	2
345.59981213740986	194.50872139990895	2
307.0078125	98.75	3
321.2734375	297.0	2
240.33215637831583	283.8592475765503	3
266.9331019398586	274.8165871672565	2
455.7768275604684	258.9569220542165	2
416.203125	115.0	2
240.234375	203.0	1
179.234375	218.0	1
384.234375	262.0	1
395.234375	491.0	1
356.234375	534.0	1
402.234375	292.0	1
532.234375	482.0	1
351.234375	501.0	1
569.234375	126.0	1
419.234375	214.0	1
347.234375	126.0	1
284.234375	141.0	1
266.234375	66.0	1
259.234375	378.0	1
233.234375	355.0	1
227.234375	381.0	1
514.234375	465.0	1
265.171875	11.0	1
356.171875	119.0	1
321.171875	279.0	1
345.171875	204.0	1
557.171875	128.0	1
597.6068655380492	418.19099008132594	1
310.7780042720409	290.5111555623942	1
526.8260072451924	461.46176334820746	1
385.24115092783586	367.07185720880136	1
568.775381360531	115.08534953155565	1
299.30723272015973	380.34304540306806	1
550.8873042053118	564.4955376359515	1
406.6716169973128	548.0694823078366	1
153.88324115939204	11.490385618526982	1
