67.8009637131963	20.655215070477723	3
349.71998828662925	362.0299142994473	6
412.21515278856106	383.2245874559384	5
269.7518828066518	50.12985517046219	3
240.69880055491004	228.67726992030174	5
328.47476601604194	194.65093582780332	5
385.6821619668084	373.6628230206939	2
136.5035595832687	115.08534953155565	1
71.45443039421737	38.15118349958238	1
404.5	380.48333740234375	1
