561.5986479014979	168.3536609275839	5
565.9316116137547	208.25192556071386	9
407.1678810918112	235.9905240898287	5
526.0416258602519	141.18735897371684	3
471.53683254786506	243.88426981349127	7
461.5122686694336	90.19696100278492	4
417.9889720224255	151.5632843605033	4
280.1990551306296	27.03234702206761	4
164.81390012658125	51.974884247230406	8
387.2770353310399	381.5638306816438	3
355.96577108868286	46.54583225018783	7
294.62189477060804	245.00797887884107	3
314.164388920504	46.00298267575991	3
68.19174616522007	10.453280222525997	4
346.7002450125865	184.65116552131417	7
542.1530628098438	25.990981490418132	7
383.4641588176394	291.1525169704497	5
438.4284317481979	403.42725175540284	6
113.45231795838077	161.02077099476145	5
391.0043871974408	373.3414115505314	6
277.78004184246646	413.6734027294816	6
180.82341207952206	380.6418413868052	3
547.0833719754313	238.82531142789523	7
341.71304570211936	231.32184937705244	6
490.9837124799324	303.1259704973414	3
366.5521978425292	417.0894194597892	2
590.5593495696755	244.49768467422822	7
457.2421875	332.0	2
38.324048439021944	251.75423782367116	3
108.05955065665802	27.307721366455674	5
75.7421875	307.5	2
321.6266132919983	414.7890980868131	2
48.524188775901884	93.73511360302018	2
364.18897766929706	322.2011839961158	4
520.5155473411146	373.32635425529975	4
244.52585679411214	32.000414902395775	5
265.04777410311533	347.9988576940091	4
431.58646184801836	313.4521134937755	2
518.5657988654751	325.126898329711	3
397.1799098952833	278.790609008032	2
347.3113014615525	415.3964313552716	2
526.497556145377	210.70312166798075	3
140.5580619629285	140.35172943387263	3
366.71718301132734	458.4046602955912	2
297.0917760873333	427.6333242959298	2
509.2853351589439	164.58509258730962	4
305.9713355894729	348.0962594329694	2
420.81573101597974	96.34075875518074	2
75.08286196214266	67.8413722156292	2
133.02854388483127	50.402484162219224	2
381.44470069461636	60.70999319583963	3
486.27499507237076	399.97174771497197	2
357.94579524569065	411.70965753969307	3
262.9620087965326	432.3814094775213	2
221.234375	290.0	1
86.234375	303.0	1
530.234375	466.0	1
386.234375	406.0	1
350.234375	257.0	1
241.234375	361.0	1
279.234375	192.0	1
248.234375	161.0	1
247.234375	201.0	1
299.234375	174.0	1
394.234375	189.0	1
193.234375	359.0	1
597.171875	411.0	1
602.171875	490.0	1
240.171875	376.0	1
452.7253479515518	239.6228432563791	1
535.132151999152	339.29143584170487	1
222.94069588928463	390.2393511278395	1
355.52446842779625	6.610723209391041	1
439.8491294495259	7.928296072870275	1
478.05874147499713	238.50354718173622	1
526.8089361281847	364.99054207574267	1
319.9500020592541	154.17888391906524	1
547.890101383617	337.32151194267874	1
26.13126131166482	17.151306117224912	1
230.19426881396254	99.79028705053038	1
220.49243493298582	131.6677398583387	1
209.40462478329815	80.38662012403836	1
194.1588858274776	145.52750194869014	1
124.86007239192969	131.6677398583387	1
130.4039774667735	307.686718405802	1
70.3125	182.0	1
24.59986908326173	89.85693417100403	1
