511.8854361861438	423.79305973168505	4
357.4747445779097	333.6595434679555	2
501.0940376018732	40.94562735245695	6
345.8274430226902	455.23376874858013	3
412.48945433632275	435.64965010160563	3
595.8462380939757	44.38321520832554	2
591.5689406712988	400.7290013090761	6
365.9317558669119	60.39287246063451	7
423.1361003817202	473.0128668859312	3
514.0173380018628	15.392754544680145	2
290.1875656986456	108.48157700273202	3
581.7713458498094	256.55385178583776	3
569.1464377066434	221.2894145040654	6
238.08925402366725	282.8309658597499	2
559.3422454802408	348.0051155395616	6
576.1015140905099	175.82993076092845	3
383.04540706805597	126.00432334341984	2
493.8237300617725	123.85932808006571	4
412.15538527498757	395.3341674715684	3
201.87133272262685	134.42316936513174	3
386.5900813211094	427.87359697414456	3
509.4436454607628	166.5281100097673	4
450.68153093143883	423.1074938949141	2
520.6816544872764	129.30358621227094	2
340.88495022393613	396.8193984189074	3
548.6003451455907	500.5523528510916	2
583.4801442645621	326.0938732628013	2
352.96923026768536	198.79028705053037	2
212.60814476429425	160.11812746335556	2
341.42750422219024	9.12803785809232	2
294.7401423067969	52.63752205309828	2
327.22970474466103	189.2194662811712	2
301.1613696013325	182.94407173877923	3
542.2020930770401	410.33888213851765	2
159.20462857813027	78.19597320267964	4
228.825898434289	25.921526444763817	3
238.02373510736277	69.33608748481166	2
541.4564508144226	186.47338599092615	3
416.94463186169617	161.85211827589848	2
553.408295053755	131.99683273519375	2
568.0338108465348	38.11821791137844	2
600.0976003284845	298.42004051162144	2
431.07014765447605	88.51603079108682	2
205.04063180934804	55.2958606817308	2
202.4363791772181	89.51603079108682	2
551.1997897894951	63.6086188834319	2
517.8445055718053	207.54142568780614	2
600.2539792766795	222.21906845815852	2
467.29031608462077	92.27666262583773	2
495.5934739862455	278.72113407176727	2
153.52266686720952	40.35543353992024	2
506.8992496894163	386.9986151715649	1
398.61696897718275	14.355285540704738	1
602.9037059212291	130.301822600243	1
471.4976426977614	153.49113001215068	1
422.9105268840423	220.8505467800729	1
312.48526367104427	225.26755771567437	1
265.0024004894551	177.7846901579587	1
156.78564254071702	120.36354799513973	1
606.216463817619	347.8396111786148	1
489.1656848118411	408.5735115431349	1
471.4976426977614	457.1606318347509	1
489.1656848118411	438.3883353584447	1
571.9846322215897	474.82867557715673	1
526.7102743042605	482.5584447144593	1
500.20821113314094	507.95625759416765	1
513.4592427187007	337.9013365735115	1
336.77882157790384	150.17837181044956	1
332.3618110493839	351.1523693803159	1
368.80214790967324	339.0055893074119	1
471.5	53.48333740234375	1
529.5	47.48333740234375	1
550.5	98.48333740234375	1
570.5	116.48333740234375	1
537.5	152.48333740234375	1
469.5	118.48333740234375	1
496.5	90.48333740234375	1
406.5	75.48333740234375	1
334.5	87.48333740234375	1
255.5	64.48333740234375	1
228.5	74.48333740234375	1
230.5	35.48333740234375	1
554.5	200.48333740234375	1
496.5	227.48333740234375	1
524.5	235.48333740234375	1
548.5	308.48333740234375	1
467.5	262.48333740234375	1
408.5	215.48333740234375	1
427.5	182.48333740234375	1
471.5	190.48333740234375	1
431.5	135.48333740234375	1
382.5	113.48333740234375	1
377.5	137.48333740234375	1
530.5	527.4833374023438	1
505.5	537.4833374023438	1
482.5	518.4833374023438	1
470.5	552.4833374023438	1
442.5	536.4833374023438	1
448.5	498.48333740234375	1
400.5	374.48333740234375	1
424.5	367.48333740234375	1
342.5	137.48333740234375	1
243.5	250.48333740234375	1
399.5	512.4833374023438	1
298.234375	208.0	1
557.234375	469.0	1
249.3208355618338	98.57485049572071	1
146.32161328228233	48.66801142421425	1
480.80362377773304	233.4295007527701	1
464.42425822611455	449.05629172738674	1
199.70279090232145	77.61466770596807	1
569.7584546481473	525.2849832243198	1
549.7137169290398	401.3668895457285	1
317.3434362272041	422.4914626797142	1
420.61911653913114	31.686859700978566	1
330.252896266195	77.45676815794761	1
177.6865503508483	156.08712371222774	1
