554.1868730378604	374.0267432091851	3
458.2730484241499	347.5678417520763	8
433.87909374224625	165.62324492543976	6
342.57038821634717	274.84993306628974	5
353.9689101712463	518.7241945087542	5
229.33242080535746	222.17091237407357	7
497.8627596762092	586.886240615348	5
493.2622717982317	321.30807827374025	6
609.530009537828	436.4328881210563	4
576.2414476911573	418.0572731886649	6
372.91207945358303	348.38616959934893	6
365.1257948349946	241.52114253710448	2
564.8538378855335	335.4036613175113	3
522.1432961337149	264.0565249059663	5
371.41612027878705	295.0052101403203	4
588.5065323995258	344.5962615513862	3
406.23755110087114	81.19392193254231	6
577.489062133605	238.6463292153564	7
326.9452793892944	434.28639021387903	4
372.69597461311423	267.55481657798936	3
404.64442586271446	481.0009429608108	8
262.97561288329746	276.50033412586436	8
421.1207472660558	401.11145659155983	7
318.80965187161837	347.3653758740119	5
518.4434059405974	178.59546783451017	7
473.70227867409665	447.3133292613204	4
342.88767021469585	396.3325652393306	5
397.0299616286391	120.01083533735131	5
605.2421875	571.5	2
566.0389978572025	559.687970838396	3
452.1941546317886	140.257917783407	6
288.2343015833084	292.28548703476326	4
337.49720906131665	436.2020186130683	2
390.74902171115104	14.265919049585126	2
442.5735870775525	94.50358595788354	3
327.1239670921725	235.14214050707426	4
452.65878007882384	575.8918579440681	3
426.37609383542724	127.1606023512615	3
181.55933191876534	274.90651661674497	2
496.5127878023105	327.32515188335356	2
307.85892312117187	276.69952394287316	2
280.7734375	286.0	2
526.234375	390.0	1
315.234375	330.0	1
551.9925741018127	353.74740968916274	1
454.01217749466707	608.2419490338841	1
341.3125	450.0	1
318.3125	54.0	1
277.3125	418.0	1
441.3125	580.0	1
182.18345307970657	173.36767922235722	1
372.1149058060632	278.27168894289184	1
436.1615584696021	457.1606318347509	1
320.216994693198	270.58439759963073	1
613.7791645215781	153.23035393983812	1
341.3125	13.0	1
