185.171875	77
218.171875	76
390.171875	45
406.171875	74
445.171875	62
531.171875	73
557.171875	122
608.171875	84
590.171875	193
508.171875	355
456.171875	431
523.171875	475
491.171875	524
518.171875	508
400.171875	403
294.171875	304
304.171875	246
375.171875	214
246.171875	155
344.171875	67
