338.52301910367356	69.24165638361983
332.65508272231403	120.87950182225156
202.38689505613343	197.16268258386663
263.4134334222721	183.07963382787614
246.98321155446553	153.73994891956266
454.7081594545914	66.89448159095475
516.908285097002	76.28318076161506
552.115903385159	122.0530892185841
607.2745053699381	88.01905472494046
596.712219883491	192.46833299853645
477.0063177037575	179.55887163887854
405.4174938511717	188.94757080953886
376.0778119443743	218.28725571785233
306.8361626443323	241.7590036445031
291.5795280527976	299.26478606479753
357.3004155240239	307.47989783912533
399.5495574698122	396.67253996039835
520.4290469258177	348.5554567107642
556.8102524902465	347.3818693144317
568.5461252529655	414.27635090538644
452.3609849020476	433.05374924670707
516.908285097002	506.98975521565706
486.39501591393264	522.2463913679801
515.73469782073	548.0653140872959
560.3310143190622	570.3634746176142
584.9763471207721	593.835222544265
428.8892393766097	29.339684908313487
393.68162108845274	44.5963210606365
404.2439065748998	71.5888311762849
223.51146602902756	62.20013200562459
215.29635509512428	14.083048755990474
