415.5	86
460.5	65
369.5	90
252.5	71
198.5	33
271.5	218
218.5	238
478.5	203
511.5	266
486.5	325
436.5	310
329.5	306
270.5	372
570.5	310
547.5	324
588.5	429
477.5	477
520.5	563
447.5	519
362.5	484
