99.171875	58
245.171875	24
488.171875	34
370.171875	48
439.171875	48
508.171875	76
485.171875	177
399.171875	171
437.171875	274
548.171875	360
586.171875	391
548.171875	433
548.171875	467
385.171875	368
346.171875	245
229.171875	137
