581.3125	389
436.3125	262
481.3125	176
493.3125	231
228.3125	142
405.3125	132
298.3125	121
395.3125	169
497.3125	130
435.3125	55
244.3125	21
354.3125	270
284.3125	382
316.3125	419
466.3125	447
501.3125	382
548.3125	422
554.3125	463
511.3125	510
548.3125	516
578.3125	532
544.3125	357
582.3125	417
471.3125	346
394.3125	361
328.3125	305
276.3125	253
190.3125	247
377.3125	47
444.3125	101
305.3125	168
217.3125	93
369.3125	421
452.3125	384
493.3125	499
462.3125	312
351.3125	235
