257.27263206454523	114.29015795868773
354.44686369198354	205.943134872418
420.7020216197823	210.36014580801944
485.8529269154512	339.5577156743621
509.0422321901807	326.30668286755775
258.3768846966752	277.7195625759418
221.93654783638587	124.22843256379103
436.16155846960214	86.68383961117861
135.8048425302474	119.81142162818955
94.94749514143813	116.49866342648845
36.42210563854917	124.228432563791
35.317853006419185	102.1433778857837
14.33705299594956	115.39441069258808
8.81578983529966	223.6111786148238
40.83911616706909	229.13244228432563
75.07094776309849	233.5494532199271
544.3783164183401	314.1599027946537
397.51271634505275	276.6153098420413
430.64029530895215	263.3642770352369
327.94480052086396	334.0364520048603
565.3591164288098	203.73462940461727
282.6704426035348	443.35747266099634
240.70884258259554	332.9321992709599
129.17932673746753	393.66609963547995
184.39195834396654	211.4643985419198
153.47288464432708	189.3793438639125
330.15330578512396	443.35747266099634
157.88989517284702	311.951397326853
150.16012674793714	249.0089914945322
122.55381094468764	288.7620899149453
71.75818986670853	381.51931956257596
52.985895120498874	349.4959902794654
124.7623162089476	102.14337788578372
98.26025303782806	92.20510328068043
67.34117933818862	34.78396111786148
52.985895120498874	74.5370595382746
338.9873268421638	514.0296476306197
304.7554952461344	466.5467800729041
375.4276637024531	434.52345078979346
409.6594952984825	445.5659781287971
220.8322952042559	345.078979343864
232.9790741576857	375.99805589307414
308.0682531425243	368.26828675577167
332.3618110493839	371.58104495747267
382.05317949523305	488.6318347509113
465.9763795371116	494.15309842041313
435.0573058374721	540.5317132442284
391.99145318440287	562.6167679222357
499.10395850101094	499.67436208991495
488.0614321797111	449.98298906439857
499.10395850101094	427.8979343863912
452.7253479515518	432.3149453219927
429.5360426768222	470.96379100850544
477.01890585841136	296.4918590522479
332.3618110493839	253.42600243013365
219.72804257212587	405.81287970838406
244.02160047898548	427.8979343863913
216.41528467573596	437.83620899149463
205.37275835443614	466.546780072904
184.39195834396654	451.0872417982989
146.8473688515472	430.106439854192
182.1834530797066	403.60437424058324
138.01334779450738	326.30668286755775
22.066821420859426	173.91980558930737
98.26025303782806	52.4520048602673
161.20265306923693	56.86901579586876
283.77469523566475	176.12831105710816
258.37688469667523	199.3176184690158
237.3960846862056	243.48772782503045
224.1450531006458	231.34094775212637
194.33023203313638	274.4068043742406
375.4276637024532	343.97472660996357
441.68282163025185	340.66196840826257
346.71709526707366	470.9637910085055
260.5853899609352	383.7278250303767
158.994147804977	406.9171324422844
103.78151619847797	311.95139732685305
517.8762532472207	546.0529769137303
502.4167163974009	567.0337788578372
534.4400427291703	383.7278250303767
195.43448466526635	311.95139732685305
