58.3125	122
67.3125	96
98.3125	97
75.3125	117
39.3125	114
45.3125	35
127.3125	110
109.3125	65
140.3125	62
162.3125	30
234.3125	101
203.3125	87
199.3125	135
256.3125	54
231.3125	29
295.3125	30
197.3125	180
171.3125	193
136.3125	155
200.3125	280
198.3125	330
235.3125	307
266.3125	353
240.3125	384
280.3125	402
311.3125	381
279.3125	439
324.3125	431
390.3125	470
434.3125	509
474.3125	537
469.3125	493
414.3125	443
416.3125	407
369.3125	390
394.3125	360
373.3125	334
357.3125	294
334.3125	299
322.3125	259
346.3125	254
377.3125	167
370.3125	210
456.3125	189
518.3125	172
484.3125	225
540.3125	235
589.3125	278
561.3125	308
593.3125	376
573.3125	407
579.3125	479
548.3125	494
504.3125	389
486.3125	431
479.3125	346
450.3125	378
445.3125	336
438.3125	110
314.3125	112
249.3125	177
281.3125	154
324.3125	191
268.3125	218
