375.8021605066787	169.90183105093092
435.58243317400706	106.97522695799354
512.1431332567258	164.65794737651947
584.508726485597	278.97461147868904
562.484415502897	309.3891367902755
587.6550566259826	372.3157408832128
578.2160662048256	412.1692568087398
550.9478716548161	492.92506539467615
447.11897702208796	186.68225880904757
483.8261619932545	224.43822126480998
541.508881233659	239.12109555316204
598.1428237606017	87.04846899523004
366.36317008552163	221.29189106016312
324.4121015470456	191.92614248345902
323.3633248335837	117.46299430681644
273.02204258741244	225.48699799969228
319.1682179797361	257.99907678104324
344.3388591028217	243.3162024926912
403.07035505668813	355.5353131250962
494.3139291278735	426.8521310970919
413.5581221913072	439.43745191567933
330.704761827817	404.8278196645638
325.4608782605075	432.09601477150335
164.9980411008367	24.12186490229266
134.58351641044158	61.877827358055086
183.8760219431509	50.341283274349905
226.87586719508883	104.87767348822896
236.31485761624594	168.85305431604863
261.48549873933155	169.90183105093092
219.53443020085552	209.75534697645793
201.70522607200323	280.0233882135713
196.46134250469373	320.92568087398064
378.94849064706443	330.3646714879212
411.46056876438337	274.77950453915986
463.8994044374784	419.51069395291586
481.7286085663307	480.33974457608866
372.655830366293	390.14494537621175
