596.2781901284492	27.606318347509113
17.649810892339502	39.753098420413124
13.232800363819582	73.98493317132443
44.15187406345903	112.63377885783719
3.294526674649758	114.8422843256379
41.94336879919907	132.51032806804375
26.483831949379347	174.4719319562576
46.360379327718995	209.80801944106926
87.21772671652826	198.76549210206562
69.54968460244858	171.1591737545565
59.61141091327876	43.06585662211422
96.05174777356811	13.251032806804375
205.37275835443617	13.251032806804375
155.68138990858705	9.938274605103281
149.05587411580717	58.52539489671932
110.40703199125785	87.2359659781288
185.4962109760965	25.397812879708383
89.42623198078823	114.8422843256379
105.99002146273793	145.76136087484812
113.71978988764779	200.97399756986633
147.9516214836772	251.76962332928312
113.71978988764779	272.75042527339
140.22185305876732	288.20996354799513
80.59221092374838	245.14410692588092
166.72391622988684	214.2250303766707
183.28770571183657	166.74216281895505
208.6855162508261	283.79295261239366
185.4962109760965	309.19076549210206
228.56206362916575	204.28675577156744
218.62378993999593	114.8422843256379
263.8981478573251	24.29356014580802
220.8322952042559	61.83815309842041
322.4235373602141	60.733900364520046
255.0641268002853	51.89987849331713
270.523663650105	101.59125151883353
262.7938952251952	138.03159173754557
289.2959583963147	154.59538274605103
340.0915794742938	188.82721749696233
294.81722155696457	223.05905224787364
260.5853899609352	213.12077764277035
298.1299794533545	266.12490886998785
258.37688469667523	282.6886998784933
231.8748215255557	304.7737545565006
205.37275835443617	331.27582017010934
206.47701098656614	373.2374240583232
255.0641268002853	363.2991494532199
282.6704426035348	408.5735115431349
314.6937689353042	392.0097205346294
314.6937689353042	353.3608748481166
327.94480052086396	305.87800729040094
294.81722155696457	312.5035236938032
345.61284263494366	232.99732685297693
326.840547888734	276.06318347509114
313.58951630317426	159.0123936816525
383.157432127363	121.46780072904009
330.15330578512396	139.13584447144592
371.01065317393324	160.11664641555285
380.94892686310305	203.18250303766706
395.3042110807928	167.8464155528554
393.0957058165328	43.06585662211422
430.64029530895215	12.14678007290401
553.21233747538	18.772296476306195
581.9229059107595	71.7764277035237
463.7678742728516	64.04665856622114
403.03397950570263	76.19343863912515
341.1958321064238	88.34021871202916
436.1615584696021	96.06998784933171
488.0614321797111	71.7764277035237
406.3467374020926	140.2400972053463
604.0079585533591	78.40194410692588
607.320716449749	111.52952612393682
545.4825690504701	124.7805589307412
557.6293480038998	76.19343863912515
499.10395850101094	90.54872417982989
464.87212690498154	128.09331713244228
583.0271585428894	139.13584447144592
607.320716449749	192.13997569866342
552.10808484325	161.22089914945323
605.1122111854891	150.17837181044956
521.1890111436105	141.34434993924665
472.6018953298914	191.03572296476307
429.5360426768222	192.13997569866342
442.78707426238196	228.58031591737546
418.4935163555224	217.53778857837182
514.5634953508306	194.34848116646415
571.9846322215897	303.66950182260024
531.1272848327803	361.0906439854192
473.7061479620214	371.0289185905225
424.01477951617227	356.67363304981774
450.5168426872918	324.65030376670717
595.1739374963192	344.52685297691374
590.7569269677994	274.9589307411908
547.69107431473	274.9589307411908
471.4976426977614	283.79295261239366
406.3467374020926	267.2291616038882
376.5319163345831	291.52272174969625
384.261684759493	335.6928311057108
398.61696897718275	393.1139732685298
358.8638742205034	414.0947752126367
416.2850110912624	438.3883353584447
461.5593690085916	396.42673147023083
524.5017690400005	409.67776427703524
488.0614321797111	462.68189550425274
584.1314111750195	379.8629404617254
559.8378532681598	460.473390036452
525.6060216721305	513.4775212636695
565.3591164288098	513.4775212636695
450.5168426872918	475.9329283110571
