459.8743660021757	205.5494124838688
197.382228281601	190.27209128574341
407.0981690001554	374.9887930448958
247.3807307045676	140.27358554642396
357.09966657718877	291.65795014603003
366.82159760387674	191.66093866739115
465.4297551602832	315.2683556340419
594.5925530862802	147.21782245466278
202.9376174397084	261.1033077497793
195.99338099207412	243.04829178835837
162.66104604342974	247.21483393330163
164.04989333295657	226.38212320858523
205.7153120187621	220.82673368199417
76.55251409276501	113.88548529511648
187.66029725491302	156.9397541261971
404.32047442110166	47.22081097602391
270.99113462652406	56.94274264755824
