571.171875	45
249.171875	140
192.171875	148
195.171875	189
130.171875	216
139.171875	243
275.171875	321
405.171875	377
448.171875	400
360.171875	186
326.171875	75
591.171875	146
216.171875	63
456.171875	205
574.171875	241
205.171875	260
273.171875	59
553.171875	327
