382.09482078745015	63.97538082781967
488.0212688471021	225.48699799969228
536.2649976663495	262.1941837205724
580.3136196317494	274.77950453915986
256.2416151720221	225.48699799969228
305.5341207047314	269.53562086474847
505.8504729759544	333.51100169256813
363.2168399451359	34.609632251115556
264.63182887971726	33.56085551623327
25.510738210403918	137.38975226957993
270.9244891604887	289.46237882751194
242.60751789701735	289.46237882751194
295.0463535701124	350.29142945068475
277.21714944126006	325.12078781350976
339.0949755355122	240.16987228804433
456.5579674432451	470.90075396214803
