246.16592366524063	29.009461888538016
277.78767154838926	29.009461888538016
363.4299053985834	38.23247193289266
355.52446842779625	6.610723209391041
439.8491294495259	7.928296072870275
537.3495187559008	22.42159757114185
566.3361209821204	210.8345170486723
594.0051503798754	245.0914114991324
551.8428198690106	237.18597431825697
478.05874147499713	238.50354718173622
526.8089361281847	364.99054207574267
487.28175127424885	403.2001551166405
343.6663129716155	225.32781854694386
352.8893227708672	181.84791405212914
319.9500020592541	154.17888391906524
314.67971074539594	43.50276338680959
460.9302947049583	86.98266788162431
547.890101383617	337.32151194267874
516.2683535004684	325.46335617136566
492.55204258810693	301.74704462873945
408.2273815663773	234.5508285912985
167.11155395736907	47.455481977247295
69.61116465099417	9.24586893634951
106.5032038480009	25.056743298100315
76.1990287933168	67.2190749294358
26.13126131166482	17.151306117224912
417.45039136562895	152.86131105558601
514.9507806720039	166.03703969037835
558.4306840113333	167.35461255385758
389.7813619678739	293.841607447864
366.06505105551247	320.1930647174487
392.416507624803	376.84869784705575
294.91611831842806	239.82112004521545
421.4031098510226	96.20567792597895
383.1934978255513	61.948783475518866
134.17223324575593	48.77305484072652
435.8964109641323	396.6122907992443
430.62611965027423	312.2876275365733
