375.4276637024531	260.603645200486
94.94749514143813	24.29356014580802
69.54968460244858	56.31688942891859
100.46875830208803	77.29769137302551
83.90496882013832	151.28262454434994
27.588084581509325	157.90814094775212
45.25612669558901	187.72296476306198
11.024295099559621	204.28675577156744
123.65806357681763	249.5611178614824
119.2410530482977	281.58444714459296
61.819916177538715	363.2991494532199
115.92829515190776	110.42527339003645
186.6004636082265	103.79975698663426
268.31515838584505	56.31688942891859
283.77469523566475	106.008262454435
350.0298531634636	118.155042527339
411.8680005627425	225.26755771567437
198.7472425616563	286.0014580801944
244.02160047898548	392.0097205346294
279.35768470714487	410.7820170109356
290.40021102844463	366.611907654921
265.0024004894551	459.3691373025516
260.5853899609352	494.7052247873633
326.840547888734	505.74775212636695
451.6210953194218	538.8753341433779
500.20821113314094	383.1756986634265
512.3549900865708	262.81215066828673
333.4660636815139	22.08505467800729
401.9297268735727	80.61044957472662
474.81040059415136	133.6145808019441
482.54016901906124	335.6928311057108
492.47844270823106	305.87800729040094
377.6361689667131	411.88626974483594
366.5936426454133	375.44592952612396
249.54286363963539	136.9273390036452
