473.33839485863547	456.217879673796
532.069890812502	439.43745191567933
489.070045560564	438.38867518079707
448.16775373554987	492.92506539467615
557.2405319355876	478.24219110632407
495.3627058413354	575.778427450377
520.5333469644211	338.7548853669796
411.46056876438337	200.31635636251733
442.92387016824034	223.3894445299277
500.6065894086449	324.0720110786275
492.2163757009497	117.46299430681644
317.0706645528123	177.24326819510694
333.8510919682027	105.92645022311126
551.996648368278	70.26804123711341
534.1674442394258	395.3888290506232
236.31485761624594	240.16987228804433
325.4608782605075	410.0717033389752
360.0705098047502	402.73026619479924
