505.24351337091224	144.18576782234868
589.6601309325412	237.64649103640622
565.5410973435044	210.51273268393788
470.5724025866718	236.13906001682463
446.453368997635	269.30254244761926
404.2450602168205	261.7653873497114
230.8895062956182	37.158165432057
166.0696035250817	8.516976060007106
294.2019694668399	141.17090578318553
267.0680566791735	98.96283723490149
235.4118250935626	156.24521597900127
271.59037547711785	166.79723311607228
178.1291203196001	58.26219970619901
512.7807113674862	303.9734558979954
110.294338350434	19.068993197078118
