507.163512406495	144.77213806028425
557.1950589331642	210.7712009995315
588.065587641109	237.3837263782602
475.228482708621	240.57722942370765
300.65032036024337	146.90114009058254
262.3282847227946	157.54615024207402
241.03826492421197	31.935030454474465
170.78119958888925	53.225050757457446
82.42761742477127	47.9025456817117
53.6860906966847	42.580040605965955
197.39372433711753	228.867718257067
220.81274611555844	273.57676089333125
178.23270651839317	265.0607527721381
278.2957995717316	237.3837263782602
232.5222570047789	158.6106512572232
198.45822532704668	117.09511166640638
356.0043718365582	160.7396532875215
348.5528649070543	191.6101827268468
349.6173658969834	234.19022333281276
348.5528649070543	269.31875683273466
415.61642727258965	265.0607527721381
444.3579540006762	267.18975480243637
394.326407474007	324.6728096204904
478.4219856784084	312.96329845384975
522.0665262655028	304.44729033265656
550.8080529935894	374.7043573325004
577.4205777418177	354.4788380446666
594.4525935806838	369.38185225675466
605.0976034799752	413.02639387786974
429.4549401416684	414.0908948930189
456.06746488989666	436.4454162111511
420.9389322222353	453.4774324535374
446.48695598053445	460.92893955958147
500.7765064669202	362.99484616585977
485.87349260791234	348.0918319537717
460.3254688496132	389.6073715445885
508.22801339642416	425.80040605965957
484.8089916179832	421.542401999063
425.1969361819518	329.99531469623616
164.39419364931445	7.451507106044042
109.04014217299958	31.935030454474465
7.912548129732021	19.16101827268468
122.8786550420783	76.64407309073871
81.36311643484214	108.57910354521319
312.3598312494638	325.7373106356396
70.71810653555082	219.28720912072467
31.331569908172927	201.19069186318913
139.9106708809444	273.57676089333125
98.39513227370826	233.12572231766362
86.6856213844878	248.02873652975168
115.42714811257437	256.5447446509449
100.52413425356652	272.51225987818214
81.36311643484214	295.9312822114634
120.74965306222003	310.83429642355145
176.1037045385349	310.83429642355145
203.78073027669234	283.1572700296736
335.77885302790474	357.672341090114
331.52084906818817	277.83476495392784
64.33110059597603	159.67515227237234
410.29392232294396	349.1563329689208
430.5194411315975	368.31735124160554
397.5199104437944	381.0913634233953
398.5844114337235	402.38138372637826
384.7458985646448	450.28392940809
488.0024945877706	380.02686240824613
563.582064872739	420.4779009839138
588.065587641109	449.2194283929408
582.7430826914634	492.86397001405595
509.2925143863533	525.8635014836796
286.81180749116464	305.51179134780574
264.4572867026529	290.6087771357176
30.267068918243798	30.870529439325317
