272.732168914365	124.7805589307412
220.8322952042559	55.212636695018226
163.4111583334969	92.75722964763062
362.17663211689336	164.53365735115432
417.3892637233924	205.3910085054678
441.68282163025196	278.27168894289184
383.157432127363	288.20996354799513
334.57031631364384	297.04398541919807
334.57031631364384	354.46512758201703
300.3384847176145	342.318347509113
441.68282163025196	350.04811664641556
421.8062742519123	382.07144592952613
465.97637953711154	371.0289185905225
446.0998321587719	394.21822600243013
473.7061479620214	333.4843256379101
586.3399164392794	188.82721749696233
533.3357900970403	408.5735115431349
208.6855162508261	308.0865127582017
177.76644255118666	207.59951397326853
140.22185305876732	198.76549210206562
83.90496882013832	86.13171324422844
128.07507410533754	43.06585662211422
