390.4320015258332	240.27059702506284
359.8773611562425	213.88249677375535
382.09891778867205	283.32486585614345
326.5450262075981	361.10031922841813
298.76808041706107	138.8847381647762
343.2111936819203	116.66318005841201
498.7620901089275	330.5456768321674
570.9821491643237	370.82225089995245
558.4825235585821	416.65421449432864
541.8163560842598	515.2623785913197
572.3709964538506	568.0385790939347
551.5382871109479	584.7047476737079
537.6498142156793	572.205121238878
455.7078241335951	486.09658357671674
437.6528093697461	262.492155131427
139.05064212147326	95.83046933369558
455.7078241335951	188.88324390409565
570.9821491643237	262.492155131427
398.76508526299426	379.15533518983904
423.7643364744776	363.87801399171366
