239.59161046383895	263.9572646403408	3
292.7966815359757	448.28972215762707	3
433.5965327995867	486.12733900364515	3
323.7130491003263	201.43277323974	5
535.9981958679714	258.60647772273444	3
414.766206168492	471.79756452579556	4
203.0308664317339	243.68110527909818	4
532.9492342504346	380.0388364697759	5
278.2547400022728	227.61976435332087	2
334.0703320386443	519.237640162978	2
268.7476701094747	486.57449915326504	4
200.2193612503456	285.1314904218842	2
594.2802785580423	402.8979362408657	3
313.0304862489943	483.25284624663055	5
543.4213940003305	151.64131227217496	2
394.53911197754695	326.44986669466334	4
219.39090994184878	154.5070203491428	4
445.82941549026725	255.2078713103233	2
311.95718157584145	329.78291436705405	3
109.8031306816091	148.98387686209514	3
374.44516389826595	126.97613059842031	4
485.9241717477869	246.32448909783415	4
315.72406835886625	176.8620507846574	4
436.5080700129807	357.69447144592954	3
589.328367827409	40.89999421115078	5
199.28373618914452	241.44710300632045	2
431.1850828714255	480.95493293023094	5
234.99786583990493	260.7883532683355	3
329.7694271474779	516.6690711565766	2
337.3613404299215	126.85270161998872	4
369.807874878127	129.09878493317132	2
341.3382157437916	147.3258778574377	3
310.49305381061754	326.3772782503038	2
256.0439327031729	398.33233813167396	3
148.70582440137582	70.12960264525174	3
321.27611073461543	274.80009632483564	2
594.4653326011712	260.23598318075653	2
418.0771814957495	223.69120780708948	3
577.666892228764	214.0676900864172	3
432.3271859836502	405.6353806130139	3
194.69033915249193	285.70586247704364	3
443.25442655158525	258.4074068783739	3
376.9129045375547	396.04706666231425	5
497.7633387256009	539.937667071689	2
540.3017138993282	598.5648835154541	3
285.2550860411227	140.1721749696233	2
326.18562011589904	80.20413699608079	2
315.81934680717814	183.20489755278865	4
332.71082837419	403.6612620024953	4
148.36769892815227	222.2376316994483	2
515.8831284411892	425.4444367156561	3
275.51567458317857	231.8875981250266	5
464.27787100460796	193.60622419338466	2
516.3241415159849	102.12705266233414	3
460.5301064793912	534.2812879708383	2
452.64260573456454	450.45536393744385	4
271.4146532483562	64.470734385784	2
533.3314741181505	293.0606977994606	4
464.7279358467674	593.6030296192996	4
225.33857669015032	200.56997006832876	2
123.48665973777373	21.68753749049513	2
178.7103738158794	149.58438110628958	2
560.8387913734352	121.18177399756986	2
253.92732892267696	179.44975374383824	4
163.54897428256604	49.28945814243741	2
249.70724120666472	86.73027410260494	2
505.328256794715	69.47784988013478	3
196.63240492951772	86.21789945440597	2
448.6804481200381	138.2481135722187	2
410.13538177573776	49.861460368763204	2
570.0710234920471	371.8617645244891	2
520.9928360084655	424.8616019143628	2
446.20390442406904	53.134442209566316	4
278.2650872858658	318.6751522723723	2
347.11495910122323	150.9256632254911	3
592.0048797944216	108.98602154143916	3
405.1742091816137	565.125019522099	2
329.313111044165	358.83617054505703	2
471.9828564647171	356.195292394964	4
559.3114684514758	336.7234109011401	2
406.7955560217546	346.1110801875899	4
512.2733947616445	104.01251766408681	2
224.64595060720671	20.592664852606383	2
282.3278582370935	412.3869557893023	2
484.5712459860701	253.04535521593118	2
502.4964639857909	450.77700377169765	4
542.839949370454	143.26942675458548	3
474.699178359346	162.36982664376075	2
293.41574320269103	454.97141336729715	3
489.715186278779	183.01483679525222	2
203.5052103209262	183.3443879781428	2
298.0430725126105	31.018892700124702	3
460.3512349197712	80.3865375605185	2
611.892296546263	200.22913574541207	2
539.6235525452386	154.54218741246387	3
403.9998081407291	124.74156947558316	4
566.2471249876355	314.7974435352563	2
588.6822318155191	262.9013743557707	2
564.6801386044083	510.558918262243	4
435.7306746440073	519.0035178492903	2
560.6924048397404	127.10810571293459	4
381.4545542115444	311.73602191713815	4
280.1234213903381	145.79257833176896	2
352.4170551390682	405.62636550235976	2
459.74879414585126	200.49701147863885	2
427.5208654734513	400.7889840564712	3
360.219742522714	404.4912038620313	2
324.1081078157404	262.6214802277274	2
564.4113043646917	267.18631562656293	2
565.9844694348845	29.362934691692868	2
312.14740361506887	275.4100314201495	2
107.6391237178142	144.0587853079611	2
375.2838986318052	517.6690711565766	2
273.640724622323	320.0136856530291	2
389.37225076291656	322.4118725803165	2
171.3125	51.0	1
237.3125	301.0	1
322.3125	479.0	1
417.3125	479.0	1
503.3125	545.0	1
306.3125	293.0	1
516.3125	95.0	1
530.3125	286.0	1
539.3125	375.0	1
481.3125	307.0	1
481.3125	246.0	1
421.3125	238.0	1
499.3125	384.0	1
518.3125	419.0	1
508.3125	453.0	1
522.3125	486.0	1
573.3125	32.0	1
450.1524349754877	49.998505739319434	1
398.76508526299426	120.8297222033553	1
383.48776507819895	395.8215037696122	1
327.9338734971249	266.65869727637033	1
533.6518331626933	534.0317142101538	1
556.3073951481672	330.1316574682162	1
564.6541811428156	373.057985203361	1
501.4570871833354	607.9603897540143	1
410.8348392414392	39.18654726334614	1
459.72315721009375	193.00588831428155	1
137.7756974165153	145.30996860856516	1
166.39324939816672	45.14853722656069	1
282.05585532400784	406.4451289973625	1
558.6921911466382	420.7539049090774	1
254.6307013415919	394.52114907093335	1
524.1126491688094	562.6492660335837	1
270.1318753316531	34.4169552927745	1
591.2930008508037	620.8758270503155	1
562.9760295873323	423.70580089244504	1
527.3176213296276	379.65717802738885	1
381.5376581584235	464.6080935528543	1
518.9274076219325	490.82751192491156	1
435.0252705449804	6.292660409293738	1
416.1472897026662	165.70672411140177	1
372.0986677372664	73.41437144176028	1
547.2443788854038	486.6324049853824	1
466.48857194883743	587.3149715340822	1
335.39148276609984	389.0961686413295	1
328.05004577186656	353.4377596553316	1
371.234375	134.0	1
277.234375	237.0	1
479.234375	300.0	1
533.234375	160.0	1
532.234375	300.0	1
540.234375	264.0	1
402.234375	353.0	1
265.234375	206.0	1
446.234375	148.0	1
382.234375	238.0	1
296.234375	380.0	1
315.234375	474.0	1
410.234375	468.0	1
447.234375	522.0	1
569.234375	383.0	1
585.234375	215.0	1
549.234375	143.0	1
356.0043718365582	201.19069186318913	1
369.84288470563695	246.96423551460254	1
389.0039025243613	236.31922536311106	1
419.87443123230616	229.93221927221614	1
549.7435520036603	91.54708730282681	1
255.94127878321981	103.25659846946743	1
221.87724710548758	108.57910354521319	1
243.16726690407023	126.67562080274871	1
175.03920354860577	213.96470404497893	1
198.45822532704668	161.80415430267064	1
317.6823361991095	332.12431672653446	1
304.9083243199599	325.7373106356396	1
229.3287540349915	331.0598157113853	1
488.0024945877706	299.12478525691085	1
464.5834728093297	187.3521786662502	1
449.68045895032185	152.22364516632828	1
341.1013579775504	108.57910354521319	1
295.3278154105978	124.54661877245042	1
231.45775601484976	216.09370607527723	1
301.7148213501725	380.02686240824613	1
261.2637837328655	354.4788380446666	1
226.1352510652041	294.86678119631426	1
243.16726690407023	305.51179134780574	1
259.1347817530072	327.86631266593787	1
262.3282847227946	443.8969233171951	1
380.4878946049283	515.218491332188	1
459.26096785968406	527.9925035139778	1
457.13196587982577	448.1549273777917	1
479.4864866683376	424.7359050445104	1
461.38996983954223	419.4133999687648	1
500.7765064669202	390.67187255973766	1
443.293453010747	358.7368421052631	1
541.2275440842272	253.35124160549742	1
524.1955282453611	188.41667968139936	1
526.3245302252195	323.6083086053411	1
533.7760371547233	345.9628299234734	1
591.2590906108965	353.4143370295174	1
514.6150193359989	404.51038575667656	1
594.4525935806838	397.05887865063255	1
565.7110668525972	419.4133999687647	1
621.0651183289121	435.38091519600187	1
567.8400688324556	448.1549273777917	1
592.3235916008256	452.4129314383883	1
573.1625737821012	475.83195377166953	1
503.9700094367076	602.5075745744183	1
523.131027255432	613.1525847259097	1
160.13618968959793	144.77213806028425	1
115.42714811257437	72.38606903014212	1
102.65313623342479	97.9340933937217	1
575.2915757619595	38.32203654536936	1
469.9059777589754	483.2834608777136	1
362.391377776133	530.1215055442761	1
275.1022966019442	38.32203654536936	1
294.26331442066856	102.19209745431829	1
286.81180749116464	79.83757613618617	1
606.1621044699043	637.6361080743402	1
221.87724710548758	370.44635327190383	1
312.35983124946375	1.0645010151491485	1
474.1639817186919	37.25753553022021	1
440.0999500409597	6.387006090894893	1
490.13149656762886	18.09651725753553	1
384.7458985646448	43.6445416211151	1
482.67998963812494	4.258004060596596	1
500.7765064669202	536.5085116351711	1
494.38950052734543	558.8630329533031	1
528.4535322050776	529.057004529127	1
525.2600292352903	490.73496798375766	1
332.58535005811734	29.80602842417617	1
360.26237579627474	25.54802436357957	1
354.9398708466291	54.28955177260659	1
554.7134393219607	85.02746051032807	1
318.40337604614484	6.625516403402187	1
371.40750238838393	252.87387606318347	1
334.9671655280946	380.9671931956258	1
479.624260337122	155.69963547995138	1
232.27167074000639	299.25249088699877	1
598.8835446071599	354.46512758201703	1
405.6393339844133	117.05078979343864	1
470.7902392800822	295.9397326852977	1
526.0028708865811	334.58857837181046	1
224.54190231509654	27.606318347509113	1
407.84783924867327	267.2291616038882	1
411.1605971450632	170.05492102065614	1
274.23327076094563	288.20996354799513	1
553.6091866898307	229.6845686512758	1
360.3649760670841	191.03572296476307	1
309.1725057746543	177.7846901579587	1
441.68282163025196	319.12904009720535	1
