567.4854006443065	134.98838087296184	3
138.19577332273232	97.41530733982583	4
220.1492167065636	311.26137323344994	2
582.2437135301436	335.1765036163986	2
132.05521846463796	128.45390070921985	2
245.17840614231233	344.6333416070139	2
364.7649288397253	219.9741735076431	3
498.45482131424626	462.12749545288136	2
109.37163467931589	60.2882643436312	3
564.8489271749468	265.5764456612718	2
489.3118858152252	534.6052827795445	2
453.83501728410545	190.70687793156753	3
268.5554482637577	390.78040717962085	3
513.9727972730263	254.597728865542	2
210.2434811853953	144.39823639765356	2
455.9975116533402	487.3493670571755	2
92.806083200236	84.13254322812838	4
425.5938427307034	296.13475761221366	2
573.4257163528147	574.6393779081782	5
551.0799723484486	583.5718063954117	3
388.0303350855287	241.83567781513187	3
322.85465130635026	364.1603705856533	2
157.90896562012435	281.16773131650586	2
423.91229385814347	362.30597107730273	2
263.4338126639925	187.67915536610764	2
531.5941900037578	43.331082982725924	2
416.21450454755995	101.12061239717622	2
532.5668690976584	215.98473438983592	3
496.6366714119033	328.9967371311525	3
429.873465912912	174.8141311697005	3
123.024066272853	205.13513264650348	3
460.0056742772267	212.70483667830382	2
471.99259238810214	428.9322415326038	2
606.2644027124618	292.89419736855496	2
549.7002109439221	310.731698807671	2
294.94286828081897	97.38487618027354	3
555.6502687189752	155.75453495673653	2
325.05659043988544	361.50252132655896	2
461.11803150762603	488.8375655401451	2
439.09233539261544	264.67854294145144	3
406.21748766758105	482.58399355243705	2
360.0310272779866	215.7079505033327	2
570.7251967711575	372.64050104023005	2
603.0359554111997	221.905209055407	2
596.1149644599996	599.8472896789315	3
607.2680242106514	564.0529026010634	3
558.389968548653	418.2915001606417	3
486.203125	537.0	2
207.703125	147.5	2
337.1158985542942	118.23149715340821	2
383.166646394336	283.6624329280717	2
543.02536554213	514.1311892956599	2
384.24802987974647	246.51992709599028	2
496.234375	424.0	1
279.234375	274.0	1
443.234375	129.0	1
405.234375	104.0	1
484.234375	256.0	1
193.234375	195.0	1
518.234375	256.0	1
489.234375	329.0	1
574.234375	504.0	1
283.234375	223.0	1
289.234375	136.0	1
235.234375	125.0	1
533.3357900970402	575.3156743620898	1
111.51128462338784	65.1509113001215	1
329.04905315299396	113.73803159173754	1
231.8748215255557	115.94653705953827	1
131.38783200172747	46.37861482381531	1
298.76808041706107	138.8847381647762	1
343.2111936819203	116.66318005841201	1
572.3709964538506	568.0385790939347	1
537.6498142156793	572.205121238878	1
570.9821491643237	262.492155131427	1
398.76508526299426	379.15533518983904	1
575.0697360644399	136.34097553469766	1
144.171875	98.0	1
68.171875	98.0	1
270.171875	387.0	1
252.171875	340.0	1
488.171875	65.0	1
585.1148598690143	329.4734850555297	1
513.9741560554734	144.30157565736454	1
348.67663837106966	304.3654295439141	1
332.98383605925915	177.77898300618534	1
529.6669583672839	37.59233973299816	1
421.9097158261852	33.40766381439556	1
312.0600996435119	59.56188830566183	1
269.1664399912299	75.25442300042158	1
138.3930873928092	130.70137892190607	1
258.70457178335624	334.704329953783	1
396.8012321272885	507.3222115961403	1
425.0482762885473	468.61395934906625	1
493.05041963972604	111.87033728819436	1
484.68092507342715	76.30059198007224	1
507.69703513074916	99.31630953238655	1
608.1309699263362	171.50196912828144	1
228.36515398052262	48.054029529504675	1
511.88178241389863	306.4577675032154	1
467.9419359408293	271.9341911747439	1
345.0522498619071	177.76801647220316	1
242.13393227492912	401.27751086707843	1
353.36888158610736	344.1006634637383	1
375.200039862133	280.6863417982155	1
411.58530365550905	493.80004575611986	1
564.4034115876885	465.7314115762983	1
590.3928857258143	389.8421413864104	1
541.5326743461378	366.97140242507436	1
462.5246729662355	246.3802333562114	1
195.35287882630274	181.92633264699154	1
330.4981443445567	119.55159002516586	1
521.7806740011623	117.47243193777167	1
556.0867798634882	425.18782887211165	1
466.6829888283357	389.8421413864104	1
141.29477261900118	228.7073896133608	1
147.53224641215135	159.05559368565545	1
450.0497253799352	114.3536948066804	1
287.87540675803046	233.90528483184625	1
267.08382744752987	291.08213223518646	1
494.7516208975115	403.35666895447264	1
518.6619371045872	403.35666895447264	1
551.9284640013882	151.7785403797758	1
560.2450957255884	56.1372683596431	1
189.11540503315257	244.3010752688172	1
229.65898468862875	121.63074811256006	1
316.9836177927313	87.32463967055594	1
494.7516208975115	61.33516357812857	1
308.60317077307286	135.0879974631362	1
374.52611175127134	43.228159188203584	1
379.9296315035827	320.96908197241163	1
363.71907224664864	382.5692088156017	1
470.7087633424135	466.8641192325987	1
475.03157914426254	273.41810686538764	1
309.6838747235351	172.91263675281434	1
