330.75443795612614	232.41421757193416	2
485.19146215912554	180.1008640268092	5
468.4737010446116	449.9626096322511	2
208.7330004885307	144.65951569620262	4
292.6702188286753	81.80458532081859	2
519.9784714183497	132.23215946538758	5
416.7128007943612	37.65027770418741	2
607.6699823767887	208.26970788304828	3
283.72501608035657	225.01640443400603	7
208.43312285642918	61.44661880578599	4
264.6691947686144	127.99976919526081	2
479.8203022225571	14.785082110086641	2
421.8615508484497	173.49969226034776	2
563.9401706920364	178.96873429450147	2
292.2786992539534	152.15599800226357	2
566.1295906503972	132.04854593014312	2
538.9954933753925	231.36544083705186	2
336.1083665310738	231.69616751602203	3
577.8637761508032	403.07591695329165	3
417.8046874651045	408.52138547032087	3
589.3217497784265	85.99734214887104	5
203.78408954414883	314.13532108785466	4
501.9267170933479	94.81593756503342	5
305.52253686567605	397.146705272676	4
503.52741370496165	588.835345591546	3
300.1482660156546	259.86050146787375	2
270.6850835647082	9.580993105749297	2
495.237685207827	540.2937519443508	7
330.19696465963426	432.67850286406633	2
286.0534338362089	427.34349367894885	3
396.88395472693264	499.59323754490083	2
572.8989652563969	291.03992743631403	2
152.33137703833643	37.9349765001685	4
578.0101593440978	157.19845854326206	2
428.4460879892726	171.94969422641944	4
566.5995926306327	123.55933611769544	2
205.36491337721574	91.48638471991022	2
248.36888543189337	92.33804466656255	2
600.4689185533581	354.1462068524048	5
592.5617889471102	318.5328928254184	3
563.3227779875779	85.86915624112254	3
185.82653496293722	35.46278963631302	3
178.64227623392532	289.3383174825592	3
222.95152263976544	336.5897023133711	2
293.41352309215057	71.11805372810478	3
419.0454579176734	31.40579382293372	2
261.6546606295901	311.6890811166701	4
324.99784263184756	196.27200799482375	4
247.64564074369792	336.568469164395	2
286.72232219069383	270.08707890423796	2
244.81009844962273	91.56395617822605	2
160.06912278246472	179.22334930640153	2
330.061167224855	236.56953000841236	2
547.45188360469	224.87407546345182	4
522.5763640810023	19.534496598539057	2
480.37753893586574	6.063815212123074	2
522.4624933367427	401.95223365526516	2
259.7183467004461	123.24200558326652	2
397.1102892826496	493.3521899236871	2
413.2292047356679	404.11359067239306	3
329.8241193208045	427.02186250225185	4
466.33650338566605	444.09048762414045	2
252.23693301254409	336.3581212810799	3
518.2617354779507	623.2367772909076	3
152.13652478333182	264.8766442617492	3
598.3474713802896	247.12417982989064	2
206.3426291772181	150.0370595382746	2
302.4818713070022	493.1962332928311	2
604.8532082100189	212.34049760320468	3
209.19676828293368	313.488005765469	2
559.8335008577596	90.20961597858539	2
483.2734375	187.0	2
153.2734375	182.0	2
324.234375	439.0	1
281.234375	430.0	1
324.234375	203.0	1
514.234375	143.0	1
577.234375	174.0	1
202.234375	144.0	1
293.234375	76.0	1
489.234375	14.0	1
598.234375	254.0	1
283.234375	252.0	1
247.234375	345.0	1
168.234375	284.0	1
312.3125	403.0	1
524.3125	395.0	1
285.3125	143.0	1
330.3125	38.0	1
578.3125	301.0	1
528.3125	305.0	1
505.3125	89.0	1
295.3125	271.0	1
610.3125	279.0	1
261.4132743176075	304.5551322969216	1
217.90539615171423	349.4664882116751	1
536.49534272132	404.2022032327808	1
560.3545017155194	123.5062287655719	1
610.8797795855891	145.9619067229486	1
338.6046710635472	51.92875527643364	1
296.5002728384892	144.55842685061256	1
243.16803508674903	151.5758262122928	1
213.69495632920842	92.62967157417893	1
319.11077946382414	47.48286755771567	1
347.82134789920366	54.10838396111786	1
523.3975164078705	135.82308626974483	1
569.7761269573297	170.05492102065614	1
556.5250953717699	416.3032806804374	1
409.6594952984825	450.53511543134874	1
292.6087162927046	428.4500607533414	1
115.92829515190776	102.6955042527339	1
132.49208463385747	13.251032806804375	1
390.4850344951453	499.21772580396987	1
309.729227558579	395.3888290506232	1
297.1439069970362	493.9738421295584	1
223.72953705470314	342.9499923065087	1
175.48580823545572	285.26727188798276	1
426.85665420654254	177.34925025314328	1
426.85665420654254	35.65073441247542	1
334.9028386483396	47.71018256912801	1
291.1870902682103	142.67833680276712	1
518.8104697647454	297.94373181966915	1
414.7971374120241	329.59978323088217	1
420.8268958092833	404.9713342099608	1
371.0813890318948	406.4787652295424	1
573.0782953400784	165.2898020964907	1
472.0798421859866	447.17940275824486	1
609.2568457236337	270.8099734672008	1
447.96080859694973	138.15604374402238	1
573.0782953400784	121.57430252862508	1
356.0069930387468	8.516976060007106	1
546.5500490338729	230.9967202873653	1
601.9041005101877	278.899265969077	1
524.1955282453611	300.18928627206	1
528.4535322050776	402.38138372637826	1
554.0015559633769	410.89739184757144	1
258.0702807630781	336.38232078713105	1
159.07168869966878	269.31875683273466	1
264.4572867026529	316.1568014992972	1
315.5533342192512	195.8681867874434	1
288.94080947102293	222.4807121661721	1
307.0373262998182	288.4797751054193	1
284.68280551130636	275.70576292362955	1
383.6813975747157	385.3493674839919	1
512.4860173561407	624.8620958925504	1
611.48460941955	626.9910979228487	1
131.39466296151136	21.290020302982978	1
265.521787692582	121.35311572700297	1
332.58535005811734	52.1605497423083	1
523.131027255432	26.612525378728723	1
346.42386292719607	488.60596595345936	1
577.4205777418177	461.9934405747306	1
550.8080529935894	493.92847102920507	1
550.8080529935894	468.3804466656255	1
569.9690708123138	486.476963923161	1
497.95187335269446	100.68256654869981	1
553.5370391661752	91.24357593475919	1
580.8052337161846	84.95091552546546	1
235.7576949872193	144.73118941375597	1
153.95311133719105	48.24372980458532	1
406.7082992815091	403.7790429296815	1
290.29408408723816	263.2429604554547	1
