609.656093343815	585.9650377857461	4
494.4645701500052	380.5258394072198	4
472.695446564058	462.06215467780976	6
588.4555282088104	266.3402485999517	2
483.99112274168556	254.82014633845546	3
460.29610177356835	121.67240904088261	2
457.4305198313628	343.45606313678365	7
464.308365981565	285.5187248262273	2
219.35265507197738	13.966953547578214	2
439.319608923076	109.72128890938825	2
426.1650849045908	39.208840716592164	5
336.0456607889519	277.1358444714459	2
530.8233561107309	90.3717616898534	2
584.6828930875097	269.6667071688943	2
413.20996342270155	239.5479099730932	2
577.0302731629542	186.07062105264535	2
486.00294762690453	257.29775491591596	4
598.6160425375411	421.16426951935966	2
503.00779438263544	97.53499392466586	3
599.1396398127024	416.0107697418556	5
370.53695353209963	342.327716824345	3
456.0262727138239	124.14327460414687	2
375.76438331757043	367.62642511322815	2
431.8769080657987	40.19326878025925	2
451.5884902284473	199.5594125187618	6
499.39417762183643	101.2265777166261	3
434.2734375	109.5	2
408.9328827838392	240.67966225573167	4
340.9401186795574	276.02986997999693	4
461.739531690764	380.82858901369445	2
597.9431697792494	111.85955531620249	3
599.234375	330.0	1
462.234375	132.0	1
571.234375	193.0	1
606.234375	219.0	1
457.234375	291.0	1
555.634592593099	4.1951069395291585	1
585.0003405700322	263.2429604554547	1
233.6601415602955	179.34082166487153	1
165.48965518527197	103.82889675334667	1
460.19591166806606	283.1697184182182	1
373.1474444507283	310.43791352515774	1
356.3670170353379	318.82812740421605	1
352.17191018149026	340.8524388367441	1
361.6109006026474	370.2181874134482	1
360.5621238891855	419.51069395291586	1
378.39132801803777	358.68164332974305	1
467.53734866229934	422.6570241575627	1
383.6352115853473	457.2666564086783	1
453.90325138729463	491.87628865979383	1
438.1716006853661	433.1447915063856	1
405.65952256804724	414.2668102785044	1
390.9766485795806	380.7059547622711	1
451.8056979603708	399.5839359901523	1
612.2685351200416	216.04800738575167	1
269.3185498180001	209.75534697645793	1
346.9280266141808	404.8278196645638	1
446.56181439306135	474.04708416679495	1
489.3125	379.0	1
452.3125	477.0	1
440.3125	265.0	1
531.3125	84.0	1
219.74824512562932	20.22551928783383	1
437.9709480611014	100.06309542401999	1
608.2911064497625	117.09511166640638	1
345.3593619372669	278.899265969077	1
612.5491104094791	581.2175542714352	1
593.3880925907547	259.7382476963923	1
363.45587876606214	319.3503045447447	1
488.0024945877706	386.413868499141	1
475.228482708621	427.92940808995786	1
480.3316637548013	135.82308626974483	1
453.8296005836817	193.2442284325638	1
463.7678742728516	341.21409477521263	1
478.1231584905413	467.0989064398542	1
460.45511637646166	490.28821385176184	1
278.25343207501487	215.32928311057108	1
