401.6603553448173	355.79414562257614	5
289.65063442863334	149.05213059871502	2
447.9517655734686	334.3339799294615	4
182.1332882717462	52.877363215682436	3
345.9810745335183	247.23651211737584	5
255.89599775773297	54.814398891703775	3
494.3517148276095	426.32626857837573	2
541.6579046569101	241.02023493561614	4
590.6699634026777	375.1060692891973	5
323.9913371941643	192.02727989550965	4
483.9073997647647	224.2383927042722	6
236.4743801810833	170.6494212717453	4
517.3273434390322	169.92656532666143	6
502.5432359182938	388.2632269174775	3
160.93058684807679	28.342707904915876	6
482.604405157859	476.9175786818565	3
371.1213640324683	222.4601565689137	2
317.664454413031	115.6650806752103	5
326.3161722227699	430.7603607118332	5
281.70444859876454	24.294831985228114	2
202.6917909364562	280.5150424396435	4
228.12052730184752	105.83076329380262	5
453.9466457778999	189.23033875815884	5
579.0176407547876	478.83113832527295	3
599.394904937187	86.65996273401788	4
419.66457143542385	443.71703188787023	5
271.37627181607843	394.4971888177417	2
432.47365955069245	100.06379821958457	2
580.6530239955816	412.2066109034776	6
474.5241632431174	526.7458888548722	3
566.1070937778688	312.75328693320205	2
584.4437328025152	278.5407493896955	6
220.4060721240665	54.27101129963964	3
550.0236487545171	115.71985845389665	4
125.33762282429538	13.204054867629775	2
319.32143252564686	256.27116339896247	7
362.67834155355877	302.7065206190293	4
272.15712901050756	272.1565613825859	3
281.8548434688018	438.43190196323417	4
342.1378282698721	409.1378795126792	3
374.66508113326915	395.6994654831867	2
141.04027244550764	56.70927690145244	2
311.29819858447263	377.2043541003449	2
201.34387382576028	123.1276657262496	3
342.1673288115028	305.25326628393054	3
538.6987090471491	221.14360456036235	2
105.36207240293987	59.54948215757253	2
376.6073199859537	171.4669336774018	5
587.647720335638	370.5927571089687	3
444.5107174667986	336.46404878270585	3
314.7416212062217	255.1088010117167	3
198.1815050080264	179.67041083243578	2
38.42569807146005	114.68272041852593	2
134.14264122234664	53.59291609273689	3
364.8717585700563	222.15186170488937	5
602.3700660247736	421.4928132497166	2
252.73965709670546	51.65617795322778	3
560.9646908728132	311.7376063252055	3
336.91566154096546	299.7214173341914	5
430.86253972820487	105.01878266498281	2
567.5468131833837	508.6313503064448	2
230.3653000780792	30.03592021350298	5
382.73948079267365	203.70695491614094	2
283.42258690323337	147.46314817664256	2
380.3616282224808	340.3774426834898	2
315.9373893186238	112.10955531620249	2
586.946433641747	283.56047084166795	2
474.4793470516229	354.592228967231	4
223.55683892630014	143.34120633943684	2
195.65837283344945	322.4988459763041	2
532.1859681119886	220.28471877345237	2
221.57569282639756	211.1871315371223	5
465.3549010005646	419.7400277373556	4
487.4126914657687	429.45045391598705	2
47.193969995500495	35.329204492998926	2
489.75148153596155	149.4875365440837	2
136.2182036041694	153.01192491152486	2
331.3075302312601	427.50749059120943	3
400.35073720399856	108.28678101145387	3
545.0437839669639	499.07038419057363	2
413.63798293844116	409.29095347984895	4
378.4358485793788	331.2079459883415	2
371.3959595769758	390.18870947342805	4
184.22087489953458	49.06742171007896	3
332.57360336810507	404.0498728115159	4
436.94746658700353	108.48761347899676	2
548.8657997590801	493.490703371515	3
271.38996739613333	227.09057732558173	3
435.23702923480107	509.5823815309842	2
468.578125	492.0	2
233.078125	100.5	2
295.11430915921403	31.48109023948786	2
99.7734375	96.5	2
198.7734375	133.5	2
311.69548640198104	382.6115592733862	4
413.578125	444.5	2
561.4181214942985	306.26688769167015	3
373.3368586996321	335.77579776212184	2
268.078125	353.5	2
451.5189239757759	379.4835965978129	2
269.2043945078431	219.8858049000146	3
65.83965683523826	97.51587514432956	2
237.578125	307.5	2
382.33953299086363	167.53481143804393	2
422.30774218327724	410.49689183588896	2
515.6214592686956	160.00393700787401	2
597.6536362975564	371.3925028412824	2
278.2607273884083	396.78867682946566	2
574.760185550241	474.29102164813014	2
378.77483947711977	388.7419187733112	3
438.08652826574024	116.81869042685454	2
203.4772630241087	274.5184726184332	2
416.37495886421124	276.3529644954778	3
449.0089410524115	193.94015520333716	3
159.87903240752323	23.710798785570923	2
505.62196248510423	383.7515967160999	2
361.46038584001775	223.44312222272637	2
505.38426839689544	235.905042527339	3
415.0643805456312	400.869744835966	2
481.03961575953065	222.97739975698664	3
316.84375	187.0	1
413.84375	289.0	1
424.84375	255.0	1
519.84375	196.0	1
534.84375	236.0	1
560.84375	253.0	1
605.84375	425.0	1
511.84375	390.0	1
261.84375	164.0	1
264.84375	76.0	1
148.84375	98.0	1
131.84375	119.0	1
203.84375	284.0	1
233.84375	346.0	1
320.84375	425.0	1
426.84375	373.0	1
469.84375	423.0	1
497.84375	442.0	1
489.84375	481.0	1
319.234375	392.0	1
341.234375	316.0	1
130.234375	158.0	1
140.234375	115.0	1
108.234375	54.0	1
292.234375	26.0	1
362.234375	293.0	1
200.234375	294.0	1
162.234375	193.0	1
331.234375	438.0	1
399.234375	366.0	1
591.234375	405.0	1
495.791200604621	149.0741190765492	1
534.4400427291703	215.32928311057108	1
536.6485479934303	244.03985419198057	1
321.3192847280841	183.3059538274605	1
484.3897166522346	231.17896915329237	1
198.08197005043692	139.9344608896169	1
128.86471263022213	62.84858321858097	1
215.5751463116844	423.68837362047765	1
457.6936612115552	-28.2777685269984	1
463.0740726537745	-64.14809726886156	1
562.3834024967268	318.8754918539695	1
372.6529151978351	169.98975828081603	1
399.00437176712563	350.4972405774711	1
238.26048669445348	164.71946682689912	1
205.3211659828403	143.63830101123136	1
489.9168969311779	437.4570495671005	1
579.5118492667657	465.12607970016444	1
425.35582833641615	434.82190384014206	1
447.75456642031315	384.75413502793117	1
201.36844749744674	1.3404317554741052	1
242.21320517984705	299.111898901781	1
297.09433015709726	156.77082469954414	1
268.84733488222065	69.2051388313303	1
236.3632903161125	111.57563199336926	1
319.6919263769986	384.15913800248654	1
277.32143346468365	358.7368421052632	1
227.8891917336495	56.493990882718606	1
242.01268937108782	169.48197264815582	1
58.3125	122.0	1
75.3125	117.0	1
127.3125	110.0	1
109.3125	65.0	1
140.3125	62.0	1
203.3125	87.0	1
171.3125	193.0	1
198.3125	330.0	1
240.3125	384.0	1
280.3125	402.0	1
390.3125	470.0	1
474.3125	537.0	1
394.3125	360.0	1
357.3125	294.0	1
346.3125	254.0	1
377.3125	167.0	1
370.3125	210.0	1
540.3125	235.0	1
573.3125	407.0	1
479.3125	346.0	1
249.3125	177.0	1
281.3125	154.0	1
512.1431332567258	164.65794737651947	1
447.11897702208796	186.68225880904757	1
323.3633248335837	117.46299430681644	1
344.3388591028217	243.3162024926912	1
413.5581221913072	439.43745191567933	1
164.9980411008367	24.12186490229266	1
134.58351641044158	61.877827358055086	1
261.48549873933155	169.90183105093092	1
411.46056876438337	274.77950453915986	1
299.73307450839525	9.438990613940607	1
555.634592593099	117.46299430681644	1
524.171291189242	166.75550084628406	1
435.0252705449804	125.85320818587476	1
302.87940464878096	33.56085551623327	1
261.97711282376684	70.26804123711341	1
195.9041798756671	6.292660409293738	1
188.5627428814338	97.53623634405294	1
206.3919470102861	80.75580858593631	1
512.6347473411611	235.97476534851518	1
515.7810774815467	187.73103554392983	1
611.2197584065798	297.85259270657025	1
585.0003405700322	406.92537313432837	1
591.2930008508037	523.3395907062626	1
602.8295446988845	554.8028927527312	1
592.3417775642655	584.1686413294353	1
506.34208706038964	538.0224649946146	1
464.3910185219136	499.21772580396987	1
476.9763390834565	483.4860747807355	1
429.78138697767093	508.6567164179105	1
458.09835824114225	538.0224649946146	1
490.6104363584612	552.7053392829666	1
380.4888814449616	465.6568702877366	1
332.2451526257142	460.41298661332513	1
337.48903619302365	406.92537313432837	1
270.367326531462	399.5839359901523	1
235.7576949872193	389.0961686413295	1
237.85524841414312	340.8524388367441	1
457.04958152768035	377.55962455762426	1
395.1717554334282	354.48653639021387	1
361.6109006026474	331.41344822280354	1
411.9521828488186	280.0233882135713	1
425.5862801238233	245.41375596245578	1
421.3911732699757	317.7793506693338	1
356.3670170353379	281.07216494845363	1
265.1234429641525	358.68164332974305	1
266.1722196776144	224.43822126480998	1
318.6110553507095	194.02369595322358	1
266.1722196776144	176.19449146022467	1
165.48965518527197	187.73103554392983	1
194.8554031622052	201.36513309739962	1
136.12390720833875	173.04816125557778	1
126.68491678718165	115.36544083705186	1
52.2217701313867	15.731651023234345	1
78.44118796793421	37.75596245576243	1
58.514430412158106	95.43868287428836	1
143.46534420257206	93.34112940452378	1
144.51412091603396	124.80443145099247	1
79.48996468139612	169.90183105093092	1
174.9286456064291	218.14556085551624	1
213.7333840045194	304.145253115864	1
248.3430155487621	308.34036005539315	1
393.2619064840779	110.70810557551148	1
443.29345301074704	124.54661877245042	1
298.5213183803851	14.903014212088085	1
418.80993024237705	406.63938778697485	1
383.6813975747157	335.3178197719819	1
365.58488074592043	327.86631266593787	1
379.42339361499916	177.77166952990785	1
60.0730966362595	17.032016242386383	1
202.7162292867632	8.516008121193192	1
150.55568078023572	119.22411369670468	1
166.5231956291727	196.93268780259254	1
398.5844114337235	486.476963923161	1
228.2642530450624	140.51413399968766	1
276.1667975918733	228.867718257067	1
222.94174809541673	203.31969389348743	1
