502.249821258565	376.4015661509237	4
48.52909968525303	99.72491800991733	2
249.79798449369792	356.3667707916752	3
297.2646743327348	94.97398759786917	2
528.5885369481698	39.41093657886645	2
301.3307364275182	227.39018956206127	3
352.5509308704012	181.185771655944	3
286.92195913963644	138.55732419766653	5
389.89988490947167	380.5348363668481	5
278.28751229220654	305.23451045203535	4
247.51282824369792	77.42940148037974	3
89.80974927967078	101.73513412724154	2
226.36335860647094	315.66839613424986	3
265.1924139466437	163.9411456058205	5
433.989885877226	299.6284272707094	4
345.6773571301649	121.42644912025688	3
150.79080099367098	144.93724158961635	5
134.3582260912483	187.6814768641453	6
256.1484282916423	237.07324551820312	3
328.64375782588274	444.32855484975005	2
470.99341899367846	219.02494389092288	2
409.85206660669724	94.97398759786917	2
384.53883001252143	106.50371167619546	2
147.68289673813126	225.35669535900462	4
247.69660844404052	22.788212108329844	2
363.60083557173846	264.97579931242933	4
93.77518739793753	31.39452703827748	3
94.64838357023068	207.865059702166	5
481.1013023909377	464.38800300640264	3
546.5581287762059	363.62791732104756	2
470.132363493679	180.38024310187353	2
181.0875382464087	125.14865830929098	2
409.390625	469.75	3
498.1691667505055	371.5665856622114	2
525.23828125	50.25	3
584.078125	106.5	2
185.578125	246.0	2
473.76025744282185	176.14123917411814	5
536.7734375	365.0	2
368.2734375	272.5	2
299.890625	223.75	3
348.88158259038715	185.1163436516551	4
503.37767201476544	141.2764277035237	2
572.5457231875274	43.490400972053465	3
474.1218494905054	51.251032806804375	3
527.9201983360653	152.14131227217496	2
191.1649870683732	334.2942891859052	2
539.4878850093327	444.4843256379101	3
405.2638568309734	464.7277825579479	4
596.6521588802896	53.054191980558926	2
613.2055731743785	90.93237436008275	3
296.92157439182097	100.36524908869987	3
442.427348315126	294.46986634264886	2
245.12585311111545	356.12150668286756	2
371.5529206141789	9.115660308798281	2
468.50125358462077	133.35941676792226	2
253.44087458407765	229.9465370595383	2
293.13643111169483	363.88281019050396	2
231.24600451277786	321.9708991494532	3
302.23443249093725	298.02199270959903	2
579.2138851911197	44.63718104495747	2
92.1572123725241	174.25671324422842	4
417.8975265572508	24.48558735670335	2
298.546875	11.0	2
592.921875	426.0	1
543.921875	450.0	1
466.921875	411.0	1
452.921875	378.0	1
394.921875	376.0	1
369.921875	405.0	1
255.921875	403.0	1
298.921875	364.0	1
188.921875	370.0	1
187.921875	347.0	1
286.921875	303.0	1
550.921875	362.0	1
577.921875	391.0	1
570.921875	420.0	1
529.921875	534.0	1
469.921875	493.0	1
566.921875	549.0	1
605.921875	530.0	1
496.921875	276.0	1
304.921875	269.0	1
251.921875	257.0	1
157.921875	258.0	1
572.921875	179.0	1
554.921875	224.0	1
534.921875	158.0	1
513.921875	137.0	1
437.921875	140.0	1
467.921875	83.0	1
533.921875	48.0	1
583.921875	81.0	1
480.921875	56.0	1
418.921875	71.0	1
351.921875	122.0	1
268.921875	96.0	1
179.921875	130.0	1
373.921875	22.0	1
298.921875	73.0	1
272.921875	57.0	1
284.921875	30.0	1
105.921875	16.0	1
53.921875	92.0	1
586.921875	361.0	1
576.921875	507.0	1
494.921875	527.0	1
509.921875	494.0	1
450.921875	29.0	1
221.921875	55.0	1
183.921875	61.0	1
170.921875	48.0	1
319.921875	21.0	1
184.921875	35.0	1
338.921875	420.0	1
312.921875	55.0	1
12.171875	157.0	1
104.171875	23.0	1
152.171875	229.0	1
403.171875	100.0	1
570.171875	411.0	1
485.171875	458.0	1
532.171875	529.0	1
567.171875	542.0	1
193.171875	341.0	1
442.171875	136.0	1
81.70284480089889	168.1072331299308	1
161.05781468200107	247.46220032169938	1
238.3244958820216	357.0973523629586	1
475.3452611847873	57.427936783516735	1
433.5794875631546	293.40454974851275	1
587.3125	97.0	1
497.3125	270.0	1
458.3125	401.0	1
487.3125	452.0	1
324.3125	449.0	1
282.3125	311.0	1
249.3125	71.0	1
561.3125	538.0	1
182.3125	252.0	1
176.6621899190567	125.88481166464156	1
244.02160047898548	81.71470230862697	1
261.6896425930652	100.48699878493316	1
522.2932637757406	44.17010935601458	1
369.90640054180324	331.27582017010934	1
490.2699374439711	459.3691373025516	1
490.2699374439711	279.3759416767922	1
412.97225319487245	22.08505467800729	1
14.337052995949561	17.668043742405832	1
302.54698998187445	7.729769137302552	1
580.8186532786295	100.48699878493316	1
469.2891374335015	58.52539489671932	1
447.20408479090185	415.19902794653706	1
505.7294742937908	371.0289185905225	1
479.2274111226713	456.05637910085056	1
176.6621899190567	244.03985419198057	1
85.0092214522683	174.4719319562576	1
58.507158281148776	60.733900364520046	1
184.39195834396654	53.0041312272175	1
240.70884258259554	76.19343863912515	1
290.40021102844463	142.44860267314704	1
259.48113732880523	163.42940461725394	1
379.84467423097306	115.94653705953827	1
414.07650582700245	89.44447144592952	1
429.5360426768222	135.82308626974483	1
309.1725057746543	219.74629404617255	1
136.90909516237738	175.57618469015796	1
566.4633690609397	178.88894289185905	1
545.4825690504701	355.5693803159174	1
553.21233747538	382.07144592952613	1
575.2973901179796	417.40753341433776	1
602.9037059212291	522.3115431348724	1
573.0888848537196	548.8136087484812	1
535.5442953613003	535.5625759416768	1
330.15330578512396	439.4925880923451	1
259.48113732880523	393.1139732685298	1
198.7472425616563	369.9246658566221	1
100.46875830208803	102.6955042527339	1
110.40703199125785	12.14678007290401	1
315.234375	294.0	1
286.234375	148.0	1
142.234375	234.0	1
223.234375	312.0	1
253.234375	363.0	1
297.234375	372.0	1
452.234375	387.0	1
234.234375	69.0	1
289.234375	95.0	1
348.234375	131.0	1
414.234375	103.0	1
451.234375	337.0	1
512.234375	499.0	1
570.234375	173.0	1
178.234375	289.0	1
583.234375	431.0	1
576.093174538708	38.665596451638564	1
476.602160983931	62.784492764943735	1
93.71250275797118	163.78237107690913	1
181.14399951822972	240.66135307556937	1
529.3625469599491	159.26007801816442	1
374.09626823052446	3.994683001262387	1
446.453368997635	371.8078517791662	1
606.241966525004	201.46814656644847	1
591.167570531856	103.48513029364621	1
460.0203253914682	136.64861272444082	1
374.09626823052446	418.53821338619497	1
414.7971374120241	471.29829907155005	1
292.6945298675251	358.24097260293206	1
460.0203253914682	411.0010582882871	1
544.4369429530971	436.62738562117386	1
598.70476852843	272.3174044867824	1
491.67655697707903	273.82483550636397	1
