595.161240133468	265.55155434770177	7
512.5287782541892	36.99801077331813	4
117.76891932269815	66.7016387632357	3
353.42743388100945	420.96150163887876	7
529.122626609932	129.42956764822404	5
491.5444395333461	145.77066351174318	2
442.6102315210138	332.0372066905039	5
404.6291004596932	39.98129922443786	5
587.4026872581451	330.084221540968	5
433.81827149275694	406.3316982883311	6
226.1115775701054	165.29823623023367	6
281.57115100097917	170.39609107800644	5
435.7079705250354	52.842890944709936	4
302.5985088050596	206.57446322856873	2
167.84078228993835	222.67695394292684	5
178.79495897324944	33.14776063060024	5
325.29286739430836	352.5147419356721	6
377.38314566729156	36.66804374240583	2
403.822362680144	6.95573877428007	2
189.02167193624325	182.70510328068042	2
361.21950395658405	214.6072418590238	2
395.2685987675043	425.49148539659126	6
540.2657669859295	151.80521563954852	7
154.85465559167824	206.61677242951274	4
266.74746618645446	185.72157478963828	3
208.49900812541307	57.210571081409476	2
517.7734375	541.5	2
527.8654058973584	125.08246246556973	4
401.00872141879154	11.431822302311588	3
444.99798384196197	336.5129414597419	4
587.2681426707849	124.80119921334799	5
261.68473359921074	56.67068010463149	3
563.6237206339875	538.6615126822276	6
255.2734375	160.5	2
280.76280633951416	416.7027040429123	3
353.0640283022718	500.16646857744	4
457.29270946472377	180.44556675817756	5
584.7014158114214	123.34279433426539	3
292.0931895853281	53.20150773124408	2
429.6036464907963	403.7349187335175	3
420.3103520746779	265.8436457561936	2
229.58460174984032	197.6614757461292	4
380.2082424139297	234.26385968685048	3
502.78077292729705	545.00465233626	2
203.31855039386733	61.07495822022292	3
520.0780300617098	614.9476819712528	3
265.6563992445765	281.419748391656	2
248.63753167687207	160.420909389244	4
327.18989021881396	220.96124666124985	4
530.7596729514055	557.1645985726386	3
519.5162327380655	533.3489466184471	2
415.9885762762476	467.6304884706201	3
410.62317148401996	76.61667740903872	5
511.1458631105637	31.601283393587735	4
370.7877242979424	204.7829381529939	3
335.22058754939405	291.9464842913251	2
482.62647531423784	235.6355390676233	4
399.38545076485195	427.5554007834759	2
562.3336271076944	225.43310829561958	5
439.474316365992	54.66051032806804	2
425.157984165127	470.9729313169385	2
467.6053772685558	421.96439854191976	2
237.10804864645092	309.5200321690034	2
339.5841655089286	277.92025008669634	3
183.59832231246327	182.37063441381582	5
333.1673951828527	219.2189431501732	2
304.45237387814495	288.87349289114195	3
501.66686823127185	547.9550332943041	3
383.36107003909945	230.57990898594036	2
488.9606246183419	234.26609621880084	2
362.3030134570042	224.54571322249097	2
586.441345819323	324.68956734361205	2
265.7032973388072	276.9385290044622	2
267.2032973388072	92.14617633482075	2
373.17655871606314	35.096289721316445	4
296.6917819248878	207.4410707342931	3
432.6928261961409	181.20221759750302	3
311.82196509509214	457.2136441217146	2
319.4714918888167	352.2188798276658	2
597.6158788410232	489.708876799052	2
459.08903261059424	420.58580692010383	3
457.6883667400358	191.5699878493317	2
387.08688826721607	429.49695455255346	2
286.99084075061774	171.16008121193192	2
561.8106185379866	217.07278042775812	2
173.00778729444463	227.90160862095894	2
608.3381619447204	508.9062460659294	2
523.3040234738521	608.6887943815825	2
245.12585311111545	166.74216281895505	1
301.44273734974445	284.8972053462941	1
230.77056889342572	311.39927095990276	1
579.7144006464995	330.171567436209	1
396.40846371292275	333.4843256379101	1
566.4633690609397	535.5625759416768	1
528.9187795685204	545.50085054678	1
284.87894786779475	422.9287970838396	1
590.7569269677994	488.07970838396113	1
180.72969180276522	26.21941837205724	1
372.655830366293	230.73088167410373	1
366.36317008552163	457.2666564086783	1
363.2168399451359	374.4132943529774	1
453.93846291003837	427.92940808995786	1
369.84288470563695	464.12244260502894	1
342.1658589674795	285.2862720599719	1
413.48742529273136	267.18975480243637	1
270.8442926422277	275.70576292362955	1
302.7793223401016	295.9312822114634	1
437.234375	413.0	1
455.234375	340.0	1
407.234375	83.0	1
443.234375	47.0	1
544.234375	159.0	1
235.234375	193.0	1
196.234375	68.0	1
415.234375	259.0	1
300.234375	51.0	1
236.80647170068121	316.73057393445146	1
400.4156390007377	321.9744576088629	1
527.3176213296276	554.8028927527312	1
363.7084540295712	462.5105400830897	1
405.65952256804724	357.6328665948608	1
276.65998681223346	303.0964763809817	1
514.7323007680849	610.3880597014926	1
557.7321460200228	514.9493768272042	1
609.122204979656	514.9493768272042	1
359.8773611562425	418.0430618759764	1
366.82159760387674	451.37539903552266	1
591.8148585072265	262.492155131427	1
562.6490654271627	512.4846838280242	1
437.6528093697461	177.77246485091354	1
516.8171048727766	31.943489777898527	1
534.8721196366256	124.99626434829858	1
234.88110509882594	201.3828703389255	1
346.71709526707366	419.6160388821385	1
180.30073815801066	176.08972820252862	1
268.434093304431	84.77083117806998	1
309.3125	452.0	1
463.3125	415.0	1
240.3125	323.0	1
306.3125	282.0	1
174.3125	180.0	1
565.3125	231.0	1
345.3125	280.0	1
595.1739374963192	494.7052247873633	1
559.8378532681598	231.89307411907654	1
587.4441690714094	131.40607533414337	1
417.3892637233924	80.61044957472662	1
273.83642154649493	85.02746051032807	1
208.6855162508261	62.94240583232078	1
250.64711627176536	155.69963547995138	1
245.12585311111545	313.6077764277035	1
287.0874531320547	414.0947752126367	1
525.6060216721305	616.1730255164034	1
