293.1269426932573	174.91132793566806	4
321.2870805423007	393.26757736344405	2
389.57749308174385	370.75736602965605	5
56.262690629153326	124.99539827378477	3
143.83754212429824	146.56609694821154	4
183.69535604887096	290.3619842397406	3
209.65625128016552	318.4215353030042	3
167.32787838701356	96.09252591538734	2
426.82080246449414	461.0694889261868	5
519.6480733706785	225.49663791346873	2
209.12564657423852	116.52780654716648	3
372.40521039412135	328.18625189386023	4
148.61112426124552	230.7201407187501	2
178.54682803446929	176.38973012278836	2
557.2486025189596	303.1672866939766	5
437.219951414039	491.95093922528844	4
516.3351019273383	328.1987795192148	5
131.60605563214364	90.6654642018002	2
561.6395258416212	382.597007060568	5
153.28917514457748	353.52223588779395	6
386.68416644304307	373.90555566899513	3
412.1977734016167	32.82917457035512	6
518.6911681569636	219.0284405657698	3
53.423778414000196	122.809187035337	5
82.50448177793919	267.6667071688943	2
7.711537203169679	101.59125151883353	2
10.7405533078291	184.33482280659211	2
446.78464009807976	528.037730649908	3
325.33675943398316	390.6418813474809	4
244.50882413773178	10.870202417504599	5
125.91838307398936	270.3287025183985	3
150.76834637903656	142.76818237667743	2
84.76304515220271	59.654740235909266	3
225.22020717761495	152.77224713791998	5
85.63233996785682	162.39379632166515	3
152.63648331796315	258.1416322578462	2
459.72353306469336	204.9370164622018	4
538.0786007399138	283.9204947251503	2
515.1445484568546	273.21283853932476	2
122.18558022289008	6.825393706985	5
32.63183571235737	92.32056223911913	6
544.2188977705066	281.9263472069822	3
205.38430055270157	169.00986031224323	2
179.50867964360657	407.856174306457	3
104.52038742404218	102.98991438492327	2
290.5119718785405	117.6157485767041	3
294.87022217964426	464.4336151827604	2
202.99985507420604	116.34136020926297	3
508.8370077436567	369.584705339283	2
499.126504557306	403.20135383953254	3
47.43743044306636	182.97383923665234	4
132.55573786396855	31.84063795567	3
286.0410888666577	260.9022640925971	2
165.48376181456877	99.76985300058172	3
296.63726661841065	171.63554986895696	2
110.07230153193834	284.1130114591807	2
155.65719402532648	66.06085551623326	2
367.24860176441604	99.48052993291613	2
81.72817392210071	26.53288868971741	3
76.47229268939735	270.2323636668457	2
328.54954946243026	394.8590035255447	2
525.8850336052045	405.3187077278202	3
367.9914351392066	324.7687106175976	3
253.43977106357445	403.5484076769195	2
268.0401263474288	98.91593105173484	3
130.41238327881032	54.33272146966888	3
390.40891612034716	187.6137511310566	2
241.80629595904767	83.1313093037585	4
320.5172963554618	369.57477626710306	2
259.05456584001644	379.69968457603306	2
106.13269897978847	240.82379993108384	2
386.5371731138911	79.86103173077441	2
204.32995786146682	121.80491333127704	3
289.7121413387514	112.68479570293985	2
35.9256913801261	54.16427418815374	2
584.1152200639058	373.9056908845124	2
217.5302485801625	276.2616164649784	2
313.59402884948236	133.5973226650254	2
239.97160879129777	304.33475091130015	2
111.42495612775892	147.38068043742408	2
382.3125	93.0	1
427.3125	247.0	1
113.3125	293.0	1
405.3125	412.0	1
181.3125	413.0	1
385.365937391623	182.20170109356013	1
162.30690570136693	106.008262454435	1
160.09840043710696	72.88068043742406	1
134.7005898981174	27.606318347509113	1
101.573010934218	96.06998784933171	1
145.74311621941723	138.03159173754557	1
85.0092214522683	232.99732685297693	1
591.8611795999293	298.1482381530984	1
437.265811101732	245.14410692588092	1
554.3165901075099	377.65443499392467	1
494.686947972491	394.21822600243013	1
245.12585311111545	412.99052247873635	1
244.02160047898548	375.44592952612396	1
158.994147804977	279.3759416767922	1
205.37275835443617	313.6077764277035	1
103.78151619847797	286.0014580801944	1
113.71978988764779	251.76962332928312	1
210.89402151508608	441.7010935601458	1
149.234375	150.0	1
80.234375	171.0	1
54.234375	133.0	1
44.234375	195.0	1
137.234375	216.0	1
172.234375	188.0	1
74.234375	281.0	1
118.234375	279.0	1
287.234375	127.0	1
461.234375	218.0	1
212.234375	328.0	1
175.234375	381.0	1
178.234375	421.0	1
317.234375	407.0	1
342.234375	371.0	1
392.234375	385.0	1
541.234375	292.0	1
355.234375	428.0	1
262.234375	384.0	1
221.234375	159.0	1
187.234375	301.0	1
554.234375	390.0	1
479.234375	401.0	1
427.234375	372.0	1
156.234375	271.0	1
313.234375	378.0	1
528.9235606721162	212.9016771811048	1
581.3623963452112	367.07185720880136	1
324.4121015470456	449.92521926450223	1
364.2656166585978	419.51069395291586	1
390.4850344951453	81.80458532081859	1
372.5324352752628	97.55983778195987	1
263.04862601451066	188.61568637845576	1
279.3085976868996	298.0995043337663	1
289.06458069033295	253.65557823309567	1
425.64834273839995	455.2792429824794	1
562.232104786467	467.2032231558301	1
603.4240330231855	456.3632411800567	1
341.0964900419775	363.1393961884062	1
148.14482619629555	257.991571023405	1
141.64083752733998	201.62366474938372	1
99.41672223717222	101.73134328358209	1
81.58751810831991	155.21895676257887	1
37.53889614292009	49.29250653946761	1
31.246235862148687	209.75534697645793	1
136.12390720833875	206.60901677181107	1
163.39210175834816	294.7062625019234	1
108.85571265832934	247.51130943222034	1
87.88017838909133	241.21864902292663	1
114.09959622563883	195.07247268810588	1
106.75815923140553	136.34097553469766	1
385.7327650122711	84.95091552546546	1
164.44087847181007	200.31635636251733	1
179.12375246027668	168.85305431604863	1
134.02635378141494	339.80366210186185	1
156.05066476411486	358.68164332974305	1
211.63583057759558	447.8276657947377	1
552.4882624527133	298.9013694414526	1
592.3417775642655	531.7298045853208	1
599.6832145584988	460.41298661332513	1
572.4150200084894	369.16941067856595	1
573.4637967219513	254.85274657639638	1
448.65936781998516	388.04739190644716	1
474.87878565653267	393.2912755808586	1
358.4645704622617	421.60824742268045	1
299.73307450839525	469.85197722726576	1
288.19653066031435	293.6574857670411	1
458.09835824114225	414.2668102785044	1
605.9758748392702	386.9986151715649	1
590.2442241373417	413.21803354362214	1
536.7566117507848	210.80412371134022	1
611.2197584065798	98.58501307893522	1
267.2209963910763	325.12078781350976	1
340.63536633340937	334.5597784274504	1
108.85571265832934	313.5842437298046	1
261.97711282376684	457.2666564086783	1
160.09840043710696	196.5569866342649	1
534.4400427291703	372.13317132442285	1
529.3167304785183	373.599945663248	1
509.8728684251423	363.87801399171366	1
458.48551871264885	199.99402295727774	1
250.15842528362128	411.0988249677376	1
127.93986380525847	274.99178156625686	1
107.10715446235571	98.6081640969911	1
