314.23009897539185	176.59008662826776	5
274.3723467774994	365.38184479597214	7
23.01354810372144	282.95694714786475	2
278.87311705445074	332.7490426147982	6
409.24081748993007	275.37699251509275	6
506.2154082171214	411.6683366185198	6
530.0207854270225	452.68256778960074	4
419.6051908984692	331.3144809798944	9
97.66896145812947	14.243026945486033	6
158.0830114024885	280.1879708383961	2
78.41244681371131	281.3560440460323	2
305.6013948680298	218.04598070433082	5
615.938498416571	358.26765942945997	6
41.60652440932198	238.1840437833386	5
84.18348300479789	248.99058105591558	3
562.0569904501449	138.06792223572296	2
11.17491801407247	195.04661148915892	3
171.70852719526837	304.2826245443499	2
4.113840497213304	17.632878109111054	4
423.21381294915113	370.63945929526125	4
469.85372814834426	477.94229320600624	4
500.20309419186447	296.1438875318468	3
511.72509308529027	414.45389675334667	4
531.05859375	449.0	3
47.56670943378407	242.38490618874266	2
169.22988002434832	299.47892530173596	6
85.98552174382806	244.88506965814798	5
557.7905784886991	143.3395370931202	4
24.668265870800074	155.1241141956361	3
7.629337033220063	196.27193879382287	2
66.39359880825361	95.21738721445075	3
451.8046471491108	346.6292869039075	3
418.1065160297586	374.26924297548965	3
19.6922526109559	149.67024249627576	4
89.41561210457485	164.497868439853	3
382.8479733865696	350.45534952307816	5
494.552241845618	299.18612841855366	3
81.65981491174936	285.3589344406249	3
608.8046875	354.0	2
473.32644142043324	471.69448773285643	5
10.378943685045254	201.1469670704192	2
460.91557340387874	178.69711240256663	1
565.8465973366006	141.7327746306364	1
437.0676134191692	351.5948213357886	1
93.65698963935223	9.376597447273392	1
309.4810275009733	450.5638547251501	1
526.4974633618299	445.7942627545785	1
164.00847159424532	287.2053297330714	1
278.84375	365.0	1
57.75300919481344	13.198587526787211	1
420.085537022558	376.84869784705575	1
555.7955383544041	135.73286383035597	1
268.56466174913754	359.72025062182576	1
312.0445650884669	221.37509995650618	1
44.57728091016818	231.91568286434003	1
16.171875	280.0	1
309.171875	180.0	1
405.171875	280.0	1
379.171875	523.0	1
273.234375	372.0	1
310.234375	172.0	1
269.234375	339.0	1
412.234375	324.0	1
451.234375	360.0	1
528.234375	277.0	1
603.234375	357.0	1
334.234375	296.0	1
378.234375	361.0	1
523.1225144757801	455.1691029389137	1
410.9034061353567	280.0233882135713	1
586.0491172834941	323.02323434374523	1
343.7816964737951	297.85259270657025	1
532.9054838536675	441.54802576309163	1
82.3125	163.0	1
319.3125	174.0	1
307.3125	210.0	1
472.3125	484.0	1
465.97637953711154	183.3059538274605	1
450.5168426872918	341.21409477521263	1
386.47019002375293	356.67363304981774	1
27.588084581509325	144.65710814094774	1
59.61141091327876	93.86148238153099	1
