263.76387800283646	167.52256317580853	6
339.9032846620112	119.90693189990823	4
403.5561003865452	401.96827708487297	6
163.95375636198753	180.19139701275662	2
485.4222257785559	434.47849331713246	3
247.039679578132	36.21297391897287	5
428.3851587463343	448.41599670625493	6
377.43150916678906	276.1116608707721	3
434.141599890762	230.42641005097167	6
395.1849324280338	205.81635336238992	5
567.3530949541021	80.68438556751994	5
611.8712005314767	170.91972133134678	5
194.12031469635804	153.0457499736261	6
203.50463927645518	184.30697520915794	3
145.72878724759664	69.69025815231498	5
251.79464161238673	273.8238591280642	5
112.34164439288	66.37107815888592	3
283.50453511783235	294.31348724179827	2
459.8968720042958	447.663304981774	2
303.34129920901523	72.80658953517676	8
576.3689620661233	124.1538856605753	6
394.57982207742344	375.63215686979447	4
195.57403065513603	241.0957427034843	3
333.95321819609	387.56574832169247	3
608.5790178777665	124.29933536216453	4
351.5394666133509	160.79219996040308	4
388.3584544139707	369.4551032806804	3
466.89915456550415	446.1841536795034	4
293.49184900407835	268.32222848827894	6
114.73364202228218	71.56508085661153	6
586.1105316834779	214.13561419056606	3
570.406269518273	78.50803784622697	5
24.675418466978847	127.01207878135098	3
598.4183132833012	448.3745637834395	4
546.142841945108	125.91579269383837	2
456.24409757622317	19.233973606411706	3
393.1271887236786	369.1319589008483	2
30.1505435463946	74.62839589782165	5
22.680223084610287	15.19904003468589	3
123.76853399368412	163.12010627966856	2
357.2996230457771	53.50092539076307	2
249.36651052481443	40.8658151923008	3
404.7409726249804	407.28096330566495	3
580.6473691290375	219.0760968701992	4
391.564481087551	208.65735947479118	2
338.8698263888293	392.15579395799625	2
363.36452219464866	54.685581911190376	3
199.11875196049226	188.4017574439436	3
149.00708005133765	63.25401394077464	4
536.4954933753925	235.51177104169875	2
530.182750768775	189.28345156879237	4
227.30457449395686	256.5398699103521	3
280.47083360806994	347.4179880557379	3
502.2825000077167	351.8088233408	3
166.72464378276814	174.66612113798803	4
589.4872164606195	445.41693063538924	2
290.8041083121316	293.16996812482785	3
252.11700769391848	189.30016525581937	2
221.90192931388967	254.90198492075706	2
344.3834340631287	160.63371287890448	3
204.00851794636583	191.12607473132672	2
200.1296047950847	153.2873782837995	2
271.9851786965844	169.5664460391643	2
595.1846019645576	439.8211238301685	2
207.10415930828893	201.3828703389255	1
371.171875	271.0	1
461.527764990783	20.57642421665969	1
30.40003958674947	10.024407079588679	1
365.0516306346356	50.72504460829115	1
509.76583216885666	344.6740934266979	1
132.97757706795304	164.65794737651947	1
34.39256600253439	149.97507308816742	1
334.342706052638	118.51177104169874	1
577.658903575799	134.24342206493307	1
147.66045105641965	219.19433759039853	1
591.2930008508037	484.5348515156178	1
464.3910185219136	452.0227727342668	1
388.8790951526568	378.6084012925066	1
273.51365667184774	386.9986151715649	1
506.34208706038964	128.99953839052162	1
248.90017817778875	195.07247268810588	1
327.5584316874313	383.85228496691803	1
346.71709526707366	155.69963547995138	1
337.8830742100338	124.7805589307412	1
546.5868216826001	115.94653705953827	1
608.424969081879	119.25929526123937	1
590.7569269677994	210.91227217496962	1
545.4825690504701	234.10157958687728	1
557.6293480038998	261.7078979343864	1
140.22185305876732	64.04665856622114	1
586.234375	129.0	1
379.234375	156.0	1
348.234375	167.0	1
345.234375	123.0	1
117.234375	78.0	1
333.234375	286.0	1
373.234375	279.0	1
347.234375	392.0	1
258.234375	277.0	1
224.234375	207.0	1
158.234375	184.0	1
548.234375	259.0	1
575.234375	418.0	1
317.234375	342.0	1
289.234375	264.0	1
310.234375	103.0	1
594.234375	455.0	1
160.1431955575044	176.121078998076	1
432.1293869857633	236.90011147840818	1
530.8953224206059	180.67950643410092	1
503.5447556848033	343.26341831898947	1
293.8570773769836	282.4843858386573	1
284.7402217983828	338.7049908829646	1
538.4927020694399	229.30273241836667	1
272.3125	163.0	1
200.3125	246.0	1
312.3125	70.0	1
352.23835842772354	155.69963547995138	1
225.2493057327758	248.456865127582	1
