358.80189364149544	431.83172153584934	6
466.34442716314976	529.5292825412754	2
13.78605303766362	233.61365095227046	2
257.77516766172516	68.81975421556398	5
154.03638821471083	336.60544094067836	4
112.44446702025282	84.00939398660523	2
440.8541613445941	242.7861662517849	6
215.16334392872773	244.2274324104317	5
52.07888506024943	26.69890643985419	2
341.61825889607223	346.55943917933234	5
327.7173600542358	105.66054974230829	2
114.72325889203185	91.32308816741038	3
160.81686616452	337.6361767122153	4
338.74298038010954	351.9063554392567	4
52.50694067226992	21.750512294498474	4
206.5390625	244.0	2
444.2927775701303	237.33949267820896	3
471.3483558779678	525.5524630352443	5
335.2061003937599	106.99930004912333	4
66.90203422231642	129.51207878135097	3
365.7734375	429.5	2
107.53850759383971	89.49812757015806	2
210.8879964475379	238.59157829712754	1
341.0897270393617	403.7893251980444	1
329.16574704700696	110.45941900788853	1
62.20209861611776	125.61111978759956	1
532.234375	286.0	1
529.234375	327.0	1
153.234375	344.0	1
220.234375	340.0	1
71.171875	123.0	1
335.67456894577384	113.73803159173754	1
