436.1837890548406	59.04029955374939	3
310.94889435276804	63.04208165821584	6
282.1902441427423	168.41747357328214	5
488.8628963026738	446.82591038471486	4
581.0864665415322	8.155998667436272	3
258.3489782138279	50.15776987520448	6
585.6217983831787	122.26768748042056	3
365.70382729185144	419.72183274574354	6
485.5732351705849	337.29603035221646	4
209.2407100807856	223.46070461617626	6
431.8566080214911	56.35121374750969	4
266.9660491776781	49.620248150690145	3
234.5693802471239	122.28715126431254	2
207.13655461820443	36.59651725753553	2
493.31193776367274	58.773777916601595	2
503.45590194863536	493.9836698568903	3
481.6033511697357	454.68005287427786	5
414.35685932559267	313.7309714623094	3
346.7392537883869	26.21956193881236	3
573.2974700011689	233.7546866379107	2
582.5330090667466	126.71338000344429	5
494.7556878875117	120.53343575452175	2
501.86460819870047	499.66537059538274	2
159.44725797621146	157.31166452702882	6
569.0762844162277	225.90160862095894	2
416.66814990375366	372.85966004695933	4
489.5642605874109	126.13020710637687	3
340.27223567902604	274.6339229086305	3
509.56813219317667	497.52873652975165	2
320.36694958099633	405.72981042077606	4
487.183615544223	53.084091593996796	3
217.5693902268185	253.66468520129064	2
475.7988114296845	177.68328073678316	3
601.1261741058171	608.1431585530179	2
301.5326246653375	328.09693519666234	2
200.1994854292452	188.10957394098187	2
376.8048884476267	420.5448030532949	2
580.6154933366523	231.61676695807992	1
346.962355442858	281.36199060427185	1
212.80023110384056	216.54245676226418	1
328.7803114777003	404.2022032327808	1
410.6236637265827	82.01070610796286	1
214.1393821956767	248.59493523786236	1
575.2915757619595	12.774012181789786	1
542.2920450741564	7.451507106044042	1
310.2308292696056	71.32156801499298	1
478.4219856784084	344.89832890832423	1
495.45400151727455	331.0598157113853	1
286.81180749116464	195.8681867874434	1
483.84375	348.0	1
316.84375	67.0	1
426.84375	60.0	1
488.3125	332.0	1
412.234375	380.0	1
503.234375	131.0	1
582.234375	18.0	1
402.234375	86.0	1
155.234375	162.0	1
275.234375	170.0	1
211.234375	267.0	1
192.234375	115.0	1
479.234375	184.0	1
460.234375	157.0	1
537.234375	443.0	1
369.234375	424.0	1
306.234375	336.0	1
277.234375	301.0	1
275.234375	264.0	1
223.234375	252.0	1
277.234375	197.0	1
340.234375	283.0	1
485.92371542017827	130.04831512540392	1
