454.23346667354235	431.2354661098994	3
187.47296245336935	266.3495816906636	4
100.45660187400699	155.83282609471428	5
234.87645142222286	255.30397254694623	2
350.6174690086516	78.17996840668884	3
450.01027912777056	114.7592327429098	5
425.02726664027915	130.30505204073182	4
319.7651412099176	208.63194135756817	4
81.40409393467107	96.61856982896049	5
47.52584366932556	40.35940355059978	2
520.5835341344684	89.02120923185382	7
413.4923193821197	324.7077051750132	3
142.34859865317637	200.8901713892605	4
174.39599241442568	102.05017017239362	2
354.17469343205903	380.9648100590982	7
605.6131234248077	342.03166839678386	5
497.203052263832	372.73142177711	6
418.67203411230395	314.8395424817456	3
326.2888233475242	208.75033567731356	2
297.6781741464241	356.00453187632445	2
422.1862095788732	134.3473076824878	2
371.7164326713444	59.619869757804125	2
343.1272774680517	83.22162790103914	2
132.39967510740559	107.26567762419897	2
507.49612754104675	396.3432736742666	2
176.87540559819365	96.80107242401327	2
591.1067481172853	6.479986385229129	3
40.76623869161056	44.07770585475374	5
232.05372248189482	211.76351350035628	3
235.28378518420925	249.07748152707464	3
367.43129833497846	65.10852476449577	3
140.08635797017502	195.98078390776834	4
498.19159729541525	400.6960957122334	3
51.90966177915525	83.16834972902231	2
305.28419520262855	355.7863439475994	4
228.0078125	212.24166870117188	2
454.49879631868606	142.74268744023118	3
452.7970783062234	117.24232049503037	4
76.7750205787983	94.00681347690579	3
503.71431598875404	405.207810112569	2
170.15565745213297	96.88792197090568	3
430.944987473845	133.07999220453866	2
373.95500024412763	345.69093465721585	2
180.720843589832	266.02858208741065	2
366.96378589949177	346.5481612555778	2
410.6682161717962	316.6938884750706	2
451.93924279469877	426.9016771811048	2
228.875	252.0	2
302.234375	366.0	1
411.515625	462.0	1
104.515625	148.0	1
206.515625	24.0	1
392.515625	151.0	1
126.515625	119.0	1
236.515625	106.0	1
173.515625	109.0	1
229.3257159407187	218.04903891869876	1
519.4845702509591	80.75580858593631	1
84.24223416427036	92.29235266964149	1
221.63198362777933	337.70610863209725	1
209.37340681018955	12.909461359657934	1
320.8641980560198	203.03061956552932	1
442.91727478829716	428.35939966137687	1
252.5	227.48333740234375	1
177.5	274.48333740234375	1
135.5	186.48333740234375	1
108.5	157.48333740234375	1
44.5	36.48333740234375	1
410.5	149.48333740234375	1
417.5	333.48333740234375	1
468.5	424.48333740234375	1
441.5	448.48333740234375	1
353.5	376.48333740234375	1
370.5	335.48333740234375	1
323.5	215.48333740234375	1
427.6838335507471	138.43852900446223	1
400.4156390007377	149.97507308816742	1
207.440723723748	18.877981227881214	1
367.9035608834188	352.38898292044934	1
300.78185122185715	351.340206185567	1
389.9278718661187	87.04846899523004	1
98.40915424955199	150.35677994229835	1
525.4641895307466	83.53154441238797	1
196.5587222603889	263.1243648990221	1
381.3722705361137	347.70005361656496	1
303.5028976160697	360.9161836421345	1
90.40844884942989	42.85244004306233	1
372.4452192758649	64.78787063610179	1
