453.70186132671006	211.82720047802275	7
250.3514957709265	284.468364215258	4
240.3629669829274	52.89267436821798	7
579.5272581751317	252.49400691681234	4
305.2253303107157	332.14037239012526	2
64.3922459063537	10.4075503999409	2
510.7261099657819	241.81159909930432	2
235.9666597073814	264.62830951439537	3
339.90314450922057	62.848478086732825	2
312.4094197792374	273.7551709963051	3
370.2433838536365	260.7521573962183	2
389.7933771851148	282.5883703872597	3
283.30987379262274	133.48546862468777	6
482.7225082368419	199.23220154197685	4
432.0494196432535	354.26115941646344	4
235.71426704455564	256.93756943245955	2
394.59026098157216	288.0698419587918	2
583.9067317388442	247.5445704739326	2
308.52916222944725	334.7776285187864	4
517.8954954010561	321.88018332516754	2
231.64700241938834	318.77615084126944	2
344.58984679072887	56.75289121014721	2
484.85838495750875	193.40775389560076	2
584.0390625	242.5	2
262.73727201068215	86.09054300322067	3
327.65899849916264	220.55836242621137	4
519.5689860158076	304.20321299139215	2
309.9531647826709	266.4592201445191	2
284.0918217279379	217.90776962265613	2
380.8578047758575	328.0127415289835	2
475.6519286822694	196.4535627457323	2
260.18983450158515	194.21375367792848	2
605.1982397349522	433.1259565828518	2
594.3757347853065	475.38372637826023	2
325.15185856934215	176.82133374980478	2
168.47553679948004	230.96610963610806	2
399.3771427218972	393.900437295018	2
234.5073179822477	185.64383882555052	2
335.9486453951265	59.78027388829051	1
259.38794531240774	92.29235266964149	1
146.1200602585225	177.24326819510694	1
278.2957995717316	133.0626268936436	1
296.39231640052685	51.09604872715914	1
305.972825309889	25.54802436357957	1
303.8438233300308	6.387006090894893	1
284.68280551130636	13.838513196938935	1
277.23129858180243	50.031547712009996	1
606.1621044699043	293.8022801811651	1
561.4530628928808	300.18928627206	1
621.0651183289121	401.31688271122914	1
319.81133817896773	271.44775886303296	1
233.58675799470802	213.96470404497893	1
96.26613029384998	8.516008121193192	1
89.87912435427519	26.612525378728723	1
302.7793223401016	170.32016242386382	1
294.26331442066856	201.19069186318913	1
382.61689658478656	335.3178197719819	1
349.6173658969834	332.12431672653446	1
398.5844114337235	336.38232078713105	1
519.9375242856446	383.2203654536936	1
531.6470351748651	373.63985631735125	1
534.8405381446526	398.12337966578144	1
567.8400688324556	454.5419334686866	1
542.2920450741564	447.0904263626425	1
506.0990114165659	451.3484304232391	1
385.81039955457396	416.2198969233172	1
449.68045895032185	403.44588474152744	1
427.32593816181014	422.60690301421215	1
151.62018177016486	187.3521786662502	1
250.61877383357415	277.83476495392784	1
204.84523126662148	227.80321724191785	1
176.1037045385349	170.32016242386382	1
198.45822532704668	161.80415430267064	1
189.9422174076136	193.7391847571451	1
213.36123918605452	189.4811806965485	1
606.1621044699043	333.1888177416836	1
577.4205777418177	365.12384819615806	1
572.098072792172	329.99531469623616	1
556.1305579432351	350.22083398407	1
54.75059168661384	57.483054818054036	1
45.17008277725164	85.16008121193191	1
121.81415405214916	89.4180852725285	1
87.75012237441693	102.19209745431829	1
103.71763722335392	124.54661877245042	1
123.94315603200742	125.61111978759956	1
101.58863524349564	152.22364516632828	1
206.97423324647974	14.903014212088085	1
178.23270651839317	9.58050913634234	1
131.39466296151136	19.16101827268468	1
163.3296926593853	34.06403248477277	1
107.97564118307044	32.99953146962361	1
117.55615009243263	50.031547712009996	1
147.36217781044834	55.35405278775574	1
237.84476195442457	314.0277994689989	1
481.234375	254.0	1
462.234375	172.0	1
208.234375	102.0	1
267.234375	198.0	1
286.234375	225.0	1
258.234375	289.0	1
203.234375	256.0	1
302.234375	337.0	1
516.234375	308.0	1
558.234375	308.0	1
368.234375	257.0	1
566.234375	286.0	1
461.234375	240.0	1
366.234375	417.0	1
156.234375	262.0	1
233.234375	219.0	1
558.234375	452.0	1
537.234375	438.0	1
541.234375	395.0	1
535.234375	368.0	1
513.234375	388.0	1
397.234375	411.0	1
600.3465360637807	291.396247549706	1
163.8884057228591	226.50014001680202	1
399.201148747169	286.35532470513965	1
268.05277062378445	86.84546732860792	1
471.0833694188227	248.80052802249836	1
148.34686844405087	183.07963382787614	1
392.84375	279.0	1
522.84375	310.0	1
290.5317129090625	129.47389383920137	1
333.3416308712361	52.20721525774248	1
278.0019808225727	319.508157377384	1
306.19387801717477	284.0072510021191	1
613.1723141361753	271.4775193402609	1
608.995736774012	298.625271274287	1
524.4200451902058	296.5369826639773	1
323.9443318063687	217.18201547220875	1
553.3365709032764	304.82029180868284	1
318.4341650538877	218.96763633839333	1
219.4651311173432	97.3430410888165	1
142.171875	185.0	1
337.171875	336.0	1
