542.2020930770401	410.33888213851765	2
366.3873388750557	62.15005892776531	5
592.8882282644636	399.46869790232824	3
227.95034563064786	27.855285540704738	2
159.17488215626057	75.39194640535928	3
500.99195747184444	45.61067230711032	3
493.9379033899845	124.78258840276887	4
387.1547935891504	429.06798110161924	2
416.94463186169617	161.85211827589848	2
583.3157055875097	258.4392385675145	2
553.408295053755	131.99683273519375	2
300.9713686748722	185.55102471575267	2
537.6785266288451	184.9467719818523	2
514.5838739914803	169.71700284454977	2
568.0338108465348	38.11821791137844	2
294.7401423067969	52.63752205309828	2
600.0976003284845	298.42004051162144	2
431.07014765447605	88.51603079108682	2
327.22970474466103	189.2194662811712	2
413.36036458265437	436.57850864088755	2
500.1699664229752	40.03760089048315	2
357.4747445779097	333.6595434679555	2
421.6258488557389	472.8929984078501	2
595.8462380939757	44.38321520832554	2
289.96489412452263	109.90466788451755	2
511.22469651261895	422.31325823393456	3
570.3168371514735	221.4732844290451	4
561.2305151180954	348.71499298042363	2
514.0173380018628	15.392754544680145	2
344.57073235677586	453.69627136759243	2
340.08367292317575	399.01675346577224	2
411.21035503840017	394.8218816044908	3
153.52266686720952	40.35543353992024	2
554.6592473228707	345.93939875460615	2
383.04540706805597	126.00432334341984	2
212.60814476429425	160.11812746335556	2
341.42750422219024	9.12803785809232	2
590.4866319595233	406.4590386063645	2
507.9005926477083	165.7321341596686	2
201.47529349635886	135.78259318741993	2
578.493607795452	169.7186423636129	1
301.3513705277928	180.33711876180578	1
249.3208355618338	98.57485049572071	1
146.32161328228233	48.66801142421425	1
480.80362377773304	233.4295007527701	1
512.933427630998	426.8806723828244	1
589.1621224101008	399.1611482021215	1
579.4602885291241	325.70440912325887	1
464.42425822611455	449.05629172738674	1
451.95047180771587	425.4946961737893	1
357.7040855353707	199.58057410106076	1
199.70279090232145	77.61466770596807	1
546.1968580800615	497.56545904361695	1
519.8633089745529	126.12383502219812	1
569.7584546481473	525.2849832243198	1
398.61696897718275	14.355285540704738	1
549.89957957899	60.733900364520046	1
467.08063216924154	96.06998784933171	1
602.9037059212291	130.301822600243	1
471.4976426977614	153.49113001215068	1
289.2959583963147	103.79975698663426	1
366.5936426454133	68.4636695018226	1
241.8130952147255	70.67217496962333	1
202.06000045804623	130.301822600243	1
521.1890111436105	207.59951397326853	1
604.0079585533591	221.95479951397326	1
564.2548637966798	227.47606318347508	1
494.686947972491	274.9589307411908	1
422.9105268840423	220.8505467800729	1
312.48526367104427	225.26755771567437	1
265.0024004894551	177.7846901579587	1
156.78564254071702	120.36354799513973	1
205.37275835443617	90.54872417982989	1
207.5812636186961	54.10838396111786	1
606.216463817619	347.8396111786148	1
489.1656848118411	408.5735115431349	1
409.6594952984825	432.8670716889429	1
449.41259005516184	420.7202916160389	1
471.4976426977614	457.1606318347509	1
489.1656848118411	438.3883353584447	1
571.9846322215897	474.82867557715673	1
526.7102743042605	482.5584447144593	1
551.00383221112	503.53924665856624	1
500.20821113314094	507.95625759416765	1
513.4592427187007	337.9013365735115	1
236.29183205407563	280.4801944106926	1
336.77882157790384	150.17837181044956	1
342.3000847385537	388.6969623329283	1
332.3618110493839	351.1523693803159	1
368.80214790967324	339.0055893074119	1
347.4851892432074	459.36420987844286	1
233.16852747586023	20.97553469764579	1
385.24115092783586	423.70580089244504	1
506.8992496894163	386.9986151715649	1
549.7137169290398	401.3668895457285	1
317.3434362272041	422.4914626797142	1
239.8866759932589	285.1817373088071	1
576.7062242832936	179.55887163887854	1
420.61911653913114	31.686859700978566	1
330.252896266195	77.45676815794761	1
580.2269861121092	254.66846500416105	1
365.46051455435196	58.67936981662697	1
177.6865503508483	156.08712371222774	1
471.5	53.48333740234375	1
529.5	47.48333740234375	1
552.5	66.48333740234375	1
550.5	98.48333740234375	1
570.5	116.48333740234375	1
537.5	152.48333740234375	1
521.5	132.48333740234375	1
469.5	118.48333740234375	1
467.5	88.48333740234375	1
496.5	90.48333740234375	1
406.5	75.48333740234375	1
334.5	87.48333740234375	1
255.5	64.48333740234375	1
228.5	74.48333740234375	1
230.5	35.48333740234375	1
202.5	56.48333740234375	1
199.5	88.48333740234375	1
572.5	174.48333740234375	1
554.5	200.48333740234375	1
514.5	207.48333740234375	1
496.5	227.48333740234375	1
524.5	235.48333740234375	1
596.5	222.48333740234375	1
587.5	326.48333740234375	1
567.5	348.48333740234375	1
548.5	308.48333740234375	1
496.5	282.48333740234375	1
467.5	262.48333740234375	1
408.5	215.48333740234375	1
427.5	182.48333740234375	1
471.5	190.48333740234375	1
431.5	135.48333740234375	1
382.5	113.48333740234375	1
377.5	137.48333740234375	1
530.5	527.4833374023438	1
505.5	537.4833374023438	1
482.5	518.4833374023438	1
470.5	552.4833374023438	1
442.5	536.4833374023438	1
427.5	474.48333740234375	1
448.5	498.48333740234375	1
400.5	374.48333740234375	1
424.5	367.48333740234375	1
342.5	137.48333740234375	1
243.5	250.48333740234375	1
399.5	512.4833374023438	1
555.234375	351.0	1
298.234375	208.0	1
159.234375	81.0	1
348.234375	198.0	1
557.234375	469.0	1
506.234375	42.0	1
563.234375	218.0	1
545.234375	188.0	1
234.234375	68.0	1
