262.578125	142.0	2
394.5609167243314	357.8889428918591	2
525.3054423236003	271.18465577596265	3
177.30801637631777	133.23585864958864	4
490.5649297286215	245.6778595718768	5
388.3704198801643	31.189177164963482	4
306.3032974462042	264.5504586161015	4
449.4254383138987	255.65283207888746	4
562.4972805629498	415.55693251296884	6
570.2049397365716	138.80772085207553	4
230.0383773890945	143.90391984839698	4
59.046875	23.0	2
520.9035551318539	225.9091968390548	5
373.7083951337904	253.95817132442284	4
199.71484375	168.5	3
78.33965480400403	78.26662777129522	2
181.8828125	46.0	2
101.84765625	40.5	3
512.7811059134399	103.99061269984097	5
466.3828125	85.5	2
292.6171875	243.5	2
399.3736746207213	173.13171324422842	2
110.90908224769426	66.47607934655775	2
317.63711828591613	43.22127326223661	5
145.25009016891093	184.09991963556178	7
578.6494019436107	30.97677474304968	2
294.56180960265306	129.8606014580802	4
152.73046875	143.0	3
391.6665874362199	223.7546674445741	3
289.9409808673289	76.96620259814213	3
292.6610430142223	205.69550425273388	2
412.89493778137125	339.9506682867558	2
499.63000112213956	277.0780365416816	7
370.0183904030316	95.98286755771568	2
196.25723097779206	69.43849368571031	4
269.5663903768575	288.60498177399757	2
156.578125	58.5	2
492.33974250951263	185.66324422843257	4
447.04595026521605	323.5901000520254	4
484.51061847380936	241.31159909930432	2
321.0390625	230.5	2
324.078125	67.5	2
237.09852012225628	103.73352799400833	6
516.017034560715	107.84772462077012	2
523.1206332039353	268.1145808019441	2
292.0390625	66.5	2
486.8483384577256	189.46573511543136	2
140.578125	48.5	2
566.5767918311102	54.70543701033322	3
174.51897053659877	130.6825462207045	3
338.9695953725269	164.31415510234285	5
152.27800153200107	114.42114216281895	3
122.86232158963483	194.65603723908902	2
193.62497690579363	230.32322053675614	2
164.0368885770202	214.59902218391085	2
374.68783316729156	264.45820170109357	2
98.0661719675222	118.90024287279181	4
287.7540045181546	127.96553960213873	4
253.578125	140.5	2
319.3735069844851	68.13246301182753	3
153.23214033007827	118.306903481873	3
193.5970064169507	168.4050642119094	3
469.1367086743744	21.24181609693423	4
145.38112367573106	145.77556003489366	4
480.55259547457393	316.872135867556	2
412.1767608174702	81.9271039762238	4
461.90879389163507	88.63530861511555	3
169.6521688486389	160.9346618187015	3
252.53830377355985	83.042007162029	3
361.8126352551818	296.8468908984328	2
325.39139314117784	227.86668207358173	3
457.5041464998561	91.55811039385463	2
486.66688174166654	320.00844981859063	4
574.7438409188035	143.67396471202065	4
314.58927438904794	264.4029768428395	2
335.9054095216097	109.00823494883818	2
527.6773409404435	226.6721120186698	2
492.4451363990057	193.10268378063012	2
295.3963768582488	68.47287834728226	4
392.2421875	30.0	2
175.0340155717317	42.818590522478736	3
464.703125	95.0	2
42.2421875	65.0	2
310.2734375	259.5	2
255.14925090014265	76.54459295261239	2
454.67877580395293	252.52059538274605	3
197.43868246476313	162.26682867557716	2
169.22671337920337	155.9019441069259	2
138.3125	193.0	1
71.3125	84.0	1
198.3125	64.0	1
571.3125	362.0	1
367.3125	299.0	1
293.3125	185.0	1
266.3125	298.0	1
374.3125	87.0	1
570.3125	59.0	1
122.55381094468764	203.18250303766706	1
165.61966359775687	219.74629404617255	1
376.5319163345831	274.9589307411908	1
321.3192847280841	236.310085054678	1
292.6087162927046	238.51859052247875	1
397.51271634505275	223.05905224787364	1
404.13823213783263	144.65710814094774	1
548.7953269468601	214.2250303766707	1
299.2342320854845	176.6804374240583	1
257.27263206454523	224.163304981774	1
238.50033731833557	244.03985419198057	1
524.5017690400005	345.6311057108141	1
282.6704426035348	240.72709599027945	1
365.4893900132833	220.8505467800729	1
227.45781099703578	136.9273390036452	1
320.21503209595414	75.08918590522478	1
220.8322952042559	6.625516403402187	1
200.95574782591623	76.19343863912515	1
50.77738985623891	110.42527339003645	1
191.01747413674642	226.37181044957472	1
577.234375	439.0	1
508.234375	109.0	1
377.234375	100.0	1
351.234375	77.0	1
223.234375	142.0	1
238.234375	96.0	1
562.234375	51.0	1
594.234375	192.0	1
383.234375	266.0	1
326.234375	172.0	1
335.234375	115.0	1
441.234375	331.0	1
438.234375	22.0	1
545.234375	190.0	1
21.171875	18.0	1
106.171875	43.0	1
515.171875	99.0	1
489.171875	239.0	1
432.171875	365.0	1
203.171875	69.0	1
597.171875	183.0	1
560.171875	276.0	1
473.171875	392.0	1
288.171875	344.0	1
253.73058841337686	71.57992998833139	1
204.6850831800538	164.36872812135354	1
159.61624053321637	124.60210035005834	1
127.80293984133114	193.53092182030338	1
327.9733490477715	17.452375581741535	1
488.9470789445607	178.4261045885344	1
320.81896105235865	224.9296263016079	1
375.6692690171905	258.3167700956094	1
104.84375	49.0	1
261.84375	78.0	1
175.84375	167.0	1
394.84375	218.0	1
515.84375	226.0	1
574.921875	63.0	1
475.921875	21.0	1
446.921875	24.0	1
419.921875	84.0	1
440.921875	43.0	1
419.921875	61.0	1
602.921875	182.0	1
553.921875	224.0	1
361.921875	302.0	1
382.921875	275.0	1
364.921875	229.0	1
573.921875	187.0	1
557.921875	284.0	1
611.921875	341.0	1
592.921875	359.0	1
467.921875	394.0	1
492.921875	317.0	1
459.921875	368.0	1
426.921875	367.0	1
573.921875	310.0	1
549.921875	261.0	1
573.921875	375.0	1
571.921875	347.0	1
547.921875	360.0	1
511.921875	351.0	1
554.921875	324.0	1
518.921875	322.0	1
332.921875	234.0	1
341.921875	170.0	1
263.921875	225.0	1
249.921875	247.0	1
429.921875	173.0	1
409.921875	141.0	1
346.921875	107.0	1
241.921875	111.0	1
257.921875	85.0	1
330.921875	23.0	1
327.921875	72.0	1
170.921875	205.0	1
154.921875	108.0	1
147.921875	43.0	1
109.921875	113.0	1
49.921875	64.0	1
595.921875	404.0	1
615.921875	264.0	1
589.921875	293.0	1
200.921875	219.0	1
28.921875	13.0	1
147.921875	18.0	1
389.921875	9.0	1
366.921875	121.0	1
385.921875	142.0	1
301.921875	181.0	1
391.921875	201.0	1
237.921875	269.0	1
212.921875	273.0	1
491.921875	377.0	1
612.921875	392.0	1
547.921875	199.0	1
548.921875	173.0	1
521.921875	397.0	1
473.921875	336.0	1
534.921875	307.0	1
538.921875	336.0	1
580.921875	253.0	1
174.921875	159.0	1
66.921875	38.0	1
88.921875	26.0	1
42.921875	30.0	1
