126.66713055993645	226.60824909679297	2
522.3137433494473	349.53763972081435	2
274.56888073443105	322.4018641261001	4
545.9430854976852	428.96149443408126	2
156.79505281084744	305.1228511202663	3
273.08250904185206	372.39348869466437	2
43.48489194967819	71.20615774721549	3
276.2010451912491	199.97104926310493	3
245.2346956950272	352.5212465329719	2
256.442930490803	259.1381300606473	4
19.604548526796577	47.490053573883316	5
44.55782060677645	180.72817168897043	7
18.56708566283405	149.43088663290908	5
465.57894734580367	417.5758721934576	4
195.56990058250275	265.28997972314846	2
441.14656798795306	387.45167765420035	2
186.0257812544123	215.86284613086877	2
228.78373032652559	236.15514986914354	8
135.20532155516537	167.0883613719409	2
39.03135609937456	236.80448415615328	5
178.96503793104665	102.79888167651717	2
417.05940066568303	332.40465763688564	3
597.2028613181776	395.55930540784425	2
291.1954083678614	286.15567601837375	2
128.85115864532497	168.462993652449	4
41.94336879919907	73.98493317132443	2
250.09498995570038	260.603645200486	2
122.00168462862266	220.8505467800729	2
527.9323466712074	344.0774386371236	3
456.2348061326974	362.0989015150758	4
524.579022723534	402.78480455545764	4
362.4852145422709	338.24027124718623	4
350.18424039779677	317.0645200486027	2
551.8643147276714	429.4113254953404	3
286.94957323513296	281.6809953021359	2
6.980160298513718	189.20434920489794	2
589.1042763180403	393.2145188037596	2
271.6660950382163	328.54617610565026	2
77.40582223121868	148.3502125359997	3
136.203125	255.0	2
446.66981436777496	355.7676565625481	2
201.96980053600163	267.1946453300508	2
121.14525069911036	225.36181436144886	3
241.02373510736277	352.6804374240583	2
109.82070349562892	366.75382746051037	2
543.8584720252351	433.48566221142164	2
485.10221992562515	447.55677957376713	2
22.82628971738839	150.2879131061464	2
419.31181936169617	328.5336573511543	2
120.04415716624197	277.01024642976387	3
165.86097866536176	306.1158829370329	2
292.9488001431886	281.07216494845363	1
135.63229312390348	246.46253269733808	1
149.2663903989082	269.53562086474847	1
24.461961496942017	47.19495306970303	1
119.90064242197498	268.48684412986614	1
529.4779430171436	405.60568310511684	1
492.98746455542664	408.41264284978894	1
456.49698609370967	425.2544013178215	1
198.25667698002047	270.8716153608566	1
81.76784189069329	256.83681663749616	1
439.65522680368645	378.939565530732	1
424.2169474544985	371.92216616905176	1
353.34261105985354	327.9630619684083	1
268.31515838584505	369.9246658566221	1
170.234375	105.0	1
252.234375	264.0	1
311.234375	396.0	1
80.234375	263.0	1
53.234375	226.0	1
37.234375	241.0	1
78.234375	163.0	1
484.234375	411.0	1
427.234375	491.0	1
208.234375	374.0	1
246.234375	396.0	1
127.171875	220.0	1
161.171875	304.0	1
46.9818751792123	80.87366499992261	1
535.3923053572083	344.6740934266979	1
591.167570531856	293.4214387609244	1
255.00853988465505	254.22823225180352	1
16.833083192916252	139.66347476360397	1
203.75559350795174	272.3174044867824	1
147.98032833330407	261.7653873497114	1
433.9530532053421	350.04811664641556	1
442.78707426238196	383.1756986634265	1
273.83642154649493	334.58857837181046	1
261.6896425930652	291.52272174969625	1
193.22597940100638	269.43766707168896	1
43.04762143132905	174.4719319562576	1
78.38370565948843	155.69963547995138	1
110.9569131869149	44.87752941252847	1
356.5909010294229	334.6302416247556	1
518.7570289254476	403.7893251980444	1
