294.32421875	392.0	3
569.94140625	227.125	4
236.07749463175946	298.5054981773998	5
548.1273999143413	367.9384568651276	5
193.2734375	364.0	2
481.59854093870035	407.06518833535847	3
159.375	57.0	2
208.875	81.5	2
24.174368302607427	165.20473876063184	5
362.2734375	143.5	2
38.7421875	221.0	2
385.30632809790575	280.62004860267314	3
603.3740094571211	129.88666464155529	4
296.375	435.0	2
340.0346136185734	442.50346294046176	3
524.4696345200002	397.81761846901577	2
369.11982395483665	431.9335358444714	2
198.3046875	360.5	2
285.3359375	128.0	2
457.5889965280504	351.7620291616039	3
58.698447136352186	145.84140340218713	4
192.22708925828408	299.3391859052248	4
31.42436489537733	221.73869987849332	3
475.78032924527065	499.0611178614824	2
159.3486364024885	49.89781287970838	3
299.15092722667725	388.796354799514	2
269.9311456411175	366.3059538274605	2
289.203125	438.0	2
24.171875	14.0	1
159.171875	354.0	1
136.171875	302.0	1
275.171875	364.0	1
337.171875	507.0	1
451.171875	440.0	1
475.171875	404.0	1
247.234375	118.0	1
196.234375	95.0	1
138.234375	295.0	1
164.234375	354.0	1
398.234375	337.0	1
477.234375	417.0	1
360.234375	434.0	1
334.234375	444.0	1
437.234375	418.0	1
453.234375	447.0	1
244.02160047898548	122.57205346294046	1
278.25343207501487	130.301822600243	1
193.22597940100638	358.88213851761844	1
567.5676216930698	231.89307411907654	1
463.7678742728516	445.0138517618469	1
189.91322150461644	101.59125151883353	1
455.4375	436.0	1
275.4375	369.0	1
248.4375	125.0	1
381.4375	275.0	1
22.4375	19.0	1
165.3125	349.0	1
271.3125	375.0	1
394.3125	342.0	1
458.3125	441.0	1
182.3125	297.0	1
59.3125	152.0	1
