610.7752832959018	285.4015806794963	4
403.7630058373039	166.916683892117	4
281.5211942010616	450.46010229212186	5
149.89148902506963	339.64959136103175	5
391.77857204151326	295.56746511389576	5
196.9411788517989	34.36294286203032	4
122.85201820762092	264.8078028666315	2
281.50980234105606	303.3950394056486	5
449.168847749508	499.09301727860895	7
134.42599353004343	222.67661554408562	2
184.83636573160362	352.01600385162806	3
580.1961186924034	509.395819149614	3
252.80526916998107	467.04397243154574	5
277.54146003052927	486.57864915735	6
593.2816359588197	469.0005893216397	3
310.06818843773215	468.810282964859	3
204.81668762903308	261.7340763638318	2
89.00632999216938	47.199488915274436	2
10.448744632638583	203.46043685060738	3
247.5798665590916	407.4946623863438	6
589.6341793289769	263.46932475277015	2
185.2822944833993	106.66350453309258	4
173.55429347311434	298.46534495881144	2
339.2031340311938	425.40427883998734	3
42.122552871418705	172.93549067862597	4
382.5352070323777	384.01619984586785	6
159.91149142006392	70.10587109506858	6
428.7875200363774	365.6794067099938	4
372.5412481143635	459.76199155589853	6
592.3054711534741	187.28284227327572	2
362.30135767647107	340.0865779377343	5
466.80416088563027	529.0778203109089	2
498.2338935692186	295.0365438742021	5
493.048420739603	294.6204824348671	4
322.74040737472455	191.94747753606538	3
147.4866798288947	269.306542396053	4
586.0801021316563	264.53847286273674	5
390.3671875	286.2416687011719	2
275.8711060407053	298.8329519264127	2
368.1594961406934	459.0521256041062	3
357.7738109943749	339.6373803680646	4
180.00651862922774	300.66823575398973	4
130.8791479627132	229.47238381497925	4
150.77027272761708	345.938450525117	3
423.36669548832504	411.0599674906652	4
199.21437006517004	262.8507830404476	2
544.9434373261159	345.05969515468735	6
31.8671875	176.24166870117188	2
399.99213916112456	170.38022236125488	3
419.23501411098687	414.3059010124248	2
37.69578603584667	179.35282343001677	3
188.08374968878866	111.03854519528394	2
52.70890645823101	11.066834410061363	4
85.53893050039827	44.02537027336785	5
144.18328199855347	404.83296079874526	2
30.9388486181644	258.44397834114517	4
366.7710159111451	201.29521040195496	2
175.48791733342995	355.74254867983177	2
461.30065458434797	521.6941953884883	3
208.9931950663098	81.5484554376855	4
82.52596601308318	296.80281826906156	2
156.04634202183945	19.938539175086625	5
485.90026597875794	428.10993228482096	4
156.71530647358247	64.6436903924667	3
124.06582530901986	278.4158216759681	2
593.3459577741988	192.17196073308824	6
198.8769861380819	39.35673973649519	3
574.841195280849	504.7055717591795	2
204.39926696734074	79.86982647264016	3
313.0172579835387	464.2325704320486	3
154.50129112560575	397.90008574008755	2
610.9985747854282	279.43696004398987	3
491.9130201567405	353.3232743235513	3
592.1402703610277	474.8597634272419	3
86.94455793986512	288.82137228268783	2
174.5613926125508	292.91474412646903	2
161.01880761881023	19.12080879575879	2
131.45598787282984	284.21306824426534	2
63.67529862774955	212.4591010449874	2
585.5575031990588	271.633174334513	1
147.1688369719844	259.04785351592557	1
77.94957388349894	287.36482535774735	1
590.8013867663684	464.6080935528543	1
486.9571795475812	347.8396111786148	1
313.58951630317426	474.82867557715673	1
551.9423284147797	343.012987012987	1
374.90336465091616	385.88961038961037	1
413.63063797426133	409.4025974025974	1
253.18907706326	402.487012987013	1
276.7020644381481	446.74675324675326	1
206.16310231348373	31.81168831168831	1
323.90272054464765	200.29393414083842	1
396.36922611019656	300.4294717652602	1
489.9168969311779	422.963748068829	1
66.97601899406511	205.56422559475536	1
34.03669828245197	252.9968486800078	1
143.39524304500762	303.0646174922187	1
271.1998074060666	480.93695406191523	1
180.36170849825143	113.90160862095892	1
65.39560158590515	200.12619084803998	1
63.266599606046896	232.06122130251447	1
133.52366494136962	290.6087771357176	1
77.10511247512561	293.8022801811651	1
479.4864866683376	339.57582383257846	1
286.81180749116464	302.31828830235827	1
152.684682760094	306.57629236295486	1
116.4916491025035	271.44775886303296	1
243.16726690407023	401.31688271122914	1
337.907855007763	417.2843979384664	1
277.23129858180243	481.1544588474153	1
164.5	24.48333740234375	1
177.5	100.48333740234375	1
66.5	217.48333740234375	1
158.5	277.48333740234375	1
144.5	316.48333740234375	1
188.5	300.48333740234375	1
209.5	258.48333740234375	1
71.5	291.48333740234375	1
142.5	341.48333740234375	1
189.5	361.48333740234375	1
157.5	402.48333740234375	1
276.5	497.48333740234375	1
282.5	456.48333740234375	1
316.5	469.48333740234375	1
367.5	463.48333740234375	1
340.5	435.48333740234375	1
376.5	374.48333740234375	1
285.5	295.48333740234375	1
318.5	194.48333740234375	1
393.5	170.48333740234375	1
374.5	200.48333740234375	1
429.5	373.48333740234375	1
484.5	337.48333740234375	1
434.5	501.48333740234375	1
456.5	526.4833374023438	1
350.82409978239394	187.37167154054887	1
133.61247517238894	236.853606228037	1
484.1774869476188	342.977027573256	1
497.293864939209	427.6372850509026	1
570.030142892573	508.7203485506205	1
592.6857048780471	267.8559540367527	1
473.4459049544995	402.59692720540147	1
399.51722900190003	468.1788168007615	1
126.234375	294.0	1
483.234375	357.0	1
435.234375	512.0	1
157.73556665422606	266.40433896748647	1
126.04871019488483	286.3553247051396	1
87.3203300779122	300.4383734611301	1
61.50140999993046	217.11366832151978	1
29.814553540589223	249.9741154188309	1
211.72058136273336	75.10959336528252	1
143.6525193389633	395.4989525640658	1
329.0793089899231	199.5098573765317	1
372.50203821198335	205.3777943581944	1
345.50953085772966	184.2532212242087	1
492.2079403917169	340.34034493643645	1
545.0193678239523	337.99317014377135	1
