592.9654322320592	11.042527339003644
103.78151619847797	18.772296476306195
541.0655585219502	5.521263669501822
70.65393723457856	32.02332928311057
553.21233747538	30.919076549210207
94.94749514143813	55.212636695018226
500.20821113314094	8.834021871202916
202.06000045804623	26.50206561360875
467.08063216924154	15.459538274605103
227.45781099703578	6.625516403402187
365.4893900132833	22.08505467800729
267.21090575371505	5.521263669501822
417.3892637233924	36.44034021871203
288.1917057641847	17.668043742405832
460.45511637646166	56.31688942891859
311.38101103891427	32.02332928311057
600.6952006569692	69.56792223572296
549.89957957899	104.90400972053463
502.4167163974009	93.86148238153099
465.97637953711154	87.2359659781288
416.2850110912624	100.48699878493316
380.94892686310305	91.65297691373026
353.34261105985354	97.17424058323208
351.1341057955936	58.52539489671932
408.55524266635257	62.94240583232078
573.0888848537196	79.50619684082625
186.6004636082265	54.10838396111786
284.87894786779475	78.40194410692588
315.7980215674342	68.4636695018226
221.93654783638587	88.34021871202916
165.61966359775687	77.29769137302551
299.2342320854845	134.71883353584448
269.41941101797505	113.73803159173754
342.3000847385537	147.96986634264886
396.40846371292275	144.65710814094774
427.3275374125622	130.301822600243
429.5360426768222	163.42940461725394
403.03397950570263	185.51445929526125
347.82134789920366	185.51445929526125
299.2342320854845	165.63791008505467
465.97637953711154	118.155042527339
606.216463817619	177.7846901579587
224.14505310064584	187.72296476306198
151.26437938006714	181.09744835965978
219.7280425721259	213.12077764277035
249.54286363963539	218.64204131227217
229.66631626129575	272.75042527339
266.1066531215851	281.58444714459296
280.4619373392748	322.44179829890646
210.89402151508608	322.44179829890646
312.48526367104427	210.91227217496962
280.4619373392748	212.01652490887
333.4660636815139	235.20583232077763
346.71709526707366	266.12490886998785
400.8254742414427	237.41433778857837
373.2191584381932	229.6845686512758
407.45099003422257	213.12077764277035
495.791200604621	213.12077764277035
482.54016901906124	149.0741190765492
454.9338532158117	256.18663426488456
418.4935163555224	266.12490886998785
589.6526743356693	325.7545565006075
534.4400427291703	314.7120291616039
486.9571795475812	342.318347509113
415.18075845913245	347.8396111786148
374.3234110703232	315.81628189550423
543.2740637862101	385.3842041312272
494.686947972491	405.26075334143377
463.7678742728516	369.9246658566221
430.64029530895215	425.13730255164035
485.8529269154512	438.3883353584447
602.9037059212291	395.3224787363305
607.320716449749	359.98639125151885
559.8378532681598	341.21409477521263
608.424969081879	265.0206561360875
612.8419796103989	431.7628189550425
584.1314111750195	450.53511543134874
437.265811101732	491.3924665856622
416.2850110912624	469.3074119076549
405.24248476996263	499.1222357229648
457.14235848007166	438.3883353584447
475.91465322628136	505.74775212636695
465.97637953711154	479.2456865127582
490.2699374439711	532.2498177399757
539.9613058898202	538.8753341433779
563.1506111645498	511.26901579586877
502.4167163974009	562.0646415552856
465.97637953711154	575.3156743620899
497.99970586888094	583.0454434993925
431.74454794108215	531.1455650060753
431.74454794108215	563.1688942891859
365.4893900132833	474.82867557715673
388.67869528801293	401.94799513973265
338.9873268421638	339.0055893074119
348.9256005313336	306.98226002430135
382.05317949523305	267.2291616038882
196.53873729739632	146.86561360874848
183.28770571183657	115.94653705953827
141.3261056908973	107.11251518833535
