287.70491657587905	85.99969226034776
224.77831376816505	280.0233882135713
321.2657714066599	373.36451761809514
148.21761368544628	183.53592860440068
542.5576579471209	534.8761347899678
343.2900823893598	134.24342206493307
338.0461988220503	174.09693799046008
379.99726736052634	93.34112940452378
304.4853439912695	20.97553469764579
191.2174589373842	47.19495306970303
184.9247986566128	143.68241267887367
461.80185101055457	272.6819510693953
529.9723373855782	310.43791352515774
541.508881233659	391.193722111094
426.14344275285	326.1695645483921
333.8510919682027	228.63332820433914
