522.372494030884	86.10853766216125
454.3189768440683	115.27433267676425
430.70857292211184	134.71819601983293
409.87586357920907	316.65720301568973
326.5450262075981	209.71595462881206
140.43948941100012	197.2163281939822
352.9331247086082	381.9330299531347
304.3234695751685	356.93377708347487
229.3257159407187	218.04903891869876
502.9286319775081	406.93228282279426
82.10790325087241	94.44162195204784
