479.4864866683376	56.41855380290489
472.0349797388336	3.1935030454474465
277.23129858180243	28.741527409027018
181.42620948818058	41.51553959081681
243.16726690407023	107.51460253006404
334.7143520379756	135.19162892394192
271.9087936321568	195.8681867874434
376.22989064521175	192.67468374199595
330.45634807825905	202.25519287833828
321.940340158826	256.5447446509449
244.23176789399935	263.9962517569889
287.87630848109376	285.2862720599719
303.8438233300308	309.76979540840233
365.58488074592043	310.8342964235514
392.1974054941487	326.8018116507887
380.4878946049283	288.4797751054193
607.2266054598334	180.9651725753553
538.0340411144398	167.12665937841638
535.9050391345816	205.44869592378572
506.0990114165659	222.4807121661721
543.3565460640855	255.48024363579572
596.5815955605422	244.83523348430424
605.0976034799752	285.2862720599719
555.066056953306	325.7373106356396
509.2925143863533	324.6728096204904
534.8405381446524	344.89832890832423
578.4850787317469	326.8018116507887
601.9041005101877	352.3498360143683
584.8720846713217	357.672341090114
612.5491104094791	373.63985631735125
607.2266054598334	413.02639387786974
488.0024945877706	171.38466343901297
495.45400151727455	131.99812587849445
301.7148213501725	10.645010151491489
267.6507896724403	8.516008121193192
269.7797916522985	60.676557863501486
407.10041935315655	24.483523348430424
395.3909084639361	52.1605497423083
387.9394015344322	34.06403248477277
410.29392232294396	43.6445416211151
424.1324351920227	166.06215836326723
435.8419460812431	134.12712790879277
413.48742529273136	143.7076370451351
443.29345301074704	163.93315633296893
513.5505183460698	386.413868499141
274.03779561201503	118.15961268155553
154.81368473995227	73.45057004529127
209.103235226338	17.032016242386383
193.13572037740101	84.09558019678276
192.07121938747187	114.96610963610807
149.4911797903066	100.06309542401999
459.26096785968406	328.930813681087
472.0349797388336	310.83429642355145
482.67998963812494	337.44682180228017
