318.3994395594969	255.95730080061
385.96177130047005	188.3949675943576
337.88857371554684	127.32901258101411
508.09367867838296	315.7239801753717
543.1741201592729	254.65802516202822
506.79440306797966	231.27106366755623
189.77115412956735	45.47464735036218
150.7928858174675	67.56233320625239
270.32624197457375	196.19062142584826
534.0791908864495	168.90583301563098
272.9247931953804	29.883339687380865
