389.04315423630635	137.49589078312843
383.48776507819895	38.887726686137334
323.76733162854435	31.943489777898527
336.266957234286	130.55165387488964
241.8253415464602	122.21856958500307
444.5970458173803	272.2140868029614
443.2081985278535	297.2133396726211
366.82159760387674	324.9902873055763
351.54427741908137	358.3226244651226
320.9896370494907	376.3776404265435
337.6558045238129	408.32113020444206
433.48626750116557	348.6006927935883
443.2081985278535	426.37614616586296
468.2074497393368	495.818515248251
451.5412822650146	469.43041499694357
505.70632655656175	434.70923045574955
515.4282575832497	372.21109828160024
502.9286319775081	337.48991374040617
497.3732428194007	304.1575765808599
575.1486910329043	151.38436459960607
458.48551871264885	73.60891122733139
377.9323759200916	281.93601847449565
483.48476992413214	91.66392718875238
544.5940506633136	49.998505739319434
