500.234375	237
501.234375	156
534.234375	116
400.234375	205
475.234375	253
583.234375	246
589.234375	327
543.234375	375
570.234375	394
589.234375	435
575.234375	501
523.234375	527
482.234375	433
544.234375	572
464.234375	346
450.234375	299
443.234375	259
458.234375	221
466.234375	82
411.234375	76
345.234375	65
258.234375	123
238.234375	141
223.234375	175
324.234375	217
298.234375	237
273.234375	249
413.234375	357
402.234375	396
554.234375	611
457.234375	43
329.234375	173
357.234375	399
439.234375	368
460.234375	496
