95.171875	113
106.171875	211
90.171875	246
147.171875	222
170.171875	267
232.171875	273
202.171875	263
162.171875	333
188.171875	400
214.171875	373
294.171875	399
336.171875	411
322.171875	475
364.171875	552
389.171875	577
414.171875	456
425.171875	491
461.171875	484
446.171875	540
386.171875	435
430.171875	407
589.171875	507
603.171875	589
578.171875	564
366.171875	327
448.171875	369
296.171875	319
240.171875	237
274.171875	193
277.171875	69
216.171875	35
223.171875	68
328.171875	50
443.171875	175
431.171875	218
430.171875	21
478.171875	84
508.171875	124
528.171875	300
608.171875	198
599.171875	278
571.171875	310
501.171875	237
586.171875	113
