419.59776898765233	289.3142162818955
359.9681268526334	326.8588092345079
313.58951630317426	330.171567436209
285.98320049992475	311.39927095990276
271.627916282235	194.34848116646415
200.95574782591623	260.603645200486
240.70884258259554	236.310085054678
224.14505310064584	189.9314702308627
374.3234110703232	134.71883353584448
302.54698998187445	111.52952612393682
427.3275374125622	408.5735115431349
407.45099003422257	459.3691373025516
383.157432127363	436.179829890644
435.0573058374721	220.8505467800729
447.20408479090185	177.7846901579587
270.523663650105	266.12490886998785
236.29183205407563	274.9589307411908
457.14235848007166	486.9754556500607
414.07650582700245	491.3924665856622
336.77882157790384	409.67776427703524
533.3357900970403	334.58857837181046
533.3357900970403	303.66950182260024
165.61966359775687	267.2291616038882
147.9516214836772	224.163304981774
219.7280425721259	65.1509113001215
220.8322952042559	36.44034021871203
277.1491794428849	67.35941676792224
285.98320049992475	27.606318347509113
323.5277899923441	53.0041312272175
94.94749514143813	106.008262454435
447.20408479090185	361.0906439854192
