300.3384847176145	11.042527339003644
571.9846322215897	59.62964763061969
505.7294742937908	114.8422843256379
599.5909480248391	161.22089914945323
514.5634953508306	219.74629404617255
533.3357900970403	253.97812879708383
575.2973901179796	255.0823815309842
585.2356638071494	291.52272174969625
467.08063216924154	272.75042527339
421.8062742519123	267.2291616038882
387.57444265588293	145.76136087484812
216.41528467573596	123.67630619684083
191.01747413674642	90.54872417982989
197.6429899295263	55.212636695018226
269.41941101797505	19.876549210206562
150.16012674793714	62.94240583232078
36.42210563854917	140.2400972053463
9.92004246742964	154.59538274605103
143.53461095515726	198.76549210206562
100.46875830208803	234.10157958687728
39.73486353493911	209.80801944106926
311.38101103891427	195.4527339003645
173.34943202266675	280.4801944106926
344.5085900028137	279.3759416767922
227.45781099703578	283.79295261239366
171.14092675840678	251.76962332928312
440.57856899812197	303.66950182260024
596.2781901284492	346.73535844471445
552.10808484325	359.98639125151885
479.2274111226713	368.82041312272173
388.67869528801293	367.7161603888214
363.28088474902336	342.318347509113
313.58951630317426	348.9438639125152
353.34261105985354	364.40340218712026
297.0257268212245	358.88213851761844
234.08332678981566	332.3800729040097
198.7472425616563	353.3608748481166
115.92829515190776	291.52272174969625
367.6978952775433	399.73948967193195
335.67456894577396	389.8012150668286
566.4633690609397	405.26075334143377
546.5868216826001	429.5543134872418
501.31246376527093	453.8478736330498
425.11903214830227	442.80534629404616
353.34261105985354	448.326609963548
258.37688469667523	399.73948967193195
590.7569269677994	449.43086269744833
469.2891374335015	253.97812879708383
