390.8872005522729	143.5528554070474
299.2342320854845	9.938274605103281
188.80896887248647	86.13171324422844
216.41528467573596	121.46780072904009
142.4303583230273	195.4527339003645
96.05174777356811	230.7888213851762
177.76644255118666	251.76962332928312
175.5579372869267	277.1674362089915
224.14505310064584	278.27168894289184
110.40703199125785	295.9397326852977
9.92004246742964	151.28262454434994
314.6937689353042	188.82721749696233
306.9640005103944	224.163304981774
255.0641268002853	229.6845686512758
338.9873268421638	276.06318347509114
231.8748215255557	334.58857837181046
193.22597940100638	364.40340218712026
257.27263206454523	400.8437424058323
301.44273734974445	353.3608748481166
364.38513738115336	339.0055893074119
354.44686369198354	362.19489671931956
385.365937391623	374.34167679222355
376.5319163345831	397.53098420413124
338.9873268421638	387.59270959902796
422.9105268840423	437.28408262454434
481.43591638693124	367.7161603888214
442.78707426238196	304.7737545565006
426.22328478043227	258.3951397326853
419.59776898765233	224.163304981774
477.01890585841136	274.9589307411908
515.6677479829607	216.43353584447144
578.6101480143695	255.0823815309842
585.2356638071494	295.9397326852977
598.4866953927092	161.22089914945323
563.1506111645498	53.0041312272175
505.7294742937908	454.95212636695015
570.8803795894597	477.0371810449575
590.7569269677994	448.326609963548
