577.234375	439
563.234375	414
527.234375	271
527.234375	228
492.234375	246
491.234375	194
456.234375	251
508.234375	109
465.234375	96
414.234375	85
387.234375	32
377.234375	100
351.234375	77
320.234375	69
291.234375	67
255.234375	78
295.234375	130
262.234375	142
223.234375	142
238.234375	96
320.234375	44
562.234375	51
568.234375	141
594.234375	192
497.234375	278
487.234375	322
383.234375	266
389.234375	227
326.234375	172
335.234375	115
174.234375	42
176.234375	128
153.234375	145
197.234375	160
197.234375	69
154.234375	58
155.234375	117
167.234375	162
311.234375	260
321.234375	231
441.234375	331
438.234375	22
101.234375	39
144.234375	184
545.234375	190
