45.01436862041765	156.24804282004993
133.85853505090503	236.20818511227037
187.16503490919746	31.86559925437369
133.85853505090503	101.16438924096474
85.88268517844185	129.59466205597644
265.3479013680264	207.77791229725867
277.7860846682946	259.3077817744674
300.88556794022134	401.45914584952595
311.5468679118798	449.4352312248582
437.7055842431719	500.96510070206693
307.9931012546603	166.9093951256793
386.17596771348923	145.58669051442052
437.7055842431719	149.140474616297
519.4422173592203	83.39546873158243
531.8804006594886	120.7102018012853
602.9557338038785	524.0646973642639
515.8884507020008	458.31969147954936
595.8482004894395	561.3794304339668
558.5336505886348	35.41938335625016
359.522717784343	117.15641769940882
611.8401504469272	94.0568210372118
574.5256005461225	438.7738789192288
229.81023479583143	138.4791223106676
455.4744175292694	70.95722437501479
