268.5754962784883	35.42462896016696
339.425157446284	32.40976692100382
585.1378121345967	48.99150813640112
422.3343354085981	109.28874891966404
432.8864126038017	157.5265415462744
526.3476677613195	231.39066150577145
579.1080537373376	293.19533330861594
586.6452517339116	258.52441985823975
333.3953990490248	250.9872647603319
172.0993619223409	171.09342072250854
128.38361354221163	107.78131790008247
87.68274436071196	53.513801195145845
166.0696035250817	50.4989391559827
63.563710771675126	112.30361095882719
9.295885196342239	106.2738868805009
132.90593234015603	211.794058251211
420.8268958092833	284.1507471911265
508.25839256954185	192.19745499665055
375.60370782983927	201.24204111414
298.7242882647843	89.6921456651036
146.47288873398927	275.10616107363705
300.2317278640991	282.64331617154494
304.75404666204355	177.12314480083484
551.9741409496711	351.9851430722973
377.111147429154	293.19533330861594
399.72274141887607	258.52441985823975
211.29279150452578	281.13588515196335
75.62322756619355	192.19745499665055
440.42361060037575	355.00000511146044
236.91926469287742	308.2696435044317
392.1855434223021	336.91083287648155
530.8699865592639	73.1104044497063
494.69143617570865	18.842887744769662
374.09626823052446	15.828025705606517
285.1573318709511	269.0764369953108
253.50110028534024	107.78131790008247
283.6498922716363	329.3736777785737
551.9741409496711	254.00212679949504
607.7494061243189	362.5371602093683
413.2896978127093	15.828025705606517
194.71095591206293	131.90021421338764
16.833083192916252	160.54140358543754
63.563710771675126	232.89809252535306
484.139358980505	386.6560565226735
380.12602662778363	391.1783495814182
104.26457995317479	288.67304024987124
37.93723758332349	246.4649717015872
