70.171875	104
85.171875	48
336.171875	19
287.171875	81
436.171875	149
324.171875	245
373.171875	285
61.171875	232
581.171875	46
509.171875	188
327.171875	428
154.171875	378
179.171875	188
230.171875	299
587.171875	252
482.171875	413
