481.6154886481958	196.93268780259254
582.7430826914634	250.15773856004998
341.1013579775504	61.741058878650634
241.03826492421197	56.41855380290489
263.39278571272376	87.2890832422302
278.2957995717316	133.0626268936436
296.39231640052685	51.09604872715914
305.972825309889	25.54802436357957
303.8438233300308	6.387006090894893
284.68280551130636	13.838513196938935
277.23129858180243	50.031547712009996
459.26096785968406	210.7712009995315
606.1621044699043	293.8022801811651
519.9375242856446	304.44729033265656
561.4530628928808	300.18928627206
606.1621044699043	433.25191316570357
621.0651183289121	401.31688271122914
319.81133817896773	271.44775886303296
390.0684035142905	282.09276901452444
371.97188668549524	260.8027487115415
262.3282847227946	193.7391847571451
236.78026096449543	186.28767765110106
233.58675799470802	213.96470404497893
64.33110059597603	11.709511166640638
96.26613029384998	8.516008121193192
89.87912435427519	26.612525378728723
324.06934213868425	175.64266749960956
326.19834411854254	223.54521318132126
302.7793223401016	170.32016242386382
294.26331442066856	201.19069186318913
284.68280551130636	218.22270810557552
434.777445091314	350.22083398407
382.61689658478656	335.3178197719819
311.2953302595347	336.38232078713105
349.6173658969834	332.12431672653446
398.5844114337235	336.38232078713105
519.9375242856446	383.2203654536936
531.6470351748651	373.63985631735125
534.8405381446526	398.12337966578144
595.5170945706129	474.7674527565204
567.8400688324556	454.5419334686866
542.2920450741564	447.0904263626425
506.0990114165659	451.3484304232391
385.81039955457396	416.2198969233172
449.68045895032185	403.44588474152744
427.32593816181014	422.60690301421215
397.5199104437944	392.80087459003596
151.62018177016486	187.3521786662502
169.7166985989601	229.93221927221614
250.61877383357415	277.83476495392784
204.84523126662148	227.80321724191785
176.1037045385349	170.32016242386382
198.45822532704668	161.80415430267064
189.9422174076136	193.7391847571451
213.36123918605452	189.4811806965485
606.1621044699043	333.1888177416836
577.4205777418177	365.12384819615806
572.098072792172	329.99531469623616
556.1305579432351	350.22083398407
54.75059168661384	57.483054818054036
45.17008277725164	85.16008121193191
121.81415405214916	89.4180852725285
87.75012237441693	102.19209745431829
103.71763722335392	124.54661877245042
123.94315603200742	125.61111978759956
101.58863524349564	152.22364516632828
206.97423324647974	14.903014212088085
178.23270651839317	9.58050913634234
131.39466296151136	19.16101827268468
163.3296926593853	34.06403248477277
107.97564118307044	32.99953146962361
117.55615009243263	50.031547712009996
147.36217781044834	55.35405278775574
237.84476195442457	314.0277994689989
