336.44025947956175	11.536544083705186
293.4404142276238	114.31666410216957
334.342706052638	65.02415756270196
372.0986677372664	4.1951069395291585
360.5621238891855	40.902292660409294
399.3668622872758	50.341283274349905
362.6596773161093	67.12171103246654
427.6838335507471	9.438990613940607
437.1228239719042	37.75596245576243
507.39086377385155	95.43868287428836
471.73245551614696	33.56085551623327
547.2443788854038	80.75580858593631
524.171291189242	8.390213879058317
553.5370391661752	53.48761347899677
604.9270981258084	69.21926450223111
608.073428266194	131.0970918602862
546.1956021719419	138.43852900446223
572.4150200084894	119.56054777658102
561.9272528738704	169.90183105093092
513.6835240546229	110.12155716264041
526.2688446161658	77.60947838128943
475.9275623699946	173.04816125557778
447.61059110652326	206.60901677181107
376.293774591114	173.04816125557778
420.34239655651385	192.97491921834128
540.9517186046324	189.82858901369443
609.122204979656	184.58470533928298
574.5125734354132	188.77981227881213
522.0737377623182	249.60886290198493
548.2931555988657	275.8282812740422
500.0494267796183	294.7062625019234
456.00080481421844	300.9989229112171
596.5368844181131	327.21834128327436
528.3663980430896	320.92568087398064
568.2199131546419	308.34036005539315
585.0003405700322	377.55962455762426
613.3173118335035	445.7301123249731
533.610281610399	382.8035082320357
516.8298541950087	403.7790429296815
468.58612537576124	353.4377596553316
478.0251157969183	385.94983843668257
492.70798978538494	427.90090783197417
465.4397952353755	420.5594706877981
461.24468838152796	454.1203262040314
483.26899936422785	471.94953069703035
486.41532950461357	505.5103862132636
492.70798978538494	550.6077858132021
607.0246515527322	514.9493768272042
566.122359727718	538.0224649946146
504.2445336334659	539.0712417294969
533.610281610399	579.9735343899061
615.4148652604273	562.1443298969073
427.6838335507471	500.26650253885214
432.92771711805665	540.1200184643792
430.83016369113284	476.1446376365595
376.293774591114	506.5591629481459
390.9766485795806	545.3639021387906
351.12313346802836	466.7056470226189
385.7327650122711	393.2912755808586
392.02542529304253	352.38898292044934
377.3425513045759	425.8033543622096
379.4401047314997	477.1934143714418
407.757075994971	482.43729804585325
320.7086087776333	462.5105400830897
361.6109006026474	519.1444837667334
333.2939293391761	488.72995845514697
287.14775394685245	429.99846130173876
273.51365667184774	398.53515925527006
256.7332292564573	371.26696414833054
311.26961835647614	400.63271272503465
353.22068689495217	354.48653639021387
323.85493891801895	381.75473149715344
260.92833611030494	320.92568087398064
241.0015785545288	449.92521926450223
294.4891909410857	484.5348515156178
192.75784973528138	401.6814894599169
218.9772675718289	363.9255270041545
156.05066476411486	362.87675026927224
206.3919470102861	320.92568087398064
239.9528018410669	293.6574857670411
220.0260442852908	331.41344822280354
156.05066476411486	295.75503923680566
108.85571265832934	292.6087090321588
228.416257992986	271.633174334513
164.44087847181007	275.8282812740422
112.00204279871504	226.53577473457457
170.73353875258147	249.60886290198493
166.53843189873388	205.56024003692877
130.88002364102925	218.14556085551624
82.63629482178182	162.56039390675488
40.685226283305795	170.95060778581322
26.002352294839184	198.21880289275273
85.78262496216752	123.75565471611017
59.56320712562	160.46284043699032
141.36779077564825	151.02384982304972
165.48965518527197	175.14571472534237
302.87940464878096	204.51146330204648
343.7816964737951	217.09678412063397
385.7327650122711	242.2674257578089
339.58658961994746	271.633174334513
401.4644157141996	217.09678412063397
357.4157937487998	241.21864902292663
315.46472521032376	96.48745960917064
421.3911732699757	141.5848592091091
456.00080481421844	167.80427758116633
257.7820059699192	116.41421757193415
230.5138114199098	133.19464533005078
231.56258813337172	76.56070164640714
204.29439358336228	206.60901677181107
246.24546212183833	226.53577473457457
248.3430155487621	182.48715186951839
178.07497574681477	55.58516694876135
128.78247021410544	20.97553469764579
81.58751810831991	42.99984613017388
7.124371452524973	47.19495306970303
96.27039209678652	10.487767348822896
60.61198383908191	31.46330204646869
116.19714965256264	98.58501307893522
17.612138587143978	110.12155716264041
36.49011942945819	132.1458685951685
0.831711171753569	92.29235266964149
91.02650852947703	69.21926450223111
170.73353875258147	89.14602246499462
221.0748209987527	51.390060009232194
193.8066264487433	105.92645022311126
210.5870538641337	161.51161717187262
191.70907302181948	125.85320818587476
266.1722196776144	210.80412371134022
213.7333840045194	117.46299430681644
481.17144593730404	230.73088167410373
407.757075994971	345.0475457762733
400.4156390007377	276.87705800892445
357.4157937487998	294.7062625019234
352.17191018149026	391.193722111094
557.7321460200228	405.8765963994461
560.8784761604085	379.65717802738885
591.2930008508037	406.92537313432837
571.3662432950275	326.1695645483921
507.39086377385155	262.1941837205724
479.07389251038023	18.877981227881214
302.87940464878096	12.585320818587476
113.05081951217694	123.75565471611017
