15.171875	47
73.171875	42
133.171875	18
15.171875	114
112.171875	98
332.171875	9
444.171875	39
400.171875	53
359.171875	66
300.171875	105
333.171875	61
229.171875	127
134.171875	209
107.171875	229
162.171875	250
163.171875	295
221.171875	369
285.171875	426
269.171875	396
256.171875	365
503.171875	287
572.171875	317
394.171875	399
532.171875	383
348.171875	217
226.171875	272
240.171875	301
477.171875	23
510.171875	93
81.171875	118
65.171875	153
106.171875	293
224.171875	329
396.171875	353
454.171875	298
383.171875	234
478.171875	168
376.171875	6
567.171875	169
545.171875	139
585.171875	382
475.171875	420
