354.7593082043117	45.80901708204985
357.3042535707311	73.8034164099692
384.0261799181344	92.89050686082331
412.02057894874747	106.88770652478298
521.4532297047804	118.33996079529544
413.29305163195716	176.87370484458137
394.2059613838119	202.32315877905347
364.9390896699892	265.94679361523384
459.1020682275058	244.31475777093252
478.1891584756511	159.05908709045087
496.0037760405866	134.88210585270235
451.4672321282477	66.16858022962757
328.0373818569083	393.19406328759453
322.9474911240696	377.92439092691126
315.3126550248115	357.56482777933354
422.20036041442495	363.92719126295157
446.37734139540896	433.91318958274996
451.4672321282477	395.73900868104175
406.93068821590873	436.4581349761972
384.02617991813446	421.18846261551374
396.75090675023125	397.01148137776534
441.2874506625702	166.69392327079254
471.82679505960266	229.04508541024924
454.01217749466707	291.396247549706
537.9953745865062	296.4861383366004
576.1695550827967	310.4833380005601
525.2706477544094	372.8345001400168
515.090866288732	344.8401008120975
545.6302106857643	547.163259591151
571.079664349958	533.1660599271913
560.8998828842805	547.163259591151
537.9953745865062	578.9750770092412
442.5599233457799	529.3486418370205
532.9054838536675	505.17166059927195
516.3633389719416	516.6239148697845
549.4476287353933	432.6407168860263
595.256645330942	393.19406328759453
596.5291180141517	390.6491178941473
587.6218092316839	243.04228507420893
596.5291180141517	202.3231587790535
427.2902511472637	301.57602912349483
494.731303357377	497.53682441893
