156.3434708410585	123.64425297796694
159.52744310849258	103.47909583992941
214.71629574401715	106.66306801961956
237.0041016160559	79.06864246230504
269.9051483795417	71.63937404302806
214.71629574401715	163.974567254042
201.98040667428072	195.81428905094336
262.47587975552875	248.88049204577896
247.6173425075029	286.02683414216375
292.19295425158043	311.49861157968496
572.382513785782	351.82892585576
575.5664860532161	316.8052318791685
536.2974947548621	304.069343160408
569.1985415183478	180.9557522123894
526.7455779525598	168.21986349362885
459.8821603364435	253.12578828536581
450.3302435341412	294.51742662133756
388.7734463637484	150.17735447538473
322.9713528367768	214.91812212908417
309.1741396778957	248.88049204577896
333.58459372822387	269.04564918381647
367.54696458085436	277.53624166299016
394.08006680947193	280.7202138426803
371.7922609374332	327.41847247813564
309.1741396778957	383.6686476526614
285.8250097167122	360.3195183349337
265.65985202296287	386.8526198323515
253.98528704237114	329.5411205979291
216.83894392230656	325.2958243583422
220.02291618974064	283.9041860223704
270.9664724686864	190.5076687514598
232.75880525947707	221.28606648846446
217.90026801145123	249.94181610567566
204.1030548525701	235.0832792671217
178.63127671309724	246.75784392598553
164.8340635542161	189.44634469156307
129.8103686124409	148.05470635559132
119.19712772099388	131.07352139724392
119.19712772099388	84.3752627617886
182.87657306967606	106.66306801961956
277.3344170035546	106.66306801961956
311.2967878561851	153.3613266550749
263.53720384467346	151.23867853528145
290.070306073291	131.07352139724392
299.62222287559337	110.9083642592064
326.15532510421093	85.43658682168531
345.25915870881556	120.46028079827681
330.40062146078975	107.72439207951626
311.2967878561851	100.29512366023928
436.53303037526	137.4414657566242
450.3302435341412	171.40383567331898
412.12257632493186	185.20104845197625
390.8960945420378	212.79547400929076
367.54696458085436	205.36620559001375
610.5901809949913	150.17735447538473
596.7929678361102	203.24355747022034
579.8117824097949	157.6066228946617
587.2410510338078	128.9508732774505
594.6703196578208	70.57804998313135
549.0333838245986	80.12996652220176
566.0145692509138	114.09233643889654
520.3776334176915	96.04982742065243
497.0285034565081	107.72439207951626
478.98599394104815	101.35644772013599
350.5657791545391	62.08745750395765
400.44801134434016	14.327874808605612
328.27797328250034	54.658189084680664
318.726056480198	20.69581916798588
344.1978346196709	16.450522928399035
217.90026801145123	16.450522928399035
242.31072206177942	40.86097630602341
140.42360950388795	22.818467287779306
169.07935991079492	38.738328186229985
183.93789715882073	55.71951314457738
589.3636992120972	41.92230036592012
604.2222364601231	17.511846988295748
441.83965082098354	51.47421690499053
519.3163093285468	27.063763527366156
470.4954012278905	314.6825837593751
425.919789483813	369.87143487400414
398.32536316605075	376.2393792333844
371.7922609374332	381.54599953286794
352.6884273328285	368.8101108141074
349.5044550653944	345.46098149637976
315.5420842127639	352.89024991565674
327.21664919335564	385.7912957724548
354.8110755111179	434.6122025277036
343.1365105305262	468.5745724443983
501.2737998130869	340.15436119689616
431.22640992953654	316.8052318791685
403.6319836117743	334.8477408974126
556.4626524486115	401.7111566709055
591.4863473903866	258.4324085848494
462.00480851473293	474.9425168037786
446.08494717756236	443.1027950068772
438.6556785535494	542.8672566371681
483.23129029762697	551.3578491163419
489.5992348324952	499.35297018140295
569.1985415183478	546.0512288168583
569.1985415183478	509.9662107803701
605.2835605492678	520.5794513793372
609.5288569058466	563.0324137752057
596.7929678361102	400.6498326110088
611.651505084136	367.7487867542107
584.0570787663737	446.2867671865674
545.8494115571644	501.4756183011964
518.2549852394021	518.4568032595438
351.6271032436838	170.34251161342226
325.0940010150662	198.9982612306335
292.19295425158043	208.5501777697039
208.34835120914892	55.71951314457738
561.769272894335	453.71603560584435
353.7497514219732	410.2017491500792
294.31560242986984	450.53206342615425
