494.686947972491	436.179829890644
580.8186532786295	373.2374240583232
606.216463817619	334.58857837181046
552.10808484325	347.8396111786148
583.0271585428894	274.9589307411908
432.84880057321215	108.21676792223572
452.7253479515518	7.729769137302552
295.92147418909457	18.772296476306195
299.2342320854845	407.46925880923453
284.87894786779486	399.7394896719319
350.0298531634636	514.5817739975698
384.26168475949305	157.90814094775212
399.7212216093127	186.6187120291616
267.21090575371505	61.83815309842041
223.04080046851584	15.459538274605103
