529.3625469599491	181.87154331188802
606.241966525004	215.03502574268262
606.241966525004	257.24309429096667
318.32100305587676	303.9734558979954
273.09781507643265	252.72080123222193
193.20351631274815	104.99256131322778
167.5770431243965	16.05413115791497
449.46824819626454	94.44054417615676
503.73607377159743	68.81421684327003
550.4667013503563	70.3216478628516
595.6898893298004	43.187889510383286
530.8699865592639	32.635872373312274
463.0352045900978	145.69319884193024
429.8715334051721	123.08173354820666
378.6185870284688	136.64861272444082
312.29124465861753	150.21549190067498
413.2896978127093	234.63162899724307
395.20042262093165	293.4214387609244
472.0798421859866	332.6146452700453
550.4667013503563	478.8354541694579
556.4964597476155	521.0435227177419
496.19887577502345	127.60402660695138
247.47134188808104	306.98831793715857
223.35230829904418	279.85455958469026
194.71095591206293	240.66135307556937
461.527764990783	73.33650990201474
554.9890201483007	136.6486127244408
233.9043854942478	16.05413115791497
