47.46463195984897	605.1304981773998
62.9241688096687	628.3198055893074
28.692337213639306	417.40753341433776
64.02842144179868	352.25662211421627
37.52635827067915	327.9630619684083
109.30277935912787	294.8354799513973
11.024295099559621	252.87387606318347
48.56888459197895	241.83134872417983
69.54968460244858	114.8422843256379
56.298653016888814	71.7764277035237
119.2410530482977	22.08505467800729
131.38783200172747	167.8464155528554
140.22185305876732	234.10157958687728
119.2410530482977	375.44592952612396
175.5579372869267	513.4775212636695
26.483831949379347	533.354070473876
312.48526367104427	588.5667071688943
248.4386110075054	600.7134872417982
272.732168914365	548.8136087484812
176.6621899190567	323.5460510328068
214.20677941147602	327.9630619684083
276.04492681075493	200.97399756986633
252.85562153602532	456.05637910085056
200.95574782591623	483.66269744835967
253.9598741681553	67.35941676792224
359.9681268526334	216.43353584447144
401.9297268735727	266.12490886998785
380.94892686310305	461.5776427703524
40.83911616706909	488.07970838396113
139.11760042663735	426.2415552855407
