367.40591941634744	120.57993018605755
386.80958717830083	133.05371606737384
482.441949719357	148.29945436676044
359.0900618040817	176.01897854746332
316.12479747404194	200.96655031009593
288.4052720998228	234.22997932693937
404.8272786715433	231.45802690886907
431.16082777705145	245.31778899922057
413.14313628380904	266.1074321347477
393.73946852185566	275.8092655979937
375.7217770286132	292.44098010641545
458.8803531512707	288.28305147931
525.4072140493967	339.56417121361034
548.968810617483	250.8616938353611
471.3541395696693	191.2647168468499
438.09070912060633	90.08845358728438
324.44065508630774	99.79028705053038
317.5107737427529	84.5445487511438
235.73817388880636	123.35188260412784
235.73817388880636	155.22933541193615
296.72112971208855	156.61531162097128
250.98391284462693	232.84400311790424
418.6870413586529	375.5995526485241
524.0212377806857	365.89771918527805
572.5304071855693	379.7574812756295
557.2846682297487	417.1788389195784
597.4779800223665	360.3538143491375
397.89739732798853	163.545192666147
257.9137941881817	166.31714508421732
506.00354628744327	63.754905615616636
460.2663294199817	47.123191107194906
310.58089239919815	52.66709594333548
116.54421477966399	163.54519266614705
363.2479906102146	385.3013861117701
501.8456174813104	210.66838377334193
156.73752657228172	248.0897414172908
117.9301910483749	127.50981123123327
