502.234375	208
438.234375	245
409.234375	240
417.234375	274
383.234375	275
452.234375	299
486.234375	150
458.234375	119
387.234375	146
375.234375	119
299.234375	161
253.234375	168
280.234375	207
291.234375	238
281.234375	276
307.234375	295
344.234375	297
249.234375	233
225.234375	165
315.234375	202
403.234375	171
410.234375	44
552.234375	172
549.234375	255
512.234375	305
526.234375	350
414.234375	380
361.234375	390
325.234375	393
263.234375	297
215.234375	268
154.234375	245
335.234375	164
433.234375	93
518.234375	370
556.234375	417
521.234375	432
571.234375	379
601.234375	352
449.234375	337
359.234375	184
115.234375	170
228.234375	30
507.234375	21
551.234375	53
573.234375	88
597.234375	129
