476.602160983931	55.24733766703587
264.05317748054387	83.88852703908576
342.44003664491356	160.76750903774598
362.036751436006	104.99256131322778
417.8120166106537	103.48513029364621
286.6647714702659	20.57642421665969
558.0038993469303	347.68895546586106
591.167570531856	308.49574895674016
490.1691173777642	252.72080123222193
539.9146241551528	231.61676695807992
576.093174538708	209.00530166435632
463.0352045900978	272.3174044867824
396.70786222024645	210.51273268393788
185.66631831617414	86.9033890782489
185.66631831617414	52.232475627872724
230.8895062956182	11.531838099170253
310.7838050593027	267.79511142803767
255.00853988465505	221.06474982100892
158.5324055285077	154.73778495941968
129.89105314152644	136.64861272444082
90.69762355934157	106.49999233280936
366.5590702339504	168.30466413565384
460.0203253914682	178.85668127272487
420.8268958092833	417.0307823666134
349.9772346414876	403.46390319037926
319.82844265519157	334.1220762896269
360.5293118366912	353.71867954418735
401.2301810181909	344.6740934266979
515.7955905661158	429.090230523266
556.4964597476155	511.9989366002525
506.75095297022705	543.6549880114655
481.12447978187544	489.3874713065289
467.55752338804217	456.2239888757343
446.453368997635	487.88004028694735
387.66322462435767	504.46178150234465
282.1424526723215	450.194264797408
352.9921138401172	462.2537129540606
248.97878148739582	346.18152444627947
235.4118250935626	371.8078517791662
288.17221106958067	373.3152827987478
331.88795944970997	498.43205742401835
362.036751436006	498.43205742401835
310.7838050593027	95.94797519573834
366.5590702339504	55.24733766703587
205.26303310726655	246.69107715389566
208.27791230589617	210.51273268393788
140.44313033673006	212.02016370351947
128.38361354221163	79.36623398034104
583.6303725352819	564.7590222856076
328.87308025108035	65.79935480410688
262.54573788122906	406.4787652295424
589.6601309325412	40.17302747122014
208.27791230589617	356.7335415833505
