472.72495987193065	628.8418001714023
444.52128282928714	490.9619507294399
353.64276791410254	396.9529624735565
278.4329624670532	450.22472248522377
497.7948950209471	548.9341601539013
560.4697328934882	512.8973813224793
463.3237341910495	276.30809421183943
471.1580889251171	356.21573422934034
422.58508957389773	411.054310711939
325.43909087145903	342.1143859909578
286.2673172011208	384.41843070610537
538.5335396380988	234.00404949669192
497.7948950209471	255.93948008973138
585.5396680425047	309.21124010139863
569.8709585743693	210.50180243272106
366.1777354886108	168.19775771757355
363.0439935949837	102.39146593845516
474.29183081874413	58.52060475237623
267.46486583935854	88.29011770007264
214.19125364769857	213.63543537458386
209.490640807258	332.7134871653695
309.77038140332377	270.0408283281139
601.2083775106399	55.38697181051345
516.5973463827094	428.2892918921843
