517.3030301654306	68.81421684327003
455.49800659352377	71.82907888243318
419.3194562099685	73.33650990201474
321.3358822545064	37.158165432057
179.6365599189149	44.69532052996486
141.95056993604484	55.24733766703587
325.85820105245074	88.41082009783048
562.5262181448747	159.26007801816442
609.2568457236337	127.60402660695138
517.3030301654306	120.06687150904351
414.7971374120241	23.591286255822837
470.5724025866718	224.07961186017204
481.12447978187544	148.7080608810934
487.1542381791346	58.26219970619901
280.6350130730067	100.47026825448306
292.6945298675251	10.024407079588679
473.5872817853014	109.5148543719725
