267.3125	372
292.3125	341
294.3125	408
360.3125	370
413.3125	453
423.3125	405
455.3125	502
591.3125	479
517.3125	392
447.3125	221
274.3125	137
91.3125	71
204.3125	341
120.3125	347
74.3125	171
357.3125	291
426.3125	349
574.3125	248
152.3125	20
