600.8395995202586	205.44869592378572
230.39325502492065	121.35311572700297
396.45540945386523	133.0626268936436
364.5203797559913	161.80415430267064
422.00343321216445	448.1549273777917
534.8405381446524	430.05841012025616
572.098072792172	428.993909105107
587.0010866511799	472.6384507262221
598.7105975404004	502.44447915039825
583.8075836813925	232.06122130251447
600.8395995202586	262.9317507418398
587.0010866511801	304.44729033265656
616.8071143691956	295.93128221146327
592.3235916008256	359.8013431204123
555.066056953306	336.3823207871311
469.9059777589754	491.7994689989068
503.9700094367076	523.7344994533812
534.8405381446524	387.4783695142902
564.6465658626681	394.92987662033426
455.00296389996754	404.51038575667656
558.2595599230933	504.57348118069655
521.0020252755737	503.5089801655474
483.7444906280541	480.0899578322661
507.163512406495	471.57394971107294
479.4864866683376	442.8324223020459
496.51850250720366	426.8649070748087
440.0999500409597	311.8987974387006
611.48460941955	575.8950491956896
543.3565460640855	527.9925035139778
577.4205777418177	532.2505075745744
563.582064872739	553.5405278775575
583.8075836813925	585.4755583320319
531.6470351748651	266.1252537872872
544.4210470540146	190.54568171169765
578.4850787317469	104.3210994846166
559.3240609130224	61.741058878650634
605.0976034799752	41.51553959081681
609.3556074396917	72.38606903014212
606.1621044699043	88.35358425737935
462.45447082947146	248.02873652975168
465.64797379925886	286.350773075121
456.06746488989666	367.25285022645636
453.93846291003837	343.8338278931751
495.45400151727455	299.12478525691085
491.19599755755803	334.25331875683275
468.84147676904627	322.5438075901921
497.58300349713284	394.92987662033426
503.9700094367076	237.3837263782602
500.7765064669202	191.6101827268468
439.0354490510305	50.031547712009996
354.9398708466291	203.31969389348743
456.06746488989666	200.12619084803998
550.8080529935894	109.64360456036233
541.2275440842272	47.9025456817117
