534.171875	20
507.171875	78
525.171875	121
536.171875	221
577.171875	254
560.171875	305
580.171875	361
611.171875	383
425.171875	240
217.171875	324
189.171875	301
185.171875	73
236.171875	22
262.171875	72
242.171875	112
400.171875	21
