397.718461249849	23.68537335898831
443.02958522079706	80.920477005848
510.99627117721917	78.53568102056218
522.9202511695739	117.88481477777822
474.0319332009194	117.88481477777822
425.14361523226495	147.69476459385098
435.8751972253842	181.08190838785245
401.29565524755543	184.65910236578117
391.75647125367163	116.69241678513531
491.9179031894516	172.73512243935207
506.2266791802773	193.00588831428155
534.8442311619287	224.0082361229972
577.7705591344059	247.8561959758554
571.8085691382284	297.9369116668576
584.9249471298186	338.4784434167166
586.1173451290541	365.9035972475035
487.14831119250965	222.8158381303543
451.3763712154454	229.97022608621177
423.95121723302947	237.12461404206923
377.4476952628459	256.20298192435575
309.4810093064238	226.39303210828302
341.67575528578163	272.8965538213565
264.1698853354757	73.76608904999054
193.81840338058265	68.9964970794189
164.00845339969575	82.11287499849091
135.39090141804434	78.53568102056218
247.47631334617904	113.11522280720656
212.89677136835024	141.7327746306364
252.24590534312097	162.0035405055659
224.820751360705	184.65910236578117
177.124831391286	262.16497188757035
183.08682138746337	303.8989016300722
214.08916936758573	321.78487151971586
125.85171742416053	141.7327746306364
254.6307013415919	282.4357377624998
445.414381219268	443.4094667692927
427.52841123073586	344.4404333799311
421.5664212345585	293.167319696286
366.71611326972663	302.70650363742925
381.0248892605523	334.90124943878783
350.02254128042995	362.32640326957477
513.3810671756901	338.4784434167166
475.2243312001549	286.01293174042854
599.2337231206444	165.5807344834946
549.1530071527544	299.12930965950056
469.26234120397754	455.33344669572176
438.25999322385513	468.4498246147938
396.5260632506135	468.4498246147938
537.2290271603996	24.877771351631225
136.58329941727982	262.16497188757035
141.35289141422172	290.7825237110002
