409.36301533745956	384.9010617018003
353.77784952397883	361.8279735343899
241.55874118355544	226.53577473457457
323.3633248335837	196.12124942298817
65.36425332195614	16.780427758116634
271.97326587395054	48.24372980458532
