493.18399657639384	156.24521597900127
450.97568779557935	150.21549190067498
407.2599394154501	165.2898020964907
340.93259704559875	114.03714743071721
279.1275734736919	56.754768686617446
342.44003664491356	47.71018256912801
429.8715334051721	38.665596451638564
218.8299895010998	95.94797519573834
152.50264713124847	11.531838099170253
75.62322756619355	17.561562177496544
125.36873434358203	89.91825111741205
179.6365599189149	150.21549190067498
163.0547243264521	196.94585350770373
585.1378121345967	240.66135307556937
591.167570531856	282.8694216238534
539.9146241551528	284.376852643435
592.6750101311708	337.13693832879005
577.6006141380228	43.187889510383286
276.11269427506227	270.8099734672008
321.3358822545064	334.1220762896269
372.58882863120965	359.74840362251365
378.6185870284688	278.3471285651087
68.08602956961954	151.72292292025654
9.295885196342239	153.23035393983812
536.8997449565231	417.0307823666134
601.7196477270596	377.8375758574925
425.34921460722774	454.71655785615275
428.36409380585735	355.2261105637689
444.9459293983202	285.88428366301656
476.602160983931	311.5106109959033
478.1096005832458	417.0307823666134
478.1096005832458	377.8375758574925
475.0947213846162	340.1518003679532
220.3374291004146	248.19850817347722
