162.34332504488626	17.829204492998922
225.2699278526003	23.073088167410372
268.2697731045382	72.36559470687799
210.5870538641337	6.292660409293738
121.44103321987214	52.43883674411448
158.14821819103867	81.80458532081859
189.61151959489567	110.12155716264041
314.41594849686186	157.31651023234343
304.9769580757048	66.07293429758425
384.6839882988092	92.29235266964149
453.90325138729463	90.19479919987691
504.2445336334659	73.41437144176028
533.610281610399	34.609632251115556
546.1956021719419	72.36559470687799
596.5368844181131	51.390060009232194
607.0246515527322	209.75534697645793
607.0246515527322	248.56008616710264
553.5370391661752	136.34097553469766
524.171291189242	181.43837513463612
559.8296994469466	154.17018002769657
493.75676649884684	130.04831512540392
461.24468838152796	70.26804123711341
469.63490208922315	207.65779350669334
471.73245551614696	337.70610863209725
547.2443788854038	479.29096784120634
551.4394857392514	510.75426988767504
396.2205321468901	294.7062625019234
313.36717178339995	304.145253115864
270.367326531462	253.8039698415141
402.5131924276615	238.07231881827974
425.5862801238233	121.6581012463456
462.29346509498987	141.5848592091091
373.1474444507283	144.73118941375597
241.0015785545288	306.24280658562856
188.5627428814338	244.36497922757349
229.4650347064479	283.1697184182182
410.9034061353567	335.60855516233266
545.14682545848	406.92537313432837
479.07389251038023	242.2674257578089
591.2930008508037	264.291737190337
486.41532950461357	475.0958609016772
365.80600745649497	183.53592860440068
419.29361984305194	8.390213879058317
