542.234375	409
604.234375	251
572.234375	164
553.234375	139
553.234375	86
535.234375	43
512.234375	79
457.234375	65
428.234375	120
467.234375	152
450.234375	97
592.234375	48
314.234375	150
381.234375	91
269.234375	70
230.234375	21
195.234375	111
274.234375	256
233.234375	281
311.234375	298
399.234375	297
402.234375	238
602.234375	213
473.234375	342
235.234375	310
193.234375	251
361.234375	184
365.234375	146
464.234375	226
498.234375	133
