320.21503209595414	302.5652490886999
271.627916282235	250.66537059538274
191.01747413674642	240.72709599027945
191.01747413674642	107.11251518833535
162.30690570136693	22.08505467800729
123.65806357681763	57.42114216281895
450.5168426872918	89.44447144592952
462.6636216407216	60.733900364520046
504.6252216616609	73.98493317132443
530.0230322006504	36.44034021871203
548.7953269468601	77.29769137302551
597.3824427605792	46.37861482381531
552.10808484325	130.301822600243
562.0463585324198	157.90814094775212
606.216463817619	208.70376670716888
530.0230322006504	179.99319562575943
492.47844270823106	126.98906439854191
464.87212690498154	144.65710814094774
427.3275374125622	125.88481166464156
407.45099003422257	234.10157958687728
396.40846371292275	292.6269744835966
464.87212690498154	334.58857837181046
375.4276637024531	139.13584447144592
358.8638742205034	179.99319562575943
315.7980215674342	154.59538274605103
241.8130952147255	304.7737545565006
225.2493057327758	280.4801944106926
546.5868216826001	407.46925880923453
546.5868216826001	479.2456865127582
556.5250953717699	515.6860267314702
