279.35768470714487	77.29769137302551
306.9640005103944	28.710571081409476
336.77882157790384	33.12758201701094
210.89402151508608	44.17010935601458
273.83642154649493	249.5611178614824
208.6855162508261	136.9273390036452
465.97637953711154	35.336087484811664
556.5250953717699	19.87654921020656
597.3824427605792	15.459538274605103
534.4400427291703	70.67217496962333
500.20821113314094	100.48699878493316
549.89957957899	108.21676792223572
530.0230322006504	133.6145808019441
458.24661111220166	125.88481166464156
537.7528006255602	337.9013365735115
504.6252216616609	339.0055893074119
454.9338532158117	331.27582017010934
427.3275374125622	348.9438639125152
399.7212216093127	272.75042527339
538.8570532576903	377.65443499392467
569.7761269573297	401.94799513973265
584.1314111750195	364.40340218712026
555.42084273964	422.9287970838396
473.7061479620214	539.9795868772783
464.87212690498154	484.76695018226
528.9187795685204	547.7093560145807
495.791200604621	568.6901579586877
530.0230322006504	587.4624544349939
567.5676216930698	526.7285540704738
559.8378532681598	566.481652490887
404.13823213783263	485.87120291616037
453.8296005836817	437.28408262454434
348.9256005313336	443.9095990279465
358.8638742205034	376.5501822600243
377.6361689667131	408.5735115431349
331.2575584172539	400.8437424058323
207.5812636186961	344.52685297691374
291.50446366057463	309.190765492102
251.75136890389535	357.7778857837181
309.1725057746543	259.4993924665857
