588.5639669358347	277.90742473317175	2
278.71345430381535	436.24112014825494	2
396.3247187585773	266.99166406936206	6
195.90891355484914	313.80605737311726	5
563.9571044907498	195.66426320667205	5
329.37008283907346	324.5472795931969	3
309.55903667663426	369.73282623738754	6
556.1303460740096	274.93672562015934	4
376.3184444984291	342.2977293642631	7
220.95225499748506	406.1864875644601	4
145.33598816731188	239.51118925154663	2
157.32760008668726	175.46770095240083	2
336.94872105237215	243.12329814775245	4
126.9061916142372	382.01282256999934	3
464.88550745908697	490.7845757133894	6
99.72449538950886	81.83881829334501	3
21.500267319164465	173.58039222732918	3
450.89604319476666	344.9262843611655	2
223.15638064415998	125.68449863312301	8
214.87205185543948	442.49981982909503	3
479.04351156704894	283.50392662520653	3
262.2557610573846	277.75390831453217	5
459.8511585225498	421.3261045617469	2
435.4065202202231	533.2791813073619	3
337.15192202126184	372.57556162469587	5
186.06242023628943	200.35581292761185	7
505.87684005374433	322.814026876157	5
98.05281049812874	118.22481503517344	4
237.457949754914	326.23660080575314	4
135.9735468775216	119.92629836630462	6
382.3198071835592	488.68089660302917	2
233.3017413950116	376.28843508250276	4
261.0354443501334	383.7900549986474	2
501.7574599452405	567.210996214578	2
241.37959892529312	332.69721211432284	2
147.23420247391155	429.3616050707493	4
353.72391606972985	205.37382162916177	3
181.19461079402242	403.02456748650184	4
258.05189732245896	113.40240417864081	4
183.20811695120562	451.2928130825623	3
162.0515703715749	57.80025647463849	2
216.40169236810289	436.53927698382245	2
124.7623162089476	100.76306196840827	2
419.93694830989114	209.1800729040097	2
158.54344503867378	313.29220889576993	2
99.8389911154296	52.83816011064807	2
33.661474058224215	101.86731470230862	2
13.23280036381958	116.77472660996355	2
244.61513451995233	426.14980578374804	3
203.25938673304273	466.02581348621356	4
532.7684556399046	382.2879367257733	3
259.1282220467591	197.19504557856084	2
442.59732614041786	342.8060506137204	4
93.29359455506487	113.68670712071705	5
161.17469685038935	306.52183520449273	4
344.7016164172177	21.29325923690119	3
215.99949393860328	348.5896946673921	3
304.06829330263696	368.44278553369367	2
566.9960111783723	188.91429450684723	2
428.30865515289895	251.18589348356613	2
161.78777612565767	180.64752434333195	3
22.461489697069	169.0419053137747	4
429.01119157872233	61.877827358055086	2
31.251652770733536	214.27088719322555	5
506.3158614879772	316.3896753346669	2
478.47069833158	359.6286991385607	2
267.75531615332056	273.8409755346977	2
588.5303160443056	52.49483954630276	3
544.08915237715	303.50581208824576	7
54.54571638020667	60.390136944145254	2
425.70960518070854	203.8813013747639	5
102.34661297040128	45.13040484590863	2
431.546875	248.5	2
358.08818711025174	202.53912515188335	2
480.299735237287	329.465162413546	3
36.4984807140955	118.15233112786584	3
348.47129747220555	20.56825312128588	4
6.1080348135482625	209.60711309931253	3
96.8158344051242	314.3408985997846	2
264.1877108634019	389.24873429448064	3
429.7421875	73.5	2
265.046875	114.5	2
73.44934641044706	221.1532279290748	4
150.7421875	241.5	2
130.62065017724558	326.63355900907834	2
557.9939287264118	270.3234052771104	3
582.2288706849922	55.13257438636988	3
457.9372257751891	426.46303277427296	3
120.90429859039935	383.45167765420035	2
127.7158675881058	95.97912255176534	2
329.4811557398148	247.24973603106974	3
53.858693233701906	65.62117812397916	4
180.3524245716685	25.89958076512095	2
450.2203089099926	350.6457147253424	2
95.02582104839325	51.21941837205724	2
432.3788719157593	82.95106939529158	2
327.25877262830204	316.90814094775214	2
405.4765625	266.5	2
164.81678521740113	65.67862096344876	4
12.525975796455338	110.58516694876135	2
7.833490291818352	214.05754773563632	3
429.0391681276101	257.0306314162632	3
367.7346129760648	512.367325574019	3
63.50965359848174	27.058066686031864	2
218.0288013453506	235.88979742083495	2
59.22181097467945	340.0498889479235	3
324.6656759711435	323.7369593313365	3
194.4648623676407	318.914063702108	2
395.2379832571105	557.2185624220718	2
601.406629429059	466.39345517680795	2
110.32096893977285	275.6107113750661	3
582.8810327278622	277.1360979934102	2
256.72497046082367	117.01401226784006	2
462.2814467609568	486.2918141252501	2
220.92582014217027	443.7156029425595	2
430.24952699139345	530.6879552054179	2
606.2984220409395	464.9452004860267	2
125.5192219205388	385.58784933171324	2
450.6095201446059	421.8380649775562	2
292.6087162927046	20.980801944106926	1
44.15187406345903	119.25929526123937	1
154.57713727645708	178.88894289185905	1
255.0641268002853	274.9589307411908	1
152.3686320121971	236.310085054678	1
483.64442165119124	292.6269744835966	1
574.1931374858497	440.59684082624545	1
592.6857048780471	10.297987625884073	1
564.0681528963956	230.89161626482243	1
71.60777921214421	7.913191640598253	1
261.19906109058485	271.43314801468136	1
268.3534490859977	385.90335530840076	1
220.65752911657867	402.59692720540147	1
69.22298321367326	224.9296263016079	1
35.171875	112.0	1
479.171875	321.0	1
424.171875	569.0	1
260.171875	378.0	1
309.171875	363.0	1
272.171875	195.0	1
487.171875	288.0	1
335.171875	443.0	1
504.171875	562.0	1
557.171875	504.0	1
554.171875	562.0	1
27.051129008301086	97.53623634405294	1
140.31901406218634	124.80443145099247	1
481.17144593730404	275.8282812740422	1
474.87878565653267	374.4132943529774	1
487.4641062180755	328.2671180181567	1
612.2685351200416	281.07216494845363	1
611.2197584065798	316.73057393445146	1
585.0003405700322	348.19387598092015	1
590.2442241373417	397.4863825203878	1
557.7321460200228	417.41314048315127	1
382.5864348718854	349.2426527158025	1
229.4650347064479	382.8035082320357	1
222.1235977122146	352.38898292044934	1
147.66045105641965	232.8284351438683	1
35.44134271599629	223.3894445299277	1
33.34378928907249	299.95014617633484	1
151.85555791026727	422.6570241575627	1
12.368255019834477	284.2184951531005	1
371.0498910238045	429.99846130173876	1
408.8058527084329	437.3398984459148	1
435.0252705449804	463.55931681797205	1
400.4156390007377	478.24219110632407	1
335.39148276609984	507.6079396830282	1
266.1722196776144	499.21772580396987	1
501.0982034930802	416.364363748269	1
583.9515638565704	434.19356824126794	1
566.122359727718	478.24219110632407	1
527.3176213296276	457.2666564086783	1
496.90309663923256	442.58378212032625	1
533.610281610399	568.436990306201	1
553.5370391661752	507.6079396830282	1
279.8063169526191	185.63348207416527	1
588.1466707104179	512.8518233574397	1
232.6113648468336	260.09663025080783	1
374.1962211641902	195.07247268810588	1
272.46487995838584	434.19356824126794	1
216.78125	123.0	1
93.78125	86.0	1
431.78125	200.0	1
210.78125	234.0	1
164.78125	186.0	1
10.78125	176.0	1
171.3125	70.0	1
26.3125	164.0	1
267.3125	191.0	1
118.3125	279.0	1
163.3125	299.0	1
230.3125	371.0	1
376.3125	355.0	1
187.3125	455.0	1
228.3125	397.0	1
535.3125	377.0	1
440.8263167413166	91.24357593475919	1
132.4859629835178	123.75565471611017	1
450.2653071624737	338.7548853669796	1
436.63120988746897	525.4371441760271	1
485.8529269154512	339.5577156743621	1
509.0422321901807	326.30668286755775	1
436.16155846960214	86.68383961117861	1
36.42210563854917	124.228432563791	1
8.81578983529966	223.6111786148238	1
40.83911616706909	229.13244228432563	1
75.07094776309849	233.5494532199271	1
544.3783164183401	314.1599027946537	1
397.51271634505275	276.6153098420413	1
430.64029530895215	263.3642770352369	1
327.94480052086396	334.0364520048603	1
565.3591164288098	203.73462940461727	1
282.6704426035348	443.35747266099634	1
129.17932673746753	393.66609963547995	1
184.39195834396654	211.4643985419198	1
153.47288464432708	189.3793438639125	1
330.15330578512396	443.35747266099634	1
150.16012674793714	249.0089914945322	1
122.55381094468764	288.7620899149453	1
71.75818986670853	381.51931956257596	1
52.985895120498874	349.4959902794654	1
98.26025303782806	92.20510328068043	1
67.34117933818862	34.78396111786148	1
52.985895120498874	74.5370595382746	1
338.9873268421638	514.0296476306197	1
304.7554952461344	466.5467800729041	1
375.4276637024531	434.52345078979346	1
409.6594952984825	445.5659781287971	1
220.8322952042559	345.078979343864	1
332.3618110493839	371.58104495747267	1
435.0573058374721	540.5317132442284	1
391.99145318440287	562.6167679222357	1
499.10395850101094	499.67436208991495	1
488.0614321797111	449.98298906439857	1
499.10395850101094	427.8979343863912	1
452.7253479515518	432.3149453219927	1
429.5360426768222	470.96379100850544	1
477.01890585841136	296.4918590522479	1
332.3618110493839	253.42600243013365	1
138.01334779450738	326.30668286755775	1
283.77469523566475	176.12831105710816	1
237.3960846862056	243.48772782503045	1
224.1450531006458	231.34094775212637	1
194.33023203313638	274.4068043742406	1
346.71709526707366	470.9637910085055	1
158.994147804977	406.9171324422844	1
103.78151619847797	311.95139732685305	1
517.8762532472207	546.0529769137303	1
549.1266621888373	301.74817255224957	1
435.44478698118064	258.24029650983215	1
436.8482669220159	206.31154123339854	1
358.25339023524094	210.52198085040666	1
261.4132743176075	119.29578914856377	1
480.3561450879092	369.11520642437966	1
268.43067402178383	378.939565530732	1
224.92279585589054	373.3256460413878	1
142.11747934660977	119.29578914856377	1
154.74879881412718	308.76557191392976	1
59.312162837329005	65.96355399979409	1
36.85648378396473	214.73242046741478	1
497.19790437793245	419.6404818284773	1
