209.01255511316901	212.95010151491488	2
566.9249256344125	573.3084101202562	3
496.7846790576817	506.9088859464546	4
550.5743266163088	547.5919774444087	5
461.0192168869313	28.663406053357576	11
313.4615577802823	162.6539424271461	4
367.05209171348383	252.09987994045775	4
519.600327265657	453.45068463503117	3
351.99482253514896	65.32592144307355	4
450.20333123441355	383.35015419070817	4
257.29583009993104	314.95962574816144	5
612.5930579339168	343.12242324852105	7
165.51259830955092	241.85311572700297	2
363.2533778729602	191.8050913634234	2
152.4869057439447	42.2708222470899	2
263.05684492732206	266.43181323771705	3
165.622312041253	249.3272386571637	4
347.7914814427363	63.303845433504755	6
263.96786903798966	322.97002107969746	4
309.59089112732414	154.40554847003983	4
433.7007003601958	9.558827787834748	9
476.0432917827428	308.4335788642513	3
574.5910296962138	572.7016731389024	2
243.61430951262827	317.0907944313011	2
339.6602871050169	9.417010935601457	2
361.71269444120696	201.38533730486944	3
508.8636941651873	201.5352608426833	2
370.6834168991305	179.82220585093353	4
531.0767062324552	418.8601458080194	2
192.25943457362746	157.62880483032689	2
259.7334874745661	272.253063848289	7
365.97560216886905	185.90114060375117	2
385.39289697395924	127.33850751422912	8
504.7172391735585	200.77744628370468	4
496.5422166694196	545.341358116722	2
494.4815378023105	501.7174969623329	2
522.0429994937879	447.0977371981746	3
446.84001529413507	390.67692451768926	4
345.18334640677085	23.59188597670585	2
519.3252310903922	449.794709267287	5
371.01675172367925	326.1104449338528	4
196.9906669838265	165.97957662055268	5
495.2524392485664	512.5124941433703	2
208.49002600670406	209.4756358103699	6
503.07525458614134	550.842356044896	2
370.41550806560485	194.21921124406109	3
609.1796875	348.5	2
307.1796875	158.5	2
460.5049706872652	291.42927544882775	2
246.3685695940244	312.323387971309	3
564.2091091596067	569.0516273982299	4
554.5934608925112	551.6265751890227	2
340.13760281277905	15.381139114592509	2
157.3125	240.0	1
549.5445079622438	552.4469647899688	1
503.51228784759974	611.0324276504052	1
168.7325051956428	193.6110047697956	1
204.171875	166.0	1
499.171875	398.0	1
498.171875	609.0	1
567.921875	579.0	1
438.921875	392.0	1
506.921875	216.0	1
344.921875	58.0	1
507.921875	619.0	1
451.921875	297.0	1
445.1048687121993	383.0142817138057	1
488.3689399413285	498.8092971156539	1
386.4375	123.0	1
496.4375	494.0	1
494.4375	551.0	1
118.4375	91.0	1
530.8699865592639	406.4787652295424	1
366.5590702339504	320.55519711339275	1
271.59037547711785	190.91612942937743	1
559.5113389462451	557.2218671876997	1
501.84100745684935	204.38419490863657	1
485.87349260791234	492.86397001405595	1
248.4386110075054	320.2332928311057	1
205.37275835443617	204.28675577156744	1
348.9256005313336	18.772296476306195	1
380.94892686310305	119.25929526123937	1
203.1642530901762	214.2250303766707	1
128.07507410533754	85.02746051032807	1
600.6952006569692	351.1523693803159	1
489.1656848118411	510.1647630619684	1
502.4167163974009	538.8753341433779	1
607.320716449749	528.9370595382746	1
395.3042110807928	283.79295261239366	1
429.4549401416684	14.903014212088085	1
199.52272631697582	172.44916445416212	1
385.81039955457396	138.38513196938936	1
253.81227680336156	269.31875683273466	1
404.9714173732983	260.8027487115415	1
385.81039955457396	277.83476495392784	1
502.90550844677847	543.9600187412151	1
403.9069163833692	289.5442761205685	1
