575.7042825257904	210.9147653496529	3
303.22744466492605	228.27732282567422	6
346.8116107146667	267.84653511443616	3
514.2674706217081	524.9652483942264	6
184.12125189967344	198.40157332339373	5
388.8327801026267	403.21105849874584	4
216.94851984576414	20.806718932716365	3
316.8207405025056	10.258108067479101	4
509.4723337073739	443.9653846995002	4
264.4809718673233	327.9142919935241	3
518.8714992570522	290.5260550862903	4
270.52620319537914	224.12984318175688	2
531.2723925853127	429.5694900177702	4
309.42602447168304	201.0686667430952	3
494.93177533421135	247.13577033714918	4
262.89952198315734	133.61046748952185	8
300.3038334906281	170.44157448166544	2
407.930950309358	75.21350907255743	2
267.2542544115697	33.783192644514685	7
498.9147987528327	549.6076096789072	3
456.94282391332615	377.57721749696236	3
451.81307981121324	101.65211356919977	6
399.90537043621975	142.06216491839294	6
283.75398066750694	87.56727021117459	2
356.18609395984043	200.40832721260801	4
388.9067383302104	515.0329825906475	5
309.9057712445525	379.82721749696236	3
546.1090229485254	405.2346294046173	2
398.9623744684279	192.17762756103056	5
263.6562557947225	221.20668342049854	3
461.1399232015571	610.1725928696501	2
496.703125	570.0	2
584.1477383017391	451.4954208556633	5
393.17697582043303	508.1514960487448	3
508.1276394755536	433.9398524475245	3
303.4416552520157	164.7903672417473	2
311.0253668666379	205.96912993275828	2
216.7421875	15.5	2
362.37834416389285	195.72659718448858	4
289.3777095284682	93.45412767509661	6
576.8088026288322	486.3015396018932	4
501.2838268979276	246.03717310571756	2
293.9448263528644	140.29150743932263	5
522.1905815746138	287.156262083717	2
314.4998360504373	376.53854024004175	3
451.9910177795847	382.5543643082805	2
446.2268893989964	378.33812914691134	3
313.95704287269797	197.82939420693998	2
386.65878627603007	397.79288014600155	4
367.15611468186677	368.8266507182765	5
606.5899570304653	156.97526362821026	3
582.4804166351248	484.8283114173065	2
385.8727228270079	445.02245694224837	2
472.4050713488807	613.4301336573512	2
574.3543304206303	629.3874288031236	3
266.15745024472756	224.13377885783717	2
298.2473386133386	163.60735115431348	3
309.8577012504867	349.1050126752514	2
264.1059402653949	324.5848337525008	2
446.90544110197743	342.82726407757184	2
298.1299794533545	229.6845686512758	1
454.9338532158117	511.26901579586877	1
462.234375	403.0	1
513.234375	530.0	1
566.234375	490.0	1
555.234375	590.0	1
465.234375	507.0	1
613.234375	141.0	1
459.234375	103.0	1
408.234375	537.0	1
311.234375	389.0	1
344.0605694788021	271.7041558287136	1
301.13424150632505	384.98196512979007	1
401.3125	135.0	1
446.3125	97.0	1
384.3125	451.0	1
513.3125	519.0	1
572.3125	483.0	1
526.3125	424.0	1
261.3125	335.0	1
320.3125	355.0	1
366.3125	300.0	1
351.3125	278.0	1
306.3125	223.0	1
451.7072849057066	96.20567792597895	1
289.64582700457	85.66509501814508	1
301.5039824607507	158.13160250950295	1
300.1864096322862	222.6926728199854	1
379.2407793401577	287.25374313046785	1
395.05165328173206	191.0709240964838	1
271.1998074060666	328.0985018983241	1
489.9168969311779	540.2277329184808	1
268.56466174913754	216.10480850258926	1
381.87592499708677	7.928296072870275	1
459.6127218764938	508.60598419497916	1
448.7635876859609	337.48991374040617	1
370.9881394724573	373.599945663248	1
430.70857292211184	548.594715750866	1
589.0371639281727	451.37539903552266	1
296.171875	134.0	1
452.171875	344.0	1
378.171875	394.0	1
507.171875	527.0	1
390.171875	440.0	1
145.03571280173796	30.919076549210207	1
299.6310812999352	138.03159173754557	1
386.86703923820363	286.0014580801944	1
365.88623922773405	377.65443499392467	1
397.90956555950345	447.2223572296476	1
370.30324975625393	456.05637910085056	1
496.1880498190717	578.628432563791	1
579.0069972288202	479.2456865127582	1
586.7367656537301	445.0138517618469	1
607.7175656641997	166.74216281895505	1
472.9987445443421	399.73948967193195	1
501.70931297972163	408.5735115431349	1
466.37322875156224	611.7560145808019	1
426.62013399488296	552.1263669501823	1
