210.9462309290668	26.387006090894893	4
349.57176289131735	68.47325932731351	7
233.9394194631345	228.3958207200841	5
507.10296298148023	401.28912515188335	3
464.05912971403507	265.5044337360473	7
579.3970605821805	129.9183201059455	4
609.1279502275468	547.0878801031481	2
587.9548213803427	471.6782079204198	4
308.52717509893023	330.39290164221825	7
459.5169799105033	268.33925038129246	2
400.89569885972935	137.2488865277894	3
266.8636494151694	135.78092296993765	2
444.1541735746912	177.46521673506658	5
581.8002227345105	470.94070196982653	3
569.1953638030984	185.6400331672114	6
434.4940974637285	397.27512976917376	4
431.1121187152394	207.0364795967261	2
440.84506369352107	34.50031114655782	5
196.9609140374373	108.81761682468684	3
512.3337450432854	167.87108140947754	2
250.79358256194553	92.83875346093329	3
551.06805542254	242.14435859254158	3
605.1732930927445	195.67424058323206	2
532.4723145439268	307.5324692368638	2
156.88406866321395	107.11227594834571	2
363.9152726927538	425.8604325447733	4
265.21907297893586	114.2215874865035	2
560.6571789220443	297.9011304417033	4
319.2177317828348	255.5447223533436	4
510.46552288511486	162.65258660982317	3
462.2835678184808	194.61334083624968	2
501.1607475008934	398.2777074639932	4
557.9885342909026	394.1935052797767	5
185.11484443890558	36.59168763830151	2
257.942948771922	94.53535183002384	2
496.62359386643584	31.805413133125132	2
584.9364291311416	137.0619458197599	2
493.07396525649506	454.62534301304834	3
606.965903925163	189.64221606912557	4
501.1330447320023	406.4159396011029	2
161.597925732188	105.77620050261496	2
141.7708679464036	25.00765950928077	2
400.16878859893916	131.3079113048786	2
536.3125	302.0	1
149.50715623938186	25.307363348189945	1
265.24855034733145	127.24473677084144	1
540.2670923102576	199.45037627855294	1
549.8237211815563	142.11060372831145	1
486.1128620395656	486.1492390297603	1
605.0397991046148	539.2416210207246	1
246.13529260473427	292.89296858265016	1
211.17674302796033	15.662164577322745	1
213.26503170904198	42.80991651134884	1
131.82177314685816	97.10542037940102	1
259.207382692838	112.76758495672377	1
472.2128281631649	201.519850894886	1
554.234375	401.0	1
590.234375	464.0	1
484.234375	492.0	1
426.234375	404.0	1
502.234375	174.0	1
531.234375	211.0	1
180.234375	42.0	1
190.234375	111.0	1
250.234375	165.0	1
425.234375	216.0	1
530.234375	311.0	1
432.0974202116387	215.2713441554031	1
258.4915090207824	99.99701147863887	1
535.9050391345816	202.25519287833828	1
517.8085223057864	170.32016242386382	1
490.13149656762886	482.2189598625644	1
369.84288470563695	431.1229111354053	1
272.9732946220859	130.9336248633453	1
360.0705098047502	418.4619172180336	1
549.8990949413542	235.97476534851518	1
580.3136196317494	114.31666410216957	1
216.38810006046984	28.31697184182182	1
354.82662623744073	73.41437144176028	1
508.9968031163401	200.31635636251733	1
601.2891539009873	185.63348207416527	1
235.18757942194563	232.99732685297693	1
343.4043373706837	68.4636695018226	1
315.7980215674342	87.2359659781288	1
298.1299794533545	280.4801944106926	1
320.21503209595414	249.5611178614824	1
467.08063216924154	204.28675577156744	1
555.42084273964	142.44860267314704	1
565.3591164288098	399.73948967193195	1
420.70202161978233	471.5159173754557	1
214.20677941147602	23.189307411907656	1
155.171875	29.0	1
269.171875	119.0	1
360.171875	431.0	1
555.171875	301.0	1
600.171875	191.0	1
