526.6163491680327	399.7369987849332	3
562.7086969291723	345.20574950757316	3
542.3763746116982	55.9893830941745	3
452.387045301336	231.47333204596134	5
560.4033661081774	380.7075334143378	3
416.06484443432913	284.45621646403583	4
520.1135436129575	321.3587244447463	3
332.8945397022211	121.02740238847849	4
280.52033864682596	102.0056531184161	4
514.9542173333052	325.9620605244998	2
317.5571083350005	31.28898583968066	2
558.7872479240544	383.4109386673912	3
338.44508976190644	122.41486110167764	2
294.299551065356	61.616016269334665	2
389.69764573562145	159.36492128557256	2
293.60512742059257	136.80178585031035	2
220.1833627025557	77.45358487715748	2
562.0569904501449	245.07205346294046	2
458.79261937216586	338.89854191980555	2
556.1917552221256	378.6084012925066	1
562.484415502897	437.3398984459148	1
514.234375	384.0	1
281.234375	95.0	1
458.234375	249.0	1
479.234375	349.0	1
320.234375	175.0	1
521.171875	392.0	1
611.171875	10.0	1
609.171875	197.0	1
500.171875	146.0	1
551.171875	53.0	1
527.171875	244.0	1
136.90909516237738	9.938274605103281	1
146.8473688515472	41.96160388821385	1
178.87069518331663	26.50206561360875	1
244.02160047898548	9.938274605103281	1
248.4386110075054	45.274362089914945	1
160.09840043710696	102.6955042527339	1
193.22597940100638	128.09331713244228	1
269.41941101797505	110.42527339003645	1
267.21090575371505	71.7764277035237	1
204.26850572230617	153.49113001215068	1
300.3384847176145	14.355285540704738	1
527.8145269363904	37.54459295261239	1
465.97637953711154	36.44034021871203	1
501.31246376527093	79.50619684082625	1
450.5168426872918	61.83815309842041	1
409.6594952984825	49.691373025516405	1
331.2575584172539	50.795625759416765	1
438.370063733862	117.05078979343864	1
601.7994532890991	76.19343863912515	1
584.1314111750195	125.88481166464156	1
538.8570532576903	122.57205346294046	1
463.7678742728516	132.51032806804375	1
506.8337269259208	173.36767922235722	1
605.1122111854891	200.97399756986633	1
609.5292217140089	157.90814094775212	1
518.9805058793506	248.456865127582	1
428.4317900446922	187.72296476306198	1
385.365937391623	119.25929526123937	1
280.4619373392748	163.42940461725394	1
220.8322952042559	199.86974483596597	1
268.31515838584505	196.5569866342649	1
400.8254742414427	200.97399756986633	1
316.9022741995642	197.66123936816524	1
320.21503209595414	229.6845686512758	1
278.25343207501487	219.74629404617255	1
269.41941101797505	298.1482381530984	1
379.84467423097306	223.05905224787364	1
421.8062742519123	286.0014580801944	1
545.4825690504701	295.9397326852977	1
557.6293480038998	345.6311057108141	1
576.4016427501095	312.5035236938032	1
585.2356638071494	217.53778857837182	1
532.2315374649104	205.3910085054678	1
494.686947972491	400.8437424058323	1
412.97225319487245	346.73535844471445	1
248.4386110075054	150.17837181044956	1
354.44686369198354	289.3142162818955	1
315.7980215674342	279.3759416767922	1
399.7212216093127	249.5611178614824	1
448.7635876859609	180.55015961420906	1
325.1561789180712	59.72043741085377	1
223.77032678261114	72.22006384568363	1
565.3591164288098	350.04811664641556	1
526.7102743042605	395.3224787363305	1
480.3316637548013	472.620170109356	1
256.16837943241524	300.3567436208991	1
528.3125	148.0	1
554.3125	179.0	1
525.3125	479.0	1
569.3125	517.0	1
264.3125	297.0	1
