207.210977383106	133.49105159219945	2
291.29054387223164	437.2425350118425	3
443.56028207533467	262.37280698868005	3
328.7826822121866	49.42736361392249	2
445.11099056611613	381.9387188348556	2
251.830329546369	139.80236445726175	2
441.79397982854056	100.97642557393236	2
386.28095256828476	273.9893338375581	3
217.45264631946077	88.43885676642627	4
281.9822533113121	32.3489531798711	2
336.1407850364843	17.61397731307322	3
315.6610689259627	176.23986724366148	4
356.482374636682	508.2565905677717	3
187.23919288354	56.98069216853706	2
378.34518871759894	50.32107312665051	4
300.27005410812944	8.921012550215416	4
473.321828904485	182.43183813493448	5
496.2667303664166	458.52806993385445	3
522.0806230293917	132.10013816609964	4
272.8348163496107	62.22934512225794	2
363.72176599118495	82.22311281010931	3
531.7625687517816	433.73016306031747	4
582.6662707186671	374.70498921046214	3
429.6854886406627	326.70710935571464	2
347.9071381402702	286.1075178697197	8
419.9820219971888	92.68481160103855	6
308.43902138905435	335.56808160231606	3
557.5119910940343	110.99704099669802	7
529.2764183744989	427.7138908103991	4
309.9709716561834	393.06422005154855	5
280.2863928566945	251.70748161719263	7
333.48117552402323	22.927260659066064	2
464.3941897793384	65.57554637667039	4
183.9338557340194	6.9435030454474465	2
491.7715056957762	453.9950905201082	3
470.67793432581306	524.9159541783868	3
515.1001165500157	292.20463039436027	7
282.3657450207595	287.33263704513513	3
439.1388182755153	420.33169998438234	3
484.61206995898203	393.5356593159196	3
290.19115572544064	431.84370607527717	2
606.9204162335355	310.37873073394366	6
264.47446549644314	60.707815269417914	6
424.68058127552274	321.4058804193509	4
370.05768364963274	163.96692139110087	5
493.25449805690505	56.365196242544954	2
607.4880057920761	167.18341124946053	2
384.49694878735784	441.6017101358738	2
202.5384489709972	131.033913011401	4
534.3281313722218	72.13156815456324	6
340.76897209754657	376.31466494672134	5
359.98202012780496	76.4090837355852	2
510.3146790516317	25.540005076528683	3
460.21890376773354	154.49835256762836	4
487.76458465814585	124.19342147807461	4
431.4101590557279	118.11205684835234	2
489.05016472666364	92.34914617795096	5
483.7508153560441	160.06141946482938	4
438.4158267021156	381.43479100541737	7
314.1137752388724	114.46009116815875	3
438.089119382966	266.9349281513603	2
541.7377715471491	38.378767765110105	2
223.3995610527438	93.80579415898798	2
416.0860734973013	156.2284695550656	5
482.9904333089916	198.0308449164454	2
393.0161937559461	120.58992078624283	3
551.7927822405111	112.8748643589135	2
357.29847071359484	85.47626513878888	2
490.7435259153233	128.31848977789852	3
602.1171875	164.75	2
296.6171875	162.25	2
514.6750662916248	26.69405012565374	2
486.3508985557836	204.2286186912818	4
469.75908601443183	73.99887930448958	2
188.78263409088504	62.03522932136122	3
306.4184078605007	329.22530157582656	6
387.53883001252143	268.39755571401884	2
474.6171875	325.75	2
388.20454398165384	123.580559924313	4
522.1479550111212	350.9513157517147	2
246.11463293971048	143.67165673456867	5
457.29270469186406	150.19764099914698	4
490.3045267814506	97.1170832496341	2
488.0921697515929	162.94199551721795	2
539.20728853472	567.0534434361009	2
599.1171875	191.75	2
226.1171875	187.75	2
346.8068393503973	377.9240532658958	3
385.9813320806014	235.38524261498463	5
520.6480733706785	383.7997860490389	2
382.1739447902056	271.1077019392059	5
343.96684548746794	217.1684252308699	4
403.61804408101705	10.194388459084973	4
493.8620730823058	448.50009817880596	3
205.5578390443202	123.90792059135244	2
512.2664522748959	21.11275224090941	3
355.82240591798495	501.73868701084007	4
584.589663885299	378.3948676867148	4
434.98068145776506	116.18076116487607	2
473.97413057985017	237.7000557392041	2
469.2421875	66.75	2
280.5505716932517	38.44060464315436	2
415.92476743404353	84.49829253594284	1
483.99282945781357	129.09461359657934	1
341.98876902891396	287.52891210147214	1
293.87169070176617	280.4873877234769	1
442.91727478829716	372.027204637415	1
610.7402552951785	354.4233936924269	1
489.8607658391731	157.2607111085603	1
575.171875	516.0	1
540.171875	559.0	1
458.171875	601.0	1
254.171875	146.0	1
460.3125	165.5	1
422.3125	341.5	1
443.3125	269.5	1
527.3125	137.5	1
339.3125	317.5	1
524.3125	8.5	1
468.3125	451.5	1
281.7012699388492	294.64019233472374	1
413.8956758285616	92.54990933761927	1
328.80502376162025	19.615070361220667	1
438.20729070483054	428.3540637914545	1
381.98668130345857	435.95144285149604	1
600.7912151898792	355.41922481505594	1
573.4406484540765	522.5615641359694	1
283.6498922716363	28.113579314567556	1
527.8551073606343	349.1963864854426	1
343.94747624422837	320.55519711339275	1
449.46824819626454	260.2579563301298	1
375.60370782983927	168.30466413565384	1
220.3374291004146	83.88852703908576	1
440.42361060037575	112.52971641113565	1
444.9459293983202	421.55307542535814	1
603.2270873263744	350.7038175050242	1
381.63346622709844	430.59766154284756	1
387.66322462435767	228.60190491891677	1
295.7094090661547	156.24521597900127	1
378.6185870284688	41.68045849080171	1
214.30767070315537	20.57642421665969	1
481.12447978187544	300.9585938588323	1
220.3374291004146	204.4830086056116	1
527.8551073606343	129.11145762653294	1
521.5821236778829	290.5111555623942	1
314.97311112588847	388.04739190644716	1
231.07097404893645	90.19479919987691	1
291.82384396942683	288.8802553827345	1
480.70707534507847	388.87726686137336	1
308.49001144374904	387.4884194797257	1
534.8721196366256	80.5531481355702	1
287.65730210084627	31.943489777898527	1
225.159174072138	87.497385043809	1
247.3807307045676	148.60666983631054	1
349.921875	283.0	1
479.921875	186.0	1
538.921875	75.0	1
419.921875	162.0	1
601.921875	310.0	1
519.921875	84.0	1
438.921875	121.0	1
384.921875	54.0	1
339.921875	24.0	1
267.921875	56.0	1
341.921875	204.0	1
376.921875	229.0	1
286.921875	282.0	1
281.921875	239.0	1
321.921875	181.0	1
586.921875	426.0	1
537.921875	442.0	1
492.921875	401.0	1
447.921875	430.0	1
314.921875	383.0	1
346.921875	328.0	1
362.921875	503.0	1
578.921875	528.0	1
556.921875	551.0	1
466.921875	596.0	1
602.921875	506.0	1
367.921875	388.0	1
523.921875	391.0	1
480.921875	311.0	1
479.921875	247.0	1
398.921875	45.0	1
397.921875	18.0	1
286.921875	43.0	1
221.921875	20.0	1
198.921875	31.0	1
604.921875	359.0	1
401.921875	369.0	1
609.921875	480.0	1
593.921875	566.0	1
604.921875	601.0	1
469.921875	458.0	1
230.921875	240.0	1
219.921875	214.0	1
204.921875	240.0	1
513.921875	622.0	1
601.9041005101877	595.0560674683742	1
380.4878946049283	236.31922536311106	1
336.84335401783386	202.25519287833828	1
346.42386292719607	223.54521318132126	1
399.64891242365263	378.962361393097	1
473.0994807287628	320.4148055598938	1
216.0830406668166	14.582078499136015	1
177.94530058924732	7.851888422611701	1
386.58117277830274	117.7783263391755	1
285.6283313965017	252.38212786966182	1
281.1415384461995	281.5462848679338	1
322.6443732364954	390.35102443841026	1
352.93022565103576	371.2821525549247	1
402.2849481043607	554.1189829671688	1
478.56042825949925	588.8916316958775	1
422.4755163807209	570.9444581584794	1
462.8566529334413	447.55764008886695	1
424.718912855872	375.76894593927426	1
527.9151507128242	386.9859294001481	1
511.08967714919066	286.03307825228336	1
449.3962740825345	145.82078499136014	1
480.8038247346504	118.90002468526289	1
478.56042825949925	164.8896568748457	1
468.46514412131916	60.57171068871883	1
423.59721461829645	114.41323130091335	1
487.53401416010377	79.6405825722044	1
542.4972278013065	78.51888422611701	1
529.0368489503998	330.9010120957788	1
