427.5607886534524	491.31119273221066	5
137.7570512079048	57.93977530433328	4
299.6196539305522	243.65261365144045	3
536.1586137409645	475.2324577149998	2
368.107057298506	430.4479055594249	3
451.8837648161549	50.37079757547015	2
595.1374087314709	386.4598771547454	2
602.1118458661458	203.9851402982959	3
554.3033021646161	246.31400621204835	2
223.4041213491866	224.97682783054356	3
521.689598043348	388.78678645289017	3
295.7313133783266	302.43184069744404	2
487.5539649989769	410.2044912392165	4
168.71177380838037	135.98049147984037	5
498.11420893269144	239.06231356012063	2
217.24191051738416	302.92540122845253	2
458.94926475544264	490.15503752913446	4
546.4990403625166	420.36981303134297	2
331.5805360021569	31.693184069744404	3
302.89068249093725	248.728432563791	2
501.82554569870047	245.01992709599028	2
508.44745097952267	447.6432879536085	3
517.703125	484.5	2
170.5390625	143.0	2
137.67598771331868	144.22430133657352	2
460.6397241034998	128.28168119490203	3
447.45756741804246	456.7991656321865	2
70.07622159720609	33.668029831699094	3
380.4788635265902	355.41477044418866	2
595.1739374963192	299.804617253949	2
204.28899922035652	155.19025340285083	4
584.9921691986533	76.17216183720075	2
429.530197214149	260.95113204629854	3
172.65640087920337	96.03499392466586	2
149.74338730247433	283.31406787757135	2
225.14496869130022	228.72689629603732	3
556.9683806733083	253.30195837175543	2
528.3043204647929	413.3390923453494	2
218.8587795590772	297.9369116668576	1
228.397963552961	222.8158381303543	1
570.6161893335425	15.338587410487943	1
433.49041942146283	260.97257389492745	1
496.687513380943	243.08660400528376	1
592.079353319781	296.7445136742147	1
483.5711353893528	405.2527310047195	1
563.4618013381297	427.9082928649348	1
608.7729253090778	450.5638547251501	1
522.9202693641234	247.8561959758554	1
202.16520756978053	162.0035405055659	1
187.8564315789548	43.95613923391778	1
391.75648944822115	413.5995169532199	1
609.9653233083133	33.22455730013159	1
509.80389137253326	565.0340620188695	1
514.5734833694752	481.5662025338658	1
564.6541993373652	505.414162386724	1
162.9004876739129	134.24342206493307	1
427.1922194663119	481.38852131097093	1
180.72969180276522	274.77950453915986	1
67.46180674887994	101.73134328358209	1
300.3384847176145	218.64204131227217	1
463.7678742728516	306.98226002430135	1
456.0381058479417	97.17424058323208	1
321.3192847280841	37.54459295261239	1
376.5319163345831	189.9314702308627	1
379.84467423097306	435.07557715674363	1
596.2781901284492	408.5735115431349	1
510.14648482231075	453.8478736330498	1
59.171875	102.0	1
139.171875	50.0	1
419.171875	89.0	1
305.171875	112.0	1
264.171875	337.0	1
373.171875	429.0	1
371.171875	518.0	1
596.171875	395.0	1
299.171875	305.0	1
371.171875	297.0	1
465.171875	296.0	1
63.84375	97.0	1
283.84375	98.0	1
130.2835793695975	189.9314702308627	1
453.8296005836817	492.49671931956254	1
422.9105268840423	488.07970838396113	1
546.5868216826001	552.1263669501823	1
337.8830742100338	247.35261239368165	1
174.45368465479672	277.1674362089915	1
596.234375	308.0	1
561.234375	248.0	1
433.234375	271.0	1
348.234375	248.0	1
231.234375	234.0	1
211.234375	154.0	1
327.234375	305.0	1
386.234375	363.0	1
452.234375	460.0	1
488.234375	127.0	1
515.234375	115.0	1
300.234375	116.0	1
233.234375	363.0	1
482.234375	417.0	1
585.234375	273.0	1
169.234375	103.0	1
367.234375	189.0	1
442.234375	208.0	1
540.234375	428.0	1
303.234375	370.0	1
172.234375	283.0	1
332.234375	129.0	1
526.234375	393.0	1
406.234375	118.0	1
364.234375	516.0	1
310.4085580738425	359.57202298395083	1
461.3275324496432	311.9667128987517	1
471.456322676207	282.5932236972459	1
357.00099311603606	298.79928670497327	1
381.3100896597892	348.43035466613827	1
513.997241627775	489.22052704576976	1
612.2465068254438	444.6538537745195	1
483.6108709480836	121.54547255795522	1
415.74797643010606	83.05607291460274	1
176.70852708320038	271.45155537943333	1
296.2282517566532	112.42956211610858	1
