249.43828092034613	16.932550266136477	4
239.78917694237418	209.75735971272582	2
439.9550314348286	418.58922466633646	3
302.5637613004609	90.75703980529522	8
289.3372962576441	306.422534675142	5
465.38640962658195	526.5729197378016	5
269.31483606380624	122.27007205601168	5
396.95502114791776	411.6584408278827	3
381.33350065347133	438.09008138069646	6
486.52659005395617	369.4409261283773	3
560.6716505344575	480.30871306328896	5
386.02338777225157	125.80555989379978	2
488.5910910438853	176.32133374980478	3
418.49051867202616	26.82348921337471	4
292.35350521150906	373.2202754639608	5
504.1800925367661	399.811063266023	3
258.48022643593447	59.50918799835514	6
475.3709129010533	451.3003154780748	4
372.4015665044176	470.4256721135031	4
463.3979154194116	330.502734331098	4
499.2091168687837	241.53488972457285	3
325.2844489033172	76.18668054881725	4
570.4287831604706	261.5949461130135	4
202.5143646433816	200.5308449164454	2
198.28636648128418	148.18716546079827	5
521.2197626377869	361.4974230829299	2
258.14240082786785	243.704356500588	5
448.576000406722	223.3587523641457	3
505.38199236021376	442.30650964984704	2
275.05984629064295	18.307691270173027	4
402.6345832296137	337.81317850597884	3
308.1041836375591	191.225373126139	5
613.5578061946687	577.5442761205685	2
566.8272032469885	96.32440059696815	5
597.8484867651648	466.093471810089	2
613.9933052047395	510.4157426206466	2
375.07545015461835	341.8762449444826	7
582.7083924972858	430.60109712298816	4
408.54230653438754	140.9631665225378	6
491.39382459696844	339.5531016489813	4
595.5316302451622	249.59013248425492	4
505.7061080035338	394.9100371836929	4
596.4282001879035	458.9098179718807	3
435.30865114534623	136.80352170074036	3
384.03391473816174	129.43884063013257	3
392.37136190768	315.82860150784484	2
237.10283733893982	169.2752665896896	3
561.5109910063293	475.60166374116955	2
232.56164629941298	211.3024010052299	3
505.03147353023553	44.94910256082927	2
328.5434642545364	313.62164577322744	2
462.6485867194192	324.86443945157913	2
288.88245615926087	270.6946153649756	4
445.8723814045518	196.62749253197845	3
590.8647770848831	511.65867189538045	4
230.18606491938834	167.03154441238797	2
244.88766166398557	9.085606094425524	2
582.0061114621411	209.9145707118048	3
455.2362690275263	230.33380141445605	2
601.9856641445496	458.63244228432563	2
291.3381693302873	275.9794653705954	2
438.351655550866	132.80729040097205	2
530.6606906074552	287.8028554070474	4
359.6796875	86.0	2
288.375	301.5	2
465.1796875	34.5	2
528.7421875	138.5	2
497.9296875	46.25	3
500.1171875	163.0	2
348.546875	227.0	2
573.921875	440.0	1
530.921875	364.0	1
555.921875	311.0	1
519.921875	291.0	1
590.921875	259.0	1
578.921875	214.0	1
546.921875	225.0	1
536.921875	144.0	1
570.921875	107.0	1
436.921875	143.0	1
331.921875	80.0	1
279.921875	20.0	1
249.921875	23.0	1
423.921875	31.0	1
403.921875	65.0	1
198.921875	156.0	1
209.921875	208.0	1
247.921875	220.0	1
403.921875	255.0	1
483.921875	449.0	1
445.921875	423.0	1
498.921875	249.0	1
471.921875	327.0	1
412.921875	146.0	1
312.921875	192.0	1
272.921875	126.0	1
388.921875	108.0	1
468.921875	532.0	1
510.921875	449.0	1
223.921875	190.0	1
229.921875	216.0	1
414.921875	365.0	1
453.921875	102.0	1
375.921875	233.0	1
568.921875	267.0	1
414.921875	395.0	1
263.171875	115.0	1
560.171875	95.0	1
380.171875	433.0	1
371.171875	500.0	1
242.171875	332.0	1
258.3125	231.0	1
324.3125	305.0	1
569.3125	254.0	1
448.3125	89.0	1
386.3125	114.0	1
214.3125	97.0	1
440.3125	215.0	1
409.4375	58.0	1
458.4375	97.0	1
499.4375	329.0	1
511.4375	393.0	1
556.4375	550.0	1
331.4375	72.0	1
164.4375	115.0	1
197.4375	141.0	1
267.4375	236.0	1
379.4375	340.0	1
436.4375	413.0	1
510.4375	438.0	1
469.4375	417.0	1
405.4375	332.0	1
331.4375	307.0	1
451.6210953194218	96.06998784933171	1
526.7102743042605	357.7778857837181	1
489.1656848118411	364.40340218712026	1
469.2891374335015	452.74362089914945	1
271.7371147793278	12.529731661858197	1
165.23439204416434	123.20902800827227	1
263.38396005500124	56.38379247836188	1
573.4948291956242	95.01713176909132	1
501.44886969830776	171.23966604539535	1
593.3335716658997	423.922587892869	1
403.29930168747086	246.41805601654454	1
484.87361721365903	340.2676085037017	1
482.0959226346053	366.6557087550092	1
302.93462228564164	188.88324390409565	1
268.2134400474703	116.66318005841201	1
393.20969610488686	101.38585886028663	1
386.8749005445031	100.06309542401999	1
234.65125898463717	162.8686553178198	1
343.23035995740867	382.1558644385444	1
610.4201084296208	161.80415430267064	1
525.2600292352903	288.4797751054193	1
597.6460965504713	254.41574262064657	1
587.0010866511799	216.09370607527723	1
499.71200547699107	56.41855380290489	1
320.87583916889685	310.83429642355145	1
613.6136113994082	540.7665156957677	1
549.7435520036603	137.32063095424022	1
293.19881343073945	267.18975480243637	1
345.3593619372669	233.12572231766362	1
441.1644510308888	193.7391847571451	1
409.22942133301484	253.35124160549742	1
413.48742529273136	371.51085428705295	1
418.80993024237705	402.38138372637826	1
345.3593619372669	202.25519287833828	1
