235.12927922761762	223.98992507615802	5
367.0999306509692	340.4141139713374	3
139.2421875	341.5	2
261.7421875	211.0	2
342.1915343409602	318.21744888949263	2
22.2944254562001	70.576645258544	3
313.88612216602	243.89198649557477	4
267.36222703608314	211.7842515635317	5
553.1002859502373	415.32710724716435	3
220.86415441611177	246.50114637424736	3
44.711058183315835	117.325743270455	2
58.26486362318103	89.86339348696436	2
166.365923083582	201.8728576452198	2
99.55338341259421	96.00898152253502	2
309.29443272999396	251.86040061611095	2
489.8865674184048	252.1788554711498	4
297.5287859791589	7.390920945468102	2
52.662066788235755	122.78715126431254	2
139.37781516836503	15.2733500691667	2
215.6383581654875	17.687687402231685	6
52.0689289751152	40.4813646427148	4
85.73693892134625	25.079090299560402	2
246.63820114438312	60.89224638247187	2
430.5994563019009	148.8540304405467	2
398.6140008784672	161.41567436208993	3
219.01117005356815	175.4916873650243	4
230.00247194671286	227.18590522478735	2
297.3401062070601	108.21775747475357	3
287.25210288209234	16.17764277035237	2
219.34420072906863	379.6571113880757	2
86.87153275482282	29.816961827193417	2
428.0351779899138	134.54651365427043	3
287.62687395501564	299.7622967450219	2
94.72416954581443	99.13924665856622	2
167.322680725246	51.16307095258763	1
243.5452175847257	68.91352414022008	1
265.47224873608286	46.98649373196824	1
237.2803515414808	55.33964817320703	1
266.51639307662373	205.6964281155054	1
505.62544706047106	447.9379069114305	1
149.45272333025787	179.99319562575943	1
152.3125	292.0	1
247.3125	303.0	1
163.3125	48.0	1
114.3125	222.0	1
170.3125	252.0	1
116.3125	275.0	1
112.3125	303.0	1
170.3125	143.0	1
300.3125	337.0	1
252.3125	411.0	1
506.3125	481.0	1
491.3125	417.0	1
362.3125	342.0	1
264.234375	259.0	1
308.234375	246.0	1
290.234375	337.0	1
343.234375	314.0	1
220.234375	272.0	1
111.234375	271.0	1
128.234375	341.0	1
347.234375	405.0	1
604.234375	393.0	1
148.234375	299.0	1
604.6169119294628	386.42636445320426	1
608.172982795352	197.95461001130403	1
252.85562153602532	58.52539489671932	1
177.76644255118666	253.97812879708383	1
430.64029530895215	142.44860267314704	1
508.25839256954185	156.24521597900127	1
395.20042262093165	156.24521597900127	1
292.6945298675251	114.03714743071721	1
34.92235838469388	19.068993197078118	1
316.8230951809101	356.93377708347487	1
337.6558045238129	386.09957209807783	1
229.32571594071854	265.26984989472254	1
173.77182435964454	287.49140800108677	1
508.4840211356155	455.5419411804659	1
518.2059521623034	411.0988249677376	1
518.2059521623034	352.76723493853154	1
126.55101651573162	105.55240100522991	1
57.1086520393891	136.1070434014807	1
155.171875	297.0	1
112.171875	308.0	1
216.171875	374.0	1
