553.8122868115885	366.4589333913788	4
353.58083883381073	387.85272351419644	9
382.5604009315515	441.90267314702305	2
394.94097348561417	212.88436687864078	4
609.944145041946	481.570481026468	4
385.9165751054486	444.5880807436092	7
603.7958795339493	335.64945680442867	3
602.9970922338298	521.264805602591	5
603.6602292766795	479.6228432563791	2
550.6044369011731	366.6828352382902	6
377.29744037088335	369.9123962664876	3
380.25099036524284	372.9053473567315	3
279.8041497858658	296.9656411057317	2
109.80763967956393	196.22636695018224	2
203.1642530901762	376.5501822600243	1
308.0682531425243	346.73535844471445	1
100.46875830208803	340.1098420413123	1
392.3125	208.0	1
395.3909084639361	219.28720912072467	1
386.8749005445031	451.3484304232391	1
102.65313623342479	345.9628299234734	1
276.04492681075493	302.5652490886999	1
356.6553689562435	393.1139732685298	1
594.0696848641893	337.9013365735115	1
289.2959583963147	288.20996354799513	1
156.171875	308.0	1
202.171875	371.0	1
602.171875	516.0	1
