589.9484492365054	437.3119905352296	2
502.25493404049723	198.26517249165084	5
457.53516167027055	246.67756493013235	4
536.325208919781	280.62900571357363	3
570.3354872617558	404.24527303667804	3
349.55545456161815	450.7545557153667	2
544.9496608413001	526.3121506682868	2
604.5728362231166	489.0841270693546	2
517.9329179965137	125.31688355830798	2
363.55014530796535	408.77048107410485	2
569.8900874932617	338.1191957230553	4
563.504843665761	145.73658249528427	2
467.4350116940211	146.3465994209651	2
421.10903453962953	149.3415669846304	2
326.451717983753	21.81867833390301	3
480.9186314166633	67.96796393786829	2
295.53445871127525	385.6748250868708	3
424.71402756586815	82.3879018952529	2
164.20646428498398	4.619283337836917	2
513.7809699013397	412.2715872602015	5
402.20102800909547	21.79564312791142	2
415.78790448840954	305.7974295954049	3
256.09020744232754	155.11517696991905	2
364.6093737750299	371.8324691888399	2
274.1288979231637	29.295718572088013	4
333.9997390131595	328.5545853208186	3
345.37168079681425	72.07920449299893	3
587.634884498478	127.95099246037853	2
544.9190434362545	357.6704108324358	3
601.7421875	537.5	2
392.47265625	360.5	3
206.78191100514306	226.21911063240498	2
498.06187417634726	549.8282812740422	2
517.1215260487522	542.804392983536	3
174.12669265160727	64.23165102323435	3
427.6284650660523	418.88986767194956	3
320.2734375	155.5	2
448.83576609826537	407.49353746730264	3
287.2734375	322.0	2
437.74205034268306	571.291660255424	2
160.27913580898124	136.69487613478998	2
480.241972968652	306.0970149253732	2
262.0960296984215	160.23142021849515	2
485.2907496821139	533.8892906601016	2
506.3029051734639	338.8286659486075	2
381.9006907224808	147.9875365440837	2
511.3125	444.0	1
370.3125	412.0	1
415.3125	144.0	1
173.3125	70.0	1
370.3125	29.0	1
401.3125	71.0	1
566.3125	141.0	1
592.3125	122.0	1
478.3125	63.0	1
349.3125	176.0	1
406.3125	176.0	1
461.3125	247.0	1
502.3125	255.0	1
550.3125	363.0	1
482.3125	184.0	1
328.3125	31.0	1
207.440723723748	46.146176334820744	1
279.8063169526191	106.97522695799354	1
300.78185122185715	84.95091552546546	1
430.83016369113284	49.29250653946761	1
344.830473187257	178.29204492998923	1
314.41594849686186	391.193722111094	1
539.9029418911705	415.3155870133867	1
509.48841720077536	438.38867518079707	1
529.4151747565514	472.9983074319126	1
591.2930008508037	548.5102323434375	1
600.7319912719607	525.4371441760271	1
481.17144593730404	418.4619172180336	1
465.4397952353755	395.3888290506232	1
450.7569212469089	378.6084012925066	1
384.6839882988092	363.9255270041545	1
398.3180855738139	329.31589475303895	1
302.87940464878096	347.1450992460379	1
280.855093666081	319.8769041390983	1
312.31839506993805	305.1940298507463	1
260.92833611030494	271.633174334513	1
294.4891909410857	263.2429604554547	1
304.9769580757048	290.5111555623942	1
310.22084164301424	166.75550084628406	1
321.75738549109514	143.68241267887367	1
416.1472897026662	181.43837513463612	1
473.83000894307077	184.58470533928298	1
471.73245551614696	141.5848592091091	1
611.2197584065798	130.04831512540392	1
362.6596773161093	29.36574857670411	1
147.66045105641965	93.34112940452378	1
131.92880035449116	116.41421757193415	1
238.90402512760502	273.7307278042776	1
418.24484312959004	530.6810278504386	1
387.8303184391949	497.1201723342053	1
466.48857194883743	567.3882135713187	1
418.24484312959004	119.56054777658102	1
365.80600745649497	67.12171103246654	1
396.2205321468901	23.073088167410372	1
401.4644157141996	79.70703185105401	1
403.5619691411234	165.70672411140177	1
508.43964048731345	252.7551931066318	1
532.5615048969372	283.1697184182182	1
459.14713495460416	360.77919679950764	1
404.61074585458533	355.5353131250962	1
505.2933103469278	358.68164332974305	1
252.234375	164.0	1
259.234375	278.0	1
569.234375	330.0	1
358.234375	377.0	1
503.234375	441.0	1
470.234375	388.0	1
315.234375	397.0	1
319.171875	150.0	1
412.171875	319.0	1
359.171875	404.0	1
482.171875	528.0	1
586.6452517339116	121.57430252862508	1
343.94747624422837	65.79935480410688	1
446.453368997635	412.5084893078687	1
511.27327176817147	334.1220762896269	1
277.6201338743771	22.083855236241263	1
191.69607671343334	150.21549190067498	1
354.499553439432	172.82695719439857	1
368.06650983326523	23.591286255822837	1
597.1973289291152	545.1624190310471	1
484.139358980505	302.46602487841386	1
313.79868425793234	162.27494005732757	1
178.1291203196001	58.26219970619901	1
429.8715334051721	564.7590222856076	1
256.16837943241524	160.11664641555285	1
515.6677479829607	437.28408262454434	1
545.4825690504701	424.03304981774	1
532.2315374649104	468.20315917375456	1
306.9640005103944	92.75722964763062	1
332.3618110493839	26.50206561360875	1
