231.82262457445756	61.74179770076287	3
560.2158989170316	256.3769352702998	4
196.57943630590168	120.73143717634794	2
458.8637296559901	441.81574225503095	3
417.01945925924707	165.0917328528589	3
415.24696125810493	219.91398732417292	3
543.9864492126765	99.91232473376189	2
165.4535691266533	30.382461292570703	4
298.151232219953	141.06377600117963	5
569.4593911534239	476.65746727907606	3
558.3112015539757	304.0509981292631	5
504.3965571292817	263.6628108819733	6
536.8748802954932	20.94627207383433	2
388.4707121305721	419.1258642404456	7
537.1570671887014	26.037669236746343	4
591.7529382184944	506.6825473965282	5
224.48290223067542	7.360785299645062	2
461.60938979170413	420.67677546232767	4
398.73589890616836	254.54974926122998	3
245.41042160928316	78.59226335353748	3
609.0642572771098	611.8767822100987	2
433.98025027129637	320.9928056150982	7
490.1330373458726	466.8924146614361	3
464.0862390563908	244.75562709127507	2
558.0104755710024	254.66381793590327	4
529.4234859070531	264.80839937751307	4
522.9758565091298	92.9312564593245	3
175.14898633987087	164.5050695503743	2
496.5390503421454	397.51466236100043	2
524.6417409754654	53.346199097051056	3
609.7913360974391	244.15942809495363	2
412.15148174349025	391.9636462476742	2
425.20967073928534	93.91389716731042	2
392.1475028604033	54.7194077007582	3
282.72410727551517	162.27877150668797	3
458.831915030618	274.8973573688145	2
547.949164714998	103.38950501125831	5
573.2953387021669	337.3861033436185	4
270.3718421744318	316.45985335169553	2
412.16140380710493	453.74896070948245	4
415.2198881550049	268.90889534232366	4
415.23467402451286	216.09272693368635	3
499.55634062795843	493.1946636428796	4
364.80952156559215	176.31067873424774	5
362.9976598370091	283.955780383613	4
304.09318459463765	408.06144663719886	2
445.46990054215587	213.74047622255398	7
422.10466333562744	165.50156266424648	6
542.3505065425427	402.5177926379884	3
383.75423019239474	353.9744700327652	5
461.3311251516336	447.30373934545713	3
554.0052313237725	305.5704569916018	2
241.9974656880664	177.8710880032013	4
397.68133035245137	234.00161873961	3
417.2517789257871	452.9838902255914	3
246.55569628868727	82.41200414624853	3
364.3253770198756	311.47071860948046	3
572.9670820659633	476.068754788227	4
371.3365913727162	174.78108534129095	2
423.1738053250625	394.8874284842784	5
371.49126992971424	401.63243892548087	2
471.57117687445225	250.61111978759956	2
167.5239834539547	117.36237964851304	3
542.0356470421136	106.69280024988288	2
521.1153940306926	588.5980084138112	2
422.4172348104637	222.28295122748986	3
553.587070898278	368.27294313931293	3
281.2983382757949	316.6429017647978	2
273.38498226319	199.42596561567717	2
394.1999584486628	421.82454434993923	1
467.08063216924154	251.76962332928312	1
503.5209690295309	498.0179829890644	1
579.171875	474.0	1
537.3412945539351	265.080456172864	2
460.6168599197712	37.19326878025925	2
346.86236995352715	69.66078400749649	2
180.1285765146482	84.56152035355541	2
430.7621004750472	97.47441150019225	3
345.0406926396319	280.29532848139223	4
320.33753466998905	294.45945800740424	3
458.39589583415125	336.01962332928315	3
454.3817268997467	276.06318347509114	2
342.8522110546187	143.0007290400972	2
465.42425322104657	44.17010935601458	2
262.8682703859775	167.53864532304084	2
532.0944250575719	33.33233715954629	1
359.8773611562425	306.9352713441552	1
362.6550557352962	288.8802553827345	1
290.43499667989994	80.5531481355702	1
308.49001144374904	76.38660599062692	1
561.84375	57.0	1
544.84375	21.0	1
526.84375	256.0	1
497.84375	278.0	1
447.84375	201.0	1
594.171875	23.0	1
607.171875	65.0	1
559.171875	42.0	1
532.171875	25.0	1
442.171875	204.0	1
266.171875	239.0	1
266.171875	205.0	1
230.171875	247.0	1
309.171875	395.0	1
508.171875	418.0	1
596.171875	510.0	1
537.171875	512.0	1
598.4866953927092	503.53924665856624	1
531.1272848327803	511.26901579586877	1
366.5936426454133	462.68189550425274	1
293.71296892483457	371.0289185905225	1
260.5853899609352	374.34167679222355	1
318.00652683169415	389.80121506682866	1
576.4016427501095	49.691373025516405	1
142.4303583230273	113.73803159173754	1
341.1958321064238	379.8629404617254	1
204.26850572230617	213.12077764277035	1
217.51953730786596	223.05905224787364	1
304.7554952461344	193.2442284325638	1
223.04080046851584	154.59538274605103	1
531.1272848327803	457.1606318347509	1
457.14235848007166	562.0646415552856	1
459.35086374433166	483.66269744835967	1
577.5058953822396	437.28408262454434	1
488.0614321797111	389.80121506682866	1
458.24661111220166	363.2991494532199	1
551.00383221112	498.0179829890644	1
428.4317900446922	90.54872417982989	1
567.5676216930698	3.3127582017010937	1
533.3357900970403	374.3416767922236	1
422.00343321216445	173.51366546931126	1
383.6813975747157	128.804622833047	1
366.64938173584954	8.516008121193192	1
576.3560767518886	9.58050913634234	1
565.7110668525972	47.9025456817117	1
610.4201084296208	59.61205684835234	1
598.7105975404004	25.54802436357957	1
528.4535322050776	91.54708730282681	1
500.7765064669202	97.9340933937217	1
591.2590906108965	107.51460253006404	1
589.1300886310381	142.64313602998595	1
572.098072792172	173.51366546931126	1
166.5231956291727	39.386537560518505	1
226.1352510652041	14.903014212088085	1
253.81227680336156	87.2890832422302	1
194.20022136733016	125.61111978759956	1
242.1027659141411	130.9336248633453	1
227.19975205513325	138.38513196938936	1
229.3287540349915	153.28814618147743	1
301.7148213501725	146.90114009058254	1
293.19881343073945	120.28861471185382	1
328.3273460984008	121.35311572700297	1
297.45681739045597	80.90207715133532	1
316.6178352091803	71.32156801499298	1
251.6832748235033	15.967515227237232	1
181.42620948818058	159.67515227237234	1
245.2962688839285	210.7712009995315	1
284.68280551130636	249.09323754490083	1
343.23035995740867	389.6073715445885	1
614.6781123893373	251.22223957519913	1
592.3235916008256	397.05887865063255	1
538.0340411144398	395.9943776354834	1
413.48742529273136	447.0904263626425	1
467.7769757791171	430.05841012025616	1
399.64891242365263	316.1568014992972	1
324.06934213868425	338.51132281742935	1
468.84147676904627	394.92987662033426	1
583.8075836813925	432.18741215055445	1
556.1305579432351	492.86397001405595	1
381.5523955948574	457.735436514134	1
358.1333738164165	91.54708730282681	1
400.7134134135818	17.032016242386383	1
452.87396192010925	3.1935030454474465	1
427.3259381618101	26.612525378728723	1
573.1625737821012	87.2890832422302	1
474.1639817186919	152.22364516632828	1
522.0665262655028	161.8041543026706	1
536.9695401245107	190.54568171169765	1
532.7115361647942	221.41621115102296	1
494.38950052734543	223.54521318132126	1
314.4888332293221	42.580040605965955	1
327.26284510847165	254.41574262064657	1
236.78026096449543	238.44822739340935	1
222.94174809541673	261.8672497266906	1
253.81227680336156	286.350773075121	1
297.45681739045597	364.0593471810089	1
314.4888332293221	397.05887865063255	1
453.93846291003837	482.2189598625644	1
526.3245302252194	467.31594565047635	1
523.131027255432	447.0904263626425	1
499.71200547699107	424.7359050445104	1
440.0999500409597	359.8013431204123	1
562.5175638828099	249.09323754490083	1
599.7750985303295	183.09417460565362	1
491.19599755755803	191.6101827268468	1
468.84147676904627	179.90067156020615	1
334.7143520379756	29.80602842417617	1
278.2957995717316	37.25753553022021	1
292.13431244081033	11.709511166640638	1
206.97423324647974	218.22270810557552	1
212.2967381961254	232.06122130251447	1
275.10229660194415	230.9967202873653	1
368.77838371570783	223.54521318132126	1
361.3268767862039	245.8997344994534	1
347.4883639171252	224.6097141964704	1
321.940340158826	285.2862720599719	1
501.84100745684935	357.672341090114	1
478.4219856784084	372.5753553022021	1
377.29439163514087	79.83757613618617	1
534.8405381446524	497.12197407465254	1
516.7440213158571	529.057004529127	1
557.1950589331642	545.0245197563643	1
611.48460941955	526.9280024988287	1
588.065587641109	566.3145400593472	1
491.19599755755803	516.2829923473372	1
465.64797379925886	502.44447915039825	1
439.0354490510305	492.86397001405595	1
457.13196587982577	519.4764953927846	1
515.679520325928	547.1535217866625	1
547.614550023802	568.4435420896455	1
527.3890312151485	570.5725441199438	1
475.228482708621	555.6695299078557	1
457.1319658798258	180.9651725753553	1
311.29533025953475	197.99718881774172	1
270.8442926422277	174.5781664844604	1
500.6065894086449	266.38929066010155	1
415.65567561823093	261.1454069856901	1
585.5575031990588	504.4616094783813	1
376.8509372201406	398.53515925527006	1
432.43610303362135	127.95076165563934	1
530.0833282470703	268.98333740234375	1
501.0833282470703	271.98333740234375	1
407.0833282470703	223.98333740234375	1
366.0833282470703	395.98333740234375	1
428.0833282470703	400.98333740234375	1
548.0833282470703	108.98333740234375	1
568.0833282470703	470.98333740234375	1
454.9535652131518	32.03215930748868	1
590.886937125996	113.11522280720656	1
578.9629571336413	171.54272444670917	1
551.5378031512254	363.51880126221766	1
534.8442311619287	400.4831390341479	1
557.4997931474028	299.12930965950056	1
234.35993535458883	133.38598868213603	1
587.3097431282896	393.32875107829045	1
526.4974451672804	507.7989583720098	1
257.01549734006284	281.2433397698569	1
403.7826382121354	501.92966602595965	1
428.8525733611519	135.29461182801435	1
