405.51518105001327	275.526594524816	3
349.0406609986917	316.09657170738717	5
323.04378038529615	285.1716779194046	3
350.9800561068822	414.5091155201525	3
563.941341967565	395.51537609788284	3
216.8543169512033	69.60644192416275	3
539.4910754546128	327.19881376448905	2
221.00590967919936	247.051026543118	6
477.4428368585955	340.15734108299523	5
317.0149379115497	289.4029424915337	3
604.5600848694241	516.7902794653706	2
167.27604254595184	62.3902794653706	2
529.5974536003253	511.68663426488456	2
334.8710956568219	362.0453219927096	2
411.92183248382446	364.32444917440125	3
453.27747426761675	314.7120291616039	2
357.20749527230845	418.5117861482381	2
131.38783200172747	85.02746051032807	2
569.8287276865641	392.650498057744	2
502.58816757581883	169.92290003677545	2
516.9198114914803	472.25795868772786	2
530.6053065399253	504.761292030455	2
173.34943202266675	20.980801944106926	1
224.14505310064584	23.189307411907656	1
206.47701098656614	126.98906439854191	1
179.97494781544663	172.26342648845687	1
123.65806357681763	92.75722964763062	1
184.39195834396654	204.28675577156744	1
400.8254742414427	280.4801944106926	1
279.35768470714487	358.88213851761844	1
416.2850110912624	359.98639125151885	1
340.0915794742938	353.3608748481166	1
472.6018953298914	421.82454434993923	1
568.6718743251997	405.26075334143377	1
449.41259005516184	228.58031591737546	1
463.7678742728516	255.0823815309842	1
599.5909480248391	304.7737545565006	1
533.3357900970403	324.65030376670717	1
528.9187795685204	445.0138517618469	1
475.91465322628136	415.19902794653706	1
355.5511163241135	373.2374240583232	1
362.17663211689336	414.0947752126367	1
433.9530532053421	620.5900364520048	1
217.51953730786596	252.87387606318347	1
248.4386110075054	131.40607533414337	1
600.6952006569692	67.35941676792224	1
394.1999584486628	245.14410692588092	1
253.0833282470703	361.98333740234375	1
479.0833282470703	346.98333740234375	1
497.0833282470703	168.98333740234375	1
603.0833282470703	510.98333740234375	1
406.171875	359.0	1
419.171875	430.0	1
405.171875	448.0	1
557.171875	548.0	1
560.171875	479.0	1
492.171875	182.0	1
441.171875	235.0	1
162.171875	57.0	1
172.171875	181.0	1
206.171875	136.0	1
538.3625510932733	319.8769041390983	1
449.21653044901177	300.9989229112171	1
485.8529269154512	291.52272174969625	1
565.3591164288098	496.913730255164	1
427.3275374125622	427.34580801944105	1
363.28088474902336	379.8629404617254	1
172.24517939053675	215.32928311057108	1
176.6621899190567	177.7846901579587	1
192.1217267688764	202.0782503037667	1
499.10395850101094	174.4719319562576	1
449.41259005516184	236.310085054678	1
595.4415002364011	298.9412128075775	1
405.97170822364006	352.2734479563471	1
442.462186685357	450.51703901987025	1
598.2484601180716	513.6736332749923	1
351.2359905310646	239.9950581694636	1
289.48287313431285	211.9254607227427	1
244.5715150275843	134.73406774426027	1
288.0793931934776	293.3272933182333	1
