251.0678012728518	46.351832104987395	5
472.5143575561371	522.7985440719472	4
527.4055805000687	217.24775928343135	5
155.37607539636124	304.2299865308488	5
237.4822258205038	84.45393637320765	4
172.74387437217752	266.33861769929274	3
36.426799588636364	36.51081830142295	3
292.6811446138119	425.9016771811048	2
301.2132835255339	315.61232559004776	3
269.08572674127754	370.10398814123215	5
466.45352479008716	106.24550194413462	4
465.9491272685558	310.09538274605103	2
255.39932639664534	180.74871154146496	2
453.17760054212494	508.06894223521624	3
513.1187550075374	327.54925094916206	2
551.96285360556	376.77509113001213	2
601.9129877550938	421.0373262533187	2
269.6609100881641	403.27023847103055	2
497.0990618618981	364.96359563147575	2
196.69641404589714	207.97044961455865	3
232.85434549643725	238.96087385830657	2
42.87671571184575	194.5118479766118	2
550.6593079226641	474.8564461780338	5
40.384726413802994	239.02248945806653	2
462.68817291473573	557.1653912228643	2
470.8271652580735	376.77981227881213	2
521.561182844069	275.8456008388064	6
502.61640373973756	139.17178528741087	4
253.63059029958106	276.42553294126293	7
213.80324114552874	247.78004308355133	2
340.25671001885223	400.66230560355467	2
57.33860739758151	90.72958622900488	4
267.0779588279373	22.3980598020792	3
313.742715945575	169.14361189865437	7
547.0266478262134	189.50417624529922	5
156.38666265714787	199.5771193661647	6
582.4953511711591	540.1670593027023	4
443.47673797362796	395.33061968408265	3
466.4583429797549	475.3267689930302	3
440.88679540526533	445.7612284711242	3
464.24157238943593	258.05870332652773	4
486.19299060903774	494.9869210647792	2
253.59476187147726	215.9775405402335	3
252.44962963461737	248.38681806961245	2
224.6202897830311	368.06031697184187	2
428.1561570758696	146.74894580665313	2
393.0857601100217	279.3266443213133	6
217.13059917350398	194.0118479766118	2
175.19019131947252	137.48444828437422	2
38.914882914398504	144.51238690898498	4
444.05013441989985	485.6581012463456	3
418.98121978259104	488.79129247113156	7
540.7957587139434	440.92407716473735	3
63.99800500777953	50.25648925893263	3
582.9367194282852	502.13325126942607	2
71.88449175770454	168.9262064657192	2
292.90144959318843	382.81001617208165	6
369.94688084274765	465.89184757145085	2
315.8828125	135.0	2
122.36801452607457	77.1526628143058	2
310.0471903873272	243.91567436208993	2
88.15869562455079	252.5170298311997	3
332.4559456288587	65.73719586887972	3
70.47037415342088	272.28634904961734	2
469.2747496083804	303.0503780261823	5
396.6980302746345	275.611518304261	5
333.6172199557717	402.18466823105337	4
382.55131664372504	425.4016771811048	3
253.76285509795096	174.16888125108412	8
150.12708600181676	338.04758189085265	4
517.8377871825364	238.5923761551494	3
363.4277826100008	460.8665062771733	3
467.9407331268048	252.21723446158018	2
331.62710559210655	435.37491477231436	5
141.99145806361992	94.34070889860507	4
93.41803420042586	82.46301454923666	6
502.2537097071506	133.92530372210175	5
517.866685669972	277.1841087431528	3
156.12292031022187	193.89521350477142	2
292.1375512988926	285.25122050374114	3
285.328781834442	380.7059547622712	2
590.6158513512644	251.54204137973448	5
464.3095106139965	299.5752470849087	2
251.0480545627189	225.14566284117797	3
414.8101219149479	338.3090785580064	2
53.902363699567495	94.29966465635698	3
592.8727972157437	149.2522066310037	2
85.82754559727763	263.6703264664251	2
339.10436599381063	35.89489301889739	2
52.67868971312315	128.30297133580657	2
301.978893710443	241.1519186587413	2
376.2543443404609	430.13257597763277	2
334.1758978391956	306.60464563896926	4
545.5586391203606	182.90322140523023	2
336.0868478481302	57.35619903537555	2
412.11539359991883	325.53226123906825	2
374.1469497414785	370.844257911403	3
273.41703045480017	407.4800712503295	4
221.99255254613502	9.047642557393235	2
423.8147198699572	143.55639904702286	2
440.1409844639628	399.83617986318467	5
368.02190645303995	337.41939594951623	7
19.259842957905967	9.206288691319847	2
241.90691268620637	84.60346559892142	3
459.9534148479329	102.03727474697605	2
46.3231804573993	67.75994374915481	6
127.98014061414675	41.73831052958651	3
393.01670698309033	162.2014317452481	2
479.4634916125958	380.04189428048755	2
511.64146289063905	394.6856694542034	5
380.44996403160184	429.6600162600596	3
190.87856647735032	209.37887597301471	3
373.0225673189402	364.45717156623493	3
56.184400302509005	115.58022811945006	2
364.0591395424184	233.27606768400173	3
285.8468958424552	333.37831994691305	2
535.3909744792479	440.52057004418623	4
334.9725533849786	407.0217519994054	4
356.00235591238015	352.325020596296	2
223.41542213344886	242.64323894421864	5
545.7246099191968	473.5421330122191	2
218.8005287559124	12.918176812695926	2
154.789512663555	310.9185922425303	2
312.81610853368807	139.63513823266453	4
262.4828851125976	23.042527339003644	2
39.789274232612065	228.78089902716331	3
337.80247161260684	64.58149504073624	3
342.0370677475207	29.51790028233067	3
323.66362649584744	430.3007757619314	2
523.2547907700002	214.41464155528553	3
510.86622772500493	514.2689250444549	2
351.59318052992677	359.4931956257594	2
502.5244832526562	359.2372050005566	3
82.34833834392617	147.8871030369484	2
103.10194350552965	6.721876224812464	3
168.53749362533142	142.383970294229	3
398.45437891313145	167.1721529804947	3
192.32612898210124	214.3584737224209	2
359.5241148594074	64.82129674548118	3
463.6920437848215	110.28179153967469	2
408.6324442474855	320.9872288044314	3
272.34276583592384	342.9993845206955	2
421.09307327825695	345.4993845206955	2
424.5146587971674	138.80207573075705	3
130.93975949992543	219.10154397427158	2
419.4699195970468	139.1840047786572	2
41.057005126619565	34.7986631029671	2
550.3686319073688	366.64605766437177	3
252.96283140378162	272.53900724783773	2
262.6676095627559	368.2100505927059	2
130.5369084659489	46.886527420363265	2
166.0078125	150.5	2
236.68210094408565	79.90197147530634	2
85.48572162454826	255.42102620024679	2
462.86825848491947	249.9741154188309	1
265.7055960712406	17.60381094498809	1
368.98127638316765	460.04625936235544	1
516.171875	136.0	1
509.171875	333.0	1
45.171875	143.0	1
193.171875	307.0	1
324.171875	309.0	1
458.171875	471.0	1
72.171875	153.0	1
364.171875	357.0	1
222.171875	361.0	1
200.171875	386.0	1
589.171875	478.0	1
310.84375	165.0	1
245.84375	227.0	1
492.84375	205.0	1
519.84375	268.0	1
471.84375	385.0	1
361.84375	456.0	1
430.84375	446.0	1
464.84375	467.0	1
377.9232065116932	424.2813209323082	1
337.0784488292929	22.42159757114185	1
65.65844616560058	162.08432109994064	1
61.70572768020701	89.61781360858278	1
434.5788381356678	386.0717078914104	1
175.01699092815622	258.2671401339247	1
300.1864096322862	278.03073308611323	1
221.13203992441464	188.4357783695253	1
117.0437864757171	77.75965783726967	1
226.40233123827272	10.563441799828743	1
597.957868865269	416.3758837514328	1
207.95631163976938	328.0985018983241	1
244.14790869491452	6.292660409293738	1
545.14682545848	364.97430373903677	1
329.09882248532847	310.43791352515774	1
196.95295658912897	391.193722111094	1
558.7809227334847	536.9736882597323	1
532.5615048969372	565.2906601015541	1
363.7084540295712	467.7544237575012	1
378.39132801803777	512.8518233574397	1
277.70876352569536	482.43729804585325	1
226.3187045660622	445.7301123249731	1
166.53843189873388	392.24249884597634	1
249.39179226222402	252.7551931066318	1
186.46518945450998	372.3157408832128	1
496.90309663923256	353.4377596553316	1
433.97649383151855	453.07154946914915	1
450.7569212469089	548.5102323434375	1
475.9275623699946	446.7788890598554	1
297.63552108147144	246.46253269733808	1
331.1963759122523	246.46253269733808	1
211.63583057759558	212.9016771811048	1
160.24577161796248	160.46284043699032	1
521.0249610488563	340.8524388367441	1
350.07435675456645	353.4377596553316	1
169.68476203911956	347.1450992460379	1
268.2697731045382	74.46314817664256	1
119.34347979294834	71.31681797199569	1
59.563207125619996	293.65748576704124	1
58.514430412158106	142.63363594399138	1
18.754063524469483	17.668043742405832	1
60.71566354540874	172.26342648845687	1
125.86656884107758	219.74629404617255	1
187.70471624035648	308.0865127582017	1
211.99827414721605	332.3800729040097	1
85.0092214522683	309.19076549210206	1
473.7061479620214	107.11251518833535	1
265.0024004894551	345.6311057108141	1
424.01477951617227	354.46512758201703	1
581.9229059107595	474.82867557715673	1
576.4016427501095	500.2264884568651	1
440.57856899812197	451.6393681652491	1
412.97225319487245	522.3115431348724	1
506.1835575062641	324.4805376645198	1
413.29305163195716	315.5732287874545	1
171.52324182211717	147.6068328199384	1
351.8085274134602	25.799061960009873	1
271.04625430801934	12.338681806961244	1
109.52170809713773	10.095285114786472	1
138.68586227410248	28.042458652184646	1
74.74906273229516	53.84152061219452	1
32.12452970442362	32.52925203653419	1
60.166985643812794	31.407553690446804	1
87.0877433456264	75.15378918785485	1
136.44246579895133	170.49814860528264	1
136.44246579895133	209.75759071834113	1
120.73869047289341	231.06985929400147	1
27.637736754121352	274.8160947914095	1
209.3528512413632	189.5670204887682	1
254.22078074438588	163.76795852875833	1
310.3056926231642	128.99530980004937	1
467.3434458837436	246.77363613922486	1
428.08400756859874	253.5038262157492	1
210.47454947893877	390.35102443841026	1
274.41134902074606	367.91705751666257	1
294.6019172971063	332.0227104418662	1
326.00946794922214	420.63687978276965	1
290.115124346804	429.61046655146873	1
515.576470099493	283.7896815601086	1
495.38590182313277	218.73117748704024	1
415.7453269552675	495.7906689706245	1
505.03451042663676	329.46306418866146	1
506.0990114165659	149.56239262845543	1
545.4855480439437	198.52943932531628	1
363.45587876606214	243.2384819615805	1
296.39231640052685	290.0765266281431	1
254.87677779329067	284.7540215523973	1
192.07121938747187	226.20646571919414	1
165.4586946392436	205.9809464313603	1
51.55708871682644	150.62689364360457	1
45.17008277725164	79.3053256286116	1
39.84757782760599	52.69280024988287	1
138.84616989101528	43.11229111354053	1
226.1352510652041	18.628767765110105	1
254.87677779329067	54.82180228018117	1
275.1022966019442	25.015773856004998	1
237.84476195442457	93.14383882555053	1
420.9389322222353	52.69280024988287	1
473.0994807287628	115.49836014368265	1
169.7166985989601	161.27190379509605	1
200.58722730690494	326.2695611432141	1
88.81462336434606	331.59206621895987	1
66.46010257583428	310.3020459159769	1
279.3603005616607	416.7521474308918	1
278.2957995717316	353.946587537092	1
512.4860173561407	406.1071372794003	1
432.6484431114558	406.1071372794003	1
361.3268767862039	367.78510073403095	1
341.1013579775504	427.3971575823833	1
496.51850250720366	225.141964704045	1
432.6484431114558	271.98000937060755	1
397.5199104437944	182.56192409807903	1
530.5825341849359	449.7516789005154	1
505.03451042663676	527.4602530064033	1
461.38996983954235	512.5572387943151	1
457.13196587982577	479.5577073246916	1
366.64938173584954	527.4602530064033	1
589.1300886310381	510.4282367640169	1
542.2920450741564	375.23660784007495	1
128.20115999172396	228.33546774949244	1
498.5090359817211	212.9016771811048	1
408.31423862399765	515.9981535620865	1
503.7529195490306	353.4377596553316	1
145.0712835450606	367.07185720880136	1
330.704761827817	302.04769964609943	1
305.5341207047314	313.5842437298046	1
160.8029342469891	154.17018002769657	1
583.921875	257.0	1
365.921875	66.0	1
344.921875	21.0	1
165.921875	167.0	1
90.921875	147.0	1
51.921875	111.0	1
49.921875	74.0	1
134.921875	38.0	1
99.921875	84.0	1
132.921875	235.0	1
291.921875	339.0	1
298.921875	283.0	1
277.921875	245.0	1
134.921875	215.0	1
146.921875	93.0	1
417.921875	327.0	1
368.921875	230.0	1
368.921875	331.0	1
378.921875	365.0	1
344.921875	351.0	1
338.921875	310.0	1
503.921875	403.0	1
436.921875	350.0	1
392.921875	425.0	1
338.921875	434.0	1
316.921875	420.0	1
267.921875	339.0	1
155.921875	342.0	1
88.921875	323.0	1
65.921875	305.0	1
415.921875	533.0	1
480.921875	533.0	1
471.921875	439.0	1
452.921875	465.0	1
232.921875	436.0	1
202.921875	391.0	1
149.921875	369.0	1
194.921875	372.0	1
194.921875	400.0	1
492.921875	454.0	1
509.921875	507.0	1
518.921875	352.0	1
42.921875	219.0	1
508.921875	556.0	1
