424.1245772580861	493.3004860267315	2
181.41611279743796	370.54305402560175	6
540.7734375	437.5	2
302.03250146765953	400.29196799507616	2
385.6931600742062	289.60280861338384	3
439.34879940660284	421.21994680786275	4
388.45782795994967	207.91443051548498	2
253.30688102901792	462.389829204493	3
379.43723413104067	511.78427517129074	2
552.2130082819006	212.55742457674702	3
519.6052796676972	307.1701800276966	2
552.3369303696256	318.93845206954916	2
265.15835240077917	415.90352591397834	4
479.7152119126915	471.45080012309586	3
94.25722165207131	275.58388070846615	5
102.00794559923898	315.9602673147023	2
226.85664365929276	366.6835699321949	3
485.4089646182387	412.16185283619035	8
387.03787679615675	382.1276638905481	7
208.23455444960106	348.68997281855053	4
543.5858565598469	500.26914381992066	7
486.91984875918587	316.9134291321363	6
559.9225637446916	579.594862384351	5
406.20599232329494	46.91190138845964	2
537.543311566327	427.8669417003189	3
580.5290187311803	117.83561565877719	3
132.99598975506646	81.24868455275052	3
473.26552676021845	467.50561332584596	5
496.7443436948629	591.5795870257027	5
337.16166684479776	95.72659736230099	2
536.0425292775828	554.5699743158502	4
244.40390898977262	33.42663841097854	4
525.4052713120115	301.0568982216462	3
224.07430700875148	362.10889984562425	3
445.4918386664033	477.060169385534	3
532.8565580833457	179.97684596327662	3
552.5666107452619	61.81617421666793	4
356.8089245789612	561.7424334860405	7
608.2183349034697	460.47051430487033	2
508.1681254147634	189.78005595294314	3
530.9264902854959	408.46559967407427	5
443.8837233031577	550.7067077745569	4
458.77955555610083	302.7304981773998	2
472.8529444480469	20.963457662938488	5
99.89062915104401	280.2922235722965	2
267.2701218942792	495.57135700507683	3
468.29724198955637	214.59655628811606	3
101.75586591390775	194.6499196784306	3
383.26708799273007	511.95266181242806	6
103.35414770902952	96.1404365631866	8
478.7699555613357	530.4685297691374	2
167.04949674774753	133.3128546690907	5
434.6853088210435	513.9081746075108	3
56.85024202929763	191.21745029447885	5
162.83371391731924	306.83464863847576	7
457.068232044542	81.17977944826356	2
514.9059611641096	370.7070325335266	5
198.01376469108487	289.61119177814066	5
417.70204633179037	489.84390358488656	3
401.7429970287129	39.853515925527006	2
146.71628012926124	205.30450838590554	2
132.86259038659992	76.24580975628163	4
572.1692129662717	121.13371287890445	2
519.8617028530402	372.53531269688335	2
102.90730064914193	310.13886939313335	6
254.43245911167588	250.06353685497675	5
179.52346059664333	366.631348485913	2
447.8116651488226	140.80608203559234	3
540.7955457659885	493.93168166362864	2
389.77177512760034	191.31054616449785	2
134.93022075204044	145.41422650113253	5
124.06090334006446	361.71918756731804	3
231.41007569419804	201.08325284372393	3
46.90432536884592	85.87441774594419	3
531.8179132350067	10.243883674411448	2
117.97555244907531	42.118408977260316	3
96.7438547025621	196.5425065394676	3
336.28167888304995	11.743883674411448	2
233.91600828014776	321.43845206954916	2
292.2421875	216.5	2
267.0556761662088	82.55643749924545	2
87.55041505127662	275.4385290044622	2
203.9571291864687	293.48746085182154	2
285.0548494602196	42.299290022904216	3
391.09265204160107	181.30670765933786	4
128.63763747970603	301.76930341759726	3
508.10695513578366	195.08581802711876	2
128.50604152294392	118.14595025906186	4
537.5698135522223	432.5553187232231	3
453.06492598884347	303.00151506272863	3
522.1208214496212	297.0336326528663	2
4.209418642969354	145.98471686488602	2
422.54097194121783	488.7469971762416	4
213.91127668605256	252.6904905265294	2
260.16431472441934	206.36564150258232	2
305.44038669221106	516.6681479376198	2
606.7781919772815	355.35366421940677	2
286.3771031536829	319.8350436955768	3
50.34968995564927	289.9137581109824	3
431.4922728165185	65.14991970321576	2
415.6811767763917	87.93774051781716	2
460.0200784001921	188.9189793877726	3
427.3242566157502	162.59796924910438	2
55.50597851340672	156.67903038734738	2
329.93593864709567	272.94827691067826	2
371.64297647587983	122.87751464824422	4
476.10033514180566	314.55994138539234	2
267.25945610310436	424.12698226788393	3
318.4051037492605	174.11022192843637	3
501.30706433646804	236.31920491605695	3
190.5225634885037	267.1145049976826	2
59.24850765341016	27.337191850808598	2
364.9968517209885	78.0007690720455	2
452.0580380134514	84.32050918784809	2
607.8987793336302	454.2743087113157	2
10.229906545615032	215.71110752236365	2
223.47217453645982	465.71732820086163	2
576.7254711808117	119.02981532388452	2
229.77172343300396	196.09031237244352	3
500.3393197283175	99.12643517222067	2
269.816151574223	92.58229743377791	3
146.97896759204548	210.3810593353677	2
394.8007063934939	204.57793575635293	2
494.88027126971673	120.22272698266184	2
325.19807606098493	282.71748056450883	2
270.4829671322238	173.4975725604139	2
261.8462945546114	424.1717100533587	2
203.23438694495212	176.37853426564416	2
592.3417775642655	33.56085551623327	1
559.8296994469466	30.4145253115864	1
610.1709816931178	109.07278042775812	1
592.3417775642655	102.78012001846439	1
494.80554321230875	92.29235266964149	1
423.4887266968995	101.73134328358209	1
448.65936781998516	134.24342206493307	1
394.1229787199663	106.97522695799354	1
252.53812240260973	10.487767348822896	1
46.977886564077195	78.65825511617172	1
21.807245440991583	28.31697184182182	1
296.58674436800953	223.3894445299277	1
45.9291098506153	103.82889675334667	1
32.295012575610585	167.80427758116633	1
6.075594739063072	192.97491921834128	1
40.685226283305795	223.3894445299277	1
9.221924879448775	273.7307278042776	1
430.83016369113284	167.80427758116633	1
340.63536633340937	156.26773349746117	1
324.90371563148085	31.46330204646869	1
288.19653066031435	5.243883674411448	1
478.0251157969183	125.85320818587476	1
472.78123222960886	162.56039390675488	1
605.9758748392702	246.46253269733808	1
570.3174665815656	197.17002615787044	1
518.9274076219325	265.3405139252193	1
495.85431992577065	275.8282812740422	1
430.83016369113284	319.8769041390983	1
341.68414304687127	311.48669026004	1
367.9035608834188	328.2671180181567	1
339.58658961994746	354.48653639021387	1
388.8790951526568	386.9986151715649	1
318.6110553507095	380.7059547622711	1
542.0004953180943	450.97399599938456	1
537.8053884642467	598.8515156177874	1
487.4641062180755	588.3637482689645	1
355.318240321876	551.6565625480844	1
270.367326531462	487.6811817202647	1
218.9772675718289	415.3155870133867	1
78.44118796793421	380.7059547622711	1
298.68429779493334	453.07154946914915	1
251.48934568914783	333.51100169256813	1
381.5376581584235	435.2423449761502	1
349.0255800411046	441.5350053854439	1
554.5858158796372	617.7294968456686	1
101.37654547712458	202.66772007806412	1
530.6991849040312	174.4650236012991	1
391.2476706376272	595.938654281843	1
444.52128282928714	556.7682425085583	1
399.2958521166506	306.6659199103893	1
302.5879281927146	226.50014001680202	1
389.11607065097314	507.71660599271917	1
129.5316432761976	360.10977317278076	1
372.5739257692473	81.43825259031084	1
433.6526145633121	157.78661439372723	1
501.09366677342535	229.04508541024924	1
483.2790492084898	407.1912629515542	1
237.69182134902076	310.4833380005601	1
493.45883067416725	73.8034164099692	1
342.03458137221486	11.452254270512462	1
324.21996380727927	21.632035844301317	1
288.59072867740815	48.35396247549706	1
366.2115623531989	333.387846541585	1
415.8379969983765	383.0142817138057	1
380.2087618685054	189.59843181181742	1
187.3125	371.0	1
306.3125	524.0	1
446.3125	562.0	1
292.3125	319.0	1
284.3125	55.0	1
330.3125	162.0	1
422.3125	92.0	1
477.3125	170.0	1
528.3125	184.0	1
553.3125	208.0	1
510.3125	280.0	1
438.3125	373.0	1
335.7137652896042	16.530985403130853	1
152.084473407341	213.27665418921103	1
587.3097431282896	27.262567336917044	1
509.8038731779837	367.0959952401464	1
530.0746391649868	402.86793501943373	1
212.89677136835024	408.82992498264827	1
291.59503931789163	452.94865071043597	1
203.35758737446645	169.15792846142335	1
515.765863174161	270.51175783607073	1
606.3881111160572	240.70180801999794	1
525.3050471680449	177.5047144099237	1
162.81605540046027	24.877771351631225	1
530.6849112334506	560.7054918681542	1
613.1723141361753	355.0090637526489	1
553.6560867253487	55.33964817320703	1
110.171875	314.0	1
250.171875	15.0	1
16.171875	40.0	1
123.171875	116.0	1
323.171875	169.0	1
465.171875	18.0	1
518.171875	363.0	1
547.171875	447.0	1
438.171875	481.0	1
302.171875	323.0	1
262.171875	256.0	1
240.50996447009354	317.7793506693338	1
385.24115092783586	424.7545776273273	1
557.2405319355876	63.97538082781967	1
587.6550566259826	35.658408985997845	1
434.53365646054516	60.8290506231728	1
505.8504729759544	182.48715186951839	1
547.8015415144305	205.56024003692877	1
553.04542508174	311.48669026004	1
527.8747839586543	295.75503923680566	1
481.7286085663307	309.3891367902755	1
429.28977289323564	155.21895676257887	1
162.9004876739129	30.4145253115864	1
428.4317900446922	324.65030376670717	1
52.985895120498874	283.79295261239366	1
5.503031938909719	268.33341433778855	1
5.503031938909719	184.41020656136087	1
216.41528467573596	29.814823815309843	1
250.64711627176536	4.417010935601458	1
269.41941101797505	164.53365735115432	1
208.234375	285.0	1
535.234375	413.0	1
593.234375	327.0	1
395.234375	318.0	1
286.234375	325.0	1
320.234375	352.0	1
270.234375	384.0	1
205.234375	419.0	1
157.234375	306.0	1
216.234375	468.0	1
300.234375	443.0	1
482.234375	523.0	1
521.234375	559.0	1
514.234375	276.0	1
503.234375	246.0	1
476.234375	222.0	1
246.234375	382.0	1
407.234375	459.0	1
440.234375	364.0	1
345.234375	363.0	1
348.234375	325.0	1
243.234375	311.0	1
