325.82908512830204	358.9410692588092	2
180.24152006595668	140.3220734832804	9
348.0669239496018	215.16464155528553	2
502.15473333650436	166.38240714517121	3
561.4841167662099	329.0336573511543	2
237.807305679897	201.53977426167563	6
543.5589068931051	352.6804374240583	2
495.42336436640363	25.329852529485073	4
512.1407928616633	439.8636074406005	5
212.6770880062721	162.7412763764121	3
531.464178067742	559.0252064912218	9
493.97089461109874	622.0453450657906	5
545.8918605997683	89.0246306741467	3
522.1600191995212	339.84283293694534	2
540.9415904449102	302.2826245443499	2
506.32567464689544	590.9397326852977	2
418.5421205492038	482.1810926506135	3
305.8964107729763	10.291642378297386	2
388.52079808697044	518.2530610370707	7
345.144972388616	556.6176584577174	5
292.7131693302873	125.44240583232079	2
472.54191346591807	308.8927712200242	5
428.41424712363914	62.06307337349596	3
559.983987818015	274.4794653705954	2
248.65321649698365	395.38283162031075	6
372.35751149661417	594.5670260870415	7
411.019891327735	376.987584885523	5
93.45591427352045	10.185282977454051	2
550.639979921625	213.61251518833535	2
399.6617241561959	83.48222231369243	4
490.936837298613	235.06591046720524	2
347.47964138353683	484.1856014580802	3
240.17362105253613	432.14189772002345	4
433.4681231210334	229.6555987957396	2
604.8497679612369	47.943024810212805	4
346.8622003103163	143.67340688322042	3
496.7497239862455	482.4770959902795	4
89.12211762300265	111.84658037866187	2
420.5417761816025	299.17093765471714	6
290.6171875	245.5	2
501.77056708614134	478.41772708472894	2
178.1171875	181.0	2
582.2421875	579.5	2
571.2318154175866	474.43357790697485	3
466.078125	602.5	2
556.34765625	539.0	3
135.56601072778926	142.9107840074965	3
454.078125	373.0	2
251.7421875	398.5	2
328.34765625	117.25	3
443.1217750998453	154.61517696991905	2
388.13769438109034	408.7243479618929	3
511.18600229325875	444.59599016086213	4
289.0533877791738	220.4053892906601	4
421.6559278686194	62.72174488894926	3
344.63920779120184	152.5457484935572	3
402.1097081916846	270.6593784163673	2
414.0247182246385	562.6712273913878	7
140.6953125	181.75	3
307.578125	91.0	2
220.078125	168.5	2
402.63563517854993	278.45707031851055	3
346.375496981799	426.7162267687022	3
528.2252114237517	521.7763743557707	4
405.52851084080686	458.6838591285335	3
559.9187162280756	281.9623240859041	4
565.1366426790992	440.2690927930695	3
285.86684124558235	61.33827893175074	2
351.8439642674594	221.56015122223647	4
455.96241944998377	473.31922536311106	2
419.8659026211885	372.8199281586756	2
246.67855191147584	436.18907046588293	6
260.59282936643274	11.387006090894893	2
538.4108099782616	199.48035777343344	2
572.7463653703818	39.08651373561007	2
353.578125	147.5	2
343.578125	489.0	2
459.25710917608325	14.407403778949575	4
142.80887233999593	330.5695392486649	3
597.1415581761628	460.5910524696107	3
458.7425471969991	373.8274021750691	6
299.078125	165.5	2
446.12086094425155	231.84376467072457	4
589.2798798166015	576.8073090271802	4
612.7377831542077	387.6627023791969	4
213.77694643910345	227.22829461442677	5
575.8828125	359.0	2
97.06175215196043	115.54755583320319	2
226.79496580321123	259.25455248023366	4
300.50678954297814	388.74288081794646	2
423.10863209643185	562.113674906894	2
561.6812487460002	537.2021696193589	3
507.55107128477096	597.7075368484103	2
592.2778315613053	456.6689271895758	2
555.9240019074397	329.6496048838409	4
98.31497691481192	234.72171167038627	2
206.75614365294808	226.5472369496676	2
515.7883340238313	340.272792459999	2
104.9787415834673	192.61888679763774	5
452.96385794816797	594.7820256777486	2
344.0939178019382	478.8338838629825	2
563.1280330612649	217.1300374089887	3
283.5935110465024	124.90221572549623	2
596.5592399893276	420.5265479759894	2
570.1432686969397	355.5314639523225	2
449.4468714099926	469.9016002461917	2
426.1906267051807	58.86574857670411	2
557.9520105100114	532.3405139252193	2
499.30757702703215	593.2135162758418	4
171.42831851955978	174.54846899523005	2
599.9123538059971	300.77160843202887	3
497.1381697293166	475.3951857566643	2
317.6144452799449	365.58918861530543	2
607.14135278275	138.4118304869258	2
395.3066322532522	88.32301123249731	3
578.612103786971	39.10350051571504	2
423.08765410608225	55.17702639387787	2
461.31317291473573	592.4312822114634	2
167.71572330955092	178.45033578010307	2
532.0052060773617	206.25659846946743	2
380.5390625	590.5	2
437.08853916481826	160.42936222237316	3
341.0078125	555.5	2
491.13637818588325	627.6850845615704	2
407.0981690001554	274.99178156625686	1
219.84375	260.0	1
125.84375	170.0	1
322.84375	365.0	1
295.84375	390.0	1
502.84375	174.0	1
498.84375	488.0	1
512.84375	336.0	1
590.84375	330.0	1
442.84375	225.0	1
460.84375	150.0	1
130.171875	183.0	1
207.171875	232.0	1
402.171875	91.0	1
348.171875	431.0	1
354.171875	206.0	1
393.171875	263.0	1
130.171875	335.0	1
230.234375	102.0	1
173.234375	145.0	1
178.234375	190.0	1
99.234375	197.0	1
92.234375	238.0	1
327.234375	110.0	1
381.234375	514.0	1
237.234375	403.0	1
129.234375	144.0	1
265.521787692582	37.25753553022021	1
298.5213183803851	86.22458222708106	1
215.49024116591278	97.9340933937217	1
243.16726690407023	111.77260659066063	1
224.00624908534584	130.9336248633453	1
55.81509267654297	123.48211775730127	1
46.23458376718078	108.57910354521319	1
179.2972075083223	12.774012181789786	1
351.7463678768417	487.5414649383102	1
341.1013579775504	550.3470248321099	1
459.26096785968406	382.1558644385445	1
556.1305579432351	289.5442761205685	1
595.5170945706129	299.12478525691085	1
559.3240609130223	323.60830860534116	1
550.8080529935894	365.12384819615806	1
507.163512406495	475.83195377166953	1
314.4888332293221	123.48211775730127	1
235.7157599745663	53.225050757457446	1
291.06981145088116	120.28861471185382	1
308.1018272897473	158.6106512572232	1
215.49024116591278	166.06215836326723	1
134.58816593129876	175.64266749960956	1
294.26331442066856	218.22270810557552	1
284.68280551130636	245.8997344994534	1
354.9398708466291	450.28392940809	1
384.7458985646448	431.1229111354053	1
424.1324351920227	414.0908948930189	1
416.68092826251876	436.44541621115104	1
300.78185122185715	8.390213879058317	1
322.80616220455704	121.6581012463456	1
543.0492720315561	100.68256654869981	1
601.7807679854226	53.48761347899677	1
592.3417775642655	336.657331897215	1
553.5370391661752	334.5597784274504	1
537.8053884642467	206.60901677181107	1
435.0252705449804	165.70672411140177	1
448.65936781998516	209.75534697645793	1
537.8053884642467	305.1940298507463	1
548.2931555988657	471.94953069703035	1
487.4641062180755	616.6807201107863	1
419.29361984305194	594.6564086782582	1
381.5376581584235	520.1932605016157	1
398.3180855738139	452.0227727342668	1
344.830473187257	220.24311432528083	1
206.3919470102861	161.51161717187262	1
147.66045105641965	262.1941837205724	1
121.44103321987214	151.02384982304972	1
260.92833611030494	6.292660409293738	1
387.8303184391949	249.60886290198493	1
126.68491678718165	345.0475457762733	1
131.92880035449116	166.75550084628406	1
227.3674812795241	200.31635636251733	1
277.70876352569536	251.70641637174953	1
294.4891909410857	156.26773349746117	1
418.24484312959004	97.53623634405294	1
429.78138697767093	348.19387598092015	1
459.14713495460416	267.4380673949839	1
527.3176213296276	517.0469302969688	1
522.0737377623182	477.1934143714418	1
468.58612537576124	400.63271272503465	1
284.00142380646673	510.75426988767504	1
291.34286080070007	551.6565625480844	1
243.09913198145262	512.8518233574397	1
260.92833611030494	466.7056470226189	1
222.1235977122146	443.6325588552085	1
286.09897723339054	321.9744576088629	1
224.2211511391384	57.68272041852593	1
299.73307450839525	91.24357593475919	1
310.7838050593027	115.54457845029879	1
518.8104697647454	442.65710969950015	1
128.38361354221163	138.15604374402238	1
604.7345269256892	297.94373181966915	1
310.7838050593027	5.50211402084396	1
138.93569073741526	334.1220762896269	1
327.36564065176555	352.21124852460576	1
218.8299895010998	159.26007801816442	1
90.69762355934157	98.96283723490149	1
574.921875	222.0	1
609.921875	301.0	1
582.921875	296.0	1
549.921875	360.0	1
602.921875	422.0	1
577.921875	477.0	1
529.921875	570.0	1
444.921875	450.0	1
421.921875	485.0	1
465.921875	598.0	1
425.921875	597.0	1
355.921875	459.0	1
428.921875	417.0	1
385.921875	437.0	1
421.921875	436.0	1
353.921875	553.0	1
294.921875	508.0	1
550.921875	464.0	1
521.921875	346.0	1
439.921875	346.0	1
500.921875	34.0	1
397.921875	257.0	1
308.921875	392.0	1
313.921875	10.0	1
299.921875	74.0	1
176.921875	89.0	1
193.921875	7.0	1
113.921875	197.0	1
101.921875	231.0	1
214.921875	138.0	1
258.921875	117.0	1
229.921875	108.0	1
209.921875	90.0	1
552.921875	94.0	1
450.921875	152.0	1
479.921875	391.0	1
507.921875	169.0	1
270.921875	31.0	1
251.921875	41.0	1
227.921875	63.0	1
466.921875	311.0	1
354.3125	431.0	1
371.3125	590.0	1
441.3125	454.0	1
413.3125	421.0	1
410.3125	454.0	1
215.3125	222.0	1
217.3125	253.0	1
105.3125	185.0	1
42.3125	100.0	1
142.3125	257.0	1
147.3125	333.0	1
257.3125	33.0	1
299.3125	80.0	1
296.3125	117.0	1
554.3125	206.0	1
562.3125	287.0	1
391.3125	94.0	1
452.3125	19.0	1
320.21503209595414	117.05078979343864	1
165.61966359775687	186.6187120291616	1
568.6718743251997	361.0906439854192	1
459.35086374433166	598.5049817739975	1
414.07650582700245	556.5433778857837	1
287.0874531320547	554.334872417983	1
220.8322952042559	451.6393681652491	1
576.4016427501095	32.02332928311057	1
554.3165901075099	49.691373025516405	1
