384.4265026421581	435.05426653103973	4
459.4463321618333	488.35884314008865	3
197.98311911798493	129.35273337608442	3
536.070311883082	300.379176120464	3
223.86021122509334	189.43720670894442	6
432.66125781871153	15.663563948225015	2
274.9894482744493	190.50828110857847	8
604.5850054835312	126.20422902897192	2
572.0926286033057	312.13248387793385	6
242.0245506939196	110.86698250218875	2
238.05211619609526	235.57925914027058	2
364.7403255319446	41.58224910941556	3
447.65592648994647	172.665985803064	2
292.2646448828565	314.98461652558944	2
234.70089238355467	276.1287027168978	6
271.49678996072623	264.4078714792462	3
413.9514713933572	454.85835161022936	4
532.7387273105362	334.6437970629429	5
275.6073231432887	60.68914056964849	3
364.21338670893886	552.1546961325967	2
513.862190886484	436.2737875997544	2
435.42563968405466	225.12290229365203	5
446.3576455545011	539.1810926949049	2
359.6479807165567	325.973682017025	4
579.3042362184668	563.7335788827502	2
419.1233861600011	290.4054199887071	2
92.39527921912129	112.73058717322323	3
422.5707848050075	490.77348066298345	3
296.09270935146196	318.80065238049417	4
216.48007211248935	375.0595052624309	5
199.9389228350712	260.08542502957937	7
447.8155715160487	177.06740013498387	4
513.7382112881005	129.75227143262674	3
426.3232114020891	402.5371393492941	2
241.45393375649056	238.18726102380384	4
283.9747906133389	28.447726392907413	2
329.3980677953173	473.7612095183381	4
269.02149530804604	259.51166359729893	2
306.4351554930946	110.03205969286904	3
428.6562150183772	408.12524570992264	3
407.8270754666705	459.3658904098869	2
103.65424542514882	210.9927542909993	4
421.6250579455449	187.4997306731216	2
500.8918549199979	238.49208112263875	3
414.9572514126895	490.6472274121254	2
326.83215574524445	49.81321758611033	2
165.15510499496565	270.52704463637235	5
287.2869645886665	310.94130448023145	2
533.8677558843035	303.7278627141211	3
336.3154125326872	408.7251697245558	5
359.7779410279227	551.7782348977585	3
412.76816757737976	262.7466560064929	3
108.0325441665032	207.66206113516904	2
339.2062421442239	405.1160437756973	2
219.1150638371269	36.08025516403403	3
397.6624155987146	583.4989453769397	2
533.4087344438744	232.508636048369	2
362.3082852600421	322.2522132159404	2
161.75501535068346	334.34641555285543	3
373.2191584381932	135.82308626974483	2
479.25176937740065	82.85735115431348	2
201.6019508672766	130.66194476601936	2
96.87357937718747	103.16897394643706	3
148.86093749488788	221.96609963547996	3
223.74184036638792	401.9218712029161	2
428.19757989021616	20.990400972053465	2
429.2497062062811	218.8731470230863	2
606.0899167766795	198.38274605103283	2
451.6489243899731	531.3705524304441	2
91.45543243858909	247.7805589307412	2
442.8445348473499	174.21902580751424	3
312.91194565158713	331.0857837181045	2
502.4852243857987	482.9251581043105	2
323.18555592308263	53.372018937335895	2
277.1605272214424	68.17970838396113	2
221.44995878606295	66.57545565006075	2
188.171875	400.0	1
294.171875	399.0	1
322.171875	475.0	1
389.171875	577.0	1
461.171875	484.0	1
589.171875	507.0	1
603.171875	589.0	1
366.171875	327.0	1
448.171875	369.0	1
508.171875	124.0	1
528.171875	300.0	1
599.171875	278.0	1
586.171875	113.0	1
368.06650983326523	136.64861272444082	1
562.5262181448747	124.58916456778823	1
604.7345269256892	190.91612942937743	1
229.3820666963034	193.93099146854058	1
476.602160983931	91.42568213699363	1
291.1870902682103	471.29829907155005	1
337.9177178469692	463.76114397364216	1
598.70476852843	365.7781277008399	1
607.7494061243189	282.8694216238534	1
152.50264713124847	216.54245676226418	1
601.7196477270596	515.0137986394157	1
616.7940437202076	465.26857499322375	1
573.0782953400784	302.46602487841386	1
279.1275734736919	58.26219970619901	1
217.32254990178498	61.27706174536216	1
532.3774261585787	296.43630080008757	1
172.0993619223409	332.6146452700453	1
600.2122081277448	582.8481945205864	1
363.5441910353208	558.7292982072813	1
447.20408479090185	361.0906439854192	1
84.234375	110.0	1
234.234375	243.0	1
233.234375	282.0	1
270.234375	295.0	1
406.234375	337.0	1
290.234375	404.0	1
387.234375	440.0	1
413.234375	463.0	1
296.234375	472.0	1
527.234375	338.0	1
358.234375	559.0	1
391.234375	586.0	1
210.234375	305.0	1
463.234375	438.0	1
492.234375	182.0	1
301.44273734974445	102.6955042527339	1
164.5154109656269	273.8546780072904	1
71.75818986670853	223.05905224787364	1
415.18075845913245	278.27168894289184	1
497.99970586888094	181.09744835965978	1
511.25073745444075	297.04398541919807	1
533.3357900970403	265.0206561360875	1
558.7336006360299	278.27168894289184	1
594.0696848641893	368.82041312272173	1
598.4866953927092	287.1057108140948	1
598.4866953927092	506.8520048602673	1
571.9846322215897	564.2731470230863	1
610.633474346139	591.8794653705954	1
469.2891374335015	553.2306196840826	1
291.50446366057463	393.1139732685298	1
105.71816463333771	100.23785329486557	1
435.6677762442362	18.794597492787293	1
87.96771084414381	243.28562310107998	1
145.3956495738888	216.13787116705387	1
115.11546369820508	259.99193198355755	1
281.13441384419514	187.94597492787295	1
242.50107324418488	246.41805601654454	1
214.3091760495828	379.0243827712104	1
413.7407450928791	288.1838282227385	1
411.6524564117974	486.57124620215995	1
308.95029160876305	327.025483057967	1
382.7537072349248	430.09577149257916	1
534.1779565368772	271.0366844021283	1
97.7198261959555	248.13217586110335	1
298.7705101430856	110.7051246149538	1
275.8660018453113	78.89330719686363	1
395.47843406702157	576.4301316157939	1
368.4390603343755	46.02578268876612	1
276.3874981714226	294.2860650705955	1
269.41389497725953	68.34131368937999	1
228.96699645111354	184.10313075506448	1
145.28375812115635	228.73419275629223	1
344.72880947422095	408.65316144874157	1
379.5968254450365	140.8667894413751	1
226.1775551734483	407.25844076120325	1
413.0701207770193	267.7863720073665	1
557.2405319355876	119.56054777658102	1
412.5093454778453	424.7545776273273	1
