541.3874538682005	598.7524908869988	2
432.91186944516693	484.97627582017014	4
202.80397182576002	243.20170109356013	4
443.69352423841633	257.64544349939246	3
371.012953003127	129.22378493317132	4
436.07864002596136	357.3889428918591	3
376.5685064584519	396.2133657351154	2
108.9709080367893	147.48493317132443	3
256.38673800736797	398.81761846901577	2
315.08392120960605	481.5959599027947	4
285.2550860411227	140.1721749696233	2
465.2386117436512	594.5961117861482	2
393.90973195655675	326.85653098420414	4
219.04413076115833	154.24556500607534	2
276.701542248324	231.59161603888214	4
579.0880910483452	214.06038882138517	3
310.82313193561754	327.3772782503038	4
484.44385549888597	246.978432563791	3
543.6967846253305	149.51631227217496	4
533.0551647218106	293.3656136087485	3
338.7050228961773	125.99453219927096	2
195.6024131061751	286.27715674362094	3
254.23035905917303	179.4965978128797	2
291.8788341946239	450.244957472661	3
236.82678236474956	261.6559234507898	4
533.0133107648431	379.5222053462941	4
234.79208537000318	300.1262454434994	2
499.0328699756009	540.937667071689	3
517.1885485987057	421.51652490887	2
418.5819015349865	227.081652490887	3
561.3583226234352	123.68177399756986	3
344.91352816043724	148.43280680437425	2
314.57122589710605	181.0262758201701	5
337.5681751979823	404.02612393681653	3
591.35045453932	262.24969623329287	2
448.02190713480627	144.12004860267314	2
430.2400123938314	402.1303766707169	2
569.7036755858902	378.6708383961118	2
167.0081274579088	49.24143377885784	2
477.429317668561	159.8498177399757	2
457.0105752293912	531.5312879708383	3
402.93685449220663	121.52539489671932	2
461.1995492436512	196.5699878493317	2
585.39585552506	38.98080194410693	3
475.5318383900411	299.71986634264886	3
321.96219065520245	268.4794653705954	2
508.1477541880558	75.92970838396113	3
376.82093869419197	245.43693803159175	2
514.9603445652814	102.6955042527339	1
332.1007702640473	370.4835965978129	2
413.9249716635012	472.50795868772786	3
332.266843024692	517.4993924665857	2
269.0442979429225	486.88347509113	3
538.4414614967152	261.19756986634263	2
323.5277899923441	200.97399756986633	1
471.2734375	358.0	2
278.234375	318.0	1
533.234375	160.0	1
446.234375	52.0	1
402.234375	353.0	1
265.234375	206.0	1
296.234375	380.0	1
558.234375	336.0	1
488.234375	184.0	1
374.3125	518.0	1
306.3125	293.0	1
459.3125	82.0	1
499.3125	384.0	1
566.3125	509.0	1
508.3125	453.0	1
522.3125	486.0	1
404.3125	565.0	1
596.2781901284492	401.94799513973265	1
441.68282163025196	319.12904009720535	1
125.1591654233983	22.08505467800729	1
177.05903913350738	149.0741190765492	1
224.54190231509654	202.0782503037667	1
196.93558651184702	88.34021871202916	1
147.2442180659979	223.05905224787364	1
554.7134393219607	85.02746051032807	1
318.40337604614484	6.625516403402187	1
270.9205128645557	62.94240583232078	1
247.7312075898261	87.2359659781288	1
327.2373971031847	79.50619684082625	1
407.84783924867327	49.691373025516405	1
598.8835446071599	354.46512758201703	1
454.2264497981325	450.53511543134874	1
526.0028708865811	334.58857837181046	1
148.3484706981279	69.56792223572296	1
224.54190231509654	27.606318347509113	1
407.84783924867327	267.2291616038882	1
411.1605971450632	170.05492102065614	1
274.23327076094563	288.20996354799513	1
553.6091866898307	229.6845686512758	1
360.3649760670841	191.03572296476307	1
