384.9648313180629	125.70138997344995	4
375.7597867883731	341.2410176319898	6
527.7105415298304	288.228920675568	6
436.689499650433	136.65364520048604	5
290.46667114504817	306.04482414241767	6
327.4794233228188	76.82420928145582	5
234.68687612307963	168.98358191472747	4
260.4534862358218	241.48970209276902	5
600.7436164013476	460.1033131302934	6
499.68512534231195	45.83865961268155	5
290.74561008485426	275.08941252287383	6
301.38900888466173	92.89188823339758	6
407.44819643677215	142.0413159132955	5
347.9062467343167	228.2814305794159	3
381.9456490395518	434.9882641158297	5
504.2029782742801	395.7240093459855	6
491.0286560684359	335.83810323285957	4
232.24521085850907	211.30867360929122	5
564.1836575124112	96.08831101393655	6
533.1984127504575	139.91507886928002	4
266.5601893355956	118.90606388892738	6
441.33693450418093	419.4766318102712	4
592.5725598660297	511.68663426488456	3
309.1536469650008	190.68502921625628	5
452.6347664097109	96.78499392466586	4
465.8022164273981	528.6574037145408	4
580.5174924046472	212.09284934689447	4
569.2677229002401	261.985057021608	5
372.67592482188763	469.8691956079215	3
507.52920720022496	444.04272704794175	4
258.132896079965	61.255425155735594	5
292.22764732519477	371.7923149679799	4
275.72421672223163	18.338023901501217	4
196.31497391137918	149.72644342082964	5
578.9663931152074	432.7119650565339	5
499.1680735613882	242.95182692689048	4
526.3905465615769	360.2632986625915	4
487.97718523190963	366.99943262565444	4
595.3800133830334	251.6554003913718	4
463.69371273881393	328.71049088661925	5
561.417094693885	478.1755825176116	4
474.58853638603955	451.02261866447395	5
247.9543824243505	13.804385583800425	5
359.6796875	86.0	2
403.03091634836	335.8939559581446	3
397.68864222693264	412.4809464313603	2
490.1096868234713	174.9553334374512	4
445.3614252577222	196.93479618928626	3
465.1796875	34.5	2
406.57564816650745	254.1756208027487	2
421.77279506059426	28.669256598469467	3
327.46885489611213	310.72928705294396	4
414.2046501463657	368.2554271435265	2
387.89838777225157	104.03154771201	2
416.8659026211885	398.69069186318916	2
406.6796875	61.5	2
206.2181198216908	204.2654224582227	3
450.55330712130797	226.4512142745588	4
247.921875	220.0	1
501.921875	162.0	1
392.921875	315.0	1
223.921875	190.0	1
613.5578061946687	577.5442761205685	2
613.9933052047395	510.4157426206466	2
343.23035995740867	382.1558644385444	1
610.4201084296208	161.80415430267064	1
613.6136113994082	540.7665156957677	1
345.3593619372669	202.25519287833828	1
214.3125	97.0	1
556.4375	550.0	1
164.4375	115.0	1
469.4375	417.0	1
555.921875	311.0	1
546.921875	225.0	1
375.921875	233.0	1
371.171875	500.0	1
242.171875	332.0	1
