190.4236178761541	58.829222357229646	3
205.62081354430453	292.3804981773998	4
312.2734375	73.0	2
450.7507925068952	96.54784325637911	4
528.1228810760651	417.2736938031592	3
511.1904299111554	289.76136087484815	2
424.203125	475.0	2
159.11258196267087	167.70473876063184	4
216.76416091348324	236.01269744835966	4
334.42157144723797	455.23098420413123	4
348.3224600007034	497.0044957472661	3
459.5321714550902	480.7469319562576	4
563.7446193983399	439.40267314702305	2
172.29502406889833	195.4055285540705	4
352.09852315873593	390.3460510328068	3
330.494445131173	108.08693803159173	4
581.2281652937548	320.0322600243013	3
382.7734375	438.5	2
415.98828125	371.25	3
441.011765275433	392.8721142162819	3
202.08171880725578	330.8573511543135	4
216.43597143938575	149.46245443499393	4
561.73828125	103.25	3
372.66145565969293	120.50634872417983	4
232.4987293357757	83.81327460510329	4
611.4026746730694	516.8951397326853	2
334.80664157841096	237.6557108140948	3
613.1245574025997	575.0528554070474	3
609.3505483570045	466.70583232077763	2
512.6591889698377	533.6406439854192	3
326.0412100007034	418.82582017010935	3
521.0943766236103	605.5652490886998	2
431.21576607415113	564.6365735115431	2
374.3125	479.0	1
168.3125	91.0	1
199.85149519378626	7.729769137302552	1
101.573010934218	85.02746051032807	1
158.994147804977	258.3951397326853	1
303.65124261400445	325.7545565006075	1
303.65124261400445	396.42673147023083	1
610.171875	432.0	1
