553.8553881152031	143.6438639125152	5
427.24410390078515	121.1178007290401	5
506.20020916635383	75.93655832320778	5
318.8048308209293	152.69942284325637	4
396.88113608911533	292.57837181044954	4
228.27717018319396	279.37004860267314	3
454.1309354804557	90.4027794653706	5
166.22781633767087	19.63563183475091	4
192.9806998920933	240.96588699878492	4
191.8322623920933	110.51406439854192	4
525.5673321500813	183.62414945321993	4
312.7370723184971	305.2853280680437	5
529.9579571500813	38.180042527339005	4
606.84375	245.375	4
547.637805835325	478.9057108140948	4
271.2003775801397	254.22908566221142	5
606.3621618011011	207.98148541919807	5
467.4390939881227	143.33213851761846	4
243.9317150268407	306.09671931956257	4
549.6794939933575	76.78721142162819	4
593.8725354850362	44.023663426488454	5
554.848485185885	514.843013365735	2
230.625	18.25	3
468.625	212.75	3
544.4105983413001	408.2346294046173	2
360.04912461025174	181.9965978128797	2
460.0135616601804	64.68347509113002	3
498.9672669270578	129.74726609963548	3
471.3156879762454	338.1471445929526	3
406.96040375855563	235.27539489671932	3
566.8592458831049	162.47703523693804	3
371.2045721756133	144.03396111786148	3
281.078125	68.0	2
128.78996928840883	58.210571081409476	2
414.921875	329.0	1
327.921875	39.0	1
295.921875	40.0	1
381.234375	91.0	1
225.3125	149.0	1
