213.120269959467	243.1430133657351	4
340.4151149762286	347.9296099016635	5
440.7933589120804	241.76310790500156	5
52.02714447022805	26.11772526177969	3
112.0922281819719	89.52694505575865	4
331.35477011424706	106.7080602268561	4
70.06609672231642	126.01207878135098	3
361.6206612873956	431.91953147011867	5
157.8295009665245	337.27188518768287	5
255.7970059875073	68.17240831704737	3
470.69836106384037	527.0691625611344	3
14.337052995949561	234.10157958687728	1
532.234375	286.0	1
529.234375	327.0	1
220.234375	340.0	1
