206.86227566426186	285.3806918421135	5
592.8251081620015	352.851711827523	5
288.2100760037497	63.68498337299112	5
247.065191262623	325.3527850438529	3
290.4723788813836	339.54177565779355	3
240.5816655670105	16.11998301636087	2
431.3057586758709	453.1992209592204	5
413.71279353791135	410.61568515915246	5
526.366429501423	276.84356408603475	5
494.92670974201394	383.36482535774735	4
299.8764437044314	232.61047284683673	4
593.6983987362707	465.2060701646408	3
216.5561447961947	323.2957298248707	5
452.3908517327517	103.48132414800895	4
251.0043069730484	128.7319351542447	5
267.04927051791697	369.8252231112479	4
257.88861318590824	291.3392507062962	4
282.4921099013438	312.22769790548205	5
540.6052478441187	306.9160184425046	4
191.35435709914697	246.9475111555624	4
311.97694417255855	274.1885290044622	3
571.1582056958804	275.98401677181107	4
242.8209572181795	95.87233543687532	5
423.6310820984497	273.8653639021388	3
493.0716736209848	325.79107024503446	4
515.0049144408475	244.57215334745396	4
585.6701285046558	153.88613101894168	2
575.9466392878994	240.06054777658102	2
608.653901633097	258.97515002308046	2
86.77762499695133	63.342459551212386	4
334.06293589103507	194.3913133472072	4
39.450086428191	135.5973226650254	2
517.468077277616	428.30716306107104	4
440.22737619941404	296.3287428835206	2
468.8751640827941	422.88387645206467	3
212.3502815607054	104.20428448941674	4
132.80234221378367	131.47538082781966	3
385.35065468305936	365.73715186951836	3
335.53368341958804	139.89609939990768	3
567.9235102571281	315.18845206954916	3
554.5467113667423	443.93822126480995	2
509.95614080821326	460.35997432636145	2
274.6191587291929	203.78623634405295	3
341.68414304687127	162.56039390675488	1
65.04638052915524	31.481651023234345	3
191.1649870683732	342.71130012150667	2
290.31489650711114	384.63754556500606	3
456.7734375	477.0	2
131.2734375	189.0	2
338.7734375	398.5	2
405.7734375	475.0	2
161.93731754321175	289.8806804374241	3
146.3125	205.0	1
394.2734375	300.5	2
309.1725057746543	15.459538274605103	1
187.70471624035648	79.50619684082625	1
225.234375	180.0	1
484.234375	293.0	1
607.234375	302.0	1
147.234375	262.0	1
517.234375	354.0	1
557.3125	509.0	1
547.3125	488.0	1
426.3125	225.0	1
340.3125	262.0	1
181.3125	223.0	1
72.3125	109.0	1
171.3125	33.0	1
93.3125	225.0	1
37.53889614292009	8.390213879058317	1
129.83124692756735	69.21926450223111	1
66.9046441198533	149.97507308816742	1
14.465808446758277	72.36559470687799	1
606.5330374682968	487.6811817202647	1
239.46118775663166	386.9986151715649	1
