148.08461758456173	183.4209412159306	2
380.07360825511853	94.67931318342835	4
428.11333608602774	326.679101836772	4
322.34295820141597	375.31980437405366	3
332.54273348410135	230.81666410216957	2
343.8993361960868	137.79388600208986	2
340.725268096367	177.04506680810977	2
228.28296105469576	277.894592041172	4
305.82860949563474	24.987767348822896	2
468.8191754143837	273.2238734690841	4
345.0763662507034	50.19890643985419	3
468.7421875	88.0	2
555.2418649608126	103.67387606318347	3
499.7421875	88.5	2
536.8092294322926	13.312758201701094	3
95.23425020284904	58.210571081409476	2
551.314545053755	446.55905224787364	2
498.3534788586102	214.66616038882137	4
297.7734375	137.5	2
354.7421875	473.5	2
366.1924397423817	23.334021871202914	2
349.2734375	98.5	2
220.00208510212795	82.40947752126367	2
346.8238050667684	297.5370595382746	3
342.14136296054096	264.4791008505468	3
418.7679103388806	98.24143377885784	3
221.203125	207.5	2
253.203125	209.0	2
267.82689300898755	269.27095990279463	2
395.6650404082664	142.56792223572296	2
372.7267667190966	303.3038882138518	2
404.13823213783263	295.9397326852977	1
471.4976426977614	511.26901579586877	1
403.03397950570263	57.42114216281895	1
461.5593690085916	54.10838396111786	1
373.2191584381932	120.36354799513973	1
534.4400427291703	59.62964763061969	1
560.9421059002898	32.02332928311057	1
575.2973901179797	80.61044957472662	1
269.41941101797505	111.52952612393682	1
372.234375	234.0	1
301.234375	233.0	1
278.234375	217.0	1
428.234375	165.0	1
405.234375	187.0	1
371.234375	175.0	1
531.234375	149.0	1
253.234375	295.0	1
379.234375	265.0	1
419.234375	260.0	1
407.234375	240.0	1
417.234375	208.0	1
271.171875	353.0	1
431.171875	488.0	1
453.171875	438.0	1
414.171875	352.0	1
270.171875	12.0	1
320.3125	505.0	1
577.3125	631.0	1
533.3125	174.0	1
297.3125	417.0	1
97.3125	20.0	1
267.3125	324.0	1
577.3125	149.0	1
493.3125	35.0	1
488.3125	475.0	1
473.3125	353.0	1
566.3125	587.0	1
287.70491657587905	85.99969226034776	1
542.5576579471209	534.8761347899678	1
191.2174589373842	47.19495306970303	1
184.9247986566128	143.68241267887367	1
529.9723373855782	310.43791352515774	1
541.508881233659	391.193722111094	1
