51.21610601650679	9.76038109449881	3
116.78566867710944	48.02927081240853	3
120.66868742617767	98.97784951136694	5
232.36280310444388	162.42111367074125	5
592.5095932051496	83.48317524390235	4
385.1699358027698	346.8793368152208	4
21.559246079614866	37.95098573765317	2
80.5151196345705	73.7072417413836	5
227.9461098563688	124.71419122459103	5
333.8996500215783	168.43501142894218	5
453.45681774872025	300.158680828063	4
144.8135833592197	189.73152421872516	4
377.40804680503516	389.0484305277735	3
244.92736241272257	355.8124515740236	3
159.13152802346917	330.818958923786	4
13.63576606011943	185.03981691393807	2
269.7734375	301.5	2
354.248619683283	230.26767916812605	4
37.80560701351815	66.12082819180992	2
563.2734375	315.0	2
117.2734375	173.0	2
519.1690117127646	371.03981691393807	3
463.8034645436652	171.60889486639138	4
170.2734375	364.0	2
228.2734375	307.5	2
194.234375	375.0	1
367.234375	355.0	1
601.2364483923333	464.068167143493	3
576.4225685035108	255.74743880391426	2
340.1183474901378	120.73663615038015	3
6.342808015151269	22.29816053031825	1
154.21480482541037	298.09119866846504	1
85.3125	168.0	1
90.3125	214.0	1
123.3125	233.0	1
274.3125	209.0	1
544.3125	203.0	1
354.3125	376.0	1
150.3125	108.0	1
300.234375	407.0	1
220.234375	192.0	1
136.234375	266.0	1
