469.76106495034287	112.21057108140948	3
465.51106495034287	249.5881530984204	3
269.14291042323066	364.9123936816525	4
374.1048472717416	72.32099027946538	4
333.1226788481405	196.47068651275822	4
334.555296512346	121.78876063183475	3
358.32346832354665	445.0408262454435	4
226.78574199962947	224.63238153098422	4
504.55339784935023	89.08505467800728	3
254.98653147503566	184.66324422843257	4
173.0105135976342	55.60528554070474	3
508.67327548148023	464.72260024301335	3
294.64051042453934	218.91616038882137	4
500.49083337525275	153.84671931956257	3
442.485678854684	428.2203523693803	4
558.3462788625362	475.74161603888217	4
158.1011975864235	116.12964763061969	2
286.81489650711114	345.9338396111786	3
375.8418156927254	502.9684690157959	4
328.33358411109174	302.40656136087483	4
509.2514649555777	203.4259416767922	3
594.7948294401448	367.8769137302552	3
515.8380472809026	177.24914945321993	4
269.7939735812631	255.4712029161604	4
193.42771754844657	153.64884568651274	3
219.5078125	282.0	3
510.0429596913177	534.588517618469	3
509.42327548148023	308.3237545565006	3
567.7734375	381.0	2
441.8061525399277	509.24453219927096	4
523.5635134681952	352.83681652490884	2
212.8680366287715	47.64678007290401	3
370.203125	332.0	2
248.88861931981768	71.38821385176185	2
474.5745141131407	287.7092345078979	2
521.8680720200002	488.98772782503033	2
584.3392720357047	414.4952612393682	2
526.234375	383.0	1
563.234375	211.0	1
229.234375	129.0	1
179.97494781544663	182.20170109356013	1
505.7294742937908	112.63377885783719	1
532.2315374649104	539.9795868772783	1
226.35355836490578	333.4843256379101	1
309.171875	397.0	1
356.171875	367.0	1
342.171875	398.0	1
