74.4275010475678	177.39599618746843	3
263.35239475679305	260.7252896090005	3
57.971179840879564	270.0994892007874	3
178.61672509048083	323.0943287470902	3
157.19090867321404	292.5392876874038	3
70.57556114325402	338.88023733719575	2
491.0120039208017	327.27509621538184	3
188.15275189849928	244.23126634866904	2
363.68343379245727	338.5212376443745	3
177.46704534749205	174.91812680032837	3
329.673237952157	443.0487036326927	3
53.87571473524993	34.4762095000315	2
233.6393008286531	388.6912372723199	3
243.234375	71.0	1
175.234375	74.0	1
113.234375	329.0	1
242.234375	329.0	1
169.234375	364.0	1
286.234375	383.0	1
290.234375	476.0	1
421.234375	549.0	1
402.234375	379.0	1
469.234375	455.0	1
255.234375	172.0	1
