57.5803590745094	147.05780680437425	4
297.2667696606122	105.8791312272175	4
478.2504243113357	488.84198055893074	3
92.92552750465407	285.44860267314704	4
331.13268545862695	196.58061968408262	4
126.92425580266877	226.43590522478735	3
160.1259801524885	15.72976913730255	4
323.472271312237	165.81895504252734	2
93.29271500465407	354.4304374240583	3
571.2747822286649	308.04325637910085	3
418.81572561169617	106.5041312272175	3
486.3131822077256	211.56038882138517	3
296.7146433445473	196.97636695018224	4
63.67046072089934	188.3093560145808	2
134.2213886990587	325.1794046172539	3
204.7383765450881	56.10631834750912	2
186.50201173804825	267.8438335358445	4
133.3542011990587	292.3656136087485	4
331.51549795862695	474.560085054678	3
285.1609140660273	158.45407047387607	2
103.59913441530398	319.668772782503	2
527.0635134681952	288.2092345078979	2
309.3687190051972	273.625212636695	3
206.97166437541307	204.4976306196841	4
477.5614502970757	53.00206561360875	2
328.463371642562	308.9390036452005	3
369.05072757270665	116.24401579586876	4
451.62317660790586	494.2483596597813	2
575.0769085447298	463.09094775212634	3
87.24558210826413	165.25619684082625	3
491.2734375	266.0	2
438.7734375	205.5	2
271.2734375	328.5	2
251.2734375	131.5	2
139.7734375	183.0	2
487.7734375	123.0	2
492.7421875	536.0	2
224.7734375	129.0	2
590.7421875	69.5	2
235.2734375	292.5	2
340.7734375	369.0	2
342.7734375	415.0	2
199.2734375	24.5	2
493.7734375	438.0	2
508.0078125	68.0	3
525.2734375	376.0	2
455.2734375	166.0	2
411.2734375	362.5	2
347.7734375	496.5	2
490.7734375	178.5	2
523.2734375	471.5	2
458.2734375	361.0	2
446.234375	124.0	1
17.171875	74.0	1
168.3125	385.0	1
194.3125	337.0	1
249.3125	358.0	1
303.3125	345.0	1
250.3125	414.0	1
280.3125	416.0	1
240.3125	461.0	1
264.3125	485.0	1
176.3125	422.0	1
330.3125	443.0	1
317.3125	227.0	1
272.3125	186.0	1
239.3125	87.0	1
179.3125	110.0	1
87.3125	97.0	1
99.3125	49.0	1
43.3125	80.0	1
53.3125	233.0	1
108.3125	167.0	1
120.3125	113.0	1
243.3125	32.0	1
302.3125	27.0	1
219.3125	244.0	1
375.3125	140.0	1
376.3125	77.0	1
419.3125	52.0	1
424.3125	20.0	1
454.3125	80.0	1
548.3125	28.0	1
530.3125	56.0	1
577.3125	57.0	1
580.3125	23.0	1
567.3125	119.0	1
454.3125	191.0	1
417.3125	166.0	1
376.3125	210.0	1
364.3125	261.0	1
418.3125	261.0	1
522.3125	141.0	1
558.3125	149.0	1
601.3125	152.0	1
608.3125	179.0	1
556.3125	200.0	1
580.3125	225.0	1
566.3125	279.0	1
595.3125	249.0	1
597.3125	326.0	1
510.3125	358.0	1
442.3125	231.0	1
425.3125	389.0	1
386.3125	397.0	1
412.3125	434.0	1
384.3125	484.0	1
382.3125	547.0	1
520.3125	409.0	1
559.3125	406.0	1
583.3125	506.0	1
594.3125	525.0	1
551.3125	502.0	1
603.3125	580.0	1
427.3125	466.0	1
456.3125	560.0	1
484.7486742833212	79.50619684082625	1
358.8638742205034	18.772296476306195	1
131.38783200172747	385.3842041312272	1
184.39195834396654	236.310085054678	1
378.74042159884306	356.67363304981774	1
277.1491794428849	448.326609963548	1
