215.30442754756214	14.041524377995238	2
220.5770852572569	69.05003300140615	3
555.9174068725616	347.3454673286079	3
243.77046637923306	154.3556309434936	5
375.2734375	462.0	2
516.8836014604562	477.42966225573167	4
455.9433688526491	432.5717640824968	5
525.6680946441635	77.04967487084298	5
305.5524069949485	243.80038048820614	5
372.2077237838963	217.3486485893053	5
293.2192993519675	300.578914492952	5
200.06156751403336	204.04067064596666	3
491.3098113771913	523.4770570232007	5
394.2789861741524	46.180542108142376	5
329.4070401371471	126.78665722308841	4
608.2976534566583	88.0255408202934	5
472.6459353026286	179.41725855479828	4
570.7986931208068	412.54027551419654	4
518.3420512621253	507.62371940195715	4
359.7123987970971	307.1684819224679	3
594.489651365197	193.20144153098062	5
515.7387539017335	349.63974181761864	5
340.18373364505317	72.04251158675513	5
396.5573147330838	399.9153315625734	5
552.2588038383763	119.45448364009442	5
259.86296671113604	185.53981691393807	2
399.868128192203	189.57559360461596	4
419.26289861657796	457.85324665333127	3
405.705507893725	73.39720779407122	3
449.0322752758078	63.505043773265406	4
562.407943437945	567.2605870726218	3
580.2094903460677	596.1101750775188	3
431.18705956184647	32.49904694715566	2
513.4845364103651	548.032657043648	2
409.234375	153.0	1
185.171875	77.0	1
576.3125	33.0	1
270.3125	147.0	1
352.3125	14.0	1
312.3125	414.0	1
186.3125	15.0	1
