451.3140838759356	522.2908139713802
463.8994044374784	565.2906601015541
511.0943565432639	581.0223111247884
505.8504729759544	621.9246037851977
579.2648429182874	613.5343899061395
609.6793676086826	521.2420372364979
532.069890812502	404.8278196645638
583.459949772135	406.92537313432837
599.1916004740635	357.6328665948608
475.4359482855593	324.0720110786275
425.0946660393881	330.3646714879212
342.24130567589793	383.85228496691803
346.4364125297455	446.7788890598554
342.24130567589793	527.5346976457917
418.80200575861664	481.38852131097093
513.1919099701877	439.43745191567933
455.5091907297832	376.510847822742
437.6799866009309	46.146176334820744
505.8504729759544	22.024311432528084
458.65552087016886	77.60947838128943
475.4359482855593	105.92645022311126
483.8261619932545	67.12171103246654
289.80247000280286	109.07278042775812
235.26608090278404	212.9016771811048
232.11975076239835	313.5842437298046
282.4610330085696	439.43745191567933
289.80247000280286	266.38929066010155
362.168063231674	241.21864902292663
417.75322904515474	282.1209416833359
