417.44179898619063	447.8886764420103	3
85.41332385053146	46.859683259368964	6
587.205920216775	234.8438266944822	10
581.4753486282456	494.2664785302454	3
176.41877840993064	54.38113960429692	8
487.61246874216823	344.14373984297634	5
426.25723302722685	414.13650044318007	5
456.0079658268477	391.5693276678978	4
239.1395166070509	225.2392037881517	3
230.40985942375582	161.16319140885122	8
560.8770666277953	415.6223837517405	6
573.7322878279665	355.45846215738175	6
263.7489628885302	157.7290465554875	9
349.8236095302235	235.80228056069558	2
505.14081545060344	426.8360382989084	3
103.75505051180639	26.901594621324136	7
602.7650349582188	415.41992561262117	4
447.43976619538324	264.3262314955266	9
392.34322056506824	324.51603611360724	8
514.7366955984544	300.52783478839046	8
454.86678249252896	435.9041289894766	6
214.45644459671803	270.8539841494419	8
479.1386002835984	308.7291721107912	5
79.4659194081371	105.76182419072512	6
236.1231385087101	31.568083132627947	10
411.14009066478474	261.118730706257	6
580.2665269625645	532.2498177399757	2
198.63180171297273	227.95114721183498	7
179.2018859494741	263.4397247020868	8
141.57309819781472	272.9151501261275	3
407.2160772303883	348.4979720737678	2
88.608052998703	245.48216899391593	2
496.4604715412254	361.8421470047254	5
192.65386220293078	117.35197590767768	8
505.0122281239321	141.91795896959826	10
296.4028278317319	143.85541910764135	9
588.7813413205911	441.7295880597779	5
345.42647482280404	267.1697064844111	2
442.1850302819645	459.78559401029094	3
50.02323501220185	41.16656951318954	2
315.183179040579	329.05869176982463	2
476.6121249863478	236.785006343777	9
120.64685847682597	255.26143672401435	2
503.64611012761713	526.2960277770767	2
561.2657852065142	207.76808172815475	7
276.3239498929329	236.59593159456506	3
265.7372849511297	94.02115630057027	4
483.4796890354048	423.23710661040855	6
481.52190425207573	378.90020779591987	6
163.79226473456657	8.063432816977713	4
592.7760573278831	364.40139279687753	3
425.39160815288756	330.7043814595198	2
551.3068666816075	375.74208480565625	3
334.53639118354045	357.6526038424874	2
158.14821819103867	226.53577473457457	1
30.900842477899268	295.9397326852977	1
356.0043718365582	160.7396532875215	1
348.5528649070543	191.6101827268468	1
7.912548129732021	19.16101827268468	1
122.8786550420783	76.64407309073871	1
70.71810653555082	219.28720912072467	1
31.331569908172927	201.19069186318913	1
98.39513227370826	233.12572231766362	1
100.52413425356652	272.51225987818214	1
81.36311643484214	295.9312822114634	1
120.74965306222003	310.83429642355145	1
176.1037045385349	310.83429642355145	1
203.78073027669234	283.1572700296736	1
331.52084906818817	277.83476495392784	1
64.33110059597603	159.67515227237234	1
430.5194411315975	368.31735124160554	1
397.5199104437944	381.0913634233953	1
398.5844114337235	402.38138372637826	1
384.7458985646448	450.28392940809	1
286.81180749116464	305.51179134780574	1
264.4572867026529	290.6087771357176	1
30.267068918243798	30.870529439325317	1
555.42084273964	468.20315917375456	1
545.4825690504701	489.1839611178615	1
248.4386110075054	310.2950182260024	1
293.71296892483457	422.9287970838396	1
285.98320049992475	470.41166464155526	1
