317.4330940201569	10.08053360532135	4
509.1714959245676	436.6336056878955	7
574.6226507532514	628.6952177103594	3
497.28685625706134	248.3811977832217	6
583.3519017598246	451.3157661881701	7
399.4281947023698	193.40991299887867	6
513.4304284085902	523.173269229577	9
574.7117512725251	486.0446859820136	6
518.8362261607239	290.3727881468501	6
267.06243890609073	33.57272473061687	7
262.1357532792962	132.0481334316172	8
447.7213527399971	342.70997960131945	4
310.2657928314051	200.7260732639208	7
295.91158799295863	137.2594727673304	7
368.8848331026157	368.8132398560751	7
184.1109538369941	197.2768905987114	5
268.5736809515714	223.29195703734104	8
346.5105320522565	272.26100768299654	5
451.3677456915261	99.00698018868478	9
388.32847887014486	397.0721932446255	9
399.0838427127046	139.45896618900764	7
217.92039434062602	19.861372251823976	5
450.64568292033687	378.88175645497654	8
286.76946158063237	87.64900285233311	9
358.5386522065803	198.4761269516976	8
312.3772325004867	350.6050126752514	3
303.4516547998127	227.72395892737433	9
301.8197894504311	163.69858797609172	8
391.3071970566708	513.8718174148094	8
263.7792514167455	327.9109127884958	7
466.2283850232499	611.6398771952879	5
306.34627640311294	382.65809459208333	8
607.0018617232577	158.95540216647453	4
528.6290326716096	426.6646804361915	5
386.1269983234729	447.3376257979771	5
498.1422733028106	547.3710053837762	4
459.84841799219987	508.87024604645677	3
581.1993131485749	483.44799549993104	3
407.930950309358	75.21350907255743	2
576.3292918022581	210.89532656807856	3
383.05390928918064	286.62760060533117	2
496.4415437047679	571.9071081409477	3
428.66435345849743	550.3605413505242	2
546.1090229485254	405.2346294046173	2
467.61655977217106	401.369744835966	2
555.234375	590.0	1
613.234375	141.0	1
408.234375	537.0	1
145.03571280173796	30.919076549210207	1
370.30324975625393	456.05637910085056	1
501.70931297972163	408.5735115431349	1
381.87592499708677	7.928296072870275	1
366.3125	300.0	1
