418.26490770135666	281.9048933306782	4
289.0922272673507	109.21148088631509	6
463.80560610117163	566.1271678676023	6
511.0412642439004	580.0964293524039	5
290.63949465081896	266.7982740599133	6
236.76149651922387	212.84044927246651	7
531.2345080899677	406.0972755860165	5
485.0688121002361	68.08609499130606	7
610.6866310775933	522.7858326110929	3
346.09887525346187	444.7432551709131	7
506.078631458982	619.8260012972471	3
424.5218036244611	332.5873106964013	6
596.8116230344932	358.2115440807588	5
437.32362573860985	48.58188140592726	7
419.5890466388414	483.78127499568143	4
507.9820264299868	23.480021266765533	2
581.454578068518	611.9946658045799	3
339.93804754328414	382.34126406972433	5
453.022415563403	377.9332003952032	4
285.10807359360194	438.059303857817	5
476.0209457820275	327.16588893208376	7
582.0743208167623	409.76023294721534	6
339.00291511035726	527.6826102983171	4
478.51996517535815	108.53736541537413	7
457.5529269183526	81.56170637220649	6
450.6678430137621	526.5239770939517	7
357.83403161583703	241.3509932126352	2
517.7229556231375	438.5896250233312	6
231.30093502482566	319.04790805118745	7
266.7673354091129	277.42553956684947	5
446.53679357766043	151.3694532555553	4
286.01189774256994	191.2746110175786	3
487.19291479108625	479.4558049743218	5
286.76472458347	337.7337816925698	4
260.7465804098288	254.24630199067792	4
563.4760492393264	265.88696692556596	5
422.08059448967884	435.0794456095292	4
516.3643397833132	87.45638207289966	5
479.8746617853494	404.82644564682613	5
370.729298551796	112.43617155405649	5
359.6543465696747	346.2822915641251	5
510.8835702749434	217.49740628770024	6
322.8120468689709	35.25113474190644	3
501.75302328479006	451.9365803642612	2
553.6183726482964	71.38301856636477	2
276.6634565980522	160.04376484197567	3
405.5002900837171	229.4923811551526	2
380.02629115172994	308.80783381413903	4
584.0903636553774	176.97091232440096	5
439.23693181329475	117.96692123486659	4
608.4772515236855	446.2921619624164	4
414.8847067267659	194.22346064577027	2
346.61689698362125	116.79252188675477	3
459.60902864472973	421.5972332344537	4
468.444629921056	276.7104444399107	3
304.6471575116625	226.42733256328876	3
231.85673687465106	257.01743201605353	3
499.80870021535384	544.6875320466536	2
534.7253666460913	276.3405655409606	3
339.106797243111	317.02062819641696	2
511.5902446790729	291.18611312988503	2
603.6832066232463	337.82204668684153	3
565.1308036168784	193.65636580464187	3
350.234375	386.0	1
330.8671875	355.2416687011719	2
534.7143730989718	536.2750143280431	1
597.957868865269	570.5319087785032	1
516.2683535004684	554.7210344167523	1
255.3889334644923	437.4570495671005	1
551.8428198690106	629.8226876350686	1
522.8562176427911	181.84791405212914	1
425.5	176.48333740234375	1
424.5	217.48333740234375	1
390.5	215.48333740234375	1
363.5	193.48333740234375	1
337.5	205.48333740234375	1
179.5	242.48333740234375	1
281.5	369.48333740234375	1
453.5	238.48333740234375	1
486.5	235.48333740234375	1
562.5	253.48333740234375	1
514.5	255.48333740234375	1
437.5	314.48333740234375	1
426.5	391.48333740234375	1
436.5	544.4833374023438	1
302.0868016356695	485.8651820816713	1
172.50574744816706	215.0631805513938	1
561.6431964137018	39.15086750850884	1
