327.6570687924433	234.72251326487125	4
353.6653873440852	387.4825313379273	2
470.52942609000166	315.7364501482198	7
154.94987341127654	78.24308748634043	7
306.6589524521428	248.55346356248225	6
417.8539618423475	450.2699995521132	3
495.6381064006122	501.651635423724	5
184.8701397969485	268.9374794456038	5
210.97368266951588	280.13438167411516	9
376.65292596187186	255.75647544862704	8
273.72578470394365	267.8656804264242	6
429.0413756547837	587.3838653238049	5
312.2458022023135	282.50611902413357	4
274.4130069065788	169.1051143488647	7
257.750824922927	282.18235464662223	4
164.8567894786057	160.3422064697981	5
432.564396989268	126.50570629703648	3
576.113320084831	279.3480285376712	4
508.98053344155016	320.85565750660396	2
406.00980556237175	275.3887119499798	4
371.9196038058317	573.1541687536543	5
108.90909238882752	142.4283302815843	2
518.9698410076	115.83785693782303	5
589.9288218349793	143.06844463180232	5
181.29757109344956	64.89402876711951	2
135.7795726007504	239.2090210257025	6
351.38102034057124	304.70568856035015	3
287.44728522861556	384.7011471665275	3
547.7423807209373	150.8048018640103	6
501.5223688034158	352.04936610572156	2
149.9132514410042	302.63873793306163	2
448.22443745492353	556.5130856462986	6
263.6560955614296	218.91822282544015	3
415.41039154033683	363.5451897366005	2
331.53982529844853	358.42976728747385	2
234.86742793150853	259.66453935668466	3
100.63944966631286	97.13703364013459	3
285.93134159955173	214.79027667122966	2
259.8540063397097	357.90668279764856	2
529.4897291836419	480.63065259703694	2
129.14495300286146	171.29764360874066	2
230.36192040065498	106.34332074974516	2
198.64602467845083	123.28192605642634	2
466.5348443288399	481.1768215766876	2
545.636899602891	369.4663005994222	3
366.5104422792026	28.738027139605514	2
314.97311112588847	463.55931681797205	1
398.89360576886315	213.48821538315798	1
380.0622429946906	143.3948937465644	1
222.08803305579843	149.6719076244683	1
173.96343929957962	113.05599333669552	1
196.97954935690166	153.8565835430709	1
543.2673870375196	301.36640967381265	1
542.2212002167322	232.3192570168697	1
183.3791206866659	93.17878272333317	1
128.9774060057229	97.36345864193576	1
519.2050901594102	392.38311090341927	1
563.1449366324796	231.27308803721905	1
116.42316415627452	37.73182680184868	1
444.9258258835073	438.41454600804786	1
497.2351669228755	257.4273125284853	1
459.5724413745304	228.1345810982671	1
501.419914206025	84.80943088612796	1
162.4553842709186	12.623771290233066	1
305.78297871878766	432.137532130144	1
584.0686730482269	591.1552170370429	1
552.683068424606	553.4931337696195	1
601.853849001612	515.831050502196	1
571.5144311987784	546.1699509120649	1
608.1309699263362	418.5373353946855	1
153.03970288383232	228.1345810982671	1
214.3125	54.0	1
373.3125	328.0	1
321.3125	343.0	1
437.3125	478.0	1
340.234375	440.0	1
315.234375	401.0	1
288.234375	411.0	1
316.234375	575.0	1
300.234375	366.0	1
257.234375	428.0	1
478.234375	584.0	1
608.1868788681082	246.39279016918027	1
332.3268420096951	255.96918632643235	1
346.391082145341	80.16617373959694	1
368.8938663623745	108.29465575349062	1
419.5251308506999	149.08095467363643	1
