348.1903257632181	530.3275653714522	6
233.96369993926584	391.7380966176738	7
167.9685797483976	196.0909377100723	3
227.6448768601898	298.0697399408289	7
546.819610024713	428.0703107332163	7
221.16056296923216	323.79137997776974	4
430.8038825150105	170.57021788285533	8
583.6359436799846	443.34498516489913	6
185.23874500124407	179.76465493538416	3
185.9152820957749	379.50180409718655	5
471.16129391118005	181.51972998826	3
506.32446644978313	190.0683316063512	4
158.95010331733602	314.64282531532035	4
382.768931561393	16.97625588199336	4
114.31002968377658	144.72831521260133	4
496.3039820436635	421.69071799808336	4
376.63532270291944	122.77405716501033	8
178.44499630949136	350.36223311515005	8
560.362885654409	361.75046384641644	6
480.76520403242387	254.12892757299724	8
333.15450562737874	239.4337617420951	7
609.7765657082763	34.17695117332428	3
499.3209911876929	454.89553536076517	3
117.7003305435218	276.9628927518861	2
92.23347594369436	87.35406081650369	2
337.118460759857	16.143032007286862	2
499.1036909902716	311.78637386237006	7
500.3081911277268	118.16929722697125	6
381.11039166983886	544.1245233545783	7
260.6835764107378	283.2744070106815	8
309.0747706497943	209.6901558706855	5
274.42615034521367	334.26671065119444	4
560.570128236852	521.6549103512255	4
553.3575482868002	587.8331841243569	5
186.60228144965987	302.6915728420553	4
301.3232475205831	316.14507934928014	6
580.8655657532549	585.5357407879312	3
313.9449661973047	488.244202420025	7
476.33904736621224	446.0452531387158	6
391.99689045994967	247.75317231342711	2
530.0428499572662	203.75992544744298	2
368.60991870966643	185.3789655031286	4
277.2713547595555	69.75113788297479	3
482.77678276424047	200.97638348955638	5
592.2126749815978	536.8450864247964	2
577.1682418420672	262.4270793909848	3
509.31035650682657	502.67043300623277	2
513.5400001753374	227.24039257797924	6
339.8369406985594	53.16686586251022	3
93.33291382941668	22.75915833203734	2
115.01365367487982	53.89145913844742	3
387.15269194358154	460.4341688700708	7
514.8598190883772	278.3023621716586	6
607.8584357154051	292.5993905301358	4
450.10545017028454	501.01025294199053	7
569.5021157873791	70.92007102815282	5
575.147564396919	10.46687227012477	4
260.01909083336284	78.46324365898604	5
594.6750465997185	156.1520803495751	5
446.48441787530066	382.1842958148258	7
221.18852686193915	407.4768339994895	3
452.12131477727075	260.35723018406577	2
467.74994717208676	539.2908472235654	3
205.96239567333004	386.4363118054764	3
468.74829358641915	369.96362933521084	2
527.5286077002963	309.7387480673385	4
486.8944166827804	354.16830762722446	2
572.1833696873985	303.3843645996061	3
306.74062136268424	139.1555228262563	2
218.4869204948102	187.20745257769045	3
469.6545016509692	339.85047289811985	3
537.5964497072723	207.3954583933373	3
445.7753309741714	354.16830762722446	2
255.12143896233889	418.8295503790574	2
290.8812263072539	397.319561119314	3
487.8120201216364	486.0718520905141	4
431.45959096724295	573.3237264639272	3
346.711781410948	446.89552938667066	5
206.03603619976212	354.4685297691373	3
169.21004559252145	1.7957523577905894	2
441.0677991562849	115.38201816333887	4
603.206170092722	118.49318722219934	3
318.0148255949053	79.83939369626485	2
256.29358079127894	168.103432563791	4
150.61479126596683	227.039805930086	2
408.5008770073824	491.2085976924276	2
264.89749603992936	330.7850295762779	2
282.1698137357024	39.98080194410693	3
289.48257163209234	189.42424058323206	3
347.2734375	384.0	2
166.3125	136.0	1
195.3125	127.0	1
370.3125	235.0	1
357.3125	16.0	1
556.3125	41.0	1
435.234375	309.0	1
410.234375	368.0	1
336.234375	537.0	1
454.234375	62.0	1
280.4619373392748	439.4925880923451	1
443.8913268945119	280.4801944106926	1
234.08332678981566	149.0741190765492	1
247.33435837537542	125.88481166464156	1
444.9459293983202	20.57642421665969	1
607.7494061243189	522.5509537373235	1
536.8997449565231	38.665596451638564	1
375.60370782983927	172.82695719439857	1
470.5724025866718	421.55307542535814	1
277.6201338743771	55.247337667035865	1
105.7720195524896	92.9331131565752	1
491.67655697707903	602.4447977751469	1
489.04015908223954	548.594715750866	1
275.1576764951046	409.7099775860898	1
364.66596108746063	272.52166364541574	1
359.4452393847565	210.91714964127965	1
