412.38084018690006	435.6516487041971	3
494.0938044416429	124.3582928534379	4
566.7522057218665	223.17271096867572	6
412.15538527498757	395.3341674715684	3
201.87133272262685	134.42316936513174	3
289.4077546862957	108.27530331736145	3
423.0526729018882	473.56829942701586	3
386.5900813211094	427.87359697414456	3
366.79751981278673	63.38215342376958	7
450.68153093143883	423.1074938949141	2
511.8148940394914	424.3398649767087	4
360.3639306502158	335.08623565519815	3
344.7712501340773	454.99274324203	3
590.6521641492936	401.94216682824606	6
520.6816544872764	129.30358621227094	2
556.4486009306146	348.05653152941085	6
383.1571121942477	122.9039547778454	3
510.3506561162251	166.83030611509236	4
340.88495022393613	396.8193984189074	3
548.6003451455907	500.5523528510916	2
583.4801442645621	326.0938732628013	2
352.96923026768536	198.79028705053037	2
467.96095046193795	453.10846178106885	2
201.06958503976978	83.56534924852744	3
416.94463186169617	161.85211827589848	2
159.01521598250483	75.98299135578657	4
553.408295053755	131.99683273519375	2
212.60814476429425	160.11812746335556	2
230.21708687461293	27.409586390409153	4
501.29897817587903	44.88745629634957	6
539.8621203788451	185.57593763126636	3
595.8462380939757	44.38321520832554	2
341.42750422219024	9.12803785809232	2
582.747452115537	257.48552046796885	3
568.0338108465348	38.11821791137844	2
514.0173380018628	15.392754544680145	2
600.0976003284845	298.42004051162144	2
431.07014765447605	88.51603079108682	2
301.18421130682043	184.51447005561818	3
544.0719285593001	407.9306045249498	3
205.04063180934804	55.2958606817308	2
238.08925402366725	282.8309658597499	2
551.1997897894951	63.6086188834319	2
517.8445055718053	207.54142568780614	2
600.2539792766795	222.21906845815852	2
467.29031608462077	92.27666262583773	2
152.2620842313221	42.55905741459206	3
495.5934739862455	278.72113407176727	2
236.59014135736277	70.9569218353976	3
339.6394107889519	143.83085460639666	2
294.7401423067969	52.63752205309828	2
327.22970474466103	189.2194662811712	2
576.5483599685494	173.369873442112	3
332.3764481330975	82.47005278014568	2
298.234375	208.0	1
557.234375	469.0	1
317.3434362272041	422.4914626797142	1
420.61911653913114	31.686859700978566	1
177.6865503508483	156.08712371222774	1
471.5	53.48333740234375	1
529.5	47.48333740234375	1
550.5	98.48333740234375	1
570.5	116.48333740234375	1
537.5	152.48333740234375	1
469.5	118.48333740234375	1
496.5	90.48333740234375	1
406.5	75.48333740234375	1
255.5	64.48333740234375	1
554.5	200.48333740234375	1
496.5	227.48333740234375	1
524.5	235.48333740234375	1
548.5	308.48333740234375	1
467.5	262.48333740234375	1
408.5	215.48333740234375	1
427.5	182.48333740234375	1
471.5	190.48333740234375	1
431.5	135.48333740234375	1
377.5	137.48333740234375	1
530.5	527.4833374023438	1
505.5	537.4833374023438	1
482.5	518.4833374023438	1
470.5	552.4833374023438	1
442.5	536.4833374023438	1
448.5	498.48333740234375	1
400.5	374.48333740234375	1
424.5	367.48333740234375	1
243.5	250.48333740234375	1
399.5	512.4833374023438	1
249.3208355618338	98.57485049572071	1
480.80362377773304	233.4295007527701	1
506.8992496894163	386.9986151715649	1
398.61696897718275	14.355285540704738	1
602.9037059212291	130.301822600243	1
471.4976426977614	153.49113001215068	1
422.9105268840423	220.8505467800729	1
312.48526367104427	225.26755771567437	1
265.0024004894551	177.7846901579587	1
156.78564254071702	120.36354799513973	1
606.216463817619	347.8396111786148	1
489.1656848118411	408.5735115431349	1
489.1656848118411	438.3883353584447	1
571.9846322215897	474.82867557715673	1
526.7102743042605	482.5584447144593	1
500.20821113314094	507.95625759416765	1
513.4592427187007	337.9013365735115	1
332.3618110493839	351.1523693803159	1
569.7584546481473	525.2849832243198	1
