272.8136548412327	37.186987728785304	2
579.5842101527478	213.26236199800476	8
345.30299733063714	260.1591129011329	7
531.9847018858417	388.9607187328097	9
539.5256152287368	250.75537697755578	10
486.4978758677373	463.22849246888643	5
467.3399600519181	383.87288524287726	10
510.94773319297593	186.84985273015837	9
496.43624613552527	330.8746012486574	7
474.7958588343114	234.04267197601303	7
321.1684369394461	153.07244926519337	6
293.0555621348705	11.47080099726255	6
559.8120063236535	315.06504266106634	7
547.3948531349774	100.53531540965304	7
388.41417136165694	129.19568275883847	8
576.1513565896394	63.43255736319979	4
506.4946239688576	59.86534739464135	4
566.2486538597966	38.85696498452258	5
572.202359433983	516.971727430629	6
418.8647154948383	131.28580597129945	2
542.933577604374	422.6110655434385	4
515.21176740321	319.1657900783823	2
596.2781901284492	400.8437424058323	1
