327.6554218393592	39.718157376962594	6
73.7931852990481	201.34991880163102	8
389.67546351353064	60.10020783799915	6
44.137139322218644	170.19965001368604	9
75.3484117533597	456.1479186182115	9
188.131334671536	443.97997877195854	6
366.7501901955255	449.6179101685642	9
142.38429153715413	154.02899566816393	6
353.53677286215634	405.84156295235533	7
146.62620923480068	262.3409589880171	9
128.01673596876716	116.15547920209319	9
96.63657678876268	584.4485448198819	8
65.78559344481023	425.5682346339673	9
301.33344033070983	367.09393771943485	6
255.57495431434458	23.863610978751836	7
157.2160827173469	550.9237803864992	8
48.19793565114908	339.7792848448554	9
308.2356391373811	324.55488466475083	8
174.62471498179718	339.7584537723028	7
49.71115991676383	613.749638361365	7
415.84464028637615	140.25514276217154	3
303.91435945260946	46.49992974763384	5
169.30256020475503	118.12548767478583	5
186.91095061283215	511.1433990471097	4
249.45876247962116	265.58436222634066	7
93.10178645836012	292.2570852216009	7
389.22569809761984	103.46008209908439	4
104.59309754798699	554.7385847303694	2
270.30175033105513	293.50744089434875	7
241.7960207772024	297.8178028708861	7
352.8439872049296	122.9178218626783	4
355.3390274464765	297.0917911674138	5
425.2342333090363	384.5694673105695	2
346.66906654019533	576.7613388219779	5
277.78044867249434	554.1840386051736	3
256.93101453804275	517.7273208467866	5
392.15383614716825	165.58073925562522	4
176.62247579330003	163.50177025278293	2
277.8557826274555	598.7796896096686	5
398.03366225299055	517.9251918000462	6
400.8685059211556	260.0216866319538	5
260.3357352228175	158.39130443080091	5
307.3203655062761	232.41429217483818	6
303.8453030975392	32.797997729619276	4
264.16990353002524	530.4545202322251	1
339.20405212692265	273.4574298591766	6
396.61655211489096	353.41032406215766	2
271.16495030208495	490.9183388643871	3
207.48207745283804	206.08026731197617	5
220.82252065990718	433.09924414607445	2
360.1351271455545	333.90857391612263	2
327.6236986357683	183.16031249780585	2
368.29776695992683	172.33641961193388	2
432.20438770667084	283.1299168410767	3
344.42160129617616	194.10346053993146	2
170.96106317364803	496.4060982198313	2
225.65252675678911	80.14450941795396	2
219.30527245941516	125.215715218546	2
47.7082730261848	37.779158756826554	3
241.80438444196426	431.6259565828518	2
228.98187949231857	205.78884897704202	2
48.36358574703904	8.516008121193192	1
191.00671839754276	87.2890832422302	1
275.1022966019442	182.02967359050444	1
287.87630848109376	176.7071685147587	1
274.03779561201503	631.2491019834453	1
329.39184708832994	537.5730126503202	1
330.45634807825905	512.0249882867406	1
309.1663282796764	520.5409964079338	1
378.35889262507	306.57629236295486	1
403.9069163833692	316.1568014992972	1
419.87443123230616	342.76932687802594	1
436.9064470711723	316.1568014992972	1
153.74918375002312	512.0249882867406	1
212.2967381961254	473.70295174137124	1
259.1347817530072	467.31594565047635	1
246.36076987385763	55.35405278775574	1
257.00577977314896	71.32156801499298	1
225.070750075275	103.25659846946743	1
244.23176789399935	125.61111978759956	1
418.4935163555224	436.179829890644	1
352.23835842772354	612.8602673147024	1
207.5812636186961	103.79975698663426	1
369.1009274627471	549.5328881145117	1
229.59036155219647	259.7801759022845	1
