501.1083606566242	495.98340170715994	5
363.76190499176175	310.77468706577446	4
415.5764450296683	452.8290948834104	8
369.151110987278	175.7997786166759	7
571.2940907197874	474.82276989678826	9
392.60133837535477	417.5484925822576	8
246.9776860219258	81.83419526406237	7
425.0273139177083	396.14094601721297	7
557.9027704950968	256.3506819679816	9
536.0260574364586	23.23181387336763	9
167.94728031828026	31.635916462532983	5
548.2666974310316	103.36219922237369	10
446.4854971964189	214.82990991007335	9
503.201193194849	265.19667356930796	7
529.4703282783089	264.66603632793556	8
419.5904404876312	165.51236410987315	10
400.0681151103379	231.46594669007857	4
415.8054924902221	265.04933376930586	5
418.4325598362467	218.8151863304517	9
372.81911815426645	398.67152370959116	4
430.6443381973866	131.62268674182684	2
589.6704877124682	505.0797581453403	8
524.6184782523845	92.61559446471323	4
434.9464303222329	320.3042386360423	7
383.4126713534432	353.35658302695896	5
461.01104504625334	446.71102832926726	6
556.4666485937206	306.0043264855512	8
541.3756865380783	401.2679421681455	5
241.69016264788206	178.29177932176418	4
464.10066820666947	422.66987894525624	5
426.77464372805775	94.39665478001945	6
499.46353912353516	274.9916687011719	2
411.0833282470703	392.98333740234375	1
490.31724490912023	466.87482093054757	3
363.955873566305	284.5947848090841	5
552.7762926592609	367.88397664845434	4
176.82052986371224	163.02867399759373	3
343.7436228449891	280.42443533800883	4
521.1153940306926	588.5980084138112	2
467.76072979188325	250.2517874442613	5
224.8115271568002	9.33858848717019	3
342.8522110546187	143.0007290400972	2
166.76584995113618	117.90342554722127	3
232.21068459821714	62.33990291875841	3
320.1554840826245	291.84607223133185	4
457.56770636005376	335.1914337788578	3
180.1285765146482	84.56152035355541	2
456.03019430767347	276.1411441548019	4
575.4318360436712	335.92740395177873	4
298.9563824806039	143.15437003187992	6
456.644663327185	482.94082865546204	2
205.62136948439297	215.67174287417293	2
610.6714384165236	245.89523748927172	3
271.4185021101863	200.3782926498799	3
462.03339913353295	40.4007302452425	5
226.18477725175367	153.94176446376423	2
553.5671950771775	495.44097650156016	2
295.5848931576453	367.5441328857657	2
532.2324419734633	507.38987121309873	4
308.02541275283454	195.62070862515276	2
580.6567395318161	434.7357473875494	2
264.567619001812	168.82334180389918	3
274.00292443824605	316.0784251559242	4
342.2130960319162	384.73515600315693	2
214.9081377519957	227.56013677519405	2
571.9618492224793	6.4466336690217165	2
528.7259075289999	462.23828874261363	2
492.30024126092826	393.6579387139145	3
307.98939428533913	404.28424292584606	4
318.00652683169415	389.80121506682866	1
569.4215568382041	47.321322933186124	3
524.3643612447945	53.57673049081089	3
392.8219611678137	54.61986535198385	3
609.0642572771098	611.8767822100987	2
399.1865374472927	254.9652636854114	3
283.3808448223398	163.32540021548678	3
346.86236995352715	69.66078400749649	2
596.4412362702002	24.274012181789786	2
195.38982883661592	123.17127848197376	3
591.0730138684462	110.3149126686353	2
255.4138870717122	283.79705642248894	2
589.8166673645576	395.1938148644615	2
608.7959917148104	62.30602842417617	2
293.9459070351779	80.72761264345276	2
575.5305149629066	172.5281949580102	2
238.23135063436496	132.15980677274067	2
312.55392332646466	73.85408700280995	2
561.84375	57.0	1
233.4760679822477	242.72411369670468	2
503.94194023849553	421.3679525222552	2
270.63708580097205	234.99836014368265	2
533.3357900970403	374.3416767922236	1
403.7826382121354	501.92966602595965	1
383.6813975747157	128.804622833047	1
366.64938173584954	8.516008121193192	1
500.7765064669202	97.9340933937217	1
589.1300886310381	142.64313602998595	1
227.19975205513325	138.38513196938936	1
293.19881343073945	120.28861471185382	1
328.3273460984008	121.35311572700297	1
251.6832748235033	15.967515227237232	1
245.2962688839285	210.7712009995315	1
284.68280551130636	249.09323754490083	1
399.64891242365263	316.1568014992972	1
324.06934213868425	338.51132281742935	1
468.84147676904627	394.92987662033426	1
381.5523955948574	457.735436514134	1
358.1333738164165	91.54708730282681	1
400.7134134135818	17.032016242386383	1
452.87396192010925	3.1935030454474465	1
427.3259381618101	26.612525378728723	1
573.1625737821012	87.2890832422302	1
474.1639817186919	152.22364516632828	1
522.0665262655028	161.8041543026706	1
536.9695401245107	190.54568171169765	1
532.7115361647942	221.41621115102296	1
494.38950052734543	223.54521318132126	1
314.4888332293221	42.580040605965955	1
327.26284510847165	254.41574262064657	1
222.94174809541673	261.8672497266906	1
523.131027255432	447.0904263626425	1
440.0999500409597	359.8013431204123	1
599.7750985303295	183.09417460565362	1
491.19599755755803	191.6101827268468	1
468.84147676904627	179.90067156020615	1
334.7143520379756	29.80602842417617	1
278.2957995717316	37.25753553022021	1
292.13431244081033	11.709511166640638	1
368.77838371570783	223.54521318132126	1
361.3268767862039	245.8997344994534	1
347.4883639171252	224.6097141964704	1
501.84100745684935	357.672341090114	1
478.4219856784084	372.5753553022021	1
377.29439163514087	79.83757613618617	1
516.7440213158571	529.057004529127	1
557.1950589331642	545.0245197563643	1
611.48460941955	526.9280024988287	1
588.065587641109	566.3145400593472	1
491.19599755755803	516.2829923473372	1
465.64797379925886	502.44447915039825	1
439.0354490510305	492.86397001405595	1
457.13196587982577	519.4764953927846	1
515.679520325928	547.1535217866625	1
547.614550023802	568.4435420896455	1
527.3890312151485	570.5725441199438	1
475.228482708621	555.6695299078557	1
457.1319658798258	180.9651725753553	1
366.5936426454133	462.68189550425274	1
260.5853899609352	374.34167679222355	1
142.4303583230273	113.73803159173754	1
457.14235848007166	562.0646415552856	1
458.24661111220166	363.2991494532199	1
