229.15108208345342	238.65597941191407	8
528.1331725442885	344.7526555568677	6
455.2638313467511	361.56391336136505	6
119.35652901802169	275.22174934781447	4
121.68078114275541	225.00884242947433	8
362.65686415623725	337.9876055437682	6
198.69619406589416	269.5779336770815	7
21.40935260242598	150.17158939186783	8
485.10221992562515	447.55677957376713	2
289.9156764709868	284.5572639603462	5
46.33011060773998	180.40704431513046	8
419.08530788874486	331.95716815954904	5
273.7850298806022	326.62477831102177	7
81.00110844534665	259.9184083187481	2
526.1435538984831	404.11223576096313	6
256.31926818592103	260.8219707567546	8
440.74193655662924	382.8546645118444	4
549.1846416666126	430.4860039297719	7
488.6109197777133	409.70632142489444	2
460.826363695504	421.66414173517387	5
19.341611534295996	48.034518181175464	6
109.82070349562892	366.75382746051037	2
136.06822953097588	252.6156331743345	3
42.96888378857173	72.56380393803931	6
242.21568446325853	352.21589767947705	4
272.1786378673873	371.6779108114877	3
157.30915220143427	305.5395416887969	6
38.08410043831521	238.9560508270251	6
350.18424039779677	317.0645200486027	2
129.4257392085891	167.30105966091128	6
174.59970646552333	103.89944083825858	3
77.91042998737534	157.1864937601956	5
276.2010451912491	199.97104926310493	3
186.0257812544123	215.86284613086877	2
593.8828878540297	395.6811214000734	4
6.980160298513718	189.20434920489794	2
148.62335936610611	265.65050410722995	2
591.167570531856	293.4214387609244	1
110.9569131869149	44.87752941252847	1
433.9530532053421	350.04811664641556	1
261.6896425930652	291.52272174969625	1
311.234375	396.0	1
53.234375	226.0	1
427.234375	491.0	1
208.234375	374.0	1
246.234375	396.0	1
424.2169474544985	371.92216616905176	1
