532.0337685778482	366.16074326167757	6
198.01437538255118	115.1330315552691	7
201.28239906126848	237.04891147845592	8
207.09174231965636	310.74334513002	2
425.13775123547066	235.11691360888264	7
486.2985311534352	406.41319497158383	7
331.3929978538894	137.628277275611	8
359.61550496488053	163.57712203794654	8
596.2524085962277	208.8309436592145	8
590.1882563851557	156.94573143824928	6
306.3529958042445	328.0378240100679	8
384.5862805323735	428.3541197301038	2
441.30965128343826	291.2195446995669	7
514.6886513052867	424.37728881366365	3
600.6098897762297	410.0323153479601	4
492.2720568590702	366.91886497051553	8
551.6709872223994	421.3244432304717	8
577.9300392410879	235.71826046478526	8
45.89614450598382	89.85196647850248	7
259.94266287561027	324.96940336051205	9
481.96246547125986	435.864939449595	5
521.9322983439338	291.67177990939274	8
398.68711947881377	132.10139958060844	8
383.17139681636957	245.06961815982814	6
470.06256838032965	302.91645752230477	7
539.605348334549	340.4606833247228	8
585.8071490293366	371.43225880904754	3
249.39531114722612	282.329802186718	7
219.1971056228699	285.22394925071194	4
367.8108787528789	115.14988202950641	6
486.6684720133438	231.04614738415893	6
354.04065910735926	326.84267122496544	6
340.1502015000405	224.8345913669027	7
300.219535468746	15.761613780584817	8
150.2435183225807	137.3355901941619	6
517.2000409351215	205.4554632852368	7
203.9509402882422	25.150663664349764	3
252.5390625	160.0	2
207.59247199216145	206.93442851481078	6
606.2414127891038	246.1209329064032	6
466.5390625	235.0	2
228.63031166465063	36.71894194571033	2
279.0390625	187.0	2
490.00968982627074	39.11831583197977	4
425.5684498509913	178.62046760451753	2
360.4456225880381	367.75064346751776	2
445.87761460222833	240.10605090650358	4
605.1563536668492	362.61065979789976	1
379.30558934776997	394.3778441264285	1
195.43448466526635	166.74216281895505	1
461.234375	315.0	1
241.234375	306.0	1
380.234375	319.0	1
434.234375	374.0	1
521.234375	378.0	1
368.234375	222.0	1
141.234375	177.0	1
353.234375	254.0	1
436.234375	415.0	1
242.84375	21.0	1
268.84375	214.0	1
