134.3317823230787	124.52038244223759	4
403.7792699141505	424.3259354856647	9
298.01715227452166	333.949138516629	7
508.2113195405693	442.12165133056504	9
323.835844739408	255.593119553981	9
373.4950909697561	438.46041198089245	9
411.9689337256849	120.39549141427871	6
417.3091986536648	463.8744173812529	9
205.71201460987072	240.59760677467926	7
574.1216849557072	594.4676386613708	8
265.7800007071693	323.18202334845273	9
475.8884852650014	14.486992689968005	7
266.8136753790112	135.99250532070698	8
585.8856422574268	75.51353918041535	9
441.3572647161218	433.80981131164776	6
472.9277699149761	391.784886565173	7
495.8034441586316	471.58618486514	9
341.9278679295926	409.9818464030625	9
534.9132548230093	516.252730245255	6
361.5440801719226	248.99574892049486	9
378.9182439077115	58.4024311283717	9
315.5302991017841	456.3767237919302	8
388.35516173050013	158.0854132893815	8
478.38335464389365	501.42418308368883	7
339.37834983473124	312.6804161176428	9
537.6333850764912	110.97310209375141	6
357.5180328589713	276.1303295318979	8
600.729350763944	37.70565016825656	4
345.5554272969121	217.2533529386422	9
533.678153869835	556.2680620843945	7
394.34592410013977	197.24912566462697	6
293.5181871986946	255.69049275643306	6
487.8770447657177	572.6684393752885	5
521.14719473789	607.5476996460994	2
430.9778423092379	288.0050916534133	7
451.34956580961614	100.64262557745587	6
109.13429397284264	28.316971841821818	2
482.28892458768416	298.68822126480995	3
533.2534466304853	399.3647868902908	3
344.0602777883084	508.6567164179105	2
277.4471809061167	305.1214032928143	2
504.4292971217259	83.9658587347862	4
351.5005547642445	143.75548337467376	3
310.8564022596323	505.1046808023741	2
401.8737837138308	148.86559470687797	2
461.34474568823083	68.78396111786148	2
238.50033731833557	26.50206561360875	1
270.523663650105	244.03985419198057	1
223.234375	438.0	1
597.234375	366.0	1
241.234375	409.0	1
227.234375	345.0	1
112.00204279871504	89.14602246499462	1
229.4650347064479	295.75503923680566	1
595.4881077046513	329.31589475303895	1
