394.1537186931242	122.53405110468798	5
455.7950357989614	140.606770604109	6
491.6771552480245	320.88275372691635	8
496.2624778170823	587.4637762334418	5
318.64617004584306	349.69572700169374	5
553.6868730378604	374.0267432091851	3
515.2240986958591	179.13728942817048	7
577.5677610907946	241.66013238939317	7
354.2321569867437	518.5669491633164	5
307.85892312117187	276.69952394287316	2
406.6855384135392	82.49382984053607	6
224.80606840524047	222.91355352226248	7
373.85984068833386	349.3655373689828	6
262.2954890153022	275.04895549844014	8
406.4148287512353	485.93307047919427	8
329.70247341873255	236.94351329648185	4
339.48019260944136	275.3589048557436	5
453.61073527748675	345.0425724540697	8
434.23937200702665	168.39613572931188	6
285.5752141514952	288.54749995139446	6
421.4518235416894	401.77043531062174	7
426.89839764031916	125.61120988467584	3
390.74902171115104	14.265919049585126	2
572.4751245603546	419.7772933081381	6
368.9758274711274	293.91766737763703	4
371.79627533887214	266.8387776958508	4
326.5502207807029	433.7841523349741	6
441.29208962780115	96.89716542363513	3
446.48179323125237	578.7807914252497	4
523.7557789773648	263.2381266981814	5
365.1257948349946	241.52114253710448	2
608.928659342764	437.0818659984016	4
588.4700960490516	345.6925231027724	3
181.55933191876534	274.90651661674497	2
342.353680599809	393.0621414317236	5
476.3518229731933	447.6266585226408	4
565.914707021067	334.3073226350226	3
605.2421875	571.5	2
568.2538416072025	557.437970838396	3
526.234375	390.0	1
315.234375	330.0	1
341.3125	13.0	1
182.18345307970657	173.36767922235722	1
436.1615584696021	457.1606318347509	1
613.7791645215781	153.23035393983812	1
320.216994693198	270.58439759963073	1
551.9925741018127	353.74740968916274	1
454.01217749466707	608.2419490338841	1
341.3125	450.0	1
318.3125	54.0	1
277.3125	418.0	1
