30.285957293374736	10.012203539794339	2
447.8161249741629	225.26611169419414	8
487.18600752618386	276.24541576742615	9
596.4732735973017	258.7741697468931	8
360.3891553193365	407.24184695890415	6
292.5243368063432	354.5319010667395	9
536.0796160084733	367.5791832664768	7
312.8835150399742	294.60229714655105	6
468.1576447724833	411.87991005725917	6
224.0348951392159	193.0382693751818	9
578.6482391048191	357.5896482105244	8
448.13665429847487	59.88853087268108	3
324.82815113370407	228.6844032880497	3
278.97375653650334	59.38481536289029	2
41.56170574503243	136.47882206012574	9
267.5035791154139	177.30669996669616	9
268.50487273177623	299.18172873571916	8
173.31107073872906	25.859948734154756	5
213.00319833192486	339.1335935832833	7
535.4942094829039	400.4531859937056	5
429.44280423229185	263.69349852161236	8
137.4624616390455	91.57082412469393	7
26.54462883178988	87.33031028958683	6
464.9264079126787	264.81938257516384	4
113.96339082766386	60.826170630496236	8
610.3716351849368	439.67200813515853	3
202.17768862520148	242.591995430431	6
376.20653523309034	133.7530767933045	9
88.62134706733355	106.97329408907616	8
86.56778180902413	36.386024840506636	8
247.84344034351074	348.1856191358928	9
250.59225886165194	274.60281659885663	8
97.1511282373949	201.06961581573262	4
59.3374119523757	176.54323942019892	9
379.1908212837904	341.64084727332283	7
341.01888977638424	263.1448116304242	5
140.82169018971592	127.81490418545303	7
476.478009620487	152.5754258264626	8
94.08266736403891	139.56786660534013	9
452.40334699444065	437.0472411184529	8
321.81297056132235	370.72435674271424	3
404.6834139462028	441.7145256352311	7
437.28263756922286	480.46867383066984	4
306.2908838113279	30.27796722206854	7
299.4857526236899	246.98132946855492	7
177.89496079613656	197.1705316085044	5
259.578125	46.5	2
224.42581122779734	226.31507032891028	6
492.874519785782	507.40808390966225	2
217.47801482383403	45.124573133985706	2
427.95867125285264	206.9482014451079	7
166.03323860771633	327.45506069389046	2
521.54296875	394.75	3
107.7421875	22.0	2
441.89147758626456	402.9491950428019	4
183.51046501615747	225.35531500742277	4
187.7421875	356.5	2
146.2421875	5.0	2
394.234375	473.0	1
134.3125	300.0	1
474.3125	106.0	1
464.3125	380.0	1
89.3125	184.0	1
40.3125	61.0	1
387.3125	119.0	1
355.3125	117.0	1
304.43397618821325	-89.192642121273	1
572.0668870817811	532.8086779349729	1
166.0696035250817	260.2579563301298	1
