73.34318973877002	231.18646154251132	8
603.4037480755665	34.2058883589299	2
438.0942282283287	154.69490196393198	3
144.19281981752175	369.11747161433084	3
240.48767124440582	352.3772716075422	2
72.58804125875027	9.603852300415227	6
279.6344155626151	171.03537183842855	8
466.5215120259289	410.22008698367245	3
460.2636905813415	481.1289006534136	8
170.01051738232889	333.74193947986356	10
608.3782736997532	355.30885652537415	6
458.32843479666053	357.1547275872872	11
401.13214919559005	160.7206475641218	10
21.102130753390377	128.3361415970484	4
303.1863999634247	365.7000072911856	9
131.6879474299783	149.3731956874655	5
297.0060566027655	422.62410144575404	2
548.1679886574018	426.5243802175354	9
177.21171475176237	377.49081894384665	7
529.4071543861485	149.95549826778193	10
229.04665666908159	213.40439965454146	8
72.99160924607995	192.02506109808266	10
494.9232274663608	387.19928216950547	4
414.0901298078454	370.1474483667565	7
436.69149418548056	415.53380235073587	3
35.72372019026024	97.91199257917548	4
80.8315299923672	137.7765788334599	11
210.72888820728906	131.44915455634845	11
395.8057203054131	488.69154862470344	2
230.45332496354737	268.1442257509619	9
102.09576961522201	206.4689250070625	2
202.42868878311822	346.32292802253994	3
448.886697636627	394.5701446219929	4
391.8481891585988	395.5084441407423	7
259.2622206973132	120.27253404312877	9
376.77049669842654	430.05202213139773	2
242.82600100723653	322.87135197784005	4
595.8485617031013	279.72582239888266	9
542.6942449675571	185.9920284231669	2
431.97365955069245	191.3050913634234	2
249.17310206064485	267.9834961168307	4
549.9774535949125	176.8042422358279	4
310.4664936421743	415.78790300133807	4
100.31475363685414	216.95010151491488	2
490.9528206990732	377.50080383004195	4
68.51228017487969	238.02701676719798	2
221.49400034019283	165.79169881677063	2
167.59261587929294	199.53715078264315	1
411.234375	445.0	1
424.13243519202274	142.64313602998595	1
614.6781123893373	294.86678119631426	1
244.23176789399935	201.19069186318913	1
178.23270651839317	367.25285022645636	1
319.81133817896773	432.18741215055445	1
383.6813975747157	416.2198969233172	1
42.7827797102296	137.38975226957993	1
29.148682435224885	283.1697184182182	1
487.4641062180755	208.70657024157563	1
549.3419323123276	205.56024003692877	1
