93.51363285596	242.667590514106	7
544.267443435443	503.56907693423875	6
343.49759544246217	281.9365173847483	7
326.21779065498214	192.97279614829094	8
174.75869333661797	380.94798893196815	8
480.752678612257	430.697805812037	6
291.71221310257	386.1646210547	5
112.85187996046989	308.568201778072	8
404.66689753456603	254.34191172015642	8
398.6607472513786	409.1639311050885	8
151.51997511050263	337.1753107084526	8
334.15216716869384	463.24039655102524	7
551.1121234749196	413.059862178157	7
377.01595858042845	384.1219999569597	6
531.3035737501107	393.07452624669406	8
222.27754643435657	391.62407810106026	7
354.5647921945433	418.286907467064	8
313.7070787323881	336.713109709186	3
78.8033105583392	318.0566355605818	6
414.9828864059002	336.23324193962816	6
588.3926607823643	524.3041566685897	5
558.9423983646269	470.65117710416985	3
81.51995590243632	186.11693904551953	2
381.2824206849351	357.21215101237397	3
219.39407465282778	431.40129461277263	2
187.85059116440294	82.15641304978317	4
370.0689679417094	514.974688413602	2
329.777031159686	504.1224413632966	3
524.4688835511275	266.8254983251627	3
384.7479151206496	329.1872699038421	4
610.1709816931178	366.0230804739191	1
537.8053884642467	355.5353131250962	1
612.2685351200416	470.90075396214803	1
334.342706052638	323.02323434374523	1
