541.7857763526213	208.4379030378712	8
411.83055371718785	415.32108209778823	4
403.14099917277537	62.422591921737116	5
346.3261340704702	254.0625168523667	8
215.79647915379633	310.7120581235021	8
122.31235103950124	202.65513844005156	5
442.44434428859057	359.55444294746434	5
287.9723594323215	311.20020737834454	8
581.1491750350804	161.96517258317385	5
311.6687763800885	75.52316071150433	6
491.27405175604724	459.19380739279154	8
173.59899822901133	133.79566856205076	8
461.6509975130898	196.2011140927511	6
211.73850711281645	124.37044398824668	5
360.2069517211095	73.66381029606123	6
284.32193153381127	126.81653200621996	7
281.1193416294538	159.39498190113852	8
334.8056023324728	151.8929627744481	7
316.0600751853505	262.91333501805354	9
487.0406283507238	156.14946604934977	6
233.19115338620537	164.451752380516	8
413.5369548189224	120.9211833201803	7
272.57844989167137	201.5512570981705	8
46.37373630867066	202.69377178928897	3
333.6474006608021	33.607729550123125	4
179.06419115964985	331.7698510786224	3
229.19901139832888	420.0081453581207	4
211.34193428221442	222.40791906517717	2
11.794765800506973	58.61728705260823	5
201.66730737879817	378.74608416211504	4
371.5956305226717	509.0440958938465	4
594.7749707237328	326.7066363623977	2
514.8029940827507	508.62626577167725	6
66.1338337299357	164.5515219193105	3
223.4535948758599	202.51511126757987	3
252.9333337318941	20.76357452028173	4
115.56575400282102	314.38483286399	2
588.839993103968	272.93601476927626	6
36.055848377325894	246.84101665513305	5
572.6804434407624	508.19394480053484	5
336.35449866676856	444.6082839757448	5
606.8873483593259	298.9875059258072	3
472.0846224934594	538.5160042761087	4
81.00249041687758	253.69801961258327	6
292.889966553206	423.71819373779	6
348.3751314258313	478.96986950834	7
466.56204865363156	302.91061650858114	5
432.2898990722622	515.4105329233823	4
35.195299064729994	140.37611045185974	2
137.70316850607057	352.58002737256635	3
395.62015161653375	200.92123566157656	3
384.0287271773798	23.585320818587476	2
270.8289305132314	402.6025306884002	5
545.9946336090328	248.26897368747257	3
68.48470858612265	16.40673534727383	2
313.7805571476405	381.1861919787035	3
517.7968147374891	407.58868492335944	4
442.98686146745973	319.43774592698475	2
499.6740589317852	365.3557585631711	2
418.07861395874295	261.85721826458496	2
193.89662127989797	238.40440878731803	2
154.469801670925	70.81532417995899	2
181.71944902926356	174.96132798600976	3
572.542629038051	469.4444416726401	3
422.50883520018726	459.66351838397225	3
100.65450798202659	56.153021871501565	3
95.171875	156.0	1
12.171875	110.0	1
405.171875	339.0	1
588.171875	361.0	1
535.171875	360.0	1
170.0366741262768	205.3910085054678	1
133.59633726598744	26.50206561360875	1
161.20265306923696	345.6311057108141	1
513.4592427187007	302.5652490886999	1
192.14543769819505	9.24586893634951	1
491.2344697596424	304.3821903556979	1
60.388154851742485	63.2663563389981	1
584.7821405806237	90.935386472062	1
236.94291386598894	249.04413008957007	1
39.306989596310075	79.07723070074891	1
218.49689426748557	363.6729692122634	1
129.73348446577654	3.132432915464549	1
358.71875	160.0	1
76.96341765005558	301.51410564478635	1
557.4998113419523	544.76329614394	1
561.0770053396587	376.6351791812897	1
381.02490745510187	365.9035972475035	1
