253.9598741681553	30.919076549210207
224.14505310064584	48.58712029161604
249.54286363963539	91.65297691373026
228.56206362916575	126.98906439854191
302.54698998187445	141.34434993924665
319.11077946382414	47.48286755771567
396.40846371292275	24.29356014580802
433.9530532053421	50.795625759416765
509.04223219018075	16.56379100850547
495.791200604621	49.691373025516405
546.5868216826001	35.336087484811664
543.2740637862101	66.25516403402187
534.4400427291703	112.63377885783719
567.5676216930698	121.46780072904009
579.7144006464995	82.81895504252734
604.0079585533591	171.1591737545565
461.5593690085916	88.34021871202916
367.6978952775433	164.53365735115432
414.07650582700245	145.76136087484812
400.8254742414427	214.2250303766707
336.77882157790384	221.95479951397326
274.94067417862493	220.8505467800729
311.38101103891427	310.2950182260024
479.2274111226713	208.70376670716888
504.6252216616609	279.3759416767922
578.6101480143695	194.34848116646415
548.7953269468601	339.0055893074119
569.7761269573297	357.7778857837181
473.7061479620214	282.6886998784933
467.0806321692416	271.6461725394896
492.47844270823106	417.40753341433776
584.1314111750195	525.6243013365735
