177.41997200159005	84.70014168872919	4
97.59297528827418	123.75955775995064	4
582.1026647233327	408.81869221265697	9
503.2566323178137	279.90304136070694	3
566.1442804804436	440.4812336010283	5
296.7077347970969	401.4251876803962	3
265.79784917653546	50.492247754994196	7
313.6575015773175	102.75392343368452	7
291.43656477328193	259.1986420370954	10
416.16620519837477	305.2170549233345	7
266.2524996891898	297.920336126154	5
460.75915479747687	277.5895419831373	9
110.39284301402293	200.73045676748328	4
338.8789027975749	285.18233880206515	6
611.657519340653	273.21217135123936	4
461.4337147749716	442.7371766932297	7
316.82159091207245	270.04559524645197	8
525.5856981680388	98.35374769082588	5
298.83738716894277	78.90390710941097	11
139.50503620825765	174.05995921231894	2
205.3669984761505	116.35314254971445	10
479.18299740520234	412.30163467626846	11
122.06205121399157	216.42692408356987	2
391.22341212296203	160.28851590811166	10
387.1558830180287	356.1625678400502	4
345.5191353821683	79.88504918241055	11
392.4942478944123	219.21192348554368	10
284.7635754977525	198.57323488135165	5
538.3416948489028	370.7067347093048	7
529.637700203072	286.73638314679	8
482.8807227434364	369.584539584103	10
291.2142197985692	6.9939987602554226	4
286.5971723059099	223.31807321678193	2
117.59525956879803	41.867791524780536	3
520.8622331573567	483.07843109932037	2
153.6404192017592	331.3734307414652	2
273.4083241366237	359.69447144592954	3
313.39872414185857	34.729769137302554	3
191.11394649321667	26.015493038715952	6
265.6087464643108	110.79158721135852	4
284.3629231508837	162.7791616038882	3
534.7329562324552	169.52746051032807	2
559.879735185885	252.33268529769137	2
130.59035318471038	10.483004375047889	2
530.3125	337.0	1
314.67971074539594	46.13790911376806	1
341.1958321064238	13.251032806804375	1
80.59221092374838	23.189307411907656	1
65.13267407392865	44.17010935601458	1
383.157432127363	316.92053462940464	1
469.2891374335015	168.95066828675576	1
482.54016901906124	226.37181044957472	1
483.64442165119124	195.4527339003645	1
524.5017690400005	194.34848116646415	1
548.7953269468601	212.01652490887	1
526.7102743042605	235.20583232077763	1
500.20821113314094	250.66537059538274	1
150.16012674793714	70.67217496962333	1
99.36450566995805	61.83815309842041	1
475.91465322628136	459.3691373025516	1
430.64029530895215	453.8478736330498	1
416.2850110912624	417.40753341433776	1
606.5330374682968	329.31589475303895	1
146.234375	130.0	1
362.234375	246.0	1
537.234375	385.0	1
553.234375	485.0	1
55.234375	224.0	1
34.234375	190.0	1
139.234375	85.0	1
258.2078953392983	229.97022608621177	1
167.58564739740217	191.81349032163862	1
233.16753735535335	348.01762735785985	1
