291.13236790035	179.17041083243578	2
609.1579424401973	147.84036536503208	4
376.27906930614836	473.645738617117	5
419.4148529694453	231.31717503908686	5
522.52219473789	382.40175411601786	2
485.64421389557583	142.29242960455457	2
544.078125	385.5	2
559.827737818015	548.9068043742407	2
558.8270105100114	367.5359286044007	2
450.62794023515943	507.75731874170424	8
381.3893511136749	309.7442744149346	8
437.5881555082894	103.85780481845991	4
612.5708167032899	465.3284351438683	2
264.59765625	311.5	3
593.1018314374426	530.1657524073103	4
597.6144616808497	372.5976727129963	4
406.7906987840236	424.9016771811048	2
332.05300022806307	179.32301123249732	3
580.3147776446303	356.79204492998923	2
470.18449674880515	229.2065621513516	8
534.2660783051995	469.3772118787506	2
163.9885361119532	50.4137572109033	4
313.5831296128342	112.10973350927134	7
410.54860483044115	458.9594703264858	5
517.8661421021177	75.74078704416064	4
537.7087482436746	289.43714997691444	6
352.77592626027615	210.1766425603939	3
588.8225927941205	473.6130644164138	5
553.1611281131784	322.2436144022157	3
492.99269820081156	455.8242711842573	4
584.9830338574117	248.39002154177567	3
508.7721992563562	564.0996336607175	5
435.7489484831956	278.01750664127184	8
599.5233248585483	607.0666819324478	4
215.53105366266794	65.4572626557932	4
513.1855551569248	443.34716879519925	3
317.20480817058206	434.19214524761304	7
457.7446471397358	163.57752173484562	5
544.558738585971	341.9993845206955	2
540.7185113671542	101.60600536094086	6
414.4206095247818	43.827369945303715	6
553.1757508449093	505.3897907370365	4
340.92391010619485	448.87275875481373	3
439.54673784268306	315.3896753346669	2
430.2287349646087	73.63347719158426	6
487.2725201740104	104.12080797670569	4
498.8556826780772	178.44801123249732	4
204.2062236740394	28.41635669560023	6
489.95187049376057	397.0473524109774	4
521.6885495099087	40.028190547903016	6
565.7974769360474	580.4583331203559	3
456.197213671374	405.4904363480175	6
525.6861989980525	525.5484709450584	7
587.5795757038287	43.68418377777909	7
494.555011898167	590.7551069778564	4
591.6806029955947	497.51130943222034	2
485.5233816458641	372.42954685336207	4
544.317834612474	436.24077161511156	3
385.23444793143324	63.94506847207263	3
477.09512458300105	73.62556457337725	8
559.7099048266402	231.15833205108478	3
506.83578219299716	323.4812387724775	4
613.0716141538453	257.4262539935255	3
483.10270104078484	296.6597582628005	6
585.8227997449957	306.5192391658578	6
446.04961797774945	478.5171470673963	4
234.3970876313075	79.70021783994297	3
456.7009490617272	118.89013694414525	4
361.3789828522712	118.66169242575579	6
397.55460619681895	232.45863786736422	5
430.9282954593213	197.5912832743499	3
303.3030863974667	41.4267579627635	2
559.3423823557526	16.75260423171749	8
511.6807577436567	487.9381443298969	2
389.3335818780678	168.86571010924757	5
528.5465830946209	619.8403600553931	2
457.45170185879084	13.211552416097199	4
221.46264287612985	117.96636020926297	4
555.6631774369039	208.01247194546144	3
457.7155413125675	196.79460830695555	4
413.9858056378712	171.35336205570087	2
382.6271288795094	343.99969226034773	4
325.046875	224.5	2
314.41594849686186	55.58516694876135	1
272.06349356254236	40.988584218905956	4
246.3299721649414	266.8781359936536	4
214.23855852359486	144.4674565634574	2
193.4803845445645	199.53317818125868	4
324.0934336724714	367.4383751346361	2
237.7058159907263	322.4872288044314	2
379.4401047314997	185.63348207416527	1
611.2197584065798	631.3635943991384	1
568.2199131546419	628.2172641944915	1
419.29361984305194	544.3151254039083	1
573.921875	521.0	1
447.921875	387.0	1
416.921875	383.0	1
308.921875	278.0	1
263.921875	274.0	1
342.921875	249.0	1
440.921875	139.0	1
203.921875	170.0	1
277.921875	55.0	1
255.921875	39.0	1
567.921875	462.0	1
611.921875	170.0	1
559.921875	120.0	1
389.921875	439.0	1
382.921875	211.0	1
188.921875	86.0	1
370.921875	388.0	1
355.921875	355.0	1
311.921875	172.0	1
309.921875	213.0	1
517.921875	101.0	1
