143.8171543056314	210.19208994863914	5
510.04978580175134	253.11183931097003	3
322.1864209131626	219.77120745776517	8
339.04736722011023	311.9817100142526	9
586.3360584420914	494.9343073632769	8
392.65925458833965	461.7036856521806	5
454.9143251491813	491.38847924821107	2
384.06144977728695	362.96517257535527	2
614.9823582551151	420.5725582002035	2
110.58704940353084	268.6396046177532	5
483.9211148965385	474.82016874651214	8
438.4388145480588	440.11857856087545	9
115.8010042289512	140.18706151068363	4
41.155745502545585	132.77669712789793	3
83.07220330483628	106.15239574184439	6
171.88890742143022	392.60385569305583	6
375.17444383771215	217.91785100734032	2
571.1953976700393	237.32324551820312	2
218.1302096426454	229.3410524696107	2
294.8373946138119	157.7558085859363	2
323.00484114875513	370.44635327190383	1
221.87724710548758	370.44635327190383	1
