438.748173185022	159.59211628929694	7
601.1443664248691	299.69834760837745	6
556.5441441528685	327.8590122870131	8
502.13775915834276	594.591523747004	8
458.9519983796455	376.40343575219504	9
530.2899506641415	559.3729845663466	10
423.6410254215922	62.400748441922985	10
209.58977489210287	227.58517874744706	9
405.0026456328176	275.4991191770341	6
223.41711911232645	259.68831519752564	6
412.63416174139394	378.1617564162028	7
242.19463785549965	435.6697552679964	10
442.3731756857897	230.91615972972744	7
513.4972702843511	437.89243236058417	10
344.6253951733943	555.7823717578812	9
214.75475644379247	163.79523079623573	8
387.09056963604405	516.9557259549433	9
491.8716076703221	623.0909609314049	8
179.81172721945796	141.04171866690228	10
375.287460796686	594.6449521043346	10
417.57903382934137	560.6083716117228	10
497.39919850189835	478.77730063502514	10
399.1230633834284	88.82202149971201	9
527.4703476699776	522.5786203214459	5
290.34838186975406	220.13337167172392	5
594.9954249124704	459.34508548181884	5
236.4018527723336	201.71083794505319	7
452.06558382749006	471.51001274310346	4
346.7902875533995	427.7331133843511	5
136.12332542891235	181.9553334374512	5
406.1177271266702	458.56028242442517	5
131.95017937660438	143.5101556814675	6
560.6677279508486	537.7920543903638	8
533.220502002479	204.9139075046511	5
304.20438578364565	89.83659254861516	4
345.31126447423156	486.32668764377786	8
95.73555763791651	236.09533108798544	4
103.02571325334524	195.60041643312314	8
300.06902756507253	162.81112950148844	4
288.1700606569126	122.87134288984707	6
325.94230607278774	114.55562283583765	8
349.39877888959165	146.18583207441011	8
233.38947297601754	105.94315164766516	3
350.97611536822467	217.12697155283246	8
559.9466154758978	279.0225058045064	8
243.2681316843005	400.44698051806836	9
174.74060575927695	183.441716676019	8
422.47774080502387	297.99806101546704	6
584.9440359464583	578.9632256998831	6
551.1910837108126	211.55625759416768	3
462.0230191730094	596.1983203845181	8
393.0239858597987	258.15221572549626	3
128.42839589359082	340.02377288813665	2
472.87214271276406	309.74624908044143	6
321.8502596469479	363.99025410659016	6
545.3809366582655	90.56470906642951	5
572.7005858425763	357.1050456255927	5
591.5927637821328	333.3286659486075	2
128.88627517724558	168.37775042314203	2
503.2528822588012	170.56337213866217	5
300.27904113574454	390.18572020448664	4
517.2101462707988	338.2997357420586	6
546.2733805966736	356.4510714050541	4
604.7663835021965	48.271851983292564	5
419.4642063617167	482.54765627376844	4
612.4292651924795	387.94072194852083	4
307.17062485401516	9.925344220765457	5
496.44711669420724	26.617731532819672	5
285.86684124558235	61.33827893175074	2
565.3500658897308	439.9288226072191	3
388.8105450121807	409.44869592378575	3
285.9983575713651	246.5381692961954	4
598.1554876347993	421.14887448776045	3
571.9937315096345	474.0812079758207	4
142.89046144959462	331.61368395399893	5
607.14135278275	138.4118304869258	2
260.84444464400895	10.460171193218327	3
419.3014016312594	436.2227081055755	2
426.52715509601137	415.54544744650946	2
385.3338867823224	434.06145556770264	2
565.7343645186625	218.61996814556892	4
577.9089968310237	37.85191347904788	5
457.0203441065498	13.236005877978725	5
93.12823896164366	113.6682944683491	5
268.22183134629097	34.128767765110105	2
355.43087292331455	454.641964704045	2
44.27354188359039	104.28955177260659	2
212.7060580829564	93.96704669686085	2
219.46406204267294	134.46681243167265	2
230.89363652206777	56.783205483360206	3
443.1171875	452.0	2
299.6171875	77.0	2
144.98647552820984	259.59709186028624	2
254.6171875	37.0	2
539.9124688109719	303.08113200703656	3
93.45591427352045	10.185282977454051	2
490.936837298613	235.06591046720524	2
289.2151569663774	552.9957174830337	2
221.47794645823524	447.6359635102288	2
422.60774742152597	595.8282043391291	2
549.6075152994329	467.9747653485152	2
434.8516309888355	347.0969379904601	2
289.46164940323337	509.3771349438375	2
474.2540001878806	395.81635636251735	2
448.65936781998516	209.75534697645793	1
418.24484312959004	97.53623634405294	1
459.14713495460416	267.4380673949839	1
522.0737377623182	477.1934143714418	1
243.09913198145262	512.8518233574397	1
260.92833611030494	466.7056470226189	1
286.09897723339054	321.9744576088629	1
582.921875	296.0	1
176.921875	89.0	1
193.921875	7.0	1
258.921875	117.0	1
554.3165901075099	49.691373025516405	1
413.3125	421.0	1
55.81509267654297	123.48211775730127	1
179.2972075083223	12.774012181789786	1
460.84375	150.0	1
