140.78826020692483	58.578381299556995	5
258.67215007133507	227.65419173951997	3
443.2382715040193	219.2328960850322	8
362.2263798745117	25.751032806804375	2
477.7148653613627	544.6491722093881	6
591.990892633592	241.32849351976662	6
485.05941020780733	112.34593338236954	7
521.5477019068952	332.77489123875023	5
336.5274746050169	44.532928311057105	2
319.1843264322205	180.92963200499202	9
534.3394279641433	396.63927606435345	9
266.40170746588586	55.437172109117775	6
240.41206831164266	84.4635165336315	7
366.4602710828743	405.2081512810402	8
553.2267119127988	75.6623205057281	8
554.132313249764	471.86707881370467	8
400.7952558058456	70.56804418652597	7
414.63896445092166	202.74959432857426	9
308.66472689857255	372.7699738946853	5
238.3011621109535	39.781735427728016	5
399.19812383149247	332.1121215974153	3
422.07349060180053	482.1193082422092	8
180.31148571188982	269.98018237144845	3
443.8820430804989	156.69454613157916	6
498.0116602610774	582.7431962829223	8
609.0451242430836	449.3726084866282	3
475.0400443845961	454.9074808614825	8
295.6222401073701	440.082400102008	3
532.657493394538	438.75147593099206	5
449.5250568413012	494.7665449903551	7
334.09382227410254	104.25601088207497	5
392.20749491220477	274.6761860110505	7
343.60475768946617	238.6206238743257	6
206.0023072642215	25.648046261888958	3
563.2420195659913	507.14963217548745	3
490.98648640454627	433.78767594949204	6
328.161347851453	411.44704889034165	7
501.8734767494521	522.5582226693933	5
181.43637008694952	21.397298746393645	2
307.81377752965136	10.758488030003553	2
234.11581157398217	245.17757954329937	5
361.7469651103719	56.23566315210566	4
503.84375	110.0	1
433.487962568129	353.32772222696406	2
595.7829949556901	341.01967083555377	3
572.9653084084339	125.75152703898246	2
558.8167731194312	577.898280085383	4
211.12150423060316	266.80327459240266	2
468.7533420579535	13.769497667344016	2
503.33731994508037	325.12561996165994	4
259.8963863268866	433.1235333784755	2
294.1609629246445	411.31639237169964	3
433.1698663148435	172.9917010232818	3
508.4437258358886	13.691951393529237	3
556.1241250928094	526.9820661173824	3
361.0603501169115	430.8683208071656	1
118.13680041616772	81.71470230862697	1
451.6210953194218	38.64884568651276	1
328.12090916853197	155.5775014680726	1
510.33112772121774	206.9496756877656	1
421.1483884054832	587.6913442182956	1
194.76143475784937	336.15030194587337	1
119.171875	106.0	1
