610.22554877087	585.6707282609661	5
472.05918506289316	462.4095879774051	7
598.8149919321402	416.7079407794703	7
450.86059322266	197.9903222898094	7
428.0643646489598	40.03790546497717	7
459.69377757255654	343.7553330805397	8
339.47022159515757	275.21447131939556	7
588.5919163577823	265.9366669743137	6
500.97596703860665	100.91733972687362	6
485.3477826024279	256.0068798300522	7
410.04197084248074	240.32359609172084	6
491.15279598493044	380.691739478163	6
435.46823500565984	106.60593496967853	5
463.1610938242908	285.5305772153909	4
531.0679280553654	87.1858808449267	3
449.4371571965307	475.5235420833975	2
458.45951452778144	123.70105262693991	5
370.53695353209963	342.327716824345	3
376.80362157207986	365.29683594566393	3
219.55045009880337	17.096236417706024	3
359.9114479007	319.08921597448034	2
471.38291568546015	425.2932161237603	2
602.8032206696936	114.32494466225381	4
461.739531690764	380.82858901369445	2
609.2514550600208	217.52400369287585	2
574.1323240814771	189.5353105263227	3
457.17918388187815	491.0822512557778	2
273.78599094650747	212.54231504351452	2
555.634592593099	4.1951069395291585	1
233.6601415602955	179.34082166487153	1
165.48965518527197	103.82889675334667	1
373.1474444507283	310.43791352515774	1
352.17191018149026	340.8524388367441	1
361.6109006026474	370.2181874134482	1
360.5621238891855	419.51069395291586	1
383.6352115853473	457.2666564086783	1
438.1716006853661	433.1447915063856	1
405.65952256804724	414.2668102785044	1
390.9766485795806	380.7059547622711	1
451.8056979603708	399.5839359901523	1
346.9280266141808	404.8278196645638	1
480.3316637548013	135.82308626974483	1
599.234375	330.0	1
440.3125	265.0	1
