406.02670997410206	132.78684100843174	6
443.6033735111183	103.23763379692141	6
282.82365728897526	85.89879672978918	3
274.7783810923293	248.7746592114737	7
316.280851673832	165.60593449012225	3
548.6443036511276	465.04726704260486	8
326.27088001026584	301.3347598933259	4
343.5722449485824	241.51859280920957	6
601.564960004849	491.7479249986086	3
237.50101212432776	323.5608337607813	3
503.9014510039442	83.29403320245379	4
303.1249963784528	122.44837001337658	8
286.4632545005112	52.83194375078597	2
473.2290724105923	347.13024300348354	8
196.6332278299251	183.8394399724683	2
431.8911095284512	54.153895249354235	7
230.6888678559243	140.43136022804902	9
314.71570688844224	420.4932021556482	5
547.9905653005064	429.0520132089789	7
437.7812298441153	269.8345162926111	9
319.9992070740175	41.181992580994944	3
492.8138568374284	128.7258819006865	7
286.92871667263375	381.0050675088045	7
193.12989229585088	244.4565547176169	3
385.07160367268494	420.51741457864296	4
570.9491909698429	389.90442313149634	3
480.1409142411298	172.39854309468325	9
551.2325995166319	152.10430914984647	4
589.3302444445458	422.5827079544364	5
452.5173543594626	385.0755881287294	6
492.84060147749244	225.85678838916886	4
373.9573114042246	50.82322855758409	6
211.4261717536623	283.147769943679	2
488.72041154820147	34.18442430516527	3
149.08447950362685	119.40805501690971	2
218.0351228187697	92.11670354283964	6
568.5779657649805	479.1660744692951	2
546.2824584290324	358.9705270734313	9
521.5457436571796	12.171002413014346	2
510.9636308637572	50.17069121291309	2
358.6194482059248	274.37595083518755	5
493.5264661178025	381.689840513562	6
158.10128936509	156.89907972963414	2
430.3050550349618	405.850355487137	3
454.8781788939541	146.60274730333097	3
293.721647143872	293.68306525383684	4
390.46053107005577	328.65419871653614	5
359.9114479007	24.30269412536154	2
593.3657370195402	380.3821328655255	2
421.7208896557709	159.55247012737362	2
247.03413494123907	21.487962417289168	7
261.6518968312506	72.38369400864349	2
391.78465084047673	365.85780686426676	3
317.653755971113	67.09263749343145	2
389.7389713247823	166.84265622750772	6
344.5548049290638	364.0238856531154	2
548.8081683777151	517.2302579131624	6
179.74273047926405	149.54191830519127	2
578.3872071699195	530.9129786230523	4
493.89533235141533	499.5266710261916	4
467.47374060390865	458.104890662746	4
516.5988032221685	507.44271177350697	6
176.1827874158287	26.543558913127697	2
460.9681045978489	441.36900646942706	5
377.6026125710939	367.61510961397187	7
525.5394813250192	83.95656149148992	2
468.3354093613859	309.4949430349591	4
517.8201619798771	331.9483126636826	2
364.93731194459275	420.77973534389906	2
305.3125	168.0	1
583.7421875	390.0	2
396.70786222024645	114.03714743071721	1
570.0634161414488	282.8694216238534	1
99.171875	58.0	1
340.63536633340937	61.877827358055086	1
612.2685351200416	198.21880289275273	1
568.2199131546419	518.0957070318511	1
519.9761843353944	384.9010617018003	1
205.34317029682418	310.43791352515774	1
217.928490858367	6.292660409293738	1
444.46426096613754	280.0233882135713	1
596.5368844181131	452.0227727342668	1
611.48460941955	100.06309542401999	1
294.26331442066856	32.99953146962361	1
