317.1224905276253	152.4706060549476	3
550.1500144697966	58.680855332665146	8
281.26438451167706	342.5309924213674	10
489.6234118743597	428.19860883355	10
593.5139009559338	294.808403710815	10
297.59537706427665	91.19717208463476	10
280.40902188336645	168.59588558038666	7
340.5441909957413	103.30890814066558	10
535.0980829718151	530.4465070208544	5
258.5996688134576	8.780357443082359	6
579.9232248435596	509.2859092330171	7
445.18046040082754	13.424682370716155	8
439.8658049760944	290.6386821676647	10
357.00464708855634	130.9964750289778	9
265.42786972037266	250.34561332123678	8
519.4882842629065	25.64246343240591	8
185.89448240676523	91.70299445752664	4
488.03712603015225	74.55789239777089	9
478.2742241623529	153.5583813650377	9
419.1468096019754	135.84229343210234	9
489.45094329215647	255.1603062818858	8
207.0727354058142	103.62846017626487	5
577.6395250331386	348.57924602472735	8
505.2697322584196	175.32668013873356	3
528.2817091252848	363.4942083176233	10
337.2653116692518	257.92163380367526	10
201.85461659931562	54.362397249226674	7
346.652128176741	305.264318197369	7
216.54028480394032	146.4572696900963	7
531.9514168750115	195.08190443325512	10
609.9567198139719	379.5926604980831	10
510.0756948667697	475.33956280575353	10
373.24858707221927	462.5916289971441	9
147.47690707158827	30.209169987990926	4
259.07666471429957	218.8208934439715	6
403.4993967861421	500.42095641280014	10
324.46833870691165	428.83887866919247	8
448.60923538424106	140.18230260806934	9
391.6322565208359	431.28745904441604	10
347.11269751076645	158.70172161129557	10
519.2382184846097	143.0261490049545	8
298.15154180109437	375.2989052910366	10
488.20942963276696	204.2032909345519	9
337.22043825665435	369.8431266765865	10
546.1893811245881	413.70972131525997	10
298.2540101085473	315.1941390494364	9
526.189582841813	331.74161881725473	10
401.7083239599497	36.47197344375335	3
287.89940080439595	236.6776104776426	6
413.9827845443043	60.63121096887741	6
556.6841840379793	259.29954880040657	7
602.5540046863622	543.992147468032	8
331.6233870858424	198.6015285228048	7
400.7503279111935	15.70003768721774	2
256.3728256856175	137.03010789027508	4
368.7880050295863	357.4782653141971	2
600.8871806064426	134.32787864308116	4
583.9071758850973	11.75344368903825	6
380.49569796047706	196.7532984866122	5
335.8750483236138	83.21601659124451	4
277.83303528994077	306.10254389698434	3
283.6406980376472	132.96129143773044	2
154.75281643533037	7.277995843240334	2
229.51741096924405	39.09719506101807	2
164.94428679948004	64.37052943932531	2
347.4883639171252	315.09230048414804	1
230.39325502492065	254.41574262064657	1
224.00624908534584	302.31828830235827	1
242.1027659141411	336.38232078713105	1
253.81227680336156	296.99578322661256	1
529.234375	544.0	1
274.234375	200.0	1
470.3125	563.0	1
155.51752632987808	76.35137194117789	1
138.01334779450735	86.13171324422844	1
