546.3023433113772	169.10886349671742	4
326.32822579570217	337.80685096328284	6
257.606852928963	332.9910676541359	6
485.85155115988323	175.87156262363078	4
398.0052152698099	209.4244433520461	8
346.79312638222086	166.5850806392844	8
383.7697600193269	112.40347520999461	7
500.7451602584978	396.32459613410725	7
411.1932417443671	322.6737934994038	8
310.8558469078899	145.14189983825446	4
447.41361315882136	118.98491789101044	9
593.2330685775134	432.42961306236907	7
428.4572619478254	270.98134445378014	4
364.2920119086476	316.53930413309524	9
520.6220508896351	451.8032233157112	6
95.57308147864738	37.716722203909406	3
166.4036404358114	33.51556718927157	8
357.0918454562154	112.50557284172405	5
555.7421875	534.5	2
362.73246135754135	358.1867348659582	7
298.81125905715373	22.518126546934305	8
108.08505939009912	269.595823421437	5
34.829051165895564	67.45270289036154	8
107.0795696016061	234.12736217398094	2
472.7215285407566	488.5753099986386	4
142.6487580551686	246.53699708618868	6
123.09557752103915	90.17679212868967	2
117.08775602562588	142.59628299234734	3
564.9684073816945	454.70879299710555	6
419.18869445285236	242.65952957573916	9
581.9632903558025	537.3187568327346	2
141.2083369253659	282.54638450726225	2
141.81769126893494	11.585108371724736	8
478.2734375	543.0	2
530.0998771699103	377.74967036540653	5
479.3508952524141	386.020858767204	4
271.7349331143911	267.3220848273894	9
236.02659415470808	105.69181553578115	7
246.1665302305598	293.7830883604763	8
402.9496168035965	490.953785191261	4
202.53044761817924	309.5955309885544	7
188.5306072189131	279.9173824769639	2
320.9833433517482	103.25204312019102	8
217.49268281104673	12.276323653181745	9
565.5434800301892	330.60378482974926	3
213.57872458172477	67.07258453054366	9
437.1925263718613	302.7965214409154	8
273.4920598014716	95.10944141108075	9
282.8867732331408	163.4868464851096	5
150.36958940018872	74.69303451507106	2
516.4560253804708	561.3820177528572	4
44.305792378554955	154.64407309073871	2
291.9911075337003	243.7077133774858	7
434.90485657134116	181.70780261511163	8
500.9417211091769	525.7965016398564	3
90.56429574834054	299.021287454989	3
216.311766021803	160.76682867557716	2
592.4054421017017	370.8913139270119	4
495.6054819528546	360.65861669243026	7
399.88605832534506	30.79411482266012	7
200.14144809841048	372.7550438252438	6
36.515537923873865	108.12829923473372	2
271.2095765607926	456.58031591737546	2
82.43455970231477	147.32156801499298	2
167.07910028940915	302.59464313602996	2
396.97333862642563	465.368347509113	3
441.3049474861007	78.7122596712052	9
369.3437091521924	255.41581955469255	4
180.5306072189131	168.03107918163363	2
458.966234320735	518.5570336937991	3
347.8062923692769	407.52612393681653	2
605.1490762030649	492.3892419998296	3
376.4280172402365	380.5306961349111	5
293.5870090982488	338.3795371706692	3
472.843138012836	470.6648022813023	5
303.911489494473	448.3487647518846	4
52.412351472784174	37.30033527889668	4
391.44297981001904	160.4335803225112	4
604.5102056960695	141.6083201695418	6
302.35329999000675	199.0331059892495	3
503.873468128146	472.30150494959594	3
222.08806154770838	177.85358425737934	2
418.0896816623908	84.63050082310781	3
341.6137353268027	252.11817666772188	3
149.51137477116066	371.9311092787833	4
112.86840402210794	41.342001464731204	5
209.5061295179483	394.02192494443204	2
579.6449163856478	308.0373983192568	4
580.6284048456153	388.08165797303786	5
430.0674935464107	395.757807482785	2
495.09237904128463	205.83967214659947	2
296.0989891656861	416.65185054705046	2
186.08012227790792	346.31631279675804	2
184.0170878547347	225.2514241691425	3
354.3219719981351	484.70773619506895	1
271.234375	42.0	1
447.234375	432.0	1
535.5442953613003	235.20583232077763	1
171.14092675840678	389.80121506682866	1
202.06000045804623	419.6160388821385	1
415.18075845913245	525.6243013365735	1
60.548831573045526	23.591286255822837	1
573.171875	575.0	1
349.6173658969834	29.80602842417617	1
336.84335401783386	73.45057004529127	1
69.65360554562169	5.322505075745744	1
23.880062978669002	6.387006090894893	1
544.4210470540146	317.2213025144464	1
199.52272631697582	233.12572231766362	1
439.0354490510305	271.44775886303296	1
72.84710851540908	248.02873652975168	1
189.9422174076136	107.51460253006404	1
178.23270651839317	135.19162892394192	1
37.71857584774772	126.67562080274871	1
138.84616989101528	206.51319693893487	1
80.29861544491301	206.51319693893487	1
197.39372433711753	262.9317507418398	1
99.45963326363739	129.86912384819615	1
114.36264712264524	199.06168983289083	1
84.3125	225.0	1
478.3125	421.0	1
540.3125	487.0	1
384.3125	530.0	1
392.3125	388.0	1
434.3125	543.0	1
