499.39819727359026	11.352732300269153	5
331.952418113043	55.23687594261351	8
109.0350246580667	52.69063962843536	8
283.324193072381	411.7941396058729	5
194.17453615258216	35.11241868779976	10
372.8629633350097	289.83968076988634	9
384.32547349106954	218.38680982986273	11
252.76622629803245	195.26085997425815	11
145.45749560970862	289.76136087484815	2
107.30793596110476	164.9223833230219	9
188.15454187775305	75.72906123087196	8
421.2324356817393	340.57972349216533	9
209.2734294463733	366.49010681904	8
596.9585223338164	542.0442501064215	8
339.0436800583539	499.6050197701064	5
166.26605840533077	162.3692857867931	11
564.6774220155239	621.5840927224272	5
461.3590157613676	255.30934167811154	11
369.51648743076964	174.74337437430216	11
390.62394708402974	504.2595320828533	4
191.41167770587913	246.8415527206621	9
601.4398164460048	220.1417793012946	9
514.2257675826027	286.8557523193058	11
536.046875	22.0	2
232.6292171309882	15.064701917597034	9
575.3387006009463	594.6776656814233	7
260.44628995047117	44.56138516605333	9
488.8713420149731	382.08484737027584	9
334.0167078818755	192.54781614448567	10
289.6980949493893	171.39673734128982	9
407.10989488193053	179.8849912185625	7
491.7980175850903	211.9259416767922	3
217.55498509521033	226.08304843021776	10
511.078125	219.0	2
584.6142793764936	80.94109820139866	4
422.1347346137982	420.8970782875263	6
152.10304086800573	29.26881503138643	8
586.1885517619683	473.65286925773535	6
553.106856147468	380.13013140928877	8
569.0794709409438	398.66467686645035	6
340.1908425143347	465.8047638948756	8
496.3687149526265	538.5100212840828	6
533.8046718336341	583.5987915248996	5
382.2257458878463	94.41229962494411	8
232.38830049661294	161.67505143112405	3
559.709615564987	561.6576327232318	4
558.5667779898738	264.9812388823691	9
141.89922067716745	283.8279320615855	4
242.12622688009952	383.64119871856326	2
415.8795266312594	137.09581446197097	3
434.27137498360656	507.127134720702	4
412.7510557171302	566.6891705150242	6
259.5652227917177	455.32236801743727	6
500.81694023849553	155.273075121037	2
190.033748207318	271.2336872510399	5
296.7590526093042	453.09012867032754	8
227.52856303260205	110.78955177260659	2
401.4654952665062	17.72146661246556	4
139.52800228564786	118.44629457627822	8
597.6554209094313	278.40086536584136	7
333.33173752905867	519.0527487115414	3
523.9828884703678	167.38475785773483	5
466.43779138985303	522.4722945503893	7
482.2130895589916	57.70927690145244	3
610.5455832436039	150.39973312674923	4
131.08997805335127	143.33113899674763	6
574.4447271712338	123.15505328418529	6
249.86788259180224	146.24603440462772	4
466.9275503895585	78.53978603779478	3
364.2979606015919	4.304607791155412	2
464.3223312224542	177.11756343821918	9
125.27309257355373	80.05575730491968	6
449.26746679075643	572.1549423692455	3
212.04480560813357	142.72481649226927	2
501.8814412284247	90.11229111354052	2
587.7420611178717	250.342570839527	4
556.1401381509797	434.84077777557286	6
501.25948979746516	505.1330937778149	7
365.92864320969267	127.52608492556317	7
241.8510679822477	423.8679525222552	2
454.41045591500034	479.09794458617034	9
538.1222086265138	541.3407200368656	4
514.1716956831058	67.72528502264564	2
271.2586130472039	263.59461088574005	2
319.6288786272532	112.0185737153586	2
491.3897825123106	411.95297490882825	3
281.4559359505963	497.3321138787404	3
543.8985840030741	189.49520037431893	7
312.6790022814081	494.5724259263446	3
353.0386525647773	527.6865788222509	2
380.1996741048092	513.1034945323643	3
436.55094879293523	544.892180154897	5
520.4511904396753	229.29015795868773	2
198.38668509689313	205.69550425273388	2
545.578125	147.0	2
164.8689742975049	257.1014909621779	2
269.12627566252036	104.49227432644602	3
524.578125	72.5	2
118.234375	62.0	1
545.20773140639	112.3823815309842	3
236.13855338824024	93.60541272755145	3
521.234375	179.0	1
184.39195834396654	362.19489671931956	1
498.921875	170.0	1
507.921875	120.0	1
526.921875	143.0	1
417.921875	509.0	1
395.921875	536.0	1
360.921875	551.0	1
230.921875	438.0	1
236.921875	396.0	1
300.921875	539.0	1
331.921875	538.0	1
448.921875	116.0	1
341.921875	84.0	1
527.921875	503.0	1
517.8762532472206	442.80534629404616	1
615.2866041208928	371.8078517791662	1
89.87912435427519	4.258004060596596	1
