567.4130361864317	341.75017541872586	9
548.6258188680105	402.5147380601272	9
301.63464240922696	196.86681941271482	8
179.51156922715086	267.64918092558935	7
237.01351931851443	294.6506303684157	8
367.3922420971234	279.024973621048	7
523.6310157851865	623.5144292625827	8
342.6533726554196	162.57960822855594	2
487.66331073789814	557.1623052375567	9
494.84407489229676	256.0904803200016	9
509.1150640008362	487.9287181513589	9
431.0673342714766	410.75287386555067	7
511.41392727759705	181.81492452349704	9
299.96725895456996	30.274220963748952	8
301.1714696745976	366.6927698966727	6
388.99372279065375	99.5743946211252	7
343.0234436347525	223.5082773050102	5
421.51279735396037	309.19283571286013	5
493.98504144276933	361.0480656987927	9
137.1941156852338	128.35289732386565	9
602.8543731785262	495.73842781362015	7
333.79788020438076	288.2841780444237	5
480.65478989878636	431.0797166480473	9
446.51182665436426	339.5247395390121	8
194.2837692360044	27.09165301799307	9
583.4150388907012	143.99604271871726	5
247.17637495236409	66.15708888129362	9
372.69624020573696	177.8239343483196	9
321.2187001691391	155.22745176062105	8
590.497748737622	242.97305144306574	3
551.1346999163122	463.32107709613524	9
240.49494089544243	158.49622863168435	7
337.69895064739217	55.98762598659509	8
526.0456835409854	209.80256056016117	7
486.61933193886114	124.4655686945161	6
330.03886450891696	263.4336248633453	2
565.510621237172	544.7221839320121	8
167.95360011981663	236.57654314462312	7
177.56310858678225	103.15211238506174	3
421.5099483823218	473.1161097391262	3
338.5700050503522	186.00647463280117	4
610.3111523261252	300.315014201654	4
294.714127430249	448.3628330346078	4
163.25516488940036	79.20934562578526	5
569.7207888336875	92.12873774948974	4
116.45617619277022	66.07558052242263	7
265.9560346873767	380.77601139848906	5
342.1148107907213	364.0723860652107	7
362.3975089861092	392.5874691618109	7
163.5411760202342	155.0692018919952	2
172.47947096415072	182.75205169341197	4
285.71339972498293	161.34865402379063	4
576.7962263709089	632.7535530220209	2
427.2869685859405	501.78674059034824	2
209.2069082690163	123.31344110062417	4
613.2144119005468	150.26572020932096	6
396.8180323577278	382.41660552900305	2
564.4268424324652	10.325047316415628	2
565.7627195157886	200.37486579549983	4
291.883583080446	406.5944403210883	3
173.73173036766235	133.6595085985281	3
487.5650449370469	466.7608165996123	6
312.1063173555136	421.1197550964307	7
347.8448432758248	239.83170377692568	2
400.17508352305754	509.49337322739257	3
252.64784742194274	410.3187634950027	3
195.13549590042075	331.67518259429266	3
413.0216428412194	153.83500696560796	2
605.8633058360562	503.33569274106225	1
453.0248577341712	359.72025062182576	1
98.171875	144.0	1
422.171875	288.0	1
467.4375	280.0	1
381.3125	210.0	1
142.5452894134572	160.81114251292297	1
314.4888332293221	226.7387162267687	1
459.26096785968406	572.701546150242	1
445.42245499060533	383.2203654536936	1
260.19928274293636	293.8022801811651	1
494.234375	590.0	1
