402.06615986813614	526.469143202554	3
503.6640577531026	283.57349321803974	5
524.9548010756587	612.6646948432368	2
388.04806926376347	106.61744271073945	6
388.06284849863187	72.03756941692589	4
484.9214130335441	84.20051161727791	4
552.8466264321133	310.97728492140084	6
296.87475917610027	300.1347239257994	7
376.60002967660233	166.68299900077466	6
576.7417804493045	570.8541472230386	4
570.9340586606036	267.5922268509415	3
595.593674700063	499.9382232552756	4
588.4361932297046	366.56399897979963	5
585.7883782545091	447.8458408362918	3
395.138876892973	260.27338847567876	7
464.6649526785567	336.28075323706094	6
555.3034926712717	619.6895166018849	2
552.2219202534214	212.67502673204137	7
325.1230662588796	77.16228966887178	6
492.2611415958265	375.97315985278044	5
205.3571794064298	178.42931183826815	6
224.00546750548875	81.79303961943357	6
507.6965076016362	426.4101761809642	5
406.5297470537612	221.57198553668644	7
358.2869972997878	394.4496169451645	2
511.7196818541833	314.41131223376567	3
406.7906122959447	360.89909284702964	6
504.3795656993741	468.6544453107896	4
553.2884784294249	409.8455077422041	6
351.243653146837	220.6945076432698	4
416.1651005281301	191.55851946042787	6
340.6210692594758	272.57470806699644	4
351.2250089439291	335.92956702552647	3
413.0154216539888	309.7108214243734	6
278.83770252389877	327.4249327472887	6
451.27528393055013	373.0946197553554	3
268.34562442410606	269.880005451118	3
231.5402692220428	273.3087127906238	3
380.4694413666694	305.0399072085601	4
292.49198375893684	188.45965878860994	4
270.381771163226	74.09998670893819	4
574.609336267707	487.4680383500556	3
562.8361777837451	346.570428152306	2
366.87082017632747	372.58413850678676	3
594.1554192529496	320.77377517638365	3
164.42173017821986	49.05488628728221	2
466.9241248044773	425.78850844921124	4
288.4914962457955	386.9703827942071	2
177.62661209844472	72.20504279373768	3
592.6228700067904	171.34871603673596	3
441.6979609257721	519.405467317031	3
230.81024167300131	133.38921189147538	3
480.53375355896395	152.5550142050119	3
319.99713556523017	219.84875247387998	2
537.9319347327825	112.29853016158981	3
279.5229801423687	35.75746412179719	2
600.5143390118678	226.67982779663964	2
415.95380354680515	29.845219204899884	2
338.2171633225858	21.632035844301317	1
334.39974527295675	113.25007000840101	1
591.4392272813129	208.68552226267153	1
553.2650467850224	152.69672360683282	1
492.18635799095756	99.25287034444133	1
181.70302328779465	27.994399327919353	1
520.1807570215707	505.17166059927195	1
312.7677096583921	171.78381405768695	1
325.49243649048896	159.05908709045087	1
468.0093770099736	80.16577989358724	1
573.0782953400784	80.87366499992261	1
616.7940437202076	145.69319884193024	1
592.6750101311708	10.024407079588679	1
435.90129180243133	477.32802314987634	1
565.5410973435044	29.62101033414913	1
590.7892715985563	334.47240795477376	1
206.5	203.48333740234375	1
169.5	132.48333740234375	1
165.5	96.48333740234375	1
317.5	262.48333740234375	1
230.5	306.48333740234375	1
372.5	506.48333740234375	1
358.5	457.48333740234375	1
342.5	476.48333740234375	1
501.5	392.48333740234375	1
568.5	227.48333740234375	1
522.5	407.48333740234375	1
494.5	439.48333740234375	1
523.5	453.48333740234375	1
498.234375	323.0	1
311.234375	247.0	1
355.87540295090264	135.29219879981537	1
412.7193557112941	176.83443358859256	1
361.4238756537223	484.6073409030895	1
