282.07130251340044	167.57457034466066	6
502.3416778900537	497.9324574556018	7
212.31685922991403	221.46528032703907	7
492.7778874483208	122.05728879803073	6
582.404251228862	125.08362721285052	8
415.9383441370617	373.91184703441525	5
261.9358523235355	50.01627265071302	9
159.16856895427696	157.66863122300316	7
487.7609139578075	335.16180831460554	7
368.32926573118897	418.11534258453844	9
486.2057802915537	449.7937420373294	9
573.2269598238377	228.1112286468787	5
435.27688065637085	58.053670849742815	8
310.2346231665269	62.86787133643243	8
218.53819057161394	252.7323365039619	4
476.639371462379	179.2894404863876	4
580.497325166175	9.742161324510848	5
321.6545624931134	407.473541974632	5
490.49276872155974	54.89031724678016	5
200.1994854292452	188.10957394098187	2
342.9164973535883	277.4810105774966	5
234.5693802471239	122.28715126431254	2
207.13655461820443	36.59651725753553	2
414.35685932559267	313.7309714623094	3
346.7392537883869	26.21956193881236	3
303.88349983266875	332.0484675983312	3
406.42901936329133	84.00535305398142	2
282.02309124558235	196.4340933937217	2
495.45400151727455	331.0598157113853	1
601.1261741058171	608.1431585530179	2
542.2920450741564	7.451507106044042	1
503.234375	131.0	1
211.234375	267.0	1
192.234375	115.0	1
460.234375	157.0	1
537.234375	443.0	1
277.234375	301.0	1
275.234375	264.0	1
