602.9037059212291	197.10911300121506	2
198.5443347037908	85.54421901561749	4
597.213150066184	266.8725532723271	9
249.80174711299435	40.61978906658261	6
252.17842981907637	157.28900119382882	6
204.69968275454863	15.914855029045297	3
247.06926222930548	116.4362169304458	5
271.3983308811643	93.20875766280953	5
465.59231345249077	374.722964763062	2
515.1141056942299	516.5666259996653	6
609.6275244876811	14.82089566590988	6
559.7325781091524	39.51269744835966	3
213.07779760514148	145.45772499197858	7
151.60942245157167	83.02715659936526	3
189.07708557634055	164.76242423341085	4
382.8419464633923	79.0775212636695	3
230.55313010922526	74.36905237776992	8
404.0124090403392	402.43884430909543	9
572.5846898628497	189.79147527183022	5
433.88381819483686	28.402310270413157	5
280.264740054782	12.628137882432926	10
578.6101480143695	555.4391251518833	2
427.3668720625739	427.8693550044846	7
251.90633035894032	60.600259264616994	3
475.94894418013905	164.44397611988796	5
543.113454003663	68.24892262292354	3
351.4266060560532	81.91914694553952	3
325.03165661524963	22.883886413718784	7
404.6413281589578	281.6781537559756	7
332.4016096031029	251.35328068043742	3
605.4295298627749	401.17577668288334	4
419.00726080989114	241.51992709599028	2
395.23080189625466	36.53290048964363	2
589.4265551007225	123.50750316558874	7
308.7274570094172	165.38101441619395	4
540.8925739682186	13.093019105633063	4
353.0072013173102	176.36415903255573	2
591.6979465419145	487.0858444714459	3
441.95587526385145	107.5073282087915	2
366.75465274459305	104.79892723648081	2
429.4280306915516	202.91294046172538	3
492.2029405756008	26.841536417966147	4
234.5308775479453	216.87655930503377	10
410.78189559983633	371.72705407480373	3
366.10066314855203	42.09708957701869	4
499.530704940974	449.726958684427	5
467.45124819279323	32.91352328003148	4
575.239070716141	155.55423009440688	3
478.87820179501057	98.53762179510844	5
366.0217664773504	359.44226609759085	4
213.69105481176518	100.48347719076014	7
401.20604817882145	188.65167556902165	2
577.5792097619758	314.1182893890971	4
383.5193709736336	235.77139715442672	9
602.6967761924864	356.50850230342735	2
439.2207856213229	169.53990233421464	2
338.01314174207687	336.0658287341081	2
475.7756142998195	139.1534916931828	3
221.22794680985118	27.220482008400225	2
563.4354747688087	479.41420746976553	2
522.3736809343116	451.9496961325828	2
534.4045665976157	202.81828955047564	2
493.9589670263463	511.82194300918627	2
426.35395883841113	107.16051032806804	2
264.34419734280135	256.6171463906271	2
462.6478196318173	496.86653726822874	2
171.1780833525073	99.91977074362795	2
324.91456295224316	79.25196850393701	2
247.57494444928773	198.27683381682553	2
274.8672435806746	60.49183826328758	2
259.207382692838	181.68110909694386	1
509.04223219018075	68.4636695018226	1
497.6479966087214	170.8943224202238	1
443.9787055864558	266.9341069208454	1
462.3125	303.0	1
143.3125	40.0	1
577.5058953822396	577.5241798298906	1
542.1698111540802	400.8437424058323	1
225.2493057327758	256.18663426488456	1
516.7720006150906	185.51445929526125	1
333.4660636815139	390.905467800729	1
590.7569269677994	56.31688942891859	1
299.2342320854845	132.51032806804375	1
604.0079585533591	579.7326852976913	1
602.8109353129004	152.46435656442262	1
315.7980215674342	118.155042527339	1
363.28088474902336	132.51032806804375	1
288.1917057641847	266.12490886998785	1
503.5209690295309	230.7888213851762	1
470.3933900656315	226.37181044957472	1
477.01890585841136	194.34848116646415	1
312.48526367104427	322.44179829890646	1
532.2315374649104	282.6886998784933	1
