558.3830715163756	474.29381077935074	7
444.0271520965139	107.96496729541363	3
526.0986770367901	348.16088996936537	4
474.05377488743943	287.1483960292657	4
296.038057688525	217.98260641948104	7
552.3900677598235	264.59458267013224	2
170.68323650058488	52.673781239528864	5
352.12697305740915	443.32433588775785	7
178.8801488951355	180.91313446292673	4
361.3330079210954	58.52879220706821	2
503.76456473627036	531.0310439873765	6
376.2040899640317	77.11491316929103	7
566.0484869872018	387.8379804538919	4
290.53107609839066	347.38806598060984	5
502.37550550210153	152.1600251607067	6
503.65620439620545	89.94963389287147	6
335.09756100318134	195.19557351391387	7
252.51500497188022	68.37732645322865	5
440.5474332708964	427.3935488868069	7
551.8379414437586	109.41797791995214	2
471.2716357610443	113.58085004079066	6
215.3321762168648	303.2957835874988	2
338.0266475000591	123.70590610718386	6
583.7189920093006	409.72517848776965	5
373.7828144126032	505.62116139147565	6
157.2224369832932	116.82729887343169	4
209.7865162254609	45.28445750424213	5
524.4161317230768	490.17459093572256	5
599.0669315009845	364.8661564832539	6
464.2210870284222	248.84429182167295	5
511.0728406798166	208.43075212671562	5
255.47848322229598	182.57589683650596	7
196.05165759449017	151.1157988548469	6
513.7710250733977	178.91178329264432	7
221.58473170005408	223.95109652209862	7
566.1971379225809	368.6582845302017	3
415.3846795333682	522.6838657943533	2
328.7256886777967	303.1469541165445	7
446.83700418239755	504.16675264804314	6
219.01842169362737	273.12140237845256	6
269.7593861399055	364.8995683289477	5
527.8778719355394	382.67344006679883	3
227.2992018184977	333.05930790317234	3
510.06030079581876	465.60783473398675	5
264.2665102755104	254.09272419593086	6
509.52102391328526	311.58456865127584	4
370.203125	332.0	2
505.7294742937908	111.52952612393682	2
532.7836637809755	536.6668286755771	2
309.171875	397.0	1
356.171875	367.0	1
424.171875	512.0	1
342.171875	398.0	1
537.7528006255602	119.25929526123937	1
372.1149058060632	251.76962332928312	1
375.4276637024531	472.620170109356	1
297.0257268212245	314.7120291616039	1
323.5277899923441	336.79708383961116	1
563.234375	211.0	1
229.234375	129.0	1
319.7677544442054	101.28199760002042	1
612.1281697956344	203.60813950519568	1
410.6083120712566	502.2334107794827	1
