387.3163837152003	355.14409415193154	6
150.76224845318774	65.20137633541	7
607.4496094677393	161.28126750762692	4
582.8222487495855	488.3858723994598	7
281.6883111183552	251.33166377835462	9
141.26717396837972	109.89252486520842	8
211.1807773787917	302.1912319744888	5
587.5224756200009	314.29055079506315	8
534.6756274534414	361.31650141726135	6
604.4241622039372	437.8475551497102	7
457.9700794246887	296.4682759988925	9
64.84462773434122	113.9662532650695	8
505.078125	201.5	2
83.23828125	28.75	3
502.7734375	445.0	2
205.7734375	104.0	2
599.171875	526.0	1
514.84375	360.0	1
533.3125	7.0	1
