269.171948218019	111.62317578534228	3
303.0241212364855	130.8052302395368	3
608.0432641246847	210.16532108755047	3
422.067239810408	178.17584491005718	8
519.5631722420953	388.4360653800108	6
545.7059754103964	374.6605556253521	6
333.65695538748423	39.54825683235542	10
352.70555999390643	372.1104781323305	8
352.6660678540735	72.36190097585413	9
58.85276307961314	104.59284223851748	4
317.1925185051405	193.2559995142621	8
368.74614974292206	216.60413695597742	7
140.33726251538081	148.92249516966066	6
468.00207271403565	106.76371833404895	2
495.0745639970088	96.77740040669644	4
17.11287549243988	93.5567388079852	2
582.8785357586703	113.53476839811904	10
436.75780506418073	62.9076877839814	8
531.4384858669705	201.00364963503648	2
333.2717112589297	211.79442920016893	8
88.24904493499997	214.73560791050335	5
237.67947919383988	118.0863799669018	3
269.36572464871824	70.30691604674976	8
399.709331778765	21.11448364072055	7
333.3727354668759	94.97370700851297	4
518.9029784530528	80.61893043897496	6
577.0661902353856	157.92889183924544	8
592.1699084325747	394.8366680978961	2
501.94218332644243	25.8099430496656	3
486.5983461971899	62.59801749398841	4
126.52566345354155	203.0643408164456	3
354.3313027586174	258.519428939459	3
491.2101505946527	124.49117598231686	4
82.92189999680946	112.89471778535462	3
537.1447534764533	446.4727193352792	5
165.36283129110274	218.2168532073805	10
606.0860503144754	297.29497818184996	3
216.04242462237946	61.5829274610632	9
529.1091171420835	286.4876341777587	2
547.8035360678737	53.0832546157149	2
294.992371108764	277.83080111576015	5
114.70604811281942	217.59716879519925	2
597.4734689225185	17.438990613940607	2
236.1126469566286	380.69435563619174	3
546.1476989764202	414.32710724716435	2
269.0138953311847	44.419022333281276	2
553.2223982238359	511.60492530958294	4
394.7734375	86.5	2
382.55395941341413	391.10622419338466	3
252.2734375	283.5	2
267.2734375	243.5	2
438.7734375	239.5	2
144.2032470086184	37.31863935210343	4
255.72500475670728	45.93759362587216	5
187.6478665213964	188.0738576126646	2
423.66945903069836	8.967589326468278	3
509.2698195343559	333.1985775713091	3
392.72203555244346	169.71969028051348	2
303.5357819838298	84.46334051392522	3
253.81308363111202	200.13378981381751	2
253.5868991160716	17.829204492998922	1
210.5870538641337	14.682874288352055	1
166.53843189873388	13.634097553469765	1
10.270701592910674	51.390060009232194	1
83.68507153524372	89.14602246499462	1
451.8056979603708	182.48715186951839	1
480.12266922384214	153.12140329281428	1
578.7076802892608	327.21834128327436	1
236.80647170068121	182.48715186951839	1
490.6104363584612	174.09693799046008	1
318.6110553507095	145.77996614863827	1
432.92771711805665	102.78012001846439	1
602.8295446988845	337.70610863209725	1
259.87955939684304	383.85228496691803	1
281.9038703795429	309.3891367902755	1
227.234375	263.0	1
380.234375	270.0	1
112.234375	116.0	1
148.234375	98.0	1
559.234375	90.0	1
202.234375	283.0	1
362.234375	304.0	1
513.234375	252.0	1
451.234375	220.0	1
282.5538035314481	27.67702639387787	1
607.2266054598334	374.7043573325004	1
112.3125	256.0	1
516.3125	491.0	1
524.3125	352.0	1
565.3125	182.0	1
41.3125	221.0	1
53.3125	125.0	1
221.3125	245.0	1
404.2144190217501	114.7218548733362	1
