504.5523393251935	231.62396503868587	9
222.3222559130406	169.16499936293087	7
536.8326223107441	111.46185549369537	9
453.5582689974814	308.29254381064095	8
324.3668618269473	169.69034228732653	5
163.39928900411644	89.15011367790832	5
516.6893154542353	546.9480081380084	2
562.1062672640886	618.1664200243608	7
545.0831059362545	372.2840213708134	3
402.0499042426234	396.84598629389933	9
170.40430507218514	49.63382865917866	8
483.7132190441707	294.746037627281	7
324.5702137433976	323.53583206447496	5
452.23162126644274	42.032409601033336	7
366.48907050221	153.75778661316275	5
461.7818745385891	492.0733648632886	6
587.5422222718	503.37223325889533	7
236.0779398588744	140.22869247888488	9
375.93018193514473	472.3348382429209	5
433.17464336499654	368.62581503577377	9
588.0770743467689	588.8656074989859	3
263.1185184978835	13.443030164148873	3
545.7859787575267	157.3494636803067	4
469.50231020850714	249.30090479212205	7
269.1864459713275	249.38820627192604	7
499.4553470741793	153.93625120138066	8
229.28915917469035	58.40766669136038	7
587.1670973872671	430.1199239700001	9
160.81709264395897	116.34563306034794	3
306.9508918498804	145.58057901040416	7
423.3683459336894	544.0148439071327	5
583.4078457961651	238.80346998120177	9
259.86638545530127	121.79079624462618	8
444.72698782905456	253.37850304757487	7
312.3841338010911	39.97790655316485	7
267.1103558193626	289.54074470257177	3
460.16643058607184	74.3855984875806	8
399.32483089543325	207.07106538277964	9
462.37966165019014	224.64778863347817	9
306.5974528886648	381.38145122123126	3
290.89147952016987	70.44198330575152	6
292.80404298596795	240.0953700500335	8
406.05917238699783	72.01037226572606	9
268.8604981955382	33.92454298952393	2
527.3913408416223	399.34268701676035	3
317.1428971772026	223.49880997002356	9
481.3865686713269	428.1098000017797	8
353.0983675634881	394.70863605986176	7
342.84667916824156	74.31652607292637	8
570.8253335801726	398.63383033850874	6
459.66610919894015	16.6657209878052	3
597.1228289945169	328.33881619897056	7
396.8384091597095	503.8842781279218	3
440.403770088872	473.8990996938812	6
476.42551252013214	329.21335653134634	8
545.9771327297475	569.9465325984411	9
337.5841260198092	156.2055061343188	4
511.3480590012882	313.4036339445712	2
311.3178851637412	289.6187247976861	4
338.80072555636275	426.3194012837913	3
521.5474650246492	528.394115186331	6
399.65438050147884	516.9179737125373	2
609.4535637159338	96.3423295664414	2
300.53507103299273	51.512599279799474	2
490.1691173777642	7.009545040425533	1
265.5606170798587	273.82483550636397	1
575.234375	501.0	1
464.234375	346.0	1
413.234375	357.0	1
388.6812809198994	461.51178287844357	1
605.9758748392702	270.58439759963073	1
292.39163751416197	376.510847822742	1
287.14775394685245	271.633174334513	1
595.4881077046513	570.5345437759655	1
330.5	285.48333740234375	1
573.5	372.48333740234375	1
