354.9423628498792	387.4740207529277	10
386.60749682952576	443.09042739850435	10
378.14396649230696	370.21431990177194	6
551.9650201806056	366.06689550771273	10
608.3344282298997	481.5323800328382	6
602.4173897069761	335.44014589704534	4
603.6354614168233	520.2739535253543	6
396.5634564067707	212.3083756826093	6
202.6680640450881	373.77509113001213	2
109.80763967956393	196.22636695018224	2
279.24143159562163	298.6241328250408	3
289.2959583963147	288.20996354799513	1
101.5609472677564	343.03633598239287	2
308.0682531425243	346.73535844471445	1
156.171875	308.0	1
