400.1999916385462	142.15366451926062	9
382.20244921465155	300.0536111029463	7
349.4550553388449	296.5370485181744	4
586.8122797948131	260.572299875687	8
519.8982446271095	465.19718687157274	9
340.7127044480043	22.762275965452126	7
354.6004504902629	354.1840722621688	4
192.7297099382502	73.36009634529879	5
399.4443406817643	259.4550773073794	9
509.7544115937269	218.01040909401743	8
330.9078329247483	243.27440575891072	10
293.5220619280143	237.45733656294283	8
505.02685416768395	439.5726496523154	10
279.88098726349676	119.40039382464718	10
494.4162858561682	573.1679388742991	7
286.858537018147	161.7364169992008	10
361.1560178468552	108.87805055484203	9
183.03054154748656	39.30478485460851	3
360.5281197728109	325.3879533572558	9
552.139979921625	608.7737545565005	2
596.9510435624645	467.93994885974985	7
610.8170826989754	534.1871456252755	3
281.0575852937303	44.75227880171533	4
416.570710040884	171.1866516830206	9
218.05278884557248	58.23465737364333	6
318.7360212965826	20.240969756735662	9
581.0198605962274	368.2580831879775	3
595.2303199294674	81.29418365427479	2
309.99208446372154	84.74161560331243	7
285.1997376523083	311.4691449329611	4
491.6143406254113	246.88125770716954	3
334.80859534315755	395.51763285954496	2
411.78560888525817	369.520492931974	3
450.40227929847487	299.47929692941614	2
533.5060493016306	212.21934071246187	6
496.3685192385101	11.04879327062774	3
216.5935689604122	101.01936781987635	4
437.14584041873604	341.8676792223572	2
313.5069242712836	109.442560889498	2
396.2463312118263	172.82133374980478	2
244.23176789399935	128.804622833047	1
215.234375	175.0	1
351.234375	440.0	1
560.234375	433.0	1
487.234375	112.0	1
469.234375	373.0	1
401.2301810181909	56.754768686617446	1
