506.00354628744327	246.70376520825567
506.00354628744327	274.42328938895855
275.9314856814242	245.31778899922054
413.14313628380904	286.89707527027485
375.7217770286132	386.6873623208052
334.1424889672844	338.1781950045752
306.4229635930653	289.6690276883451
246.82598403849403	237.00193174500967
241.2820789636502	203.7385027281662
195.54486209618858	206.5104551462365
190.00095702134473	189.87874063781476
194.1588858274776	88.70247737824923
305.0369873243543	160.77324024807672
356.31810926665986	228.6860744907988
338.3004177734173	264.7214559257126
372.9498244911913	297.984884942556
469.96816330095834	292.44098010641545
451.95047180771587	339.56417121361034
429.7748515083406	352.03795709492664
439.47668538931725	371.44162402141865
478.28402091322414	439.3544582641407
446.406566732872	390.84529094791066
449.178519270294	426.8806723828244
400.6693498654104	411.6349340834378
339.68639404212826	440.74043447317587
375.72177702861325	468.4599586538787
213.56255358943105	374.2135764394889
264.84367553173655	407.47700545633245
349.388227923105	152.45738299386588
363.2479906102146	167.70312129325245
436.70473285189536	102.56223946860067
449.178519270294	187.10678821974446
469.96816330095834	145.52750194869014
504.61757001873235	400.5471244111567
388.1955634470118	210.66838377334193
517.091356437131	198.19459789202568
471.3541395696693	209.28240756430677
427.00289897091864	248.0897414172908
542.0389292739283	284.1251228522046
583.618217335257	284.1251228522044
524.0212377806857	115.03602534991697
