478.28402091322414	458.7581251906327
386.80958717830083	478.1617921171248
377.10775329732417	176.01897854746332
550.354786886194	368.6696716033484
467.19621076353644	212.05435998237706
483.82792598806793	156.61531162097128
263.4576992630255	282.7391466431694
526.7931903181077	142.75554953061987
