259.48113732880523	9.938274605103281
353.34261105985354	37.54459295261239
546.5868216826001	33.12758201701094
524.5017690400005	140.2400972053463
557.6293480038998	234.10157958687728
489.1656848118411	284.8972053462941
395.3042110807928	343.42260024301333
421.8062742519123	368.82041312272173
251.75136890389535	346.73535844471445
258.37688469667523	210.91227217496962
149.05587411580717	89.44447144592952
117.03254778403773	76.19343863912515
103.78151619847797	11.042527339003644
139.11760042663735	191.03572296476307
103.78151619847797	200.97399756986633
54.09014775262885	220.8505467800729
126.97082147320756	268.33341433778855
39.73486353493911	282.6886998784933
419.59776898765233	499.1222357229648
357.7596215883735	477.0371810449575
309.1725057746543	448.326609963548
221.93654783638587	415.19902794653706
176.6621899190567	281.58444714459296
135.8048425302474	347.8396111786148
436.1615584696021	528.9370595382746
489.1656848118412	493.6009720534629
564.2548637966798	589.6709599027946
