433.9530532053421	154.59538274605103
398.61696897718275	71.7764277035237
290.40021102844463	30.919076549210207
294.81722155696457	142.44860267314704
608.424969081879	165.63791008505467
609.5292217140089	274.9589307411908
531.1272848327803	303.66950182260024
374.3234110703232	292.6269744835966
346.71709526707366	255.0823815309842
315.7980215674342	230.7888213851762
234.08332678981566	100.48699878493316
265.0024004894551	252.87387606318347
598.4866953927092	506.8520048602673
