315.84375	300
292.84375	311
255.84375	322
146.84375	106
168.84375	51
209.84375	39
209.84375	107
234.84375	107
215.84375	175
259.84375	200
175.84375	244
442.84375	87
414.84375	121
365.84375	35
494.84375	67
454.84375	57
439.84375	257
440.84375	210
412.84375	219
387.84375	251
358.84375	274
370.84375	406
489.84375	360
484.84375	393
460.84375	340
476.84375	426
513.84375	371
556.84375	365
566.84375	385
579.84375	471
516.84375	467
532.84375	502
454.84375	498
479.84375	524
