238.3244958820216	36.54505068041974
133.9100618279398	57.427936783516735
209.0884543468787	22.971174713406693
184.02899017389907	18.794597492787293
267.56053741716454	58.47208108867158
239.36864022256242	74.13424566599433
336.4740638928585	98.14956468455587
505.62544706047106	12.529731661858197
406.43173470909335	67.86937983506523
323.9443318063687	186.90183062271808
328.12090916853197	155.5775014680726
208.0443100063379	268.34508642479636
232.05962983877671	240.15319018561541
342.73892993610343	241.1973344907703
420.00561113612395	204.65228381035053
431.491198882073	172.2838103505502
446.10921964964444	147.2243470268338
554.7002310658895	76.22253427630403
444.02093096856277	223.44688130313784
389.72542526044026	269.38923072995124
259.207382692838	432.27574233410775
306.19387801717477	445.8496183011208
331.2533421901544	409.30456762070105
505.62544706047106	324.72887890315826
597.5101490280631	342.4793320907907
589.1569943037365	241.1973344907703
369.8866827901647	406.17213470523654
293.664145930685	412.4370005361656
470.1245394820832	455.24691704751444
487.87499327127716	430.18745372379806
534.861488595614	396.77483595884286
556.7885197469711	476.12980315061145
450.2857970118077	489.7036791176245
417.9173224550423	482.3946689815406
496.2281479956037	580.5442336660964
502.49301403884857	525.2045854928894
