389.7829479201429	284.8972053462941
450.5168426872918	227.47606318347508
412.97225319487245	203.18250303766706
324.632042624474	175.57618469015796
297.0257268212245	406.3650060753341
260.5853899609352	433.9713244228432
338.9873268421638	238.51859052247875
432.84880057321215	173.36767922235722
492.47844270823106	120.36354799513973
447.20408479090185	156.80388821385176
401.9297268735727	75.08918590522478
365.4893900132833	58.52539489671932
363.28088474902336	26.50206561360875
337.8830742100338	43.06585662211422
538.8570532576903	393.1139732685298
507.9379795580508	331.27582017010934
485.8529269154512	433.9713244228432
473.7061479620214	457.1606318347509
552.10808484325	474.82867557715673
500.20821113314094	523.4157958687728
449.41259005516184	493.60097205346295
425.11903214830227	483.66269744835967
369.90640054180324	412.99052247873635
235.18757942194563	248.456865127582
183.28770571183657	267.2291616038882
118.13680041616772	81.71470230862697
238.50033731833557	45.274362089914945
139.11760042663735	61.83815309842041
240.70884258259554	83.9232077764277
333.4660636815139	101.59125151883353
554.3165901075099	77.29769137302551
511.25073745444075	12.14678007290401
592.9654322320592	245.14410692588092
306.9640005103944	373.2374240583232
329.04905315299396	412.99052247873635
494.686947972491	572.0029161603888
480.3316637548013	542.188092345079
560.9421059002898	575.3156743620899
554.3165901075099	524.5200486026731
451.6210953194218	38.64884568651276
