450.0833282470703	223.98333740234375
415.0833282470703	196.98333740234375
505.0833282470703	323.98333740234375
535.0833282470703	391.98333740234375
527.0833282470703	440.98333740234375
472.0833282470703	541.9833374023438
323.0833282470703	172.98333740234375
395.0833282470703	75.98333740234375
396.0833282470703	278.98333740234375
450.0833282470703	487.98333740234375
420.0833282470703	482.98333740234375
