387.234375	266
534.234375	432
539.234375	395
528.234375	302
500.234375	222
392.234375	233
431.234375	204
475.234375	360
409.234375	332
394.234375	372
436.234375	443
388.234375	449
504.234375	339
489.234375	296
532.234375	202
520.234375	178
478.234375	199
442.234375	167
409.234375	149
363.234375	145
268.234375	183
328.234375	323
266.234375	304
354.234375	414
496.234375	425
576.234375	432
600.234375	391
485.234375	245
428.234375	246
301.234375	259
222.234375	63
211.234375	99
326.234375	185
323.234375	148
289.234375	150
418.234375	359
382.234375	347
498.234375	481
537.234375	519
429.234375	537
469.234375	566
431.234375	569
522.234375	559
510.234375	523
570.234375	380
582.234375	339
585.234375	289
412.234375	291
324.234375	288
258.234375	271
505.234375	123
548.234375	107
