306.9640005103944	266.12490886998785
324.632042624474	227.47606318347508
282.6704426035348	240.72709599027945
361.0723794847634	294.8354799513973
365.4893900132833	220.8505467800729
341.1958321064238	166.74216281895505
285.98320049992475	128.09331713244228
227.45781099703578	136.9273390036452
240.70884258259554	106.008262454435
255.0641268002853	75.08918590522478
295.92147418909457	70.67217496962333
320.21503209595414	75.08918590522478
319.11077946382414	44.17010935601458
220.8322952042559	6.625516403402187
200.95574782591623	76.19343863912515
175.5579372869267	45.274362089914945
193.22597940100638	167.8464155528554
151.26437938006714	113.73803159173754
176.6621899190567	133.6145808019441
50.77738985623891	110.42527339003645
191.01747413674642	226.37181044957472
376.5319163345831	263.91640340218714
454.9338532158117	255.0823815309842
489.1656848118411	242.93560145808019
485.8529269154512	189.9314702308627
512.3549900865708	103.79975698663426
457.1423584800717	91.65297691373026
565.3591164288098	55.212636695018226
386.47019002375293	27.606318347509113
470.3933900656315	22.08505467800729
574.1931374858497	142.44860267314704
523.3975164078705	223.05905224787364
523.3975164078705	267.2291616038882
565.3591164288098	415.19902794653706
