448.30833742303184	121.46780072904009
439.474316365992	77.29769137302551
397.51271634505275	34.2318347509113
302.54698998187445	15.459538274605103
318.00652683169415	98.27849331713244
368.80214790967324	110.42527339003645
431.74454794108215	187.72296476306198
492.47844270823106	208.70376670716888
551.00383221112	170.05492102065614
483.64442165119124	174.4719319562576
601.7994532890991	142.44860267314704
535.5442953613003	235.20583232077763
412.97225319487245	242.93560145808019
428.4317900446922	271.64617253948967
398.61696897718275	207.59951397326853
397.51271634505275	161.22089914945323
342.3000847385537	163.42940461725394
304.7554952461344	141.34434993924665
284.87894786779475	161.22089914945323
302.54698998187445	197.66123936816524
293.71296892483457	237.41433778857837
365.4893900132833	255.0823815309842
362.17663211689336	321.33754556500605
414.07650582700245	323.5460510328068
435.05730583747203	305.87800729040094
492.47844270823106	355.5693803159174
523.3975164078705	379.8629404617254
559.8378532681598	333.4843256379101
571.9846322215897	306.98226002430135
583.0271585428894	382.07144592952613
590.7569269677994	432.8670716889429
563.1506111645498	451.6393681652491
598.4866953927092	502.43499392466583
504.6252216616609	468.20315917375456
470.3933900656315	495.80947752126366
474.81040059415136	469.3074119076549
501.31246376527093	398.6352369380316
475.91465322628136	387.59270959902796
431.74454794108215	400.8437424058323
403.03397950570263	460.473390036452
342.3000847385537	403.05224787363306
357.7596215883735	355.5693803159174
379.84467423097306	380.9671931956258
323.5277899923441	337.9013365735115
292.6087162927046	339.0055893074119
262.7938952251952	335.6928311057108
247.33435837537542	292.6269744835966
270.523663650105	262.81215066828673
204.26850572230617	315.81628189550423
185.4962109760965	343.42260024301333
197.6429899295263	372.13317132442285
147.9516214836772	369.9246658566221
171.14092675840678	389.80121506682866
213.10252677934602	393.1139732685298
202.06000045804623	419.6160388821385
266.1066531215851	457.1606318347509
303.65124261400445	449.43086269744833
297.0257268212245	418.5117861482382
404.13823213783263	489.1839611178615
415.18075845913245	525.6243013365735
272.732168914365	98.27849331713244
211.99827414721605	67.35941676792224
221.93654783638587	9.938274605103281
172.24517939053675	38.64884568651276
141.3261056908973	6.625516403402187
236.29183205407563	106.008262454435
103.78151619847797	38.64884568651276
26.483831949379347	66.25516403402187
108.1985267269979	268.33341433778855
88.32197934865825	298.1482381530984
142.4303583230273	249.5611178614824
215.311032043606	164.53365735115432
