275.171875	12
308.171875	9
160.171875	69
282.171875	273
203.171875	238
324.171875	339
415.171875	334
592.171875	139
411.171875	377
538.171875	430
229.171875	122
509.171875	461
493.171875	407
459.171875	484
445.171875	469
