541.4220637544676	236.13906001682463
443.43848979900537	172.82695719439857
217.32254990178498	196.94585350770373
154.01008673056327	178.85668127272487
78.63810676482315	118.55944048946193
62.056271172360326	22.083855236241263
10.80332479565704	151.72292292025654
54.51907317578631	224.07961186017204
144.96544913467446	246.69107715389563
184.15887871685933	306.98831793715857
248.97878148739582	322.0626281329743
321.3358822545064	291.91400774134286
460.0203253914682	317.5403350742296
455.49800659352377	260.2579563301298
455.49800659352377	414.01592032745026
348.4697950421728	377.8375758574925
343.94747624422837	421.55307542535814
482.6319193811902	361.2558346420952
446.453368997635	462.2537129540606
426.85665420654254	501.4469194631815
396.70786222024645	436.62738562117386
319.82844265519157	472.8057300911316
95.21994235728597	331.10721425046376
40.95211678195309	303.9734558979954
