155.66168559959698	170.35032645406625
56.69265166305249	213.27665418921103
37.61428367528488	296.7445136742147
142.54530760800674	245.47139999056958
93.65698963935223	332.51645345350204
189.0488295781903	306.283697615358
319.02021149485716	288.39772772571433
248.66872953996406	320.5924735270729
320.2126094940926	470.8346206000796
446.606797413053	467.2574266221509
454.9535834077014	420.7539049090774
456.14598140693687	322.97726951235876
450.18399141075946	259.7801759022845
440.64480741687566	170.35032645406625
538.4214433541847	229.97022608621177
344.0605694788021	421.9463029017203
341.6757734803312	379.01997516657553
208.1271975659579	402.86793501943373
76.96341765005558	120.26961076306404
57.88504966228797	21.30057737370249
210.51199356442885	196.58308229221026
10.189129692868939	153.6567545570655
598.0413433159584	442.21706877664974
587.3097613228392	468.4498246147938
386.9868974512793	439.83227279136395
233.1675555499029	466.06502862950794
23.305507684459172	249.04859396849832
425.14363342681446	497.0673764382236
168.7780635911872	282.4357377624998
