444.9955795266419	170.05492102065614
452.7253479515518	256.18663426488456
536.6485479934303	228.58031591737546
461.5593690085916	319.12904009720535
485.8529269154512	363.2991494532199
459.35086374433166	416.3032806804374
449.41259005516184	470.41166464155526
422.9105268840423	499.1222357229648
388.67869528801293	441.7010935601458
338.9873268421638	377.65443499392467
344.5085900028137	419.6160388821385
318.00652683169415	477.0371810449575
585.2356638071494	472.620170109356
597.3824427605792	441.7010935601458
209.78976888295608	196.5569866342649
152.3686320121971	174.4719319562576
81.69646355587837	125.88481166464156
55.194400384758836	17.668043742405832
18.754063524469483	156.80388821385176
55.194400384758836	216.43353584447144
17.649810892339502	247.35261239368165
33.10934774215923	305.87800729040094
87.21772671652826	332.3800729040097
193.22597940100638	306.98226002430135
175.5579372869267	281.58444714459296
144.63886358728723	245.14410692588092
252.85562153602532	320.2332928311057
315.7980215674342	291.52272174969625
205.37275835443617	382.07144592952613
234.08332678981566	468.20315917375456
