332.58535005811734	54.28955177260659
501.84100745684935	10.645010151491489
400.7134134135818	20.22551928783383
366.64938173584954	6.387006090894893
239.97376393428283	13.838513196938935
263.39278571272376	50.031547712009996
196.32922334718842	32.99953146962361
193.13572037740101	76.64407309073871
152.684682760094	28.741527409027018
109.04014217299958	54.28955177260659
121.81415405214916	78.77307512103701
142.03967286080268	119.22411369670468
226.1352510652041	108.57910354521319
210.16773621626712	139.4496329845385
233.58675799470802	160.7396532875215
383.6813975747157	94.74059034827425
361.3268767862039	127.74012181789786
375.16538965528264	169.25566140871467
416.68092826251876	135.19162892394192
484.8089916179832	56.41855380290489
467.7769757791171	75.57957207558957
501.84100745684935	86.22458222708106
511.4215163662115	73.45057004529127
572.098072792172	121.35311572700297
526.3245302252194	166.06215836326723
499.71200547699107	157.54615024207402
608.2911064497625	152.22364516632828
602.9686015001171	222.4807121661721
283.61830452137724	411.9618928627206
392.1974054941487	504.57348118069655
341.1013579775504	465.18694362017806
297.45681739045597	455.6064344838357
259.1347817530072	457.735436514134
193.13572037740104	249.09323754490077
191.00671839754276	273.57676089333125
171.84570057881837	166.06215836326723
130.3301619715822	140.51413399968766
106.9111401931413	166.06215836326723
253.81227680336156	195.8681867874434
217.61924314577107	227.80321724191785
336.84335401783386	194.80368577229424
290.00531046095205	174.5781664844604
247.42527086378675	147.9656411057317
382.61689658478656	222.4807121661721
409.22942133301484	183.09417460565362
467.7769757791171	177.77166952990785
462.45447082947146	256.5447446509449
518.8730232957155	286.350773075121
560.3885619029516	265.0607527721381
599.7750985303295	279.96376698422614
591.2590906108965	252.28674059034827
584.8720846713217	80.90207715133532
587.0010866511799	473.70295174137124
552.9370549734476	437.50991722630016
591.2590906108965	541.8310167109167
560.3885619029516	563.1210370138998
534.8405381446524	584.4110573168828
569.9690708123138	588.6690613774794
542.2920450741564	546.0890207715133
497.58300349713284	538.6375136654693
505.03451042663676	507.766984226144
468.84147676904627	523.7344994533812
456.06746488989666	484.3479618928627
432.6484431114558	505.6379821958457
338.97235599769215	497.12197407465237
332.58535005811734	521.605497423083
414.55192628266053	565.250039044198
567.8400688324556	619.5395908168047
211.23223720619626	367.25285022645636
236.78026096449543	424.7359050445104
241.03826492421197	385.3493674839919
143.1041738507318	285.2862720599719
89.87912435427519	4.258004060596596
481.6154886481958	381.0913634233953
552.9370549734476	381.0913634233953
569.9690708123138	399.18788068093085
449.68045895032185	568.4435420896455
373.03638767542435	288.4797751054193
422.00343321216445	420.4779009839138
