108.171875	52
228.171875	15
257.171875	40
331.171875	55
186.171875	75
193.171875	36
371.171875	178
384.171875	217
372.171875	291
419.171875	340
495.171875	384
458.171875	254
499.171875	12
534.171875	18
189.171875	250
145.171875	288
254.171875	195
167.171875	160
107.171875	163
282.171875	412
599.171875	542
578.171875	599
562.171875	622
387.171875	503
337.171875	501
207.171875	366
599.171875	217
511.171875	290
