138.22146063526256	5.243883674411448
150.80678119680536	53.48761347899677
181.2213058872005	62.92660409293738
303.92818136224287	14.682874288352055
457.04958152768035	7.3414371441760276
473.83000894307077	108.02400369287584
526.2688446161658	143.68241267887367
473.83000894307077	192.97491921834128
427.6838335507471	181.43837513463612
448.65936781998516	121.6581012463456
344.830473187257	281.07216494845363
435.0252705449804	315.6817971995692
452.8544746738327	288.4136020926297
553.5370391661752	325.12078781350976
607.0246515527322	280.0233882135713
519.9761843353944	423.70580089244504
299.73307450839525	195.07247268810588
267.2209963910763	194.02369595322358
209.5382771506718	235.97476534851518
501.0982034930802	5.243883674411448
546.1956021719419	37.75596245576243
224.2211511391384	194.02369595322358
177.02619903335287	185.63348207416527
388.8790951526568	94.38990613940607
399.3668622872758	280.0233882135713
402.5131924276615	415.3155870133867
