552.234375	248
541.234375	208
577.234375	203
499.234375	138
494.234375	108
326.234375	214
333.234375	167
273.234375	108
330.234375	85
188.234375	26
155.234375	72
241.234375	39
292.234375	168
440.234375	60
470.234375	174
535.234375	131
320.234375	279
362.234375	320
400.234375	350
508.234375	300
523.234375	322
325.234375	238
376.234375	129
383.234375	80
355.234375	37
319.234375	46
264.234375	152
305.234375	308
355.234375	394
380.234375	432
431.234375	442
480.234375	438
487.234375	405
575.234375	441
565.234375	349
473.234375	267
441.234375	262
365.234375	237
406.234375	156
453.234375	124
352.234375	282
512.234375	512
597.234375	385
599.234375	352
540.234375	387
