164.19024770362353	91.88469885362677
270.692970438787	123.20902800827227
83.79113348198052	207.7847167258151
121.38032974144998	255.81535476293817
98.40915424955199	263.1243648990221
289.4875685685217	396.77483595884286
581.8479839199508	182.7252534020987
418.96146679558314	201.519850894886
388.6812809198994	215.09372686189903
259.207382692838	234.9324686598412
337.5182082333993	229.71174713406694
436.71192058477703	358.14149666811346
479.5218385469506	335.17032195470676
464.90381777937915	366.4946511093522
446.10921964964444	393.64240304337835
422.0938998172056	379.0243827712104
358.4010950442157	322.6405902928486
334.3857752117769	353.964919447494
179.8524128117358	209.87300533612478
217.44160907120525	56.38379247836188
