588.065587641109	190.54568171169765
588.065587641109	312.96329845384975
529.5180331950068	370.44635327190383
473.0994807287628	336.38232078713105
463.5189718194006	378.962361393097
437.9709480611014	356.6078400749649
416.68092826251876	382.1558644385444
442.2289520208179	397.05887865063255
439.0354490510305	279.96376698422614
375.16538965528264	210.7712009995315
269.7797916522985	123.48211775730127
226.1352510652041	56.41855380290489
165.4586946392436	94.74059034827425
214.42574017598366	307.64079337810404
378.35889262507	284.22177104482273
354.9398708466291	322.5438075901921
373.03638767542435	338.51132281742935
523.131027255432	415.1553959081681
546.5500490338729	418.3488989536155
511.4215163662115	266.1252537872872
476.2929836985502	268.25425581758554
334.7143520379756	354.4788380446666
412.42292430280224	204.38419490863657
363.45587876606214	161.80415430267064
120.74965306222003	256.5447446509449
175.03920354860577	207.57769795408404
139.9106708809444	199.06168983289083
349.6173658969834	256.5447446509449
308.1018272897473	342.76932687802594
