536.6485479934303	132.51032806804375
554.3165901075099	151.28262454434994
599.5909480248391	179.99319562575943
451.6210953194218	166.74216281895505
440.57856899812197	110.42527339003645
257.27263206454523	139.13584447144592
240.70884258259554	119.25929526123937
246.23010574324545	81.71470230862697
185.4962109760965	93.86148238153099
196.53873729739632	48.58712029161604
251.75136890389535	13.251032806804375
421.8062742519123	29.814823815309843
410.7637479306125	212.01652490887
332.3618110493839	107.11251518833535
135.8048425302474	179.99319562575943
216.41528467573596	113.73803159173754
220.8322952042559	88.34021871202916
199.85149519378626	153.49113001215068
149.05587411580717	65.1509113001215
547.69107431473	404.1565006075334
490.2699374439711	314.7120291616039
418.4935163555224	269.43766707168896
473.7061479620214	359.98639125151885
460.45511637646166	337.9013365735115
472.6018953298914	393.1139732685298
544.3783164183401	367.7161603888214
515.6677479829607	350.04811664641556
