457.234375	271
425.234375	230
434.234375	190
497.234375	210
534.234375	208
582.234375	311
510.234375	312
437.234375	302
519.234375	455
425.234375	480
399.234375	425
356.234375	406
319.234375	356
314.234375	324
377.234375	266
472.234375	92
245.234375	27
171.234375	57
184.234375	117
62.234375	77
195.234375	176
277.234375	164
115.234375	384
197.234375	330
146.234375	324
277.234375	259
235.234375	367
479.234375	318
495.234375	353
561.234375	378
598.234375	376
385.234375	447
270.234375	465
157.234375	356
130.234375	292
176.234375	222
525.234375	157
550.234375	162
378.234375	172
313.234375	123
283.234375	117
