77.67630224180915	32.02332928311057
41.2359653815198	54.10838396111786
64.42527065624938	78.40194410692588
77.67630224180915	108.21676792223572
47.861481174299676	130.301822600243
30.19343906021999	160.11664641555285
76.57204960967917	160.11664641555285
166.01651281220757	143.5528554070474
230.06316547574644	57.42114216281895
291.9013128750253	26.50206561360875
259.87798654325593	104.90400972053463
257.66948127899593	149.0741190765492
131.7846812161782	213.12077764277035
52.2784917028196	247.35261239368165
98.65710225227878	220.8505467800729
65.52952328837937	287.1057108140948
37.92320748512985	300.3567436208991
104.17836541292867	303.66950182260024
139.51444964108805	256.18663426488456
258.77373391112593	217.53778857837182
216.8121338901867	249.5611178614824
222.33339705083657	283.79295261239366
203.5611023046269	323.5460510328068
105.28261804505865	339.0055893074119
244.41844969343617	248.456865127582
270.9205128645557	265.0206561360875
293.0055655071553	234.10157958687728
346.00969184939436	206.49526123936818
380.24152344542375	166.74216281895505
357.0522181706942	188.82721749696233
437.6626603161827	139.13584447144592
199.144091776107	398.6352369380316
189.20581808693717	438.3883353584447
236.68868126852632	348.9438639125152
251.04396548621605	378.758687727825
247.7312075898261	445.0138517618469
281.9630391858555	412.99052247873635
280.8587865537255	294.8354799513973
316.1948707818849	271.64617253948967
321.7161339425348	377.65443499392467
339.3841760566145	340.1098420413123
359.2607234349541	314.7120291616039
435.4541550519228	188.82721749696233
442.07967084470266	102.6955042527339
497.2923024512017	90.54872417982989
379.1372708132938	24.29356014580802
471.8944919122121	210.91227217496962
499.50080771546163	179.99319562575943
505.02207087611157	219.74629404617255
482.93701823351194	238.51859052247875
482.93701823351194	305.87800729040094
514.9603445652814	289.3142162818955
455.3307024302624	326.8588092345079
436.5584076840528	355.5693803159174
455.3307024302624	394.21822600243013
410.05634451293326	410.7820170109356
269.81626023242575	486.9754556500607
285.27579708224545	447.2223572296476
306.2565970927151	507.95625759416765
375.82451291690387	490.28821385176184
373.6160076526439	524.5200486026731
401.2223234558934	437.28408262454434
479.624260337122	453.8478736330498
454.2264497981325	503.53924665856624
405.6393339844133	530.041312272175
448.70518663748254	537.7710814094775
482.93701823351194	489.1839611178615
481.83276560138194	521.207290400972
502.8135656118516	557.647630619684
519.3773550938013	457.1606318347509
519.3773550938013	501.3307411907655
565.7559656432604	513.4775212636695
590.04952355012	394.21822600243013
598.8835446071599	452.74362089914945
582.3197551252101	532.2498177399757
297.42257603567526	6.625516403402187
