293.4404142276238	4.1951069395291585
229.4650347064479	60.8290506231728
291.34286080070007	28.31697184182182
78.44118796793421	35.658408985997845
165.48965518527197	141.5848592091091
78.44118796793421	102.78012001846439
80.53874139485802	151.02384982304972
124.58736336025784	212.9016771811048
33.34378928907249	157.31651023234343
9.221924879448775	37.75596245576243
103.61182909101983	297.85259270657025
139.27023734872446	257.99907678104324
54.3193235583105	250.65763963686723
64.8070906929295	285.26727188798276
192.75784973528138	395.3888290506232
237.85524841414312	353.4377596553316
200.0992867295147	323.02323434374523
239.9528018410669	249.60886290198493
272.46487995838584	260.09663025080783
311.26961835647614	280.0233882135713
257.7820059699192	219.19433759039853
225.2699278526003	283.1697184182182
214.7821607179813	249.60886290198493
257.7820059699192	146.82874288352056
343.7816964737951	210.80412371134022
380.4888814449616	163.60917064163718
357.4157937487998	190.87736574857672
435.0252705449804	99.63378981381751
437.1228239719042	138.43852900446223
487.4641062180755	88.09724573011233
433.97649383151855	192.97491921834128
376.293774591114	25.170641637174953
493.75676649884684	177.24326819510694
470.68367880268505	211.85290044622252
575.5613501488751	199.26757962763503
485.36655279115166	232.8284351438683
516.8298541950087	292.6087090321588
610.1709816931178	262.1941837205724
487.4641062180755	300.9989229112171
459.14713495460416	331.41344822280354
433.97649383151855	355.5353131250962
407.757075994971	403.7790429296815
401.4644157141996	439.43745191567933
461.24468838152796	386.9986151715649
341.68414304687127	350.29142945068475
277.70876352569536	295.75503923680566
293.4404142276238	233.8772118787506
320.7086087776333	377.55962455762426
357.4157937487998	316.73057393445146
370.0011143103426	349.2426527158025
377.3425513045759	482.43729804585325
274.56243338530965	415.3155870133867
288.19653066031435	443.6325588552085
246.24546212183833	448.87644252961996
270.367326531462	489.77873519002924
307.0745115026285	507.6079396830282
374.1962211641902	520.1932605016157
449.708144533447	533.8273580550855
407.757075994971	531.7298045853208
381.5376581584235	376.510847822742
583.9515638565704	395.3888290506232
594.4393309911893	453.07154946914915
586.0491172834941	534.8761347899678
556.6833693065608	512.8518233574397
515.7810774815467	499.21772580396987
519.9761843353944	460.41298661332513
503.195756920004	551.6565625480844
452.8544746738327	503.41283274349905
483.26899936422785	460.41298661332513
419.29361984305194	423.70580089244504
103.61182909101983	336.657331897215
55.3681002717724	128.99953839052162
256.7332292564573	101.73134328358209
386.781541725733	342.9499923065087
485.36655279115166	425.8033543622096
610.1709816931178	394.3400523157409
485.36655279115166	519.1444837667334
484.31777607768976	490.82751192491156
186.46518945450998	436.2911217110325
131.92880035449116	3.146330204646869
