517.234375	290
269.234375	260
106.234375	307
195.234375	412
279.234375	414
281.234375	448
246.234375	447
246.234375	333
285.234375	294
439.234375	352
493.234375	233
468.234375	213
462.234375	390
490.234375	425
463.234375	324
398.234375	440
595.234375	456
565.234375	521
519.234375	458
594.234375	396
527.234375	505
482.234375	498
454.234375	506
227.234375	278
220.234375	324
218.234375	253
449.234375	136
316.234375	274
340.234375	348
326.234375	378
477.234375	461
583.234375	432
