294.98028461359377	50.79170670385282
499.9168815203302	40.173230305659956
491.42210030139813	122.9973462115643
508.41166273926234	166.53309944415506
578.493607795452	169.7186423636129
301.3513705277928	180.33711876180578
328.95940948932207	190.95559515999864
510.53535804399536	420.3146853609645
589.1120843191171	405.4488184034945
565.7514359670539	222.81102435457723
342.7634289700867	8.31780111108136
249.3208355618338	98.57485049572071
146.32161328228233	48.66801142421425
367.18592497451647	63.53387838168426
480.80362377773304	233.4295007527701
213.21801538137248	161.22386124505863
200.47584355297434	135.73951788939573
