146.171875	229
82.171875	244
161.171875	286
324.171875	345
597.171875	316
583.171875	453
593.171875	522
550.171875	517
314.171875	94
375.171875	231
94.171875	141
147.171875	175
412.171875	421
348.171875	406
