520.0847585114806	407.46925880923453
535.5442953613003	378.758687727825
502.4167163974009	276.06318347509114
477.01890585841136	224.163304981774
246.23010574324545	568.6901579586877
372.1149058060632	495.80947752126366
211.99827414721605	531.1455650060753
189.91322150461644	590.775212636695
173.34943202266675	553.2306196840826
334.57031631364384	298.1482381530984
362.17663211689336	367.7161603888215
464.8721269049816	469.30741190765497
560.9421059002899	520.1030376670718
44.15187406345903	445.0138517618469
13.232800363819582	458.26488456865127
66.23692670605864	557.647630619684
291.50446366057463	461.57764277035244
177.76644255118666	442.80534629404616
