515.2894633971115	76.56070164640714
488.0212688471021	92.29235266964149
463.8994044374784	93.34112940452378
426.14344275285	87.04846899523004
417.75322904515474	48.24372980458532
375.8021605066787	69.21926450223111
350.6315193835931	63.97538082781967
524.7284538182686	181.43837513463612
547.8015415144305	101.73134328358209
577.1672894913637	144.73118941375597
309.729227558579	54.53639021387906
406.21668519707384	297.85259270657025
398.87524820284057	333.51100169256813
455.5091907297832	325.12078781350976
460.75307429709267	251.70641637174953
387.3387043547596	147.87751961840283
293.9975768566505	93.34112940452378
454.4604140163213	200.31635636251733
384.19237421437396	264.291737190337
357.9729563778264	357.6328665948608
