515.171875	79
553.171875	108
473.171875	93
430.171875	94
414.171875	52
463.171875	150
600.171875	228
508.171875	306
398.171875	337
196.171875	51
585.171875	375
341.171875	314
406.171875	291
313.171875	55
