493.2651524144116	249.60886290198493
461.80185101055457	271.633174334513
534.1674442394258	230.73088167410373
569.8258524971303	207.65779350669334
584.508726485597	310.43791352515774
556.1917552221256	345.0475457762733
322.3145481201218	339.80366210186185
312.8755576989647	267.4380673949839
256.2416151720221	230.73088167410373
365.3143933720597	164.65794737651947
338.0461988220503	154.17018002769657
366.36317008552163	103.82889675334667
473.33839485863547	57.68272041852593
282.4610330085696	17.829204492998922
219.53443020085552	292.6087090321588
244.70507132394116	346.09632251115556
233.16852747586023	372.3157408832128
419.85078247207855	412.1692568087398
344.3388591028217	398.53515925527006
520.5333469644211	426.8521310970919
479.6310551394069	487.6811817202647
556.1917552221256	512.8518233574397
580.3136196317494	563.1931066317895
385.24115092783586	508.6567164179105
281.4122562951077	449.92521926450223
448.16775373554987	492.92506539467615
