224.92279585589054	311.57253165860186
212.29147638837316	401.3952434881087
274.0445937851249	378.939565530732
163.1696784591388	286.3098939565531
121.06528023408077	211.9254607227427
50.8912831923174	183.8558632760218
547.723182248002	395.78132399876455
477.5491852062387	533.3223514876969
359.6568701760762	474.37619684958304
83.17132183152854	182.4523834036858
