520.234375	333
510.234375	370
346.234375	314
433.234375	299
426.234375	339
220.234375	315
158.234375	281
95.234375	284
105.234375	242
118.234375	210
254.234375	60
196.234375	30
130.234375	147
107.234375	175
83.234375	185
47.234375	185
22.234375	204
269.234375	376
369.234375	470
274.234375	452
362.234375	284
215.234375	394
173.234375	400
