223.04080046851584	311.39927095990276
158.994147804977	289.3142162818955
97.1560004056981	279.3759416767922
119.2410530482977	214.2250303766707
108.1985267269979	175.57618469015796
83.90496882013832	184.41020656136087
44.15187406345903	178.88894289185905
30.900842477899268	198.76549210206562
256.16837943241524	59.62964763061969
121.44955831255766	75.08918590522478
193.22597940100638	25.397812879708383
214.20677941147602	397.53098420413124
268.31515838584505	379.8629404617254
358.8638742205034	474.82867557715673
507.9379795580508	363.2991494532199
433.9530532053421	301.46099635479953
359.9681268526334	280.4801944106926
607.320716449749	235.20583232077763
