518.477332705842	299.37086115159116
463.03828195740357	347.8800284678212
518.477332705842	406.0910292472973
542.0389292739283	425.4946961737893
393.73946852185566	320.16050428711833
439.47668538931725	453.21422035449217
450.56449553900495	424.10871996475413
496.30171240646655	478.1617921171248
384.03763464087893	451.828244145457
421.45899389607484	134.43969227640898
389.5815397157228	194.0366692649202
232.96622135138446	166.31714508421732
130.4039774667735	194.0366692649202
296.72112971208855	66.52685803368692
257.9137941881817	42.96526248008947
228.8082925452516	26.33354797166774
66.64906910606943	42.96526248008947
328.5985838924406	171.86104992035789
305.0369873243543	256.4055986715017
316.12479747404194	220.37021723658793
300.8790585182214	352.03795709492664
591.9340749475227	403.31907682922696
332.75651269857343	225.9141220727285
