230.77056889342572	27.606318347509113
185.4962109760965	23.189307411907656
61.819916177538715	43.06585662211422
88.32197934865825	79.50619684082625
136.90909516237738	196.5569866342649
230.77056889342572	170.05492102065614
305.8597478782644	146.86561360874848
294.81722155696457	68.4636695018226
245.12585311111545	83.9232077764277
256.16837943241524	44.17010935601458
321.3192847280841	179.99319562575943
385.365937391623	191.03572296476307
357.7596215883735	241.83134872417983
277.1491794428849	299.25249088699877
309.1725057746543	351.1523693803159
375.4276637024531	283.79295261239366
388.67869528801293	324.65030376670717
461.5593690085916	342.318347509113
512.3549900865708	299.25249088699877
525.6060216721305	395.3224787363305
545.4825690504701	437.28408262454434
489.1656848118411	480.34993924665855
433.9530532053421	452.74362089914945
444.9955795266419	418.5117861482382
379.84467423097306	453.8478736330498
526.7102743042605	512.3732685297691
597.3824427605792	405.26075334143377
