354.3125	327
358.3125	419
396.3125	420
601.3125	411
558.3125	408
526.3125	332
477.3125	304
444.3125	322
331.3125	175
344.3125	99
592.3125	145
138.3125	58
132.3125	91
245.3125	14
398.3125	22
443.3125	26
435.3125	66
531.3125	172
215.3125	280
206.3125	215
214.3125	94
305.3125	177
333.3125	215
454.3125	283
471.3125	334
398.3125	289
305.3125	348
302.3125	304
396.3125	181
535.3125	203
177.3125	199
278.3125	220
292.3125	241
