435.8419460812431	64.93456192409808
439.0354490510305	29.80602842417617
396.45540945386523	179.90067156020615
392.1974054941487	204.38419490863657
402.84241539344004	133.0626268936436
436.9064470711723	339.57582383257846
411.35842331287313	335.3178197719819
353.8753698567	323.6083086053413
382.61689658478656	334.25331875683275
398.5844114337235	283.1572700296736
394.326407474007	332.12431672653446
453.93846291003837	282.09276901452444
473.0994807287628	303.38278931750745
464.5834728093297	236.31922536311106
436.9064470711723	235.2547243479619
397.5199104437944	421.542401999063
361.3268767862039	421.542401999063
137.78166890108614	56.41855380290489
483.7444906280541	367.25285022645636
453.93846291003837	362.99484616585977
466.712474789188	332.12431672653446
442.2289520208179	321.479306575043
503.9700094367076	459.8644385444323
534.8405381446524	460.92893955958147
466.712474789188	491.7994689989068
348.5528649070543	111.77260659066063
265.521787692582	39.386537560518505
247.42527086378675	12.774012181789786
211.23223720619626	98.99859440887084
180.36170849825143	200.12619084803998
206.97423324647974	212.90020302982978
233.58675799470802	228.867718257067
281.489302541519	294.86678119631426
304.9083243199599	307.64079337810404
307.0373262998182	345.9628299234734
298.5213183803851	179.90067156020615
