243.5452175847257	10.441443051548497
271.7371147793278	12.529731661858197
165.23439204416434	123.20902800827227
263.38396005500124	56.38379247836188
268.60468175770535	123.20902800827227
415.8290337739607	26.10360762887124
299.9290119739299	91.88469885362677
383.46055921719534	128.42974953404652
232.05962983877671	167.06308882477595
255.0308053306747	241.1973344907703
310.37045537933807	190.03426353818264
289.4875685685217	269.38923072995124
505.62544706047106	44.898205121658535
573.4948291956242	95.01713176909132
501.44886969830776	171.23966604539535
445.0650753091036	195.2549850639569
456.5506630550526	228.6676028289121
329.1650535090728	313.2432915464549
593.3335716658997	250.59463323716392
583.9362726010324	209.87300533612478
463.85967343883834	324.72887890315826
491.0074262928996	338.3027548701713
506.66959140101187	396.77483595884286
593.3335716658997	423.922587892869
556.7885197469711	479.262236066076
589.1569943037365	511.63070952587634
403.29930168747086	246.41805601654454
