323.00484114875513	219.28720912072467
510.3570153762824	252.28674059034827
144.16867484066094	210.7712009995315
113.2981461327161	141.5786350148368
86.6856213844878	108.57910354521319
43.041080797393384	129.86912384819615
109.04014217299958	267.18975480243637
176.1037045385349	394.92987662033426
323.00484114875513	370.44635327190383
340.03685698762126	311.8987974387006
441.1644510308888	440.70342027174763
485.87349260791234	475.83195377166953
587.0010866511799	493.92847102920507
614.6781123893373	422.6069030142121
456.06746488989666	492.86397001405595
221.87724710548758	370.44635327190383
393.2619064840779	463.05794158987976
385.81039955457396	361.9303451507106
373.03638767542435	211.83570201468063
