323.5277899923441	217.53778857837182
511.25073745444075	252.87387606318347
336.77882157790384	313.6077764277035
117.03254778403773	141.34434993924665
80.59221092374838	100.48699878493316
39.73486353493911	135.82308626974483
111.51128462338784	268.33341433778855
166.72391622988684	396.42673147023083
440.57856899812197	441.7010935601458
483.64442165119124	471.5159173754557
589.6526743356693	495.80947752126366
393.0957058165328	461.5776427703524
