586.6452517339116	237.64649103640622
505.24351337091224	227.09447389933518
539.9146241551528	101.97769927406463
466.05008378872736	73.33650990201474
607.7494061243189	97.45540621531991
500.7211945729678	147.20062986151183
306.2614862613583	43.187889510383286
414.7971374120241	74.84394092159631
455.49800659352377	38.665596451638564
407.2599394154501	210.51273268393788
324.35076145313593	210.51273268393788
292.6945298675251	234.63162899724307
239.934143891507	138.15604374402238
268.57549627848823	120.06687150904351
227.8746270969886	65.79935480410688
315.30612385724714	144.18576782234868
603.2270873263744	331.10721425046376
591.167570531856	433.6125235820107
488.6616777784494	427.5827995036844
443.43848979900537	478.8354541694579
592.6750101311708	507.47664354150777
437.40873140174614	356.7335415833505
407.2599394154501	392.91188605330825
365.0516306346356	394.4193170728898
306.2614862613583	377.8375758574925
310.7838050593027	287.3917146825981
485.6467985798198	299.4511628392507
490.1691173777642	7.009545040425533
262.54573788122906	17.561562177496544
517.3030301654306	531.595539854813
542.9295033537824	567.7738843247707
170.5919223230261	47.71018256912801
568.555976542134	389.89702401414513
463.0352045900978	219.55731880142733
473.5872817853014	329.59978323088217
401.2301810181909	518.0286606785788
375.60370782983927	471.29829907155005
333.3953990490248	70.3216478628516
265.5606170798587	273.82483550636397
