171.49925808740926	49.074782342277935
162.10195902254188	85.61983302269768
155.83709297929698	111.72344065156892
232.05962983877671	61.604514004136135
235.19206286039915	136.7829039752853
217.44160907120525	164.97480021446626
281.13441384419514	76.22253427630403
320.81189878474623	40.721627901039135
337.5182082333993	74.13424566599433
409.5641677307158	74.13424566599433
469.0803951415424	76.22253427630403
451.3299413523485	41.76577220619399
316.635321422583	218.2261597773636
269.64882609824616	247.46220032169938
295.7524346117666	230.75589143922178
323.9443318063687	323.6847345980034
431.491198882073	367.5387954145071
400.1668686658484	396.77483595884286
468.0362508010016	337.25861056501645
450.2857970118077	310.1108586309904
480.56598288749143	290.2721168330482
402.25515734693005	209.87300533612478
460.72724041721585	215.09372686189903
506.66959140101187	230.75589143922178
507.7137357415527	149.3126356371435
541.1263546388589	112.76758495672377
581.8479839199508	244.32976740623482
600.6425820496855	337.25861056501645
434.6236319036954	478.21809176092114
388.6812809198994	461.51178287844357
398.0785799847668	515.8072867464957
420.00561113612395	543.9991829856767
586.0245612821141	428.09916511348837
590.2011386442773	507.45413230525696
537.9939216172364	565.9262133939285
562.0092414496752	617.0892843465161
588.1128499631957	590.9856767176449
