171.06427244276264	299.111898901781
64.34087333713606	93.57053219902048
95.96262122028469	15.83373325374568
5.050096056232405	15.83373325374568
57.75300919481344	13.198587526787211
417.45039136562895	328.0985018983241
420.085537022558	376.84869784705575
509.6804893581458	412.4231651609951
530.7616546135782	455.9030696558098
471.47087733267455	469.07879829060215
613.7687428068433	357.08510489486724
500.4574795588941	292.52403458438476
409.5449543948418	271.44286876871706
555.7955383544041	135.73286383035597
268.56466174913754	359.72025062182576
314.67971074539594	175.26004973473297
312.0445650884669	221.37509995650618
90.69232990642658	245.0914114991324
44.57728091016818	231.91568286434003
24.81368848320029	155.49645678254447
10.320387370090508	200.29393414083842
277.78767154838926	330.7336476252826
449.0721392487776	345.22694912355416
380.55835216862226	349.1796677139919
