99.41672223717222	15.731651023234345
18.66091530060588	148.92629635328512
38.58767285638199	237.02354208339747
22.85602215445348	282.1209416833359
10.270701592910674	195.07247268810588
66.9046441198533	95.43868287428836
87.88017838909133	163.60917064163718
84.73384824870561	242.2674257578089
78.44118796793421	280.0233882135713
169.68476203911956	298.9013694414526
313.36717178339995	177.24326819510694
561.9272528738704	143.68241267887367
614.3660885469654	357.6328665948608
523.1225144757801	455.1691029389137
512.6347473411611	415.3155870133867
468.58612537576124	479.29096784120634
418.24484312959004	331.41344822280354
419.29361984305194	374.4132943529774
502.1469802065421	295.75503923680566
410.9034061353567	280.0233882135713
273.51365667184774	364.97430373903677
279.8063169526191	333.51100169256813
304.9769580757048	217.09678412063397
384.6839882988092	350.29142945068475
452.8544746738327	347.1450992460379
586.0491172834941	323.02323434374523
343.7816964737951	297.85259270657025
