105.97140249235494	30.616601547286376
271.61963626153056	102.82224105499786
344.8871242748197	185.6463569609022
394.7939639360457	246.17167243060155
455.3192801209368	312.0062260993973
389.48472567421317	275.90340634554155
526.463072829493	249.3572153500594
127.20835553968514	214.31624323602293
26.33282856486667	48.66801142421425
79.42521118319218	358.7275222514459
274.8051792186301	400.1395802043981
527.5249204818595	443.6753334369888
544.5144829197237	557.2930308976524
473.37069021116747	585.9629171727732
387.36103036948015	539.2416210207246
354.44375314611835	410.75805660259095
383.1136397600141	396.9540372849402
170.74410928671205	368.2841510098195
204.72323416244038	382.0881703274702
