113.71978988764779	30.919076549210207
27.588084581509325	47.48286755771567
271.627916282235	101.59125151883353
283.77469523566475	165.63791008505467
347.82134789920366	186.6187120291616
399.7212216093127	249.5611178614824
394.1999584486628	277.1674362089915
403.03397950570263	308.0865127582017
452.7253479515518	312.5035236938032
523.3975164078705	252.87387606318347
459.35086374433166	422.9287970838396
522.2932637757406	445.0138517618469
600.6952006569692	518.9987849331714
547.69107431473	558.7518833535844
384.261684759493	531.1455650060753
377.6361689667131	399.73948967193195
272.732168914365	399.73948967193195
203.1642530901762	387.59270959902796
178.87069518331663	371.0289185905225
210.89402151508608	319.12904009720535
79.4879582916184	359.98639125151885
