457.234375	302
532.234375	366
589.234375	310
601.234375	439
583.234375	492
503.234375	448
388.234375	356
274.234375	243
144.234375	114
154.234375	64
71.234375	117
83.234375	31
209.234375	106
