96.3125	39
35.3125	69
35.3125	113
41.3125	156
118.3125	144
80.3125	152
152.3125	77
123.3125	92
166.3125	32
143.3125	13
220.3125	12
298.3125	21
403.3125	28
440.3125	73
447.3125	118
546.3125	169
486.3125	176
434.3125	178
398.3125	209
418.3125	241
428.3125	272
346.3125	166
311.3125	146
281.3125	166
321.3125	106
357.3125	111
384.3125	113
276.3125	96
238.3125	105
216.3125	68
217.3125	157
174.3125	170
144.3125	246
108.3125	233
84.3125	225
108.3125	268
94.3125	300
139.3125	283
162.3125	305
200.3125	308
190.3125	282
248.3125	295
271.3125	265
257.3125	333
203.3125	376
276.3125	456
365.3125	316
326.3125	338
364.3125	358
410.3125	323
436.3125	300
369.3125	249
568.3125	330
588.3125	370
532.3125	378
495.3125	365
501.3125	397
480.3125	384
478.3125	421
520.3125	453
592.3125	432
566.3125	456
605.3125	485
458.3125	512
500.3125	522
477.3125	541
474.3125	488
540.3125	487
405.3125	492
394.3125	470
384.3125	530
353.3125	412
392.3125	388
519.3125	563
434.3125	543
583.3125	536
555.3125	536
293.3125	247
