491.67655697707903	245.18364613431407
401.2301810181909	139.66347476360397
282.1424526723215	117.05200946988036
342.44003664491356	22.083855236241263
316.813563456562	19.068993197078115
420.8268958092833	171.31952617481699
588.1526913332264	260.2579563301298
594.1824497304856	80.87366499992261
497.70631537433826	14.546700138333398
530.8699865592639	213.52759472310103
509.76583216885666	438.13481664075545
517.3030301654306	463.76114397364216
601.7196477270596	468.28343703238687
410.2748186140797	367.2855587204215
360.5293118366912	320.55519711339275
447.96080859694973	300.9585938588323
402.7376206175057	261.7653873497114
331.88795944970997	245.18364613431407
289.6796506688955	157.75264699858283
359.0218722373764	109.5148543719725
283.6498922716363	44.69532052996486
310.7838050593027	83.88852703908576
220.3374291004146	56.754768686617446
285.1573318709511	310.0031799763217
334.9028386483396	392.91188605330825
383.14090582641325	296.43630080008757
580.6154933366523	368.79298974000307
401.2301810181909	56.754768686617446
