327.9338734971249	248.6036813149494
398.76508526299426	140.27358554642396
357.09966657718877	108.33009576852544
419.59779460589704	173.60592270597024
401.542779842048	261.1033077497793
504.3174792670349	436.0980778373973
522.372494030884	459.70848332540925
497.3732428194007	577.760510765469
359.8773611562425	324.9902873055763
277.9353710741583	109.7189431501732
309.8788587332759	18.055015961420906
347.3777355505008	22.221558106364192
308.49001144374904	86.10853766216125
289.0461493903731	161.1062962711404
297.37923312753423	233.32636011682402
283.4907602322657	311.1018134890987
382.09891778867205	302.76872919921215
279.32421836368513	45.83196359437615
508.4840211356155	218.04903891869864
532.0944250575719	213.88249677375535
