487.171875	122
533.171875	70
510.171875	21
490.171875	90
470.171875	66
405.171875	10
380.171875	52
335.171875	17
267.171875	61
342.171875	213
200.171875	128
430.171875	117
462.171875	154
484.171875	157
481.171875	197
604.171875	309
514.171875	292
381.171875	269
346.171875	283
307.171875	335
280.171875	253
282.171875	289
340.171875	375
437.171875	380
438.171875	420
496.171875	447
575.171875	516
540.171875	559
356.171875	504
458.171875	601
254.171875	146
