197.5101192181556	289.46237882751194
93.68122458542746	278.97461147868904
146.1200602585225	206.60901677181107
383.14359750091205	511.80304662255736
356.92417966436454	563.1931066317895
417.75322904515474	490.82751192491156
446.07020030862606	550.6077858132021
499.557812695183	592.5588552084937
180.72969180276522	364.97430373903677
240.50996447009354	317.7793506693338
253.09528503163637	248.56008616710264
102.07143829312267	308.34036005539315
267.778159020103	417.41314048315127
385.24115092783586	424.7545776273273
385.24115092783586	383.85228496691803
446.07020030862606	139.48730573934452
557.2405319355876	63.97538082781967
587.6550566259826	35.658408985997845
400.9728016297643	40.902292660409294
434.53365646054516	60.8290506231728
505.8504729759544	182.48715186951839
547.8015415144305	205.56024003692877
553.04542508174	311.48669026004
527.8747839586543	295.75503923680566
481.7286085663307	309.3891367902755
429.28977289323564	155.21895676257887
133.53473969697967	77.60947838128943
162.9004876739129	30.4145253115864
571.9234059240541	119.56054777658102
518.4357935374973	371.26696414833054
541.508881233659	496.071395599323
537.3137743798114	552.7053392829666
