125.171875	362
251.171875	462
265.171875	415
180.171875	371
234.171875	323
202.171875	295
110.171875	314
162.171875	307
86.171875	274
97.171875	198
134.171875	145
232.171875	202
291.171875	218
265.171875	83
284.171875	40
337.171875	13
250.171875	15
119.171875	43
46.171875	87
16.171875	40
101.171875	96
123.171875	116
165.171875	131
323.171875	169
390.171875	192
358.171875	561
382.171875	380
533.171875	10
465.171875	18
486.171875	412
518.171875	363
533.171875	411
547.171875	447
478.171875	471
438.171875	481
383.171875	509
302.171875	323
262.171875	256
