390.4320015258332	156.9397541261971
391.82084881536	223.6044284452897
464.04090787075626	274.99178156625686
479.31822805555163	413.8765197310331
480.70707534507847	370.82225089995245
583.4817747700654	409.7099775860898
537.6498142156793	369.4334035183047
334.87810994475916	290.2691027643823
319.60078975996385	274.99178156625686
295.99038583800734	262.492155131427
300.1569277065879	76.38660599062692
355.71081928766193	83.33084289886573
298.76808041706107	402.765740677851
284.87960752179254	195.82748081233444
205.7153120187621	113.88548529511648
273.76882920557773	55.553895265910484
462.6520605812294	441.65346736398834
114.05139090998996	202.77171772057326
418.2089473163702	302.76872919921215
