158.14821819103867	95.43868287428836
370.0011143103426	143.68241267887367
284.00142380646673	50.341283274349905
343.7816964737951	72.36559470687799
230.5138114199098	9.438990613940607
205.34317029682418	28.31697184182182
98.36794552371033	37.75596245576243
100.46549895063413	120.60932451146331
84.73384824870561	147.87751961840283
24.953575581377283	136.34097553469766
150.80678119680536	188.77981227881213
209.5382771506718	176.19449146022467
315.46472521032376	200.31635636251733
282.9526470930048	213.95045391598708
161.29454833142435	243.3162024926912
139.27023734872446	265.3405139252193
195.9041798756671	300.9989229112171
210.5870538641337	254.85274657639638
241.0015785545288	272.6819510693953
382.5864348718854	317.7793506693338
249.39179226222402	362.87675026927224
341.68414304687127	361.8279735343899
325.95249234494275	332.4622249576858
439.220377398828	256.950300046161
397.269308860352	166.75550084628406
448.65936781998516	217.09678412063397
471.73245551614696	246.46253269733808
514.7323007680849	230.73088167410373
535.7078350373229	179.34082166487153
500.0494267796183	134.24342206493307
531.5127281834752	119.56054777658102
572.4150200084894	108.02400369287584
426.6350568372852	349.2426527158025
594.4393309911893	87.04846899523004
567.1711364411799	439.43745191567933
572.4150200084894	79.70703185105401
494.80554321230875	334.5597784274504
474.87878565653267	388.04739190644716
575.5613501488751	337.70610863209725
532.5615048969372	330.3646714879212
478.0251157969183	362.87675026927224
540.9517186046324	403.7790429296815
599.6832145584988	397.4863825203878
594.4393309911893	349.2426527158025
577.658903575799	257.99907678104324
585.0003405700322	225.48699799969228
605.9758748392702	141.5848592091091
406.7082992815091	217.09678412063397
405.65952256804724	310.43791352515774
396.2205321468901	273.7307278042776
372.0986677372664	364.97430373903677
431.87894040459474	380.7059547622711
487.4641062180755	202.4139098322819
423.4887266968995	183.53592860440068
238.90402512760502	204.51146330204648
166.53843189873388	57.68272041852593
173.87986889296718	9.438990613940607
447.61059110652326	386.9986151715649
