201.1480634429766	23.073088167410372
588.1466707104179	40.902292660409294
556.6833693065608	12.585320818587476
516.8298541950087	38.80473919064472
536.7566117507848	100.68256654869981
472.78123222960886	78.65825511617172
359.5133471757236	112.21911063240499
458.09835824114225	7.3414371441760276
209.5382771506718	60.8290506231728
430.83016369113284	274.77950453915986
418.24484312959004	231.77965840898602
468.58612537576124	229.68210493922143
452.8544746738327	191.92614248345902
458.09835824114225	163.60917064163718
414.0497362757424	165.70672411140177
379.4401047314997	185.63348207416527
349.0255800411046	208.70657024157563
478.0251157969183	294.7062625019234
381.5376581584235	309.3891367902755
581.8540104296466	302.04769964609943
610.1709816931178	257.99907678104324
556.6833693065608	228.63332820433914
408.8058527084329	45.097399599938456
314.41594849686186	55.58516694876135
272.46487995838584	41.95106939529158
298.68429779493334	39.853515925527006
232.6113648468336	77.60947838128943
165.48965518527197	49.29250653946761
213.7333840045194	115.36544083705186
214.7821607179813	145.77996614863827
196.95295658912897	200.31635636251733
245.19668540837642	267.4380673949839
291.34286080070007	179.34082166487153
378.39132801803777	343.99876904139103
452.8544746738327	507.6079396830282
486.41532950461357	594.6564086782582
510.53719391423726	563.1931066317895
372.0986677372664	469.85197722726576
315.46472521032376	431.047238036621
441.31793082575183	482.43729804585325
524.171291189242	519.1444837667334
588.1466707104179	472.9983074319126
588.1466707104179	535.92491152485
543.0492720315561	432.09601477150335
407.757075994971	461.46176334820746
535.7078350373229	286.3160486228651
581.8540104296466	248.56008616710264
460.19591166806606	404.8278196645638
495.85431992577065	458.3154331435606
611.2197584065798	631.3635943991384
596.5368844181131	608.290506231728
568.2199131546419	628.2172641944915
594.4393309911893	495.0226188644407
611.2197584065798	465.6568702877366
599.6832145584988	370.2181874134482
552.4882624527133	321.9744576088629
506.34208706038964	318.82812740421605
476.9763390834565	370.2181874134482
523.1225144757801	382.8035082320357
557.7321460200228	367.07185720880136
438.1716006853661	317.7793506693338
426.6350568372852	201.36513309739962
385.7327650122711	160.46284043699032
482.22022265076595	105.92645022311126
426.6350568372852	77.60947838128943
313.36717178339995	110.12155716264041
386.781541725733	59.78027388829051
494.80554321230875	178.29204492998923
450.7569212469089	119.56054777658102
243.09913198145262	321.9744576088629
336.44025947956175	450.97399599938456
325.95249234494275	362.8767502692722
331.1963759122523	178.29204492998923
533.610281610399	467.7544237575012
508.43964048731345	491.87628865979383
511.58597062769917	438.38867518079707
405.65952256804724	425.8033543622096
546.1956021719419	343.99876904139103
578.7076802892608	356.58408985997846
517.8786309084705	74.46314817664256
485.36655279115166	141.5848592091091
399.3668622872758	227.58455146945684
554.5858158796372	506.5591629481459
524.171291189242	616.6807201107863
419.29361984305194	544.3151254039083
