441.25115897514166	241.62319819860863
212.31074312193033	242.81559619125153
335.1277370431843	354.9010074996851
341.0897270393617	403.7893251980444
356.5909010294229	431.21447902883136
469.8687109567931	527.7987164329071
329.16574704700696	110.45941900788853
109.76451518767944	88.99625514031614
52.5294112243766	22.221967552313174
152.69084316015656	338.20743560268437
257.6218670928784	68.72548926538667
