335.67456894577384	113.73803159173754
257.27263206454523	69.56792223572296
113.71978988764779	83.9232077764277
216.41528467573596	245.14410692588092
153.47288464432708	335.6928311057108
343.4043373706837	345.6311057108141
358.8638742205034	431.7628189550425
440.57856899812197	244.03985419198057
465.97637953711154	528.9370595382746
52.985895120498874	25.397812879708383
14.337052995949561	234.10157958687728
