598.921875	243
548.921875	226
569.921875	168
560.921875	106
481.921875	152
393.921875	128
363.921875	75
371.921875	154
238.921875	42
285.921875	136
304.921875	178
280.921875	203
492.921875	236
414.921875	205
569.921875	276
343.921875	455
438.921875	283
408.921875	254
202.921875	215
248.921875	178
134.921875	67
90.921875	76
223.921875	333
168.921875	313
438.921875	363
224.921875	203
531.921875	342
446.921875	329
398.921875	452
466.921875	476
608.921875	373
551.921875	312
499.921875	188
312.921875	409
280.921875	409
486.921875	459
273.921875	91
204.921875	14
596.921875	324
355.921875	333
363.921875	396
166.921875	268
122.921875	236
13.921875	129
133.921875	114
93.921875	253
130.921875	341
221.921875	391
537.921875	455
598.921875	398
470.921875	336
