294.84375	83.0	1
267.84375	227.0	1
602.9256368234413	330.5456768321674	1
584.8706220595923	495.81851524825106	1
547.3717452423673	466.65272023364804	1
515.4282575832497	448.59770427222713	1
265.43574546841666	229.15981797188073	1
530.705577768045	119.44087482170754	1
501.53978468798124	356.93377708347487	1
296.58674436800953	80.75580858593631	1
169.68476203911956	8.390213879058317	1
162.34332504488626	104.87767348822896	1
411.9521828488186	4.1951069395291585	1
522.0737377623182	17.829204492998922	1
531.5127281834752	124.80443145099247	1
484.31777607768976	33.56085551623327	1
396.2205321468901	38.80473919064472	1
415.0985129892043	99.63378981381751	1
416.1472897026662	140.53608247422682	1
364.75723074303306	158.36528696722573	1
265.1234429641525	233.8772118787506	1
194.8554031622052	239.12109555316204	1
189.61151959489567	175.14571472534237	1
210.5870538641337	323.0232343437452	1
313.36717178339995	290.5111555623942	1
364.75723074303306	316.73057393445146	1
468.58612537576124	206.60901677181107	1
615.4148652604273	205.56024003692877	1
600.7319912719607	331.41344822280354	1
503.195756920004	354.48653639021387	1
478.0251157969183	245.41375596245578	1
381.5376581584235	455.1691029389137	1
361.6109006026474	431.047238036621	1
330.1475991987904	331.41344822280354	1
293.4404142276238	399.5839359901523	1
226.3187045660622	333.51100169256813	1
486.41532950461357	462.5105400830897	1
512.6347473411611	437.3398984459148	1
468.58612537576124	490.82751192491156	1
233.6601415602955	355.5353131250962	1
582.9027871431084	490.82751192491156	1
610.1709816931178	541.1687951992615	1
571.3662432950275	412.1692568087398	1
415.0985129892043	569.4857670410832	1
386.781541725733	493.9738421295584	1
436.0740472584423	376.510847822742	1
485.36655279115166	539.0712417294969	1
443.41548425267564	598.8515156177874	1
542.0004953180943	464.6080935528543	1
515.7810774815467	568.436990306201	1
590.2442241373417	600.949069087552	1
507.39086377385155	372.3157408832128	1
575.5613501488751	248.56008616710264	1
560.8784761604085	182.48715186951839	1
399.3668622872758	311.48669026004	1
456.00080481421844	372.3157408832128	1
594.4393309911893	465.6568702877366	1
553.5370391661752	347.1450992460379	1
560.8784761604085	487.6811817202647	1
530.4639514700134	545.3639021387906	1
193.31501236430802	234.92598861363288	1
269.8757124470268	228.63332820433914	1
385.24115092783586	448.87644252961996	1
409.36301533745956	98.58501307893522	1
541.508881233659	469.85197722726576	1
366.5936426454133	314.7120291616039	1
270.523663650105	226.37181044957472	1
314.6937689353042	292.6269744835966	1
192.1217267688764	234.10157958687728	1
302.54698998187445	75.08918590522478	1
417.3892637233924	109.32102065613608	1
537.7528006255602	123.67630619684083	1
503.5209690295309	356.67363304981774	1
555.42084273964	344.52685297691374	1
604.0079585533591	325.7545565006075	1
587.4441690714094	493.60097205346295	1
538.8570532576903	467.0989064398542	1
511.25073745444075	447.2223572296476	1
485.8529269154512	468.20315917375456	1
418.4935163555224	570.8986634264885	1
449.41259005516184	598.5049817739975	1
414.07650582700245	597.4007290400972	1
209.78976888295608	326.8588092345079	1
236.29183205407563	350.04811664641556	1
488.0614321797111	32.02332928311057	1
536.6485479934303	20.980801944106926	1
403.03397950570263	41.96160388821385	1
566.4633690609397	184.41020656136087	1
473.7061479620214	209.80801944106926	1
482.54016901906124	245.14410692588092	1
579.7144006464995	437.28408262454434	1
485.8529269154512	537.7710814094775	1
161.20265306923696	99.38274605103281	1
177.76644255118666	14.355285540704738	1
311.171875	290.0	1
224.171875	337.0	1
206.171875	319.0	1
597.171875	580.0	1
610.171875	539.0	1
575.171875	492.0	1
512.171875	443.0	1
381.171875	452.0	1
412.171875	569.0	1
595.171875	329.0	1
371.171875	310.0	1
503.171875	365.0	1
267.171875	223.0	1
291.171875	72.0	1
405.171875	4.0	1
300.171875	397.0	1
364.171875	418.0	1
462.171875	487.0	1
518.171875	563.0	1
