322.234375	355.0	1
285.234375	366.0	1
296.234375	405.0	1
322.234375	446.0	1
356.234375	403.0	1
367.234375	352.0	1
411.234375	368.0	1
512.234375	160.0	1
479.234375	269.0	1
449.234375	238.0	1
421.234375	319.0	1
439.234375	398.0	1
410.234375	443.0	1
533.234375	353.0	1
522.234375	321.0	1
420.234375	175.0	1
339.234375	144.0	1
313.234375	105.0	1
282.234375	56.0	1
201.234375	140.0	1
277.234375	171.0	1
296.234375	208.0	1
243.234375	242.0	1
228.234375	213.0	1
218.234375	281.0	1
209.234375	246.0	1
346.234375	228.0	1
381.234375	161.0	1
498.234375	207.0	1
476.234375	173.0	1
462.234375	434.0	1
479.234375	366.0	1
449.234375	360.0	1
369.234375	326.0	1
344.234375	317.0	1
252.234375	395.0	1
187.234375	297.0	1
206.234375	321.0	1
408.234375	467.0	1
533.234375	430.0	1
510.234375	410.0	1
467.234375	464.0	1
449.234375	493.0	1
273.234375	231.0	1
238.234375	163.0	1
366.234375	75.0	1
393.234375	97.0	1
427.234375	252.0	1
435.234375	295.0	1
574.234375	399.0	1
545.234375	395.0	1
582.234375	433.0	1
611.234375	395.0	1
571.234375	364.0	1
575.234375	290.0	1
573.234375	183.0	1
601.234375	217.0	1
182.4907104781097	87.2890832422302	1
161.20069067952704	20.22551928783383	1
315.5533342192512	100.06309542401999	1
293.19881343073945	52.1605497423083	1
274.03779561201503	65.99906293924722	1
397.5199104437944	23.419022333281276	1
377.29439163514087	348.0918319537717	1
379.42339361499916	326.8018116507887	1
324.06934213868425	364.0593471810089	1
360.26237579627474	382.1558644385444	1
321.940340158826	437.50991722630016	1
288.94080947102293	359.8013431204123	1
268.7152906623694	371.51085428705295	1
219.74824512562932	274.64126190848043	1
191.00671839754276	246.96423551460254	1
425.1969361819518	323.6083086053413	1
481.6154886481958	267.18975480243637	1
507.163512406495	208.6421989692332	1
519.9375242856446	162.8686553178198	1
480.5509876582667	141.5786350148368	1
477.3574846884793	175.64266749960956	1
307.0373262998182	246.96423551460254	1
463.5189718194006	428.993909105107	1
448.61595796039273	489.6704669686085	1
589.1300886310381	435.38091519600187	1
568.9045698223847	400.25238169607996	1
605.0976034799752	374.7043573325004	1
608.2911064497625	289.5442761205685	1
598.7105975404004	9.58050913634234	1
349.6173658969834	258.6737466812432	1
350.6818668869126	283.1572700296736	1
350.6818668869126	304.44729033265656	1
255.94127878321981	241.6417304388568	1
230.39325502492065	208.6421989692332	1
286.81180749116464	170.32016242386382	1
297.45681739045597	200.12619084803998	1
332.58535005811734	204.38419490863657	1
351.7463678768417	223.54521318132126	1
202.7162292867632	137.32063095424022	1
175.03920354860577	147.9656411057317	1
112.23364514278697	68.12806496954553	1
114.36264712264524	139.4496329845385	1
449.68045895032185	356.6078400749649	1
445.42245499060533	381.0913634233953	1
472.0349797388336	364.0593471810089	1
502.90550844677847	355.5433390598157	1
525.2600292352903	319.3503045447447	1
383.6813975747157	472.6384507262221	1
385.81039955457396	490.73496798375766	1
418.80993024237705	525.8635014836796	1
410.29392232294396	460.92893955958147	1
588.065587641109	605.7010776198657	1
558.2595599230933	523.7344994533812	1
590.1945896209673	515.218491332188	1
614.6781123893373	545.0245197563643	1
614.6781123893373	405.57488677182573	1
535.9050391345816	351.2853349992191	1
497.58300349713284	387.4783695142902	1
508.22801339642416	416.2198969233172	1
532.7115361647942	427.92940808995786	1
548.6790510137312	395.9943776354834	1
569.9690708123138	364.0593471810089	1
346.42386292719607	140.51413399968766	1
595.5170945706129	90.48258628767765	1
554.0015559633769	78.77307512103701	1
497.58300349713284	34.06403248477277	1
447.5514569704636	59.61205684835234	1
435.8419460812431	36.19303451507106	1
446.48695598053445	22.354521318132125	1
465.64797379925886	41.51553959081681	1
143.1041738507318	108.57910354521319	1
168.65219760903096	218.22270810557552	1
135.65266692122802	191.61018272684697	1
455.00296389996754	244.83523348430424	1
426.26143717188097	242.70623145400594	1
541.2275440842272	258.6737466812432	1
574.2270747720303	188.41667968139936	1
527.3890312151485	267.18975480243637	1
557.1950589331642	150.09464313603	1
524.1955282453611	9.58050913634234	1
600.8395995202586	230.9967202873653	1
584.8720846713217	257.609245666094	1
571.0335718022429	266.1252537872872	1
573.1625737821012	234.19022333281276	1
605.0976034799752	213.96470404497893	1
373.03638767542435	75.57957207558957	1
442.2289520208179	120.28861471185382	1
393.2619064840779	121.35311572700297	1
417.7454292524479	91.54708730282681	1
455.00296389996754	103.25659846946743	1
488.0024945877706	75.57957207558957	1
514.6150193359989	61.741058878650634	1
507.163512406495	91.54708730282681	1
506.099011416566	113.90160862095892	1
526.3245302252194	119.22411369670468	1
427.3259381618101	150.09464313603	1
419.87443123230616	164.99765734811808	1
384.7458985646448	189.4811806965485	1
352.8108688667708	192.67468374199595	1
369.84288470563695	195.8681867874434	1
505.03451042663676	576.9595502108386	1
562.5175638828099	599.3140715289708	1
514.6150193359989	601.4430735592691	1
605.0976034799752	350.22083398407	1
238.90926294435369	37.25753553022021	1
352.8108688667708	6.387006090894893	1
319.81133817896773	10.645010151491489	1
125.00765702193655	28.741527409027018	1
103.71763722335392	5.322505075745744	1
102.65313623342479	29.80602842417617	1
321.940340158826	185.22317663595192	1
156.109375	16.0	1
114.109375	68.0	1
182.109375	81.0	1
208.109375	135.0	1
315.109375	107.0	1
207.109375	242.0	1
287.109375	362.0	1
402.109375	26.0	1
494.109375	40.0	1
450.109375	57.0	1
422.109375	88.0	1
342.109375	142.0	1
288.109375	170.0	1
296.109375	243.0	1
330.109375	358.0	1
370.109375	352.0	1
475.109375	176.0	1
500.109375	206.0	1
546.109375	87.0	1
585.109375	97.0	1
578.109375	184.0	1
489.109375	147.0	1
449.109375	354.0	1
484.109375	257.0	1
523.109375	316.0	1
492.109375	351.0	1
538.109375	396.0	1
573.109375	396.0	1
159.171875	18.0	1
308.171875	100.0	1
593.171875	96.0	1
110.171875	66.0	1
218.171875	272.0	1
359.171875	386.0	1
475.171875	267.0	1
504.171875	200.0	1
522.171875	155.0	1
479.171875	145.0	1
462.171875	427.0	1
417.171875	320.0	1
525.171875	318.0	1
566.171875	392.0	1
449.171875	353.0	1
341.171875	140.0	1
253.171875	240.0	1
304.171875	248.0	1
345.171875	276.0	1
495.171875	357.0	1
457.171875	383.0	1
373.171875	353.0	1
159.3125	16.0	1
123.3125	30.0	1
109.3125	63.0	1
141.3125	103.0	1
116.3125	123.0	1
176.3125	90.0	1
283.3125	51.0	1
308.3125	100.0	1
365.3125	74.0	1
399.3125	27.0	1
412.3125	95.0	1
455.3125	98.0	1
507.3125	107.0	1
552.3125	80.0	1
512.3125	68.0	1
479.3125	84.0	1
495.3125	35.0	1
446.3125	63.0	1
596.3125	18.0	1
587.3125	96.0	1
555.3125	152.0	1
519.3125	158.0	1
480.3125	141.0	1
477.3125	171.0	1
505.3125	206.0	1
419.3125	171.0	1
344.3125	143.0	1
184.3125	141.0	1
229.3125	202.0	1
218.3125	273.0	1
278.3125	168.0	1
309.3125	245.0	1
450.3125	240.0	1
473.3125	269.0	1
421.3125	325.0	1
357.3125	386.0	1
327.3125	360.0	1
282.3125	358.0	1
321.3125	440.0	1
565.3125	393.0	1
570.3125	364.0	1
531.3125	353.0	1
518.3125	324.0	1
554.3125	523.0	1
591.3125	508.0	1
462.3125	430.0	1
414.3125	438.0	1
460.3125	355.0	1
451.3125	383.0	1
371.3125	340.0	1
341.3125	311.0	1
350.3125	269.0	1
446.3125	28.0	1
165.3125	202.0	1
196.3125	240.0	1
142.3125	156.0	1
567.3125	186.0	1
263.3125	235.0	1
452.3125	498.0	1
253.09528503163637	241.21864902292663	1
160.8029342469891	219.19433759039853	1
183.8760219431509	88.09724573011233	1
326.5096549739694	359.7304200646253	1
459.70429758363076	531.7298045853208	1
526.8260072451924	318.82812740421605	1
502.7041428355687	205.56024003692877	1
311.8267809855028	99.63378981381751	1
323.3633248335837	444.6813355900908	1
553.04542508174	148.92629635328512	1
572.9721826375161	186.68225880904757	1
425.0946660393881	324.0720110786275	1
475.4359482855593	260.09663025080783	1
340.1437522489741	140.53608247422682	1
162.9004876739129	13.634097553469765	1
462.8506277240165	431.047238036621	1
351.680296097055	225.48699799969228	1
305.5341207047314	251.70641637174953	1
522.6309003913448	165.70672411140177	1
550.9478716548161	75.51192491152486	1
476.1457052654034	259.6437763821682	1
505.618784022944	202.1011016163904	1
519.6535834312967	315.78297127561	1
497.19790437793245	356.4838875733553	1
577.1962610055426	395.78132399876455	1
542.1092624846609	395.78132399876455	1
589.82758047306	433.6752805518377	1
501.4083442004382	390.16740450942035	1
452.28654627120386	350.86996808401113	1
463.514385797886	384.55348502007615	1
443.86566662619225	377.53608565839596	1
370.88470970275836	349.4664882116751	1
424.2169474544985	322.8003706372902	1
293.69331295681866	207.71502110573456	1
285.27243331180705	167.0141048079893	1
227.72975573756108	209.1185009780706	1
238.95759526424322	252.626377020488	1
213.69495632920842	248.41593740347986	1
188.4323173941736	242.8020179141357	1
220.71235603338476	272.27509523319264	1
199.66015692085574	137.54102748893234	1
316.14899201018295	96.84011119118706	1
344.21859082688826	138.9445073612684	1
345.6220707677235	223.15329970143105	1
373.6916695844289	71.57747348913827	1
417.19954775032215	94.03315144651498	1
572.9858211830368	183.8558632760218	1
463.514385797886	435.07876042417377	1
361.0603501169115	383.1500051477401	1
330.1837914185356	359.2908473180274	1
297.90375277932446	399.99176361577264	1
286.6759132526423	53.33223514876969	1
158.78125	17.0	1
181.78125	94.0	1
143.78125	107.0	1
201.78125	131.0	1
235.78125	170.0	1
307.78125	102.0	1
340.78125	139.0	1
290.78125	165.0	1
397.78125	26.0	1
423.78125	319.0	1
321.78125	359.0	1
351.78125	388.0	1
451.78125	350.0	1
438.78125	374.0	1
520.78125	323.0	1
528.78125	354.0	1
567.78125	395.0	1
541.78125	392.0	1
443.78125	59.0	1
555.78125	77.0	1
501.78125	212.0	1
475.78125	257.0	1
533.78125	252.0	1
309.78125	251.0	1
346.78125	268.0	1
516.78125	161.0	1
559.78125	148.0	1
574.78125	179.0	1
418.78125	525.0	1
446.78125	491.0	1
232.78125	210.0	1
477.01890585841136	261.7078979343864	1
456.0381058479417	237.41433778857837	1
431.74454794108215	251.76962332928312	1
505.7294742937908	204.28675577156744	1
523.3975164078705	159.0123936816525	1
557.6293480038998	144.65710814094774	1
590.7569269677994	94.96573511543134	1
551.00383221112	75.08918590522478	1
425.11903214830227	321.33754556500605	1
357.7596215883735	389.80121506682866	1
323.5277899923441	359.98639125151885	1
290.40021102844463	405.26075334143377	1
499.10395850101094	356.67363304981774	1
520.0847585114806	316.92053462940464	1
537.7528006255602	351.1523693803159	1
543.2740637862101	393.1139732685298	1
569.7761269573297	399.73948967193195	1
554.3165901075099	526.7285540704738	1
588.5484217035394	517.894532199271	1
161.20265306923696	12.14678007290401	1
109.30277935912787	65.1509113001215	1
237.3960846862056	38.64884568651276	1
315.7980215674342	103.79975698663426	1
281.5661899714048	162.32515188335358	1
345.61284263494366	143.5528554070474	1
241.8130952147255	165.63791008505467	1
225.2493057327758	204.28675577156744	1
179.97494781544663	89.44447144592952	1
143.53461095515726	112.63377885783719	1
145.74311621941723	151.28262454434994	1
318.00652683169415	439.4925880923451	1
570.8803795894597	183.3059538274605	1
371.01065317393324	69.56792223572296	1
303.65124261400445	249.5611178614824	1
406.3467374020926	361.0906439854192	1
