575.234375	337.0	1
88.234375	284.0	1
153.234375	383.0	1
90.5304846129182	283.79295261239366	1
261.6896425930652	6.625516403402187	1
568.5347189835386	344.8401008120975	1
158.79851499002035	390.6491178941473	1
115.53444376089108	344.8401008120975	1
67.18048179892308	301.57602912349483	1
