544.0833282470703	309.98333740234375	1
548.0833282470703	241.98333740234375	1
517.0833282470703	203.98333740234375	1
342.0833282470703	331.98333740234375	1
294.0833282470703	311.98333740234375	1
314.0833282470703	416.98333740234375	1
505.0833282470703	440.98333740234375	1
555.0833282470703	456.98333740234375	1
494.0833282470703	529.9833374023438	1
507.0833282470703	573.9833374023438	1
463.0833282470703	573.9833374023438	1
463.0833282470703	301.98333740234375	1
230.0833282470703	85.98333740234375	1
204.0833282470703	109.98333740234375	1
252.0833282470703	93.98333740234375	1
372.0833282470703	55.98333740234375	1
287.0833282470703	44.98333740234375	1
189.0833282470703	56.98333740234375	1
378.0833282470703	149.98333740234375	1
316.0833282470703	181.98333740234375	1
520.0833282470703	101.98333740234375	1
410.0833282470703	147.98333740234375	1
461.0833282470703	147.98333740234375	1
439.0833282470703	136.98333740234375	1
499.0833282470703	334.98333740234375	1
548.0833282470703	277.98333740234375	1
263.0833282470703	292.98333740234375	1
375.60370782983927	55.24733766703587	1
291.1870902682103	49.217613588709575	1
182.65143911754453	59.76963072578059	1
122.35385514495242	70.3216478628516	1
337.9177178469692	174.33438821398013	1
473.5872817853014	29.62101033414913	1
564.0336577441896	320.55519711339275	1
565.5410973435044	365.7781277008399	1
303.24660706272874	414.01592032745026	1
444.9459293983202	58.26219970619901	1
372.58882863120965	91.42568213699363	1
582.1229329359671	129.11145762653294	1
547.4518221517267	276.8396975455271	1
328.87308025108035	68.81421684327003	1
467.55752338804217	297.94373181966915	1
497.70631537433826	332.6146452700453	1
377.111147429154	148.7080608810934	1
610.7642853229485	187.9012673902143	1
538.407184555838	424.56793746452126	1
383.14090582641325	382.35986891623725	1
292.6945298675251	316.032904054648	1
230.8895062956182	228.60190491891677	1
568.555976542134	230.10933593849833	1
416.3045770113389	142.67833680276712	1
230.8895062956182	82.38109601950418	1
208.27791230589617	103.48513029364621	1
161.54728472713728	19.068993197078118	1
591.167570531856	77.85880296075946	1
441.93105019969056	8.516976060007106	1
294.2019694668399	13.039269118751825	1
331.88795944970997	335.62950730920846	1
554.9890201483007	460.74628193447904	1
259.53085868259944	290.40657672176127	1
303.24660706272874	187.9012673902143	1
365.0516306346356	484.8651782477842	1
375.60370782983927	423.0605064449397	1
379.3212232096184	154.1620593629016	1
466.81860244980993	297.2133396726211	1
544.5940506633136	312.49066087074647	1
572.3709964538506	280.5471710928479	1
550.149439821421	277.7694763295524	1
568.20445458527	320.82374516063305	1
559.8713708481089	369.4334035183047	1
507.09517384608864	436.0980778373973	1
491.81785366129327	527.7620050261496	1
501.53978468798124	574.9828160021735	1
527.9278831889914	587.4824424370033	1
493.2067009508201	316.65720301568973	1
287.65730210084627	313.8795082523942	1
337.6558045238129	183.3278543775046	1
315.4342478913833	179.1613122325613	1
300.1569277065879	186.10554914080012	1
229.32571594071854	205.5494124838688	1
377.93237592009154	91.6639271887523	1
411.26471086873596	148.60666983631054	1
462.6520605812294	145.82897507301502	1
440.4305039487998	61.10928479250153	1
290.43499667989994	45.83196359437615	1
222.3814794930843	80.5531481355702	1
257.1026617312555	94.44162195204783	1
212.65954846639633	102.7747062419344	1
187.66029725491302	58.331590029206005	1
312.65655331232955	415.26536711268085	1
287.6573021008463	413.8765197310331	1
286.171875	7.0	1
291.171875	45.0	1
162.171875	18.0	1
97.171875	8.0	1
112.171875	52.0	1
120.171875	85.0	1
86.171875	85.0	1
93.171875	127.0	1
192.171875	55.0	1
228.171875	84.0	1
269.171875	136.0	1
222.171875	203.0	1
244.171875	168.0	1
303.171875	181.0	1
336.171875	182.0	1
322.171875	70.0	1
439.171875	8.0	1
534.171875	13.0	1
482.171875	42.0	1
408.171875	143.0	1
440.171875	134.0	1
462.171875	148.0	1
483.171875	99.0	1
524.171875	100.0	1
529.171875	151.0	1
493.171875	168.0	1
403.171875	273.0	1
427.171875	297.0	1
348.171875	268.0	1
373.171875	281.0	1
396.171875	306.0	1
474.171875	385.0	1
569.171875	326.0	1
538.171875	314.0	1
492.171875	317.0	1
531.171875	422.0	1
501.171875	440.0	1
456.171875	469.0	1
423.171875	517.0	1
545.171875	537.0	1
502.171875	579.0	1
600.171875	554.0	1
602.171875	622.0	1
529.171875	587.0	1
207.171875	104.0	1
284.171875	311.0	1
338.171875	332.0	1
307.171875	416.0	1
587.171875	421.0	1
332.314710942526	183.10028105003863	1
286.75313841362026	314.0895894256861	1
339.4337066501675	334.02274504806724	1
310.9577238196014	418.026758028102	1
466.1518302461866	301.27541795415533	1
525.9513941903754	514.8449424796675	1
568.6653684362245	324.05616723687666	1
544.4607830302434	279.91846550160415	1
557.2749753039981	460.7406629332044	1
419.1664585757526	581.7633934976614	1
483.23741994452627	618.7821110820835	1
414.8950611511676	547.5922695735794	1
525.9513941903754	618.7821110820835	1
604.2603469744322	556.1350505545998	1
510.28960363356407	574.6444093468109	1
524.527595048847	450.77408512201384	1
491.7802147936961	529.0829107813684	1
463.30423196313	467.8596470840548	1
414.8950611511676	144.65776663544642	1
263.97235214916736	148.92915712595666	1
212.7155830541484	106.21525222085424	1
254.00575815846923	97.67247123983375	1
187.0871985066389	57.80615999507149	1
97.38785259035572	12.244661429628897	1
56.0976774860349	72.0441282967723	1
95.96405344882743	124.7246110130653	1
93.11645516577082	91.97728391915344	1
508.86580449203575	77.73931561745262	1
440.5234456986771	57.80615999507149	1
523.1037959073188	104.79145539068416	1
582.9033598515076	76.31551878728254	1
477.54222337841304	23.635036070989546	1
289.60073669667685	39.296801202860436	1
496.05161221828104	334.02274504806724	1
369.3334886222619	556.1350505545998	1
90.26849363659039	88.99410680473056	1
292.1825500485519	10.531433330931764	1
285.90542912382773	46.101178639053884	1
321.4757810305981	67.0245582320669	1
372.73893524917906	91.08644476403187	1
351.81519883343174	63.886051293114946	1
529.6669583672839	153.8565835430709	1
546.4059474998817	235.45776395582166	1
523.3898374425596	207.21120150525408	1
464.8033754784672	299.27407171451136	1
536.9902661127954	421.6758423336375	1
549.5445079622438	532.5697541766065	1
602.9000358223994	553.4931337696195	1
476.3114305071282	620.4479484672611	1
504.5584746683871	575.4626823422831	1
525.4822110841344	588.0167100980909	1
531.7593320088586	554.5393027492701	1
467.9419359408293	576.5088513219338	1
507.69703513074916	501.1846847870869	1
492.0042328189387	526.2927402987025	1
463.7571886576798	395.5216178423712	1
308.92153918114974	415.39882845573356	1
286.95161594461507	313.92043742962045	1
287.99780276540247	413.3064904964323	1
226.27278033894788	203.02652558665147	1
300.55204461485084	183.1493149732891	1
227.31896715973525	82.71709292682665	1
208.4876043855627	101.54813456053837	1
157.22445016698177	19.94695414778762	1
94.45324091973986	125.61002109250333	1
525.4822110841344	98.40962762158642	1
587.2072335105889	127.70235905180463	1
437.6025181379957	7.392926391979812	1
557.9140025285427	278.35069212149835	1
478.40380414870293	374.5982382493582	1
592.4381676145258	475.03046029582066	1
412.4940344390989	525.2465713190519	1
541.1750133959449	311.82809947031916	1
493.05041963972604	317.0589443685724	1
461.6648150161051	146.53340068551634	1
253.4736376794194	99.45579660123707	1
337.1685833424086	183.1493149732891	1
248.24270357548255	168.50294925818002	1
113.28460369391243	218.71906028141123	1
575.6991784819279	422.72201131328814	1
556.8678157077553	362.0442104935504	1
438.64870495878307	58.65520639486169	1
296.36729733170137	269.98134028429314	1
375.87749571154114	154.90275252272156	1
414.58640808067366	145.4872317058657	1
438.64870495878307	138.16404884831115	1
432.37158403405886	312.8742684499698	1
337.1685833424086	232.3192570168697	1
448.06438634586937	218.71906028141123	1
488.8656723565766	214.53438436280865	1
477.3576173279156	45.05500965940323	1
95.49942774052721	9.485264351281113	1
141.5316478551713	104.68664149949032	1
93.84324250930815	121.46780072904009	1
92.73898987717817	87.2359659781288	1
287.0874531320547	40.857351154313484	1
325.736295256604	66.25516403402187	1
313.58951630317426	176.6804374240583	1
483.64442165119124	615.0687727825031	1
528.9187795685204	618.3815309842041	1
604.0079585533591	552.1263669501823	1
511.25073745444075	573.1071688942892	1
420.70202161978233	575.3156743620899	1
416.2850110912624	545.50085054678	1
305.8597478782644	506.8520048602673	1
342.3000847385537	523.4157958687728	1
354.44686369198354	565.3773997569866	1
525.6060216721305	511.26901579586877	1
556.5250953717699	460.473390036452	1
586.3399164392794	451.6393681652491	1
557.6293480038998	356.67363304981774	1
543.2740637862101	309.19076549210206	1
568.6718743251997	278.27168894289184	1
549.89957957899	238.51859052247875	1
583.0271585428894	129.19756986634266	1
527.8145269363904	100.48699878493316	1
510.14648482231075	78.40194410692588	1
480.3316637548013	46.37861482381531	1
479.2274111226713	20.980801944106926	1
446.0998321587719	57.42114216281895	1
393.0957058165328	56.31688942891859	1
365.4893900132833	59.62964763061969	1
183.28770571183657	56.31688942891859	1
225.2493057327758	204.28675577156744	1
153.47288464432708	282.6886998784933	1
118.13680041616772	263.91640340218714	1
114.82404251977778	216.43353584447144	1
131.38783200172747	142.44860267314704	1
94.94749514143813	4.417010935601458	1
135.8048425302474	9.938274605103281	1
108.1985267269979	186.6187120291616	1
256.16837943241524	287.1057108140948	1
262.7938952251952	315.81628189550423	1
289.2959583963147	312.5035236938032	1
336.77882157790384	333.4843256379101	1
314.69376893530426	412.99052247873635	1
287.0874531320547	411.88626974483594	1
367.6978952775433	482.5584447144593	1
379.84467423097306	510.1647630619684	1
490.2699374439711	533.354070473876	1
467.08063216924154	579.7326852976913	1
531.1272848327803	450.53511543134874	1
503.5209690295309	438.3883353584447	1
533.3357900970403	425.13730255164035	1
547.69107431473	531.1455650060753	1
533.3357900970403	556.5433778857837	1
492.47844270823106	310.2950182260024	1
499.10395850101094	334.58857837181046	1
464.87212690498154	299.25249088699877	1
407.45099003422257	334.58857837181046	1
504.6252216616609	257.2908869987849	1
372.1149058060632	92.75722964763062	1
482.54016901906124	91.65297691373026	1
179.97494781544663	241.83134872417983	1
438.370063733862	9.938274605103281	1
578.6101480143695	422.9287970838396	1
514.5634953508306	477.0371810449575	1
506.8337269259208	502.43499392466583	1
334.57031631364384	182.20170109356013	1
299.2342320854845	186.6187120291616	1
563.5331922163589	325.12078781350976	1
465.9969578644022	297.85259270657025	1
420.89955918554045	583.1198645945531	1
285.6073631489553	318.82812740421605	1
221.63198362777933	204.51146330204648	1
293.9975768566505	46.146176334820744	1
480.6798318528688	619.8270503154332	1
505.8504729759544	581.0223111247884	1
532.069890812502	615.631943375904	1
338.0461988220503	333.51100169256813	1
479.6310551394069	373.36451761809514	1
334.8998686816646	178.29204492998923	1
