479.6310551394069	410.0717033389752	1
485.92371542017827	362.87675026927224	1
461.80185101055457	284.2184951531005	1
389.4362577816834	221.29189106016312	1
389.4362577816834	162.56039390675488	1
345.3876358162836	79.70703185105401	1
297.1439069970362	78.65825511617172	1
312.8755576989647	101.73134328358209	1
198.5588959316175	112.21911063240499	1
99.97388486619886	124.80443145099247	1
286.65613986241715	198.21880289275273	1
274.07081930087435	294.7062625019234	1
293.9975768566505	256.950300046161	1
288.75369328934096	220.24311432528083	1
531.02111409904	290.5111555623942	1
498.5090359817211	277.9258347438068	1
387.3387043547596	350.29142945068475	1
292.9488001431886	399.5839359901523	1
576.1185127779017	402.73026619479924	1
464.9481811509403	439.43745191567933	1
606.5330374682968	329.31589475303895	1
388.67869528801293	156.80388821385176	1
395.3042110807928	218.64204131227217	1
462.6636216407216	278.27168894289184	1
524.5017690400005	102.6955042527339	1
346.71709526707366	77.29769137302551	1
312.48526367104427	102.6955042527339	1
297.0257268212245	76.19343863912515	1
267.21090575371505	49.691373025516405	1
194.33023203313635	25.397812879708383	1
206.47701098656614	113.73803159173754	1
105.99002146273793	197.66123936816524	1
291.50446366057463	253.97812879708383	1
319.11077946382414	270.5419198055893	1
418.4935163555224	309.19076549210206	1
585.2356638071494	411.88626974483594	1
565.3591164288098	440.59684082624545	1
480.3316637548013	415.19902794653706	1
463.7678742728516	449.43086269744833	1
293.71296892483457	9.938274605103281	1
385.234375	170.0	1
349.234375	83.0	1
304.234375	81.0	1
264.234375	110.0	1
174.234375	89.0	1
146.234375	130.0	1
190.234375	20.0	1
207.234375	118.0	1
268.234375	52.0	1
289.234375	9.0	1
393.234375	225.0	1
362.234375	246.0	1
458.234375	277.0	1
481.234375	370.0	1
479.234375	414.0	1
537.234375	385.0	1
531.234375	298.0	1
529.234375	103.0	1
284.234375	204.0	1
284.234375	165.0	1
317.234375	111.0	1
96.234375	122.0	1
117.234375	44.0	1
320.234375	268.0	1
289.234375	261.0	1
459.234375	442.0	1
553.234375	485.0	1
563.234375	254.0	1
537.234375	169.0	1
414.234375	303.0	1
261.234375	302.0	1
141.234375	173.0	1
113.234375	200.0	1
55.234375	224.0	1
34.234375	190.0	1
139.234375	85.0	1
124.234375	216.0	1
149.234375	335.0	1
391.234375	361.0	1
566.234375	438.0	1
390.4320015258332	156.9397541261971	1
391.82084881536	223.6044284452897	1
464.04090787075626	274.99178156625686	1
479.31822805555163	413.8765197310331	1
480.70707534507847	370.82225089995245	1
583.4817747700654	409.7099775860898	1
537.6498142156793	369.4334035183047	1
334.87810994475916	290.2691027643823	1
319.60078975996385	274.99178156625686	1
295.99038583800734	262.492155131427	1
300.1569277065879	76.38660599062692	1
355.71081928766193	83.33084289886573	1
298.76808041706107	402.765740677851	1
284.87960752179254	195.82748081233444	1
205.7153120187621	113.88548529511648	1
273.76882920557773	55.553895265910484	1
462.6520605812294	441.65346736398834	1
114.05139090998996	202.77171772057326	1
418.2089473163702	302.76872919921215	1
285.171875	203.0	1
296.171875	260.0	1
477.171875	410.0	1
481.171875	364.0	1
528.171875	291.0	1
346.171875	81.0	1
299.171875	75.0	1
314.171875	105.0	1
315.171875	36.0	1
269.171875	114.0	1
273.171875	359.0	1
342.8681532850171	80.920477005848	1
298.7494273133045	80.920477005848	1
314.25060130336567	103.57603886606329	1
392.94886925290706	158.42634652763715	1
390.56407325443615	216.85384816713974	1
462.10795320856465	277.66614579192816	1
532.4594351634578	284.82053374778565	1
582.5401511313477	408.82992498264827	1
477.60912719862586	413.5995169532199	1
460.91555520932917	444.6018647619356	1
290.40264131865615	259.7801759022845	1
317.8277953010721	271.7041558287136	1
340.48335728654615	284.82053374778565	1
177.124831391286	84.49767098377673	1
203.35758737446645	116.69241678513531	1
97.23416544250911	123.84680474099277	1
284.4406513224788	195.39068429956737	1
284.4406513224788	226.39303210828302	1
266.5546813339467	296.7445136742147	1
482.3787191955678	373.057985203361	1
540.806221158106	373.057985203361	1
520.535455171103	479.18140654857996	1
109.15814543486387	201.35267426278193	1
137.7756974165153	175.1199184246379	1
158.04646340351837	327.7468614829304	1
258.2078953392983	229.97022608621177	1
609.9653051137636	272.8965538213565	1
503.84188318180634	280.050941777214	1
117.5049314295122	37.99414927070323	1
290.40264131865615	3.414607484058841	1
415.6044312383811	306.283697615358	1
167.58564739740217	191.81349032163862	1
385.7944812574942	353.9796173210744	1
525.3050471680449	96.42165091020583	1
565.846579142051	439.83227279136395	1
297.55702931406904	401.6755370267908	1
233.16753735535335	348.01762735785985	1
119.88972742798315	216.85384816713974	1
266.5546813339467	49.91812919713234	1
417.3125	305.0	1
395.3125	219.0	1
458.3125	278.0	1
391.3125	160.0	1
524.3125	98.0	1
581.3125	409.0	1
485.3125	365.0	1
534.3125	367.0	1
483.3125	410.0	1
291.3125	257.0	1
312.3125	266.0	1
337.3125	282.0	1
348.3125	76.0	1
297.3125	77.0	1
311.3125	98.0	1
260.3125	49.0	1
208.3125	116.0	1
191.3125	29.0	1
523.3125	285.0	1
462.3125	440.0	1
273.3125	361.0	1
311.3125	36.0	1
460.45511637646166	277.1674362089915	1
397.51271634505275	224.163304981774	1
388.67869528801293	157.90814094775212	1
346.71709526707366	82.81895504252734	1
300.3384847176145	72.88068043742406	1
480.3316637548013	415.19902794653706	1
209.78976888295608	114.8422843256379	1
417.3892637233924	304.7737545565006	1
287.0874531320547	256.18663426488456	1
315.7980215674342	272.75042527339	1
340.0915794742938	288.20996354799513	1
282.6704426035348	160.11664641555285	1
480.3316637548013	375.44592952612396	1
537.7528006255602	371.0289185905225	1
581.9229059107595	409.67776427703524	1
534.4400427291703	290.4184690157959	1
506.8337269259208	281.58444714459296	1
314.6937689353042	102.6955042527339	1
269.41941101797505	54.10838396111786	1
611.7377269782689	276.06318347509114	1
487.3125	367.0	1
481.3125	411.0	1
577.3125	404.0	1
539.3125	367.0	1
530.3125	337.0	1
467.3125	437.0	1
398.3125	221.0	1
463.3125	277.0	1
389.3125	161.0	1
343.3125	80.0	1
303.3125	78.0	1
269.3125	54.0	1
207.3125	115.0	1
181.3125	81.0	1
295.3125	259.0	1
319.3125	272.0	1
340.3125	287.0	1
267.3125	295.0	1
418.3125	299.0	1
192.3125	24.0	1
286.3125	161.0	1
568.3125	442.0	1
341.1958321064238	13.251032806804375	1
133.59633726598744	14.355285540704738	1
80.59221092374838	23.189307411907656	1
65.13267407392865	44.17010935601458	1
118.13680041616772	47.48286755771567	1
295.92147418909457	14.355285540704738	1
340.0915794742938	73.98493317132443	1
189.91322150461644	26.50206561360875	1
526.7102743042605	101.59125151883353	1
616.1547375067888	270.5419198055893	1
531.1272848327803	283.79295261239366	1
534.4400427291703	369.9246658566221	1
490.2699374439711	372.13317132442285	1
471.4976426977614	420.7202916160389	1
384.261684759493	361.0906439854192	1
383.157432127363	316.92053462940464	1
401.9297268735727	224.163304981774	1
395.3042110807928	167.8464155528554	1
469.2891374335015	168.95066828675576	1
532.2315374649104	170.05492102065614	1
482.54016901906124	226.37181044957472	1
483.64442165119124	195.4527339003645	1
524.5017690400005	194.34848116646415	1
548.7953269468601	212.01652490887	1
526.7102743042605	235.20583232077763	1
500.20821113314094	250.66537059538274	1
556.5250953717699	250.66537059538274	1
261.6896425930652	104.90400972053463	1
295.92147418909457	80.61044957472662	1
315.7980215674342	30.919076549210207	1
181.0792004475766	80.61044957472662	1
150.16012674793714	70.67217496962333	1
99.36450566995805	61.83815309842041	1
200.95574782591623	113.73803159173754	1
273.83642154649493	357.7778857837181	1
267.21090575371505	300.3567436208991	1
289.2959583963147	263.91640340218714	1
318.00652683169415	271.64617253948967	1
337.8830742100338	288.20996354799513	1
579.7144006464995	408.5735115431349	1
566.4633690609397	447.2223572296476	1
521.1890111436105	486.9754556500607	1
475.91465322628136	459.3691373025516	1
430.64029530895215	453.8478736330498	1
416.2850110912624	417.40753341433776	1
99.36450566995805	125.88481166464156	1
343.6663129716155	75.1245121103112	1
304.1391281176798	77.75965783726967	1
258.0240791214214	105.42868797033358	1
209.2738844682339	122.55713519556363	1
127.5843691034333	6.610723209391041	1
392.416507624803	155.49645678254447	1
395.05165328173206	222.6926728199854	1
464.8830131903519	278.03073308611323	1
613.7687428068433	271.44286876871706	1
192.14543769819505	27.691889025058785	1
314.67971074539594	46.13790911376806	1
538.6670915843654	287.25374313046785	1
538.6670915843654	368.9432606661804	1
485.9641784457843	368.9432606661804	1
591.3700047229464	401.8825822531612	1
482.0114599603907	405.83530084359893	1
