415.65567561823093	216.04800738575167	1
443.97264688170225	216.04800738575167	1
500.6065894086449	266.38929066010155	1
527.8747839586543	262.1941837205724	1
556.1917552221256	256.950300046161	1
415.65567561823093	261.1454069856901	1
397.82647148937866	233.8772118787506	1
571.9234059240541	476.1446376365595	1
585.5575031990588	504.4616094783813	1
500.6065894086449	496.071395599323	1
393.63136463553104	416.364363748269	1
425.0946660393881	394.3400523157409	1
376.8509372201406	398.53515925527006	1
364.2656166585978	310.43791352515774	1
169.1931479546843	29.36574857670411	1
432.43610303362135	127.95076165563934	1
548.8503182278923	100.68256654869981	1
535.2162209528876	20.97553469764579	1
416.70445233169283	453.07154946914915	1
416.70445233169283	164.65794737651947	1
370.55827693936925	176.19449146022467	1
245.75384803740306	82.85336205570088	1
504.3174792670349	259.7144603681315	1
529.3167304785183	263.8810025130748	1
437.6528093697461	322.2125925422808	1
552.9271344004746	304.1575765808599	1
445.9858931069072	216.66019153705088	1
425.15318376400444	166.66168579773145	1
419.59779460589704	222.21558106364193	1
344.60004097144713	280.5471710928479	1
382.09891778867205	354.15608232017934	1
364.043903024823	177.77246485091354	1
264.0468981788898	169.43938056102698	1
244.6030361255139	179.1613122325613	1
282.10191294273886	162.49514365278816	1
301.54577499611474	144.44012769136725	1
247.3807307045676	83.33084289886573	1
418.2089473163702	268.04754465801807	1
459.8743660021757	419.4319092576241	1
458.48551871264885	440.26461998234055	1
557.0936762690552	254.15907084154045	1
550.149439821421	104.16355362358216	1
523.7613413204108	55.553895265910484	1
532.0944250575719	33.33233715954629	1
519.5947994518302	93.05277457040006	1
429.319725632585	95.83046933369558	1
418.2089473163702	454.1530937988182	1
359.8773611562425	306.9352713441552	1
362.6550557352962	288.8802553827345	1
319.60078975996385	294.43564490932556	1
389.0431542363062	419.43190925762434	1
589.0371639281727	505.5404469197854	1
572.3709964538506	476.37465190518236	1
290.43499667989994	80.5531481355702	1
308.49001144374904	76.38660599062692	1
424.84375	170.0	1
360.84375	180.0	1
423.84375	400.0	1
561.84375	57.0	1
544.84375	21.0	1
542.84375	108.0	1
459.84375	35.0	1
242.84375	80.0	1
562.84375	306.0	1
561.84375	256.0	1
526.84375	256.0	1
497.84375	278.0	1
447.84375	201.0	1
418.84375	217.0	1
432.84375	323.0	1
458.84375	337.0	1
411.84375	458.0	1
594.171875	23.0	1
607.171875	65.0	1
559.171875	42.0	1
532.171875	25.0	1
345.171875	68.0	1
167.171875	116.0	1
442.171875	204.0	1
421.171875	166.0	1
413.171875	219.0	1
472.171875	250.0	1
341.171875	281.0	1
266.171875	239.0	1
266.171875	205.0	1
230.171875	247.0	1
309.171875	395.0	1
388.171875	416.0	1
411.171875	457.0	1
461.171875	423.0	1
508.171875	418.0	1
579.171875	474.0	1
596.171875	510.0	1
498.171875	494.0	1
537.171875	512.0	1
297.171875	143.0	1
543.171875	99.0	1
282.171875	315.0	1
428.4317900446922	96.06998784933171	1
394.1999584486628	55.212636695018226	1
415.18075845913245	220.8505467800729	1
447.20408479090185	214.2250303766707	1
420.70202161978233	165.63791008505467	1
364.38513738115336	175.57618469015796	1
454.9338532158117	274.9589307411908	1
464.87212690498154	244.03985419198057	1
506.8337269259208	263.91640340218714	1
536.6485479934303	267.2291616038882	1
559.8378532681598	303.66950182260024	1
552.10808484325	365.5076549210207	1
533.3357900970403	374.3416767922236	1
575.2973901179796	335.6928311057108	1
559.8378532681598	253.97812879708383	1
432.84880057321215	320.2332928311057	1
459.35086374433166	336.79708383961116	1
384.261684759493	355.5693803159174	1
364.38513738115336	312.5035236938032	1
364.38513738115336	284.8972053462941	1
467.08063216924154	45.274362089914945	1
536.6485479934303	27.606318347509113	1
548.7953269468601	103.79975698663426	1
542.1698111540802	404.1565006075334	1
396.40846371292275	255.0823815309842	1
589.6526743356693	509.06051032806806	1
568.6718743251997	479.2456865127582	1
321.3192847280841	294.8354799513973	1
342.3000847385537	144.65710814094774	1
247.33435837537542	80.61044957472662	1
422.9105268840423	394.21822600243013	1
386.5470577971866	420.45520953752737	1
458.62312135060887	442.3906401305668	1
403.7826382121354	501.92966602595965	1
569.8709585743693	475.293786020126	1
416.31760578664364	219.9027012583094	1
297.2354138288155	139.99506124080852	1
504.0623788082012	262.2067459734569	1
560.4697328934882	255.93948008973138	1
417.8844767334572	165.06412477571075	1
231.42683406264737	61.654237694239015	1
428.8525733611519	135.29461182801435	1
544.8010234253529	100.82464946752377	1
538.5335396380988	20.91700945002287	1
557.3359909998611	302.9439742176731	1
164.05138334966568	30.31790827561121	1
196.95567323274977	121.19326358963184	1
549.89957957899	101.59125151883353	1
541.0655585219502	401.94799513973265	1
552.10808484325	368.82041312272173	1
598.4866953927092	503.53924665856624	1
531.1272848327803	511.26901579586877	1
463.7678742728516	447.2223572296476	1
417.3892637233924	451.6393681652491	1
366.5936426454133	462.68189550425274	1
269.41941101797505	314.7120291616039	1
293.71296892483457	371.0289185905225	1
260.5853899609352	374.34167679222355	1
305.8597478782644	409.67776427703524	1
371.01065317393324	401.94799513973265	1
394.1999584486628	421.82454434993923	1
318.00652683169415	389.80121506682866	1
576.4016427501095	49.691373025516405	1
537.7528006255602	23.189307411907656	1
449.41259005516184	214.2250303766707	1
424.01477951617227	165.63791008505467	1
421.8062742519123	221.95479951397326	1
453.8296005836817	277.1674362089915	1
467.08063216924154	251.76962332928312	1
506.8337269259208	263.91640340218714	1
559.8378532681598	257.2908869987849	1
530.0230322006504	267.2291616038882	1
558.7336006360299	305.87800729040094	1
577.5058953822396	334.58857837181046	1
573.0888848537196	475.9329283110571	1
342.3000847385537	280.4801944106926	1
319.11077946382414	293.73122721749695	1
363.28088474902336	283.79295261239366	1
398.61696897718275	232.99732685297693	1
415.18075845913245	269.43766707168896	1
240.70884258259554	182.20170109356013	1
246.23010574324545	77.29769137302551	1
167.82816886201684	33.12758201701094	1
224.14505310064584	7.729769137302552	1
175.5579372869267	163.42940461725394	1
142.4303583230273	113.73803159173754	1
297.0257268212245	141.34434993924665	1
261.6896425930652	165.63791008505467	1
372.1149058060632	173.36767922235722	1
341.1958321064238	379.8629404617254	1
382.05317949523305	352.25662211421627	1
425.11903214830227	395.3224787363305	1
435.0573058374721	319.12904009720535	1
456.0381058479417	333.4843256379101	1
364.38513738115336	312.5035236938032	1
608.424969081879	244.03985419198057	1
490.2699374439711	465.99465370595385	1
503.5209690295309	498.0179829890644	1
165.61966359775687	119.25929526123937	1
204.26850572230617	213.12077764277035	1
272.732168914365	197.66123936816524	1
217.51953730786596	223.05905224787364	1
304.7554952461344	193.2442284325638	1
343.4043373706837	141.34434993924665	1
223.04080046851584	154.59538274605103	1
531.1272848327803	457.1606318347509	1
522.2932637757406	587.4624544349939	1
457.14235848007166	562.0646415552856	1
459.35086374433166	483.66269744835967	1
577.5058953822396	437.28408262454434	1
488.0614321797111	389.80121506682866	1
458.24661111220166	363.2991494532199	1
551.00383221112	498.0179829890644	1
428.4317900446922	90.54872417982989	1
463.7678742728516	43.06585662211422	1
567.5676216930698	3.3127582017010937	1
232.9790741576857	64.04665856622114	1
177.76644255118666	85.02746051032807	1
454.9535652131518	32.03215930748868	1
390.56407325443615	54.68772116770398	1
426.33601323150043	92.8444569322771	1
415.6044312383811	165.5807344834946	1
413.2196352399102	215.66145017449685	1
443.02958522079706	213.27665418921103	1
398.91085924908447	253.81818593906996	1
299.94182531254	141.7327746306364	1
246.2839153469436	78.53568102056218	1
165.20085139893123	29.647363322202864	1
524.1126491688094	92.8444569322771	1
590.886937125996	113.11522280720656	1
546.7682111542834	104.7684368587062	1
578.9629571336413	171.54272444670917	1
611.1577031129991	244.27900199792668	1
413.2196352399102	390.9439550930046	1
389.37167525520067	418.36910892379154	1
412.0272372406747	451.756252717793	1
495.49509718715797	396.9059450562192	1
460.91555520932917	420.7539049090774	1
459.72315721009375	442.21706877664974	1
551.5378031512254	363.51880126221766	1
534.8442311619287	400.4831390341479	1
557.4997931474028	299.12930965950056	1
558.6921911466382	253.81818593906996	1
530.0746391649868	265.7421658654991	1
503.84188318180634	265.7421658654991	1
433.49040122691326	321.78487151971586	1
360.7541232735492	283.6281357551427	1
366.71611326972663	175.1199184246379	1
196.2031993790536	120.26961076306404	1
537.2290271603996	26.070169344274134	1
525.3050471680449	52.30292518241816	1
224.820751360705	6.9918014619875715	1
174.74003539281503	165.5807344834946	1
234.35993535458883	133.38598868213603	1
587.3097431282896	393.32875107829045	1
569.4237731397575	476.79661056329417	1
592.0793351252315	506.6065603793669	1
526.4974451672804	507.7989583720098	1
302.3266213110109	406.4451289973625	1
271.32427333088856	318.2076775417871	1
257.01549734006284	281.2433397698569	1
489.5331071909806	466.06502862950794	1
499.0722911848644	491.1053864750091	1
463.30035120780013	245.47139999056958	1
457.3383612116228	274.0889518139994	1
413.2196352399102	269.3193598434278	1
282.05585532400784	160.8111425129228	1
571.8085691382284	338.4784434167166	1
608.7729071145282	612.7299817245859	1
555.0833282470703	306.98333740234375	1
559.0833282470703	256.98333740234375	1
530.0833282470703	268.98333740234375	1
501.0833282470703	271.98333740234375	1
450.0833282470703	213.98333740234375	1
407.0833282470703	223.98333740234375	1
422.0833282470703	164.98333740234375	1
391.0833282470703	416.98333740234375	1
366.0833282470703	395.98333740234375	1
384.0833282470703	352.98333740234375	1
413.0833282470703	453.98333740234375	1
411.0833282470703	392.98333740234375	1
428.0833282470703	400.98333740234375	1
435.0833282470703	320.98333740234375	1
241.0833282470703	175.98333740234375	1
424.0833282470703	94.98333740234375	1
524.0833282470703	92.98333740234375	1
548.0833282470703	108.98333740234375	1
543.0833282470703	401.98333740234375	1
464.0833282470703	419.98333740234375	1
460.0833282470703	447.98333740234375	1
593.0833282470703	505.98333740234375	1
568.0833282470703	470.98333740234375	1
460.3254688496132	275.70576292362955	1
424.1324351920227	222.4807121661721	1
422.00343321216445	173.51366546931126	1
362.391377776133	177.77166952990785	1
383.6813975747157	128.804622833047	1
366.64938173584954	8.516008121193192	1
432.6484431114558	98.99859440887084	1
461.38996983954235	39.386537560518505	1
524.1955282453611	53.225050757457446	1
576.3560767518886	9.58050913634234	1
536.9695401245107	26.612525378728723	1
565.7110668525972	47.9025456817117	1
610.4201084296208	59.61205684835234	1
598.7105975404004	25.54802436357957	1
528.4535322050776	91.54708730282681	1
500.7765064669202	97.9340933937217	1
541.2275440842272	105.38560049976574	1
591.2590906108965	107.51460253006404	1
589.1300886310381	142.64313602998595	1
572.098072792172	173.51366546931126	1
182.49071047810972	84.09558019678276	1
166.5231956291727	39.386537560518505	1
226.1352510652041	14.903014212088085	1
253.81227680336156	87.2890832422302	1
231.45775601484976	59.61205684835234	1
194.20022136733016	125.61111978759956	1
242.1027659141411	130.9336248633453	1
227.19975205513325	138.38513196938936	1
229.3287540349915	153.28814618147743	1
243.16726690407023	178.836170545057	1
301.7148213501725	146.90114009058254	1
293.19881343073945	120.28861471185382	1
328.3273460984008	121.35311572700297	1
348.5528649070543	71.32156801499298	1
297.45681739045597	80.90207715133532	1
316.6178352091803	71.32156801499298	1
251.6832748235033	15.967515227237232	1
168.65219760903096	117.09511166640638	1
181.42620948818058	159.67515227237234	1
245.2962688839285	210.7712009995315	1
284.68280551130636	249.09323754490083	1
371.97188668549524	401.31688271122914	1
418.80993024237705	394.92987662033426	1
391.1329045042196	419.4133999687647	1
343.23035995740867	389.6073715445885	1
366.64938173584954	284.22177104482273	1
347.4883639171252	279.96376698422614	1
396.45540945386523	235.2547243479619	1
400.7134134135818	255.48024363579572	1
417.7454292524479	268.25425581758554	1
433.7129441013849	318.2858035295955	1
614.6781123893373	251.22223957519913	1
505.03451042663676	266.1252537872872	1
538.0340411144398	262.9317507418398	1
558.2595599230933	305.51179134780574	1
573.1625737821012	337.44682180228017	1
555.066056953306	369.38185225675466	1
592.3235916008256	397.05887865063255	1
538.0340411144398	395.9943776354834	1
590.1945896209673	507.766984226144	1
413.48742529273136	447.0904263626425	1
461.38996983954235	446.0259253474934	1
467.7769757791171	430.05841012025616	1
383.6813975747157	355.5433390598157	1
399.64891242365263	316.1568014992972	1
324.06934213868425	338.51132281742935	1
500.7765064669202	494.99297204435425	1
491.19599755755803	469.44494768077465	1
468.84147676904627	394.92987662033426	1
583.8075836813925	432.18741215055445	1
575.2915757619595	475.83195377166953	1
556.1305579432351	492.86397001405595	1
381.5523955948574	457.735436514134	1
470.9704787489045	251.22223957519913	1
447.5514569704636	210.7712009995315	1
358.1333738164165	91.54708730282681	1
393.2619064840779	54.28955177260659	1
400.7134134135818	17.032016242386383	1
452.87396192010925	3.1935030454474465	1
427.3259381618101	26.612525378728723	1
573.1625737821012	87.2890832422302	1
474.1639817186919	152.22364516632828	1
522.0665262655028	161.8041543026706	1
536.9695401245107	190.54568171169765	1
532.7115361647942	221.41621115102296	1
494.38950052734543	223.54521318132126	1
314.4888332293221	42.580040605965955	1
327.26284510847165	254.41574262064657	1
236.78026096449543	238.44822739340935	1
222.94174809541673	261.8672497266906	1
253.81227680336156	286.350773075121	1
280.42480155158984	318.2858035295955	1
297.45681739045597	364.0593471810089	1
314.4888332293221	397.05887865063255	1
453.93846291003837	482.2189598625644	1
526.3245302252194	467.31594565047635	1
523.131027255432	447.0904263626425	1
499.71200547699107	424.7359050445104	1
440.0999500409597	359.8013431204123	1
562.5175638828099	249.09323754490083	1
599.7750985303295	183.09417460565362	1
491.19599755755803	191.6101827268468	1
468.84147676904627	179.90067156020615	1
334.7143520379756	29.80602842417617	1
278.2957995717316	37.25753553022021	1
292.13431244081033	11.709511166640638	1
206.97423324647974	218.22270810557552	1
212.2967381961254	232.06122130251447	1
275.10229660194415	230.9967202873653	1
274.03779561201503	201.19069186318913	1
368.77838371570783	223.54521318132126	1
361.3268767862039	245.8997344994534	1
347.4883639171252	224.6097141964704	1
321.940340158826	285.2862720599719	1
501.84100745684935	357.672341090114	1
497.58300349713284	398.12337966578167	1
478.4219856784084	372.5753553022021	1
377.29439163514087	79.83757613618617	1
609.3556074396917	611.0235826956115	1
534.8405381446524	497.12197407465254	1
516.7440213158571	529.057004529127	1
557.1950589331642	545.0245197563643	1
611.48460941955	526.9280024988287	1
588.065587641109	566.3145400593472	1
491.19599755755803	516.2829923473372	1
465.64797379925886	502.44447915039825	1
439.0354490510305	492.86397001405595	1
457.13196587982577	519.4764953927846	1
515.679520325928	547.1535217866625	1
519.9375242856446	589.7335623926285	1
547.614550023802	568.4435420896455	1
527.3890312151485	570.5725441199438	1
475.228482708621	555.6695299078557	1
457.1319658798258	180.9651725753553	1
284.68280551130624	164.99765734811808	1
311.29533025953475	197.99718881774172	1
270.8442926422277	174.5781664844604	1
