430.33854960669754	61.877827358055086	1
440.8263167413166	91.24357593475919	1
259.38794531240774	114.31666410216957	1
219.53443020085552	127.95076165563934	1
162.9004876739129	58.73149715340822	1
336.9974221085884	241.21864902292663	1
397.82647148937866	264.291737190337	1
427.1922194663119	202.4139098322819	1
429.28977289323564	251.70641637174953	1
566.6795223567447	189.82858901369443	1
589.7526100529064	53.48761347899677	1
132.4859629835178	123.75565471611017	1
162.9004876739129	180.38959839975382	1
187.02235208353662	200.31635636251733	1
266.72938230664107	272.6819510693953	1
161.851710960451	306.24280658562856	1
328.6072084008932	321.9744576088629	1
479.6310551394069	285.26727188798276	1
545.7039880875067	303.0964763809817	1
505.8504729759544	317.7793506693338	1
450.2653071624737	338.7548853669796	1
477.5335017124831	360.77919679950764	1
304.4853439912695	369.16941067856595	1
345.3876358162836	20.97553469764579	1
103.12021500658456	47.19495306970303	1
52.77893276041333	59.78027388829051	1
93.68122458542746	113.26788736728729	1
22.364408070018218	167.80427758116633	1
261.48549873933155	383.85228496691803	1
238.41241104316975	328.2671180181567	1
30.75462177771342	212.9016771811048	1
461.80185101055457	421.60824742268045	1
436.63120988746897	525.4371441760271	1
464.9481811509403	488.72995845514697	1
199.60767264507942	465.6568702877366	1
216.38810006046984	435.2423449761502	1
180.72969180276522	452.0227727342668	1
128.29085612967017	383.85228496691803	1
149.2663903989082	426.8521310970919	1
215.33932334700793	348.19387598092015	1
588.7038333394446	277.9258347438068	1
376.8509372201406	342.9499923065087	1
583.9515638565704	54.53639021387906	1
346.9280266141808	18.877981227881214	1
254.6356758295335	116.41421757193415	1
222.1235977122146	125.85320818587476	1
163.39210175834816	66.07293429758425	1
96.27039209678652	52.43883674411448	1
52.2217701313867	63.97538082781967	1
63.75831397946761	28.31697184182182	1
27.051129008301086	97.53623634405294	1
97.31916881024843	117.46299430681644	1
140.31901406218634	124.80443145099247	1
10.270701592910674	111.1703338975227	1
38.58767285638199	120.60932451146331	1
23.904798867915382	175.14571472534237	1
8.173148165986873	213.95045391598708	1
157.09944147757676	174.09693799046008	1
185.41641274104808	200.31635636251733	1
263.02588953722875	281.07216494845363	1
394.1229787199663	269.53562086474847	1
331.1963759122523	245.41375596245578	1
423.4887266968995	202.4139098322819	1
428.73261026420903	257.99907678104324	1
561.9272528738704	192.97491921834128	1
585.0003405700322	276.87705800892445	1
542.0004953180943	306.24280658562856	1
557.7321460200228	274.77950453915986	1
481.17144593730404	275.8282812740422	1
508.43964048731345	321.9744576088629	1
448.65936781998516	350.29142945068475	1
474.87878565653267	374.4132943529774	1
487.4641062180755	328.2671180181567	1
612.2685351200416	281.07216494845363	1
611.2197584065798	316.73057393445146	1
585.0003405700322	348.19387598092015	1
590.2442241373417	397.4863825203878	1
531.5127281834752	381.75473149715344	1
557.7321460200228	417.41314048315127	1
382.5864348718854	349.2426527158025	1
323.85493891801895	325.12078781350976	1
307.0745115026285	370.2181874134482	1
334.342706052638	374.4132943529774	1
242.0503552679907	332.4622249576858	1
265.1234429641525	391.193722111094	1
229.4650347064479	382.8035082320357	1
222.1235977122146	352.38898292044934	1
192.75784973528138	318.82812740421605	1
159.19699490450057	314.63302046468687	1
218.9772675718289	234.92598861363288	1
259.87955939684304	195.07247268810588	1
433.97649383151855	83.90213879058317	1
147.66045105641965	232.8284351438683	1
70.05097426023902	221.29189106016312	1
35.44134271599629	223.3894445299277	1
97.31916881024843	315.6817971995692	1
131.92880035449116	328.2671180181567	1
128.78247021410544	380.7059547622711	1
60.61198383908191	339.80366210186185	1
33.34378928907249	299.95014617633484	1
151.85555791026727	422.6570241575627	1
12.368255019834477	284.2184951531005	1
177.02619903335287	403.7790429296815	1
202.1968401564385	466.7056470226189	1
221.0748209987527	407.9741498692107	1
246.24546212183833	425.8033543622096	1
222.1235977122146	445.7301123249731	1
183.31885931412427	450.97399599938456	1
371.0498910238045	429.99846130173876	1
408.8058527084329	437.3398984459148	1
454.95202810075654	426.8521310970919	1
464.3910185219136	485.5836282505001	1
435.0252705449804	463.55931681797205	1
400.4156390007377	478.24219110632407	1
366.8547841699569	511.80304662255736	1
335.39148276609984	507.6079396830282	1
266.1722196776144	499.21772580396987	1
382.5864348718854	488.72995845514697	1
433.97649383151855	535.92491152485	1
501.0982034930802	567.3882135713187	1
501.0982034930802	416.364363748269	1
601.7807679854226	464.6080935528543	1
583.9515638565704	434.19356824126794	1
566.122359727718	478.24219110632407	1
527.3176213296276	457.2666564086783	1
496.90309663923256	442.58378212032625	1
533.610281610399	568.436990306201	1
553.5370391661752	507.6079396830282	1
353.22068689495217	206.60901677181107	1
279.8063169526191	185.63348207416527	1
99.41672223717222	83.90213879058317	1
427.6838335507471	61.877827358055086	1
395.1717554334282	558.9979996922604	1
588.1466707104179	512.8518233574397	1
108.85571265832934	276.87705800892445	1
232.6113648468336	260.09663025080783	1
374.1962211641902	195.07247268810588	1
272.46487995838584	434.19356824126794	1
549.1266621888373	301.74817255224957	1
504.21530408210873	324.20385050962625	1
480.3561450879092	282.09945433954493	1
435.44478698118064	258.24029650983215	1
396.1473486377932	268.0646556161845	1
335.79771118187665	244.20549778647174	1
436.8482669220159	206.31154123339854	1
358.25339023524094	210.52198085040666	1
261.4132743176075	119.29578914856377	1
224.92279585589054	126.313188510244	1
328.7803114777003	325.6073303819623	1
449.4795863895333	343.8525687223309	1
480.3561450879092	369.11520642437966	1
457.90046603454493	421.0439617008133	1
376.49862946609943	341.0456089776588	1
310.5350722468419	370.5186862967157	1
337.2011911227119	370.5186862967157	1
264.220234199278	277.8890147225368	1
236.1506353825727	324.20385050962625	1
268.43067402178383	378.939565530732	1
224.92279585589054	373.3256460413878	1
142.11747934660977	119.29578914856377	1
100.01308112155176	119.29578914856377	1
184.2218775716678	199.2941418717183	1
146.32791916911557	238.59157829712754	1
154.74879881412718	308.76557191392976	1
196.8531970391852	314.37949140327396	1
157.55575869579772	176.8384639143416	1
101.41656106238703	81.40183259549057	1
59.312162837329005	65.96355399979409	1
20.01472449394152	172.62802429733347	1
36.85648378396473	214.73242046741478	1
563.1614615971899	196.48718212704622	1
556.1440618930136	273.67857510552864	1
588.4241005322248	277.8890147225368	1
222.11583597422	405.60568310511684	1
216.50191621087896	443.49963965819006	1
463.514385797886	489.8144754452795	1
436.8482669220159	531.9188716153608	1
497.19790437793245	419.6404818284773	1
278.2550336076307	436.4822402965098	1
125.27572005658656	381.7465252754041	1
350.0298531634636	17.668043742405832	1
292.6087162927046	20.980801944106926	1
587.4441690714094	53.0041312272175	1
258.37688469667523	110.42527339003645	1
225.2493057327758	123.67630619684083	1
161.20265306923696	62.94240583232078	1
139.11760042663735	121.46780072904009	1
97.1560004056981	118.155042527339	1
55.194400384758836	66.25516403402187	1
101.573010934218	43.06585662211422	1
124.7623162089476	99.38274605103281	1
44.15187406345903	119.25929526123937	1
32.005095110029245	101.59125151883353	1
12.1285477316896	118.155042527339	1
23.171074052989404	167.8464155528554	1
8.81578983529966	215.32928311057108	1
75.07094776309849	218.64204131227217	1
32.005095110029245	213.12077764277035	1
154.57713727645708	178.88894289185905	1
188.80896887248647	205.3910085054678	1
358.8638742205034	202.0782503037667	1
426.22328478043227	206.49526123936818	1
396.40846371292275	269.43766707168896	1
427.3275374125622	250.66537059538274	1
340.0915794742938	240.72709599027945	1
255.0641268002853	274.9589307411908	1
325.736295256604	315.81628189550423	1
337.8830742100338	375.44592952612396	1
303.65124261400445	367.7161603888214	1
265.0024004894551	389.80121506682866	1
235.18757942194563	378.758687727825	1
218.62378993999593	347.8396111786148	1
238.5003373183356	329.06731470230864	1
192.1217267688764	312.5035236938032	1
158.994147804977	309.19076549210206	1
152.3686320121971	236.310085054678	1
112.61553725551782	276.06318347509114	1
125.86656884107758	383.1756986634265	1
144.63886358728723	431.7628189550425	1
219.7280425721259	441.7010935601458	1
218.62378993999593	407.46925880923453	1
369.90640054180324	512.3732685297691	1
433.9530532053421	533.354070473876	1
395.3042110807928	555.4391251518833	1
470.3933900656315	490.28821385176184	1
451.6210953194218	419.6160388821385	1
441.68282163025196	345.6311057108141	1
377.6361689667131	343.42260024301333	1
505.7294742937908	323.5460510328068	1
542.1698111540802	305.87800729040094	1
483.64442165119124	292.6269744835966	1
565.3591164288098	197.66123936816524	1
557.6293480038998	269.43766707168896	1
608.424969081879	464.89040097205344	1
574.1931374858497	440.59684082624545	1
163.42242515327584	66.34069328010085	1
221.84992711581415	125.96059291224636	1
258.8142650921139	117.61380696374599	1
584.3389188833987	57.993907331600475	1
592.6857048780471	10.297987625884073	1
423.36518898660955	203.46646243403552	1
430.5195769820224	257.12437210296645	1
399.51722900190003	267.8559540367527	1
329.16574704700696	247.58518816182317	1
564.0681528963956	230.89161626482243	1
475.83070095297046	284.5495259337534	1
326.780951048536	322.7062616983265	1
308.8949810600039	372.78697738932874	1
335.1277370431843	372.78697738932874	1
541.4125909109216	302.43549582339705	1
555.7213669017474	267.8559540367527	1
580.7617248856923	277.39513797789596	1
446.0207509720836	344.1694255658989	1
137.18966917009539	121.19100094167472	1
127.65048517621157	94.95824510353069	1
96.6481371960892	80.64946919181577	1
101.41772919303111	53.224315361028836	1
94.26334119761825	112.84421499317435	1
71.60777921214421	7.913191640598253	1
63.26099321749587	25.799161530241904	1
56.106605222083026	62.763499302172114	1
22.719461243489707	171.27171663267694	1
6.025889254193049	209.42845239725006	1
144.34405716550822	240.4308002059657	1
217.08033511887226	236.853606228037	1
261.19906109058485	271.43314801468136	1
239.7358971043463	327.47585366889814	1
268.3534490859977	385.90335530840076	1
234.96630510740437	377.5565693599004	1
220.65752911657867	402.59692720540147	1
120.49609718079871	385.90335530840076	1
158.65283315633394	306.0126898013258	1
193.23237513416274	315.55187374246907	1
58.49140122055398	340.59223158797016	1
479.4078949506769	358.4782014776138	1
449.59794496979	424.0600910729739	1
467.48391495832215	489.64198066833393	1
429.3271789827869	531.3759104108358	1
214.6955391204013	350.13141552911344	1
187.27038513798536	202.2740644413926	1
69.22298321367326	224.9296263016079	1
601.0324908726955	468.1788168007615	1
375.6692690171905	342.977027573256	1
367.3224830225422	513.4899405211921	1
530.6810089178024	379.9413653451862	1
161.03762915480488	180.81090057382022	1
110.9569131869149	272.6255460073243	1
178.92359914333701	25.799161530241904	1
345.85931903630365	22.221967552313174	1
504.4482529346219	323.89865969096945	1
481.7926909491479	329.860649654184	1
561.6833568979247	195.11967648553514	1
347.3125	21.0	1
430.3125	72.0	1
580.3125	54.0	1
567.3125	188.0	1
424.3125	207.0	1
431.3125	249.0	1
394.3125	266.0	1
357.3125	203.0	1
338.3125	245.0	1
264.3125	116.0	1
222.3125	122.0	1
171.3125	70.0	1
136.3125	121.0	1
93.3125	115.0	1
56.3125	61.0	1
36.3125	117.0	1
26.3125	164.0	1
7.3125	210.0	1
267.3125	191.0	1
261.3125	276.0	1
331.3125	325.0	1
149.3125	240.0	1
190.3125	202.0	1
160.3125	181.0	1
118.3125	279.0	1
163.3125	299.0	1
196.3125	315.0	1
129.3125	325.0	1
96.3125	313.0	1
75.3125	222.0	1
121.3125	381.0	1
263.3125	388.0	1
230.3125	371.0	1
309.3125	369.0	1
376.3125	355.0	1
559.3125	272.0	1
543.3125	302.0	1
508.3125	320.0	1
479.3125	329.0	1
460.3125	427.0	1
467.3125	490.0	1
147.3125	429.0	1
182.3125	402.0	1
187.3125	455.0	1
213.3125	441.0	1
228.3125	397.0	1
31.3125	217.0	1
535.3125	377.0	1
452.3125	346.0	1
257.27263206454523	114.29015795868773	1
354.44686369198354	205.943134872418	1
420.7020216197823	210.36014580801944	1
485.8529269154512	339.5577156743621	1
509.0422321901807	326.30668286755775	1
258.3768846966752	277.7195625759418	1
221.93654783638587	124.22843256379103	1
436.16155846960214	86.68383961117861	1
135.8048425302474	119.81142162818955	1
94.94749514143813	116.49866342648845	1
36.42210563854917	124.228432563791	1
35.317853006419185	102.1433778857837	1
14.33705299594956	115.39441069258808	1
8.81578983529966	223.6111786148238	1
40.83911616706909	229.13244228432563	1
75.07094776309849	233.5494532199271	1
544.3783164183401	314.1599027946537	1
397.51271634505275	276.6153098420413	1
430.64029530895215	263.3642770352369	1
327.94480052086396	334.0364520048603	1
565.3591164288098	203.73462940461727	1
282.6704426035348	443.35747266099634	1
240.70884258259554	332.9321992709599	1
129.17932673746753	393.66609963547995	1
184.39195834396654	211.4643985419198	1
153.47288464432708	189.3793438639125	1
330.15330578512396	443.35747266099634	1
157.88989517284702	311.951397326853	1
150.16012674793714	249.0089914945322	1
122.55381094468764	288.7620899149453	1
71.75818986670853	381.51931956257596	1
52.985895120498874	349.4959902794654	1
124.7623162089476	102.14337788578372	1
98.26025303782806	92.20510328068043	1
67.34117933818862	34.78396111786148	1
52.985895120498874	74.5370595382746	1
338.9873268421638	514.0296476306197	1
304.7554952461344	466.5467800729041	1
375.4276637024531	434.52345078979346	1
409.6594952984825	445.5659781287971	1
220.8322952042559	345.078979343864	1
232.9790741576857	375.99805589307414	1
308.0682531425243	368.26828675577167	1
332.3618110493839	371.58104495747267	1
382.05317949523305	488.6318347509113	1
465.9763795371116	494.15309842041313	1
435.0573058374721	540.5317132442284	1
391.99145318440287	562.6167679222357	1
499.10395850101094	499.67436208991495	1
488.0614321797111	449.98298906439857	1
499.10395850101094	427.8979343863912	1
452.7253479515518	432.3149453219927	1
429.5360426768222	470.96379100850544	1
477.01890585841136	296.4918590522479	1
332.3618110493839	253.42600243013365	1
219.72804257212587	405.81287970838406	1
244.02160047898548	427.8979343863913	1
216.41528467573596	437.83620899149463	1
205.37275835443614	466.546780072904	1
184.39195834396654	451.0872417982989	1
146.8473688515472	430.106439854192	1
182.1834530797066	403.60437424058324	1
138.01334779450738	326.30668286755775	1
22.066821420859426	173.91980558930737	1
98.26025303782806	52.4520048602673	1
161.20265306923693	56.86901579586876	1
283.77469523566475	176.12831105710816	1
258.37688469667523	199.3176184690158	1
237.3960846862056	243.48772782503045	1
224.1450531006458	231.34094775212637	1
194.33023203313638	274.4068043742406	1
375.4276637024532	343.97472660996357	1
441.68282163025185	340.66196840826257	1
346.71709526707366	470.9637910085055	1
260.5853899609352	383.7278250303767	1
158.994147804977	406.9171324422844	1
103.78151619847797	311.95139732685305	1
517.8762532472207	546.0529769137303	1
502.4167163974009	567.0337788578372	1
534.4400427291703	383.7278250303767	1
195.43448466526635	311.95139732685305	1
342.171875	21.0	1
429.171875	75.0	1
22.171875	171.0	1
35.171875	112.0	1
263.171875	277.0	1
587.171875	50.0	1
258.171875	111.0	1
220.171875	126.0	1
136.171875	117.0	1
419.171875	208.0	1
479.171875	321.0	1
324.171875	322.0	1
379.171875	340.0	1
443.171875	345.0	1
152.171875	243.0	1
125.171875	388.0	1
196.171875	319.0	1
162.171875	306.0	1
460.171875	487.0	1
431.171875	530.0	1
424.171875	569.0	1
232.171875	375.0	1
260.171875	378.0	1
309.171875	363.0	1
94.171875	114.0	1
272.171875	195.0	1
6.171875	213.0	1
71.171875	220.0	1
557.171875	274.0	1
540.171875	302.0	1
428.171875	255.0	1
404.171875	268.0	1
487.171875	288.0	1
244.171875	423.0	1
213.171875	442.0	1
279.171875	436.0	1
456.171875	425.0	1
335.171875	443.0	1
504.171875	562.0	1
557.171875	504.0	1
604.171875	465.0	1
554.171875	562.0	1
179.171875	402.0	1
203.171875	464.0	1
57.171875	340.0	1
33.171875	212.0	1
350.78125	22.0	1
265.78125	113.0	1
216.78125	123.0	1
166.78125	66.0	1
181.78125	26.0	1
93.78125	50.0	1
566.78125	195.0	1
34.78125	118.0	1
14.78125	110.0	1
134.78125	119.0	1
90.78125	113.0	1
93.78125	86.0	1
127.78125	97.0	1
53.78125	67.0	1
352.78125	203.0	1
431.78125	200.0	1
431.78125	248.0	1
406.78125	265.0	1
328.78125	248.0	1
268.78125	275.0	1
210.78125	234.0	1
187.78125	204.0	1
164.78125	186.0	1
10.78125	176.0	1
3.78125	209.0	1
31.78125	216.0	1
328.78125	318.0	1
375.78125	345.0	1
451.78125	351.0	1
506.78125	315.0	1
480.78125	330.0	1
541.78125	307.0	1
554.78125	278.0	1
430.78125	82.0	1
338.78125	375.0	1
309.78125	369.0	1
