490.234375	418.0	1
463.234375	95.0	1
454.234375	67.0	1
510.234375	15.0	1
544.234375	100.0	1
519.234375	98.0	1
537.234375	144.0	1
592.234375	116.0	1
374.234375	82.0	1
335.234375	63.0	1
180.234375	65.0	1
185.234375	102.0	1
269.234375	62.0	1
63.234375	114.0	1
10.234375	76.0	1
76.234375	28.0	1
136.234375	66.0	1
105.234375	172.0	1
248.234375	158.0	1
340.234375	105.0	1
364.234375	121.0	1
320.234375	171.0	1
351.234375	242.0	1
393.234375	163.0	1
465.234375	131.0	1
538.234375	37.0	1
538.234375	164.0	1
459.234375	184.0	1
423.234375	232.0	1
242.234375	297.0	1
273.234375	255.0	1
196.234375	236.0	1
238.234375	192.0	1
157.234375	222.0	1
206.234375	182.0	1
239.234375	357.0	1
155.234375	361.0	1
131.234375	266.0	1
79.234375	254.0	1
78.234375	205.0	1
594.234375	217.0	1
486.234375	193.0	1
492.234375	279.0	1
461.234375	331.0	1
547.234375	378.0	1
314.234375	376.0	1
393.234375	340.0	1
430.234375	283.0	1
461.234375	425.0	1
498.234375	138.0	1
300.234375	165.0	1
514.171875	12.0	1
531.171875	40.0	1
456.171875	65.0	1
469.171875	118.0	1
511.171875	96.0	1
606.171875	127.0	1
552.171875	139.0	1
381.171875	81.0	1
170.171875	99.0	1
11.171875	117.0	1
107.171875	70.0	1
65.171875	40.0	1
80.171875	200.0	1
81.171875	244.0	1
158.171875	215.0	1
217.171875	161.0	1
272.171875	244.0	1
177.171875	261.0	1
240.171875	362.0	1
274.171875	412.0	1
304.171875	367.0	1
445.171875	426.0	1
392.171875	436.0	1
447.171875	462.0	1
544.171875	440.0	1
526.171875	308.0	1
562.171875	329.0	1
495.171875	337.0	1
372.171875	215.0	1
321.171875	164.0	1
370.171875	111.0	1
362.171875	402.0	1
574.171875	391.0	1
452.48312739489415	71.82907888243318	1
300.2317278640991	37.158165432057	1
384.64834542572805	80.87366499992261	1
371.08138903189484	121.57430252862508	1
172.0993619223409	65.79935480410688	1
131.39849274084125	126.0965955873698	1
108.7868987511192	171.31952617481699	1
169.0844827237113	216.54245676226418	1
372.58882863120965	216.54245676226418	1
461.527764990783	180.36411229230643	1
597.1973289291152	210.51273268393788	1
597.1973289291152	132.1263196656961	1
541.4220637544676	132.1263196656961	1
467.55752338804217	117.05200946988036	1
386.15578502504286	159.26007801816442	1
327.36564065176555	111.02228539155408	1
271.59037547711785	70.3216478628516	1
533.8848657578935	32.635872373312274	1
573.0782953400784	249.70593919305878	1
559.5113389462451	329.59978323088217	1
600.2122081277448	311.5106109959033	1
276.11269427506227	249.70593919305878	1
175.11424112097052	92.9331131565752	1
10.80332479565704	123.08173354820666	1
13.818203994286646	67.30678582368846	1
327.36564065176555	64.29192378452531	1
435.90129180243133	273.82483550636397	1
494.69143617570865	290.40657672176127	1
511.27327176817147	189.40869840979587	1
470.5724025866718	385.37473095540037	1
138.93569073741526	67.30678582368846	1
69.59346916893433	98.96283723490149	1
535.3923053572083	2.487251981680814	1
268.5754962784883	403.46390319037926	1
98.23482155591559	276.8396975455271	1
83.16042556276756	198.45328452728532	1
28.89259998743467	221.06474982100892	1
325.85820105245074	159.26007801816442	1
366.5590702339504	401.95647217079767	1
408.7673790147649	290.40657672176127	1
517.3030301654306	92.9331131565752	1
407.2599394154501	22.083855236241263	1
444.9459293983202	222.57218084059048	1
354.499553439432	243.67621511473249	1
230.8895062956182	350.7038175050242	1
541.4220637544676	379.34500687707407	1
475.0947213846162	329.59978323088217	1
78.63810676482315	22.083855236241263	1
359.0218722373764	11.531838099170253	1
469.064962987357	424.56793746452126	1
253.50110028534024	279.85455958469026	1
613.7791645215781	23.591286255822837	1
197.72583511069254	258.75052531054826	1
203.75559350795174	222.57218084059048	1
524.8402281620047	314.5254730350664	1
81.65298596345276	243.67621511473249	1
172.84375	65.0	1
176.84375	100.0	1
456.84375	67.0	1
377.84375	79.0	1
361.84375	112.0	1
13.84375	65.0	1
70.84375	101.0	1
116.84375	175.0	1
158.84375	215.0	1
78.84375	246.0	1
284.84375	250.0	1
581.84375	253.0	1
467.84375	116.0	1
512.84375	93.0	1
600.84375	126.0	1
544.84375	133.0	1
496.84375	133.0	1
324.84375	170.0	1
301.84375	131.0	1
328.84375	100.0	1
389.84375	167.0	1
547.84375	160.0	1
429.84375	275.0	1
126.84375	257.0	1
98.84375	289.0	1
9.84375	127.0	1
389.4362577816834	160.46284043699032	1
378.94849064706443	76.56070164640714	1
364.2656166585978	110.12155716264041	1
454.4604140163213	71.31681797199569	1
463.8994044374784	116.41421757193415	1
513.1919099701877	96.48745960917064	1
537.3137743798114	35.658408985997845	1
579.2648429182874	253.8039698415141	1
328.6072084008932	165.70672411140177	1
210.09543977969844	84.95091552546546	1
111.51042871427977	169.90183105093092	1
160.8029342469891	212.9016771811048	1
175.48580823545572	268.48684412986614	1
66.41303003541805	100.68256654869981	1
431.38732632015945	266.38929066010155	1
493.2651524144116	334.5597784274504	1
278.26592615472197	410.0717033389752	1
96.82755472581316	275.8282812740422	1
327.5584316874313	61.877827358055086	1
312.8755576989647	230.73088167410373	1
256.2416151720221	282.1209416833359	1
271.97326587395054	248.56008616710264	1
553.04542508174	323.02323434374523	1
546.7527648009685	291.55993229727653	1
548.8503182278923	158.36528696722573	1
535.2162209528876	131.0970918602862	1
356.92417966436454	244.36497922757349	1
408.31423862399765	23.073088167410372	1
446.07020030862606	8.390213879058317	1
1.3888738007802037	124.80443145099247	1
18.169301216170613	65.02415756270196	1
30.75462177771342	194.02369595322358	1
319.4165278121256	163.68372783417712	1
385.54041261317394	164.76772603175445	1
379.03642394421837	82.38386301587722	1
367.1124447177998	114.90380894319718	1
329.17251081555895	110.56781615288786	1
271.72061090645144	248.23558724520902	1
237.03267133868837	358.80340339809686	1
114.5408847400251	171.27171521721843	1
134.05285074689183	213.54764492273438	1
213.18471288585127	80.21586662072257	1
217.52070533182166	181.02769899541443	1
215.35270910883648	155.01174225355845	1
271.72061090645144	195.11967556391974	1
298.8205636937663	202.70766294696105	1
453.83229363720744	71.54388104010391	1
303.15655613973667	39.023935112783946	1
244.62065811913655	136.58377289474382	1
272.804609017944	156.09574045113578	1
297.7365655822737	179.9437007978371	1
234.8646751157032	195.11967556391974	1
243.53666000764395	231.975614281549	1
203.4287298824179	236.31160707185836	1
500.444212431389	132.2477801044345	1
471.17626342108895	118.15580353592918	1
510.2001954348224	93.22384499165054	1
543.8041368910929	96.47583958438254	1
535.132151999152	34.68794232247462	1
140.5568394158474	66.12389005221725	1
66.84496783435092	102.97982876984653	1
11.56106414822856	65.03989185463992	1
10.477066036735964	122.4917963262385	1
548.1401293370632	294.8475097410343	1
522.1241746612409	314.3594772974262	1
552.4761217830336	329.5354520635089	1
471.17626342108895	385.90335833753016	1
436.4883238533259	272.0835475919103	1
46.249003715991606	16.25997296365998	1
162.2368016456993	217.88363771304373	1
92.86092251017321	282.9235295676836	1
121.04487340898068	259.07556922098235	1
545.972133114078	162.5997296365998	1
576.3240802358707	252.57158003551834	1
216.41528467573596	80.61044957472662	1
331.2575584172539	108.21676792223572	1
302.54698998187445	131.40607533414337	1
323.5277899923441	164.53365735115432	1
386.47019002375293	162.32515188335358	1
418.4935163555224	229.6845686512758	1
433.9530532053421	274.9589307411908	1
398.61696897718275	245.14410692588092	1
534.4400427291703	37.54459295261239	1
545.4825690504701	97.17424058323208	1
511.25073745444075	92.75722964763062	1
456.0381058479417	62.94240583232078	1
465.97637953711154	90.54872417982989	1
430.64029530895215	88.34021871202916	1
467.08063216924154	118.155042527339	1
575.2973901179796	252.87387606318347	1
549.89957957899	326.8588092345079	1
547.69107431473	291.52272174969625	1
523.3975164078705	314.7120291616039	1
368.80214790967324	113.73803159173754	1
175.5579372869267	65.1509113001215	1
171.14092675840678	34.2318347509113	1
142.4303583230273	64.04665856622114	1
60.71566354540874	139.13584447144592	1
66.23692670605864	103.79975698663426	1
114.82404251977778	167.8464155528554	1
164.5154109656269	220.8505467800729	1
134.7005898981174	216.43353584447144	1
99.36450566995805	278.27168894289184	1
123.65806357681763	250.66537059538274	1
43.04762143132905	255.0823815309842	1
62.9241688096687	281.58444714459296	1
101.573010934218	331.27582017010934	1
164.5154109656269	273.8546780072904	1
202.06000045804623	266.12490886998785	1
204.26850572230617	235.20583232077763	1
395.3042110807928	408.5735115431349	1
478.1231584905413	383.1756986634265	1
473.7061479620214	417.40753341433776	1
367.6978952775433	399.73948967193195	1
9.92004246742964	70.67217496962333	1
13.232800363819582	123.67630619684083	1
109.3125	166.0	1
69.3125	103.0	1
177.3125	101.0	1
453.3125	71.0	1
514.3125	95.0	1
536.3125	32.0	1
595.3125	121.0	1
541.3125	135.0	1
496.3125	134.0	1
469.3125	117.0	1
362.3125	116.0	1
267.3125	69.0	1
328.3125	104.0	1
307.3125	79.0	1
303.3125	131.0	1
385.3125	161.0	1
324.3125	165.0	1
87.3125	248.0	1
123.3125	256.0	1
99.3125	282.0	1
275.3125	253.0	1
578.3125	251.0	1
548.3125	329.0	1
542.3125	293.0	1
493.3125	194.0	1
437.3125	272.0	1
353.3125	245.0	1
371.3125	213.0	1
215.3125	80.0	1
174.3125	67.0	1
12.3125	121.0	1
140.3125	72.0	1
478.3125	382.0	1
598.3125	318.0	1
397.3125	412.0	1
275.3125	407.0	1
276.54652378463146	251.38137607824493	1
202.9376174397084	233.32636011682402	1
164.04989333295657	216.66019153705088	1
172.38297707011768	265.26984989472254	1
232.10341051977224	288.8802553827345	1
122.38447464715107	262.492155131427	1
115.44023819951681	165.2728384160837	1
175.16067164917138	94.44162195204783	1
190.43799183396672	105.55240100522991	1
252.93611986267499	134.71819601983293	1
326.5450262075981	109.7189431501732	1
369.5992921829304	109.7189431501732	1
469.59629702886366	116.66318005841201	1
466.81860244980993	90.27507980710453	1
458.48551871264885	68.05352170074035	1
545.9828979528404	134.71819601983293	1
500.15093739845435	133.32934863818517	1
512.650563004196	94.44162195204783	1
547.3717452423673	98.6081640969911	1
434.8751147906924	273.6029341846091	1
500.15093739845435	295.8244922909733	1
554.3159816900015	327.76798206887185	1
519.5947994518302	337.48991374040617	1
497.3732428194007	334.71221897711064	1
470.9851443183905	379.15533518983904	1
469.59629702886366	422.20960402091964	1
445.9858931069072	433.32038307410176	1
394.59854339441375	415.26536711268085	1
69.60827764513076	101.38585886028663	1
100.16291801472146	277.7694763295524	1
329.32272078665176	59.72043741085377	1
139.05064212147326	66.66467431909258	1
241.8253415464602	229.15981797188073	1
270.99113462652406	408.32113020444206	1
368.2104448934036	398.59919853290774	1
329.32272078665176	162.49514365278816	1
386.2654596572526	161.1062962711404	1
