308.0833282470703	290.98333740234375	1
378.0833282470703	201.98333740234375	1
398.0833282470703	255.98333740234375	1
561.0833282470703	360.98333740234375	1
540.0833282470703	418.98333740234375	1
450.0833282470703	446.98333740234375	1
388.0833282470703	458.98333740234375	1
271.0833282470703	348.98333740234375	1
506.0833282470703	513.9833374023438	1
334.0833282470703	451.98333740234375	1
232.0833282470703	345.98333740234375	1
161.84375	112.0	1
536.84375	411.0	1
376.84375	199.0	1
394.84375	260.0	1
313.84375	295.0	1
271.84375	355.0	1
232.84375	350.0	1
449.84375	368.0	1
459.84375	331.0	1
1.84375	32.0	1
507.84375	519.0	1
561.84375	518.0	1
446.84375	449.0	1
468.84375	471.0	1
513.84375	480.0	1
394.84375	455.0	1
32.84375	225.0	1
184.84375	140.0	1
275.84375	167.0	1
85.84375	252.0	1
94.171875	22.0	1
7.171875	28.0	1
80.171875	81.0	1
15.171875	122.0	1
246.171875	105.0	1
265.171875	353.0	1
317.171875	290.0	1
394.171875	255.0	1
452.171875	361.0	1
542.171875	413.0	1
596.171875	372.0	1
564.171875	517.0	1
505.171875	525.0	1
466.171875	460.0	1
428.171875	496.0	1
393.171875	457.0	1
359.171875	486.0	1
330.171875	458.0	1
230.171875	348.0	1
250.171875	284.0	1
278.171875	161.0	1
190.171875	131.0	1
33.171875	224.0	1
85.171875	251.0	1
25.171875	318.0	1
94.171875	336.0	1
248.171875	414.0	1
511.171875	470.0	1
255.00853988465505	115.54457845029879	1
78.63810676482315	89.91825111741205	1
99.74226115523038	29.62101033414913	1
191.69607671343334	130.61888864611453	1
372.58882863120965	204.4830086056116	1
393.6929830216169	257.24309429096667	1
313.79868425793234	288.8991457021797	1
536.8997449565231	412.5084893078687	1
603.2270873263744	370.30042075958465	1
460.0203253914682	359.74840362251365	1
268.5754962784883	352.21124852460576	1
21.35540199086066	117.05200946988036	1
7.788445597027437	34.14330339289385	1
25.877720788805068	227.09447389933518	1
232.396945894933	350.7038175050242	1
453.99056699420896	453.20912683657116	1
387.66322462435767	454.71655785615275	1
508.25839256954185	466.7760060128053	1
559.5113389462451	521.0435227177419	1
511.27327176817147	521.0435227177419	1
135.92081153878564	181.87154331188802	1
282.1424526723215	169.81209515523543	1
166.0696035250817	112.52971641113565	1
363.5441910353208	323.57005915255587	1
343.94747624422837	463.76114397364216	1
435.90129180243133	495.4171953848552	1
540.5403199529255	412.28115373844867	1
559.6274102010708	514.0789694763372	1
507.4560301894738	517.896387566508	1
517.6358116551513	469.54242509101095	1
471.82679505960266	469.54242509101095	1
448.92228676182833	449.18286194343324	1
459.1020682275058	335.93279193503224	1
448.92228676182833	366.4721366563988	1
396.75090675023125	254.49453934472137	1
373.846398452457	202.3231587790535	1
348.3969447882633	253.22206664799776	1
312.7677096583921	292.6687202464296	1
347.1244721050536	320.66311957434897	1
389.11607065097314	348.6575189022683	1
270.77611111247256	352.4749369924391	1
235.1468759826014	343.56762811537385	1
195.70022280310118	343.56762811537385	1
277.138474528521	166.6939232707925	1
166.43335108927846	110.7051246149538	1
182.97549597100434	133.6096331559787	1
389.11607065097314	450.4553346401569	1
442.5599233457799	493.7194063287595	1
359.84919893715045	486.08457014841787	1
353.486835521102	461.9075889106693	1
336.9446906393761	455.54522542705126	1
249.14407549790792	419.9159899187903	1
567.7282990702065	363.9255270041545	1
507.9480264028782	511.80304662255736	1
558.2893086490494	514.9493768272042	1
450.2653071624737	448.87644252961996	1
542.5576579471209	410.0717033389752	1
393.63136463553104	254.85274657639638	1
374.7533837932168	202.4139098322819	1
232.11975076239835	345.0475457762733	1
437.6799866009309	495.0226188644407	1
345.3876358162836	323.02323434374523	1
312.8755576989647	480.33974457608866	1
274.07081930087435	351.340206185567	1
313.9243344124266	282.1209416833359	1
549.89957957899	411.88626974483594	1
600.6952006569692	369.9246658566221	1
452.7253479515518	367.7161603888214	1
462.6636216407216	333.4843256379101	1
398.61696897718275	256.18663426488456	1
377.6361689667131	203.18250303766706	1
280.4619373392748	166.74216281895505	1
240.70884258259554	189.9314702308627	1
313.58951630317426	294.8354799513973	1
348.9256005313336	247.35261239368165	1
389.7829479201429	353.3608748481166	1
351.1341057955936	326.8588092345079	1
258.37688469667523	118.155042527339	1
189.91322150461644	133.6145808019441	1
28.692337213639302	230.78882138517616	1
231.8748215255557	343.42260024301333	1
266.1066531215851	355.5693803159174	1
444.9955795266419	495.80947752126366	1
473.7061479620214	471.5159173754557	1
448.30833742303184	453.8478736330498	1
390.8872005522729	457.1606318347509	1
414.07650582700245	492.49671931956254	1
357.7596215883735	482.5584447144593	1
348.9256005313336	460.473390036452	1
507.9379795580508	516.7902794653706	1
555.42084273964	522.3115431348724	1
331.2575584172539	456.05637910085056	1
100.46875830208803	336.79708383961116	1
17.649810892339502	120.36354799513973	1
257.27263206454523	270.5419198055893	1
79.48795829161838	82.81895504252734	1
86.92356650360298	38.63333929072944	1
18.01004002790899	123.20902800827227	1
28.45148343331717	227.62345852375722	1
77.52626743873562	83.53154441238797	1
167.322680725246	107.54686343094951	1
195.51457791984808	139.91533689074987	1
91.10014386576626	252.68292184747364	1
273.8254034604094	168.1072331299308	1
400.1668686658484	258.94778767840273	1
375.1074044928688	199.4315622845763	1
232.05962983877671	349.78834222687465	1
267.56053741716454	353.964919447494	1
303.06144499555234	291.31626113820306	1
345.87136295772586	326.81716751346795	1
328.12090916853197	456.2910613526693	1
362.57767240637895	466.7325044042178	1
356.3128063631341	492.8361120330891	1
440.88849794694033	492.8361120330891	1
390.7695696009811	450.0261955217402	1
457.5948073955934	350.8324865320295	1
598.5542933686039	363.3622181938877	1
455.5065187145118	448.9820512165854	1
477.43354986586894	466.7325044042178	1
553.6560867253487	521.02800827227	1
604.8191594118488	405.12799040008167	1
448.30833742303184	124.7805589307412	1
411.8680005627425	155.69963547995138	1
415.18075845913245	186.6187120291616	1
371.01065317393324	202.0782503037667	1
397.51271634505275	256.18663426488456	1
465.97637953711154	333.4843256379101	1
451.6210953194218	361.0906439854192	1
544.3783164183401	409.67776427703524	1
600.6952006569692	356.67363304981774	1
600.6952006569692	373.2374240583233	1
602.9037059212291	417.40753341433776	1
566.4633690609397	515.6860267314702	1
505.7294742937908	516.7902794653706	1
452.7253479515518	449.43086269744833	1
473.7061479620214	469.3074119076549	1
513.4592427187007	467.0989064398542	1
443.8913268945119	492.49671931956254	1
412.97225319487245	495.80947752126366	1
393.0957058165328	453.8478736330498	1
364.38513738115336	482.5584447144593	1
336.77882157790384	456.05637910085056	1
388.67869528801293	352.25662211421627	1
350.0298531634636	323.5460510328068	1
313.58951630317426	293.73122721749695	1
279.35768470714487	168.95066828675576	1
325.736295256604	194.34848116646415	1
340.0915794742938	114.8422843256379	1
311.38101103891427	166.74216281895505	1
269.41941101797505	357.7778857837181	1
235.18757942194563	344.52685297691374	1
211.99827414721605	436.179829890644	1
245.12585311111545	464.89040097205344	1
151.26437938006714	415.19902794653706	1
122.55381094468764	390.905467800729	1
150.16012674793714	353.3608748481166	1
192.1217267688764	347.8396111786148	1
96.05174777356811	335.6928311057108	1
191.01747413674642	308.0865127582017	1
90.5304846129182	244.03985419198057	1
28.692337213639306	226.37181044957472	1
140.22185305876732	207.59951397326853	1
15.441305628079542	115.94653705953827	1
80.59221092374838	73.98493317132443	1
86.11347408439829	102.6955042527339	1
134.7005898981174	183.3059538274605	1
347.9728074284703	252.68441064638782	1
265.65027882933066	265.26146276000895	1
242.78290977401412	227.5303064191456	1
250.7864889433749	184.08230820845446	1
131.87616985572885	373.88145828673674	1
262.2201734710332	393.3187206441512	1
142.1664859306213	16.00715723551778	1
7.249008504253651	26.297472601207783	1
25.379579317249366	318.024787363305	1
265.0024004894551	142.44860267314704	1
168.9324214941468	107.11251518833535	1
225.2493057327758	133.6145808019441	1
186.6004636082265	135.82308626974483	1
261.6896425930652	112.63377885783719	1
279.08503107911696	167.6945226547482	1
242.12069310281723	185.58049254439186	1
331.5505430454779	117.61380696374599	1
412.6336069934903	161.73253269153366	1
453.1751389674964	125.96059291224636	1
375.6692690171905	205.85125841932134	1
392.36284100648714	252.35478013239484	1
338.70493104089076	257.12437210296645	1
308.8949810600039	290.5115158969679	1
227.81191711199153	342.977027573256	1
268.3534490859977	352.5162115143993	1
536.6429989139797	415.7133051244735	1
560.4909588986892	368.0173854187571	1
598.6476948742245	326.28345567625524	1
560.4909588986892	518.2595324917638	1
505.6406509338574	523.0291244623354	1
515.1798349277411	480.10279672719065	1
467.48391495832215	472.94840877133316	1
386.4008510103098	458.63963285961825	1
449.59794496979	453.8700408890466	1
83.53175920449897	251.1623821397519	1
23.911859242725185	226.1220242942508	1
190.84757913569177	345.3618235585418	1
94.26334119761825	337.0150376100414	1
19.14226724578328	122.38339893431763	1
