467.171875	103.0	1
412.171875	69.0	1
313.171875	29.0	1
373.171875	21.0	1
388.171875	80.0	1
412.171875	94.0	1
386.171875	140.0	1
347.171875	168.0	1
386.171875	191.0	1
351.171875	196.0	1
450.171875	186.0	1
565.171875	200.0	1
538.171875	130.0	1
597.171875	191.0	1
386.171875	265.0	1
342.171875	294.0	1
323.171875	327.0	1
226.171875	128.0	1
110.171875	134.0	1
234.171875	61.0	1
298.171875	241.0	1
300.171875	389.0	1
351.171875	457.0	1
460.171875	431.0	1
494.171875	431.0	1
585.171875	390.0	1
602.171875	418.0	1
583.171875	459.0	1
573.171875	528.0	1
587.171875	498.0	1
600.171875	544.0	1
554.171875	581.0	1
591.171875	617.0	1
472.171875	533.0	1
400.171875	509.0	1
439.171875	564.0	1
261.171875	338.0	1
190.171875	303.0	1
474.171875	299.0	1
581.234375	393.0	1
442.234375	430.0	1
477.234375	298.0	1
379.234375	277.0	1
487.234375	208.0	1
439.234375	207.0	1
343.234375	293.0	1
385.234375	445.0	1
593.234375	459.0	1
113.234375	135.0	1
191.234375	107.0	1
410.234375	76.0	1
471.234375	108.0	1
504.234375	92.0	1
270.234375	164.0	1
223.234375	139.0	1
328.234375	329.0	1
596.234375	421.0	1
596.234375	153.0	1
541.234375	131.0	1
570.234375	46.0	1
428.234375	121.0	1
233.234375	62.0	1
288.234375	251.0	1
186.3125	103.0	1
180.3125	170.0	1
198.3125	207.0	1
167.3125	219.0	1
212.3125	277.0	1
235.3125	221.0	1
308.3125	35.0	1
98.3125	51.0	1
237.3125	63.0	1
231.3125	132.0	1
350.3125	290.0	1
386.3125	270.0	1
405.3125	317.0	1
405.3125	388.0	1
387.3125	443.0	1
580.3125	394.0	1
602.3125	423.0	1
578.3125	531.0	1
594.3125	503.0	1
413.3125	511.0	1
460.3125	430.0	1
464.3125	472.0	1
572.3125	593.0	1
332.3125	333.0	1
265.3125	332.0	1
294.3125	249.0	1
472.3125	100.0	1
413.3125	74.0	1
537.3125	123.0	1
304.3125	395.0	1
431.3125	126.0	1
572.3125	44.0	1
385.365937391623	268.33341433778855	1
398.61696897718275	235.20583232077763	1
472.6018953298914	100.48699878493316	1
428.4317900446922	124.7805589307412	1
365.4893900132833	19.876549210206562	1
396.40846371292275	36.44034021871203	1
316.9022741995642	30.919076549210207	1
282.6704426035348	51.89987849331713	1
232.9790741576857	58.52539489671932	1
187.70471624035648	101.59125151883353	1
171.14092675840675	91.65297691373026	1
110.40703199125785	130.301822600243	1
182.18345307970657	165.63791008505467	1
202.06000045804623	210.91227217496962	1
237.3960846862056	214.2250303766707	1
322.4235373602141	326.8588092345079	1
385.365937391623	445.0138517618469	1
584.1314111750195	393.1139732685298	1
464.87212690498154	428.4500607533414	1
462.6636216407216	467.0989064398542	1
414.07650582700245	511.26901579586877	1
539.9613058898202	126.98906439854191	1
538.8570532576903	159.0123936816525	1
98.26025303782806	48.58712029161604	1
294.81722155696457	246.24835965978127	1
598.4866953927092	418.5117861482382	1
209.490640807258	281.0085436246336	1
231.42683406264737	218.33588478737803	1
195.38880228593624	202.66772007806412	1
283.1335753074938	102.39146593845516	1
541.6672815317258	132.16097888615155	1
295.668542882002	351.51528481654617	1
386.5470577971866	442.3906401305668	1
604.3421194042669	425.15565895032154	1
413.18386389301656	69.48832004889596	1
181.28696376461448	168.19775771757355	1
287.83418814793436	52.25333886865067	1
571.4378295211828	42.85244004306233	1
591.8071518297587	154.09640947919104	1
385.4236109095899	266.1074321347477	1
350.77420419181595	293.82695631545056	1
406.2132549402543	322.9324567051886	1
465.81023449482547	303.5287897786966	1
323.05467881759677	324.31843291422376	1
232.96622135138446	218.9842410275528	1
296.72112971208855	243.93181279018538	1
474.12609210709127	102.56223946860067	1
540.6529530052172	131.6677398583387	1
565.6005258420145	202.35252651913106	1
481.05597345064604	284.1251228522046	1
497.6876886751775	277.1952418070288	1
384.03763464087893	440.74043447317587	1
350.77420419181595	458.7581251906327	1
298.10710598079953	393.617243365981	1
572.5304071855693	600.1276985122174	1
558.6706444984598	580.7240315857255	1
553.1267394236158	528.0569356423899	1
464.42425822611455	530.8288880604603	1
512.933427630998	519.7410783881791	1
407.59923120896525	504.4953400887925	1
432.5468040457625	128.8957874402684	1
457.4943768825597	432.424577218965	1
528.1791665868186	492.0215542074762	1
269.00160433786937	156.61531162097128	1
396.5114210592775	239.77388416308008	1
429.77485150834053	203.73850272816628	1
352.8893227708672	289.8888888574263	1
323.90272054464765	329.4160747618034	1
182.9224278989434	166.03703969037835	1
114.40864081878804	122.55713519556363	1
184.2400007274079	96.20567792597895	1
229.0374768952018	127.82742664948056	1
470.15330450421	104.11111510685436	1
413.49767288023537	72.48936638335273	1
543.9373828982234	126.50985378600133	1
595.32272320834	155.49645678254447	1
582.1469949236947	384.75413502793117	1
495.187188245036	425.59889379578743	1
459.6127218764938	429.55161238622514	1
389.7813619678739	441.4097681575382	1
364.74747822704796	470.3963711540814	1
385.82864348248035	260.9022858608832	1
389.7813619678739	73.80693924683197	1
319.9500020592541	36.91489906941342	1
288.3282541761055	47.455481977247295	1
433.2612653072033	119.92198946860516	1
600.593014522198	428.2340395227459	1
525.4913632997201	459.8557882462475	1
410.86252722330636	504.65326560454145	1
268.56466174913754	341.27423053311645	1
464.8830131903519	304.3821903556979	1
563.7009753251913	197.65878841387996	1
571.6064122959785	36.91489906941342	1
496.5047610735005	38.23247193289266	1
371.33534236937055	13.198587526787211	1
231.67262255213083	220.05752709302695	1
265.92951609220853	158.13160250950295	1
301.5039824607507	241.13869290869468	1
459.6127218764938	474.34908974451906	1
404.2746630809837	322.8282104444072	1
232.99019538059537	54.04334629464346	1
198.7333018405177	206.88179845823458	1
576.8767036098367	2.6580046189533393	1
244.8483508367761	285.93617026698865	1
402.9570902525192	388.7068536183689	1
297.55126397535713	350.4972405774711	1
485.9641784457843	200.29393414083842	1
426.67340116488066	197.65878841387996	1
445.119420763384	556.0386072802315	1
