23.23076173061308	64.73694691960068	1
58.73166930900089	66.82523552991039	1
95.27672122792953	49.074782342277935	1
167.322680725246	8.353154441238798	1
52.466803265755985	152.44506855260806	1
297.8407232928482	105.45857482063983	1
123.46861842253162	224.4910256082927	1
89.01185518468462	357.0973523629586	1
297.0257268212245	106.008262454435	1
287.0874531320547	157.90814094775212	1
295.92147418909457	195.4527339003645	1
331.2575584172539	197.66123936816524	1
324.632042624474	165.63791008505467	1
366.5936426454133	113.73803159173754	1
417.3892637233924	106.008262454435	1
474.81040059415136	53.0041312272175	1
484.7486742833212	79.50619684082625	1
358.8638742205034	18.772296476306195	1
158.994147804977	15.459538274605103	1
203.1642530901762	55.212636695018226	1
57.4029056490188	146.86561360874848	1
64.02842144179868	186.6187120291616	1
87.21772671652826	159.0123936816525	1
128.07507410533754	226.37181044957472	1
93.84324250930815	284.8972053462941	1
134.7005898981174	293.73122721749695	1
134.7005898981174	326.8588092345079	1
104.88576883060796	321.33754556500605	1
93.84324250930815	353.3608748481166	1
131.38783200172747	385.3842041312272	1
208.6855162508261	206.49526123936818	1
184.39195834396654	236.310085054678	1
185.4962109760965	269.43766707168896	1
306.9640005103944	272.75042527339	1
330.15330578512396	305.87800729040094	1
378.74042159884306	356.67363304981774	1
331.2575584172539	472.620170109356	1
454.9338532158117	492.49671931956254	1
479.2274111226713	489.1839611178615	1
527.8145269363904	290.4184690157959	1
485.8529269154512	213.12077764277035	1
570.8803795894597	462.68189550425274	1
569.7761269573297	308.0865127582017	1
277.1491794428849	448.326609963548	1
504.91635366500344	66.3896103896104	1
491.0851846209516	77.45454545454545	1
481.40336629011534	51.175324675324674	1
420.5462224962872	52.55844155844156	1
420.5462224962872	107.88311688311688	1
430.2280408271235	135.54545454545453	1
484.1696000989257	215.76623376623377	1
330.6436237099503	196.4025974025974	1
323.72803918792437	165.97402597402598	1
297.44881800422587	195.0194805194805	1
244.89037563682888	268.3246753246753	1
242.1241418280185	322.26623376623377	1
232.44232349718223	293.2207792207792	1
208.9293361222941	200.55194805194805	1
188.18258255621635	266.94155844155847	1
137.00725709322455	323.64935064935065	1
110.72803590952604	322.26623376623377	1
92.74751615225865	349.92857142857144	1
345.8579096584073	491.0064935064935	1
329.2605068055451	448.12987012987014	1
413.63063797426133	421.85064935064935	1
409.48128726104574	358.22727272727275	1
477.25401557689975	479.94155844155847	1
495.23453533416716	535.2662337662338	1
515.9812889002449	424.6168831168831	1
517.3644058046501	394.18831168831167	1
531.195574848702	370.6753246753247	1
513.2150550914346	362.3766233766234	1
576.838432694073	466.11038961038963	1
470.33843105487387	443.9805194805195	1
449.5916774887961	497.9220779220779	1
471.721547959279	547.7142857142857	1
499.3838860473827	114.7987012987013	1
527.0462241354863	63.62337662337662	1
383.20206607734724	77.45454545454545	1
372.1371308421058	118.94805194805195	1
297.44881800422587	105.11688311688312	1
202.0137516002682	55.324675324675326	1
137.00725709322455	182.57142857142858	1
125.94232185798307	224.06493506493507	1
91.36439924785347	283.538961038961	1
83.06569782142238	159.05844155844156	1
56.78647663772388	149.37662337662337	1
304.3644025262518	293.2207792207792	1
301.5981687174414	226.83116883116884	1
161.90336137251785	13.831168831168831	1
30.507255454025383	246.19480519480518	1
571.3059650764523	307.05194805194805	1
522.8968734222708	295.987012987013	1
163.171875	14.0	1
52.171875	144.0	1
17.171875	74.0	1
292.171875	107.0	1
193.171875	264.0	1
205.171875	200.0	1
131.171875	287.0	1
94.171875	286.0	1
90.171875	352.0	1
133.171875	324.0	1
297.171875	198.0	1
328.171875	198.0	1
373.171875	115.0	1
416.171875	102.0	1
491.171875	534.0	1
506.171875	66.0	1
592.171875	72.0	1
292.7874555116767	104.7684368587062	1
202.16520756978053	58.264915145632706	1
162.81607359500984	14.146189417845033	1
105.58096963170699	77.34328302791927	1
196.20321757360315	29.647363322202864	1
84.11780564546844	104.7684368587062	1
60.26984566075892	142.9251726232793	1
62.65464165922987	187.04389835106699	1
92.46459164011677	284.82053374778565	1
131.81372561488746	290.7825237110002	1
185.47163558048388	271.7041558287136	1
204.55000356825147	203.73747024806775	1
124.6593376194746	225.20063411564013	1
105.58096963170699	322.97726951235876	1
91.27219364088128	355.17201531371734	1
248.66872953996406	268.1269618507849	1
308.2886295017379	272.8965538213565	1
304.71143550403144	228.77782809356884	1
367.9085294635116	117.88481477777822	1
421.5664394291081	105.9608348513491	1
431.10562342299187	136.96318266006477	1
371.4857234612181	146.50236660120805	1
378.6401114566309	82.11287499849091	1
357.17694747039235	14.146189417845033	1
479.99394139164633	128.6163967115644	1
485.95593138782374	79.72807901320509	1
502.64950337712037	117.88481477777822	1
474.031951395469	48.72573120448943	1
505.03429937559133	66.61170109413308	1
536.0366473557137	129.80879470420732	1
596.848945316723	153.6567545570655	1
562.2694033388942	115.50001879249238	1
539.6138413534202	35.60935328541741	1
293.97985351091216	194.19828630692444	1
251.05352553843503	131.0011926968502	1
267.7470975277317	325.36206549764455	1
327.3669974895055	309.86089159328674	1
438.2600114184047	207.31466422599647	1
487.1483293870592	222.8158381303543	1
493.1103193832366	262.16497188757035	1
570.6161893335425	308.66849360064384	1
559.8846073404233	344.4404333799311	1
520.5354733656525	290.7825237110002	1
578.9629753281909	461.2954366589363	1
464.4927674015852	363.51880126221766	1
408.45006143751783	359.941607284289	1
413.2196534344597	426.7158948722919	1
478.8015433924109	492.297784467652	1
447.7991954122885	495.8749784455807	1
497.8799113801785	437.4474768060781	1
510.99628937176874	382.5971691445043	1
516.9582793679461	424.3310988870061	1
489.5331253855302	530.4545202322251	1
469.26235939852705	549.5328881145117	1
453.7611854084659	559.072072055655	1
350.0225594749795	494.6825804529378	1
329.75179348797644	441.02467078400684	1
240.32194354531575	460.1030386662934	1
236.74474954760933	414.7919149458628	1
237.93714754684478	319.40007553443	1
187.8564315789548	233.54742006414048	1
192.6260235758967	334.90124943878783	1
28.075099681401074	244.27900199792668	1
28.075099681401074	300.32170765214346	1
20.92071168598822	122.65440674834986	1
417.9892454314016	10.568995439916302	1
328.55939548874096	194.19828630692444	1
133.00612361412294	320.5924735270729	1
241.51434154455123	162.0035405055659	1
582.5401693258973	184.65910236578117	1
319.02021149485716	165.5807344834946	1
487.1483293870592	369.48079122543226	1
23.305507684459172	5.799403469344662	1
509.80389137253326	5.799403469344662	1
128.23653161718104	381.4047711518613	1
506.2266973748268	351.5948213357886	1
530.0746573595363	367.0959952401464	1
457.3383794061723	162.0035405055659	1
328.55939548874096	472.0270185927225	1
355.98454947115687	468.4498246147938	1
423.951235427579	49.91812919713234	1
391.75648944822115	59.457313138275616	1
129.4289296164165	178.69711240256663	1
342.234375	411.0	1
89.234375	280.0	1
123.234375	226.0	1
203.234375	208.0	1
182.234375	267.0	1
128.234375	293.0	1
283.234375	159.0	1
298.234375	206.0	1
337.234375	194.0	1
312.234375	275.0	1
325.234375	314.0	1
272.234375	330.0	1
451.234375	357.0	1
406.234375	366.0	1
477.234375	491.0	1
347.234375	503.0	1
329.234375	479.0	1
573.234375	463.0	1
516.234375	468.0	1
529.234375	373.0	1
492.234375	265.0	1
488.234375	209.0	1
440.234375	205.0	1
450.234375	163.0	1
485.234375	123.0	1
517.234375	64.0	1
200.234375	20.0	1
161.234375	20.0	1
222.234375	130.0	1
250.234375	133.0	1
303.234375	104.0	1
139.234375	185.0	1
91.234375	173.0	1
56.234375	147.0	1
232.234375	292.0	1
446.234375	124.0	1
364.234375	124.0	1
484.234375	176.0	1
574.234375	310.0	1
489.234375	439.0	1
337.234375	368.0	1
168.3125	385.0	1
134.3125	323.0	1
134.3125	292.0	1
187.3125	267.0	1
194.3125	337.0	1
238.3125	293.0	1
249.3125	358.0	1
270.3125	327.0	1
303.3125	345.0	1
250.3125	414.0	1
280.3125	416.0	1
240.3125	461.0	1
264.3125	485.0	1
176.3125	422.0	1
348.3125	490.0	1
334.3125	474.0	1
330.3125	443.0	1
343.3125	419.0	1
344.3125	370.0	1
328.3125	310.0	1
311.3125	274.0	1
317.3125	227.0	1
297.3125	195.0	1
272.3125	186.0	1
297.3125	106.0	1
239.3125	87.0	1
252.3125	130.0	1
227.3125	128.0	1
179.3125	110.0	1
87.3125	97.0	1
99.3125	49.0	1
43.3125	80.0	1
61.3125	149.0	1
83.3125	170.0	1
63.3125	190.0	1
53.3125	233.0	1
128.3125	227.0	1
92.3125	289.0	1
102.3125	318.0	1
95.3125	359.0	1
140.3125	181.0	1
108.3125	167.0	1
120.3125	113.0	1
160.3125	15.0	1
206.3125	57.0	1
198.3125	29.0	1
243.3125	32.0	1
302.3125	27.0	1
206.3125	201.0	1
219.3125	244.0	1
375.3125	140.0	1
374.3125	118.0	1
376.3125	77.0	1
419.3125	52.0	1
424.3125	20.0	1
424.3125	112.0	1
454.3125	80.0	1
480.3125	53.0	1
504.3125	71.0	1
548.3125	28.0	1
530.3125	56.0	1
577.3125	57.0	1
580.3125	23.0	1
589.3125	67.0	1
567.3125	119.0	1
490.3125	123.0	1
460.3125	169.0	1
454.3125	191.0	1
417.3125	166.0	1
437.3125	206.0	1
376.3125	210.0	1
329.3125	195.0	1
322.3125	166.0	1
364.3125	261.0	1
418.3125	261.0	1
485.3125	211.0	1
497.3125	181.0	1
522.3125	141.0	1
558.3125	149.0	1
601.3125	152.0	1
608.3125	179.0	1
556.3125	200.0	1
580.3125	225.0	1
566.3125	279.0	1
595.3125	249.0	1
571.3125	306.0	1
597.3125	326.0	1
521.3125	379.0	1
510.3125	358.0	1
526.3125	286.0	1
490.3125	267.0	1
442.3125	231.0	1
465.3125	365.0	1
416.3125	359.0	1
425.3125	389.0	1
386.3125	397.0	1
412.3125	434.0	1
384.3125	484.0	1
382.3125	547.0	1
477.3125	486.0	1
494.3125	538.0	1
530.3125	475.0	1
498.3125	437.0	1
520.3125	409.0	1
559.3125	406.0	1
585.3125	464.0	1
583.3125	506.0	1
594.3125	525.0	1
551.3125	502.0	1
603.3125	580.0	1
427.3125	466.0	1
448.3125	496.0	1
456.3125	560.0	1
22.85602215445348	10.487767348822896	1
64.8070906929295	23.073088167410372	1
58.514430412158106	143.68241267887367	1
94.17283866986273	59.78027388829051	1
158.14821819103867	11.536544083705186	1
198.00173330259088	28.31697184182182	1
239.9528018410669	84.95091552546546	1
293.4404142276238	110.12155716264041	1
252.53812240260973	134.24342206493307	1
214.7821607179813	128.99953839052162	1
139.27023734872446	91.24357593475919	1
108.85571265832934	78.65825511617172	1
82.63629482178182	106.97522695799354	1
118.29470307948644	113.26788736728729	1
134.02635378141494	145.77996614863827	1
83.68507153524372	165.70672411140177	1
112.00204279871504	175.14571472534237	1
206.3919470102861	205.56024003692877	1
189.61151959489567	268.48684412986614	1
128.78247021410544	286.3160486228651	1
124.58736336025784	230.73088167410373	1
132.97757706795304	186.68225880904757	1
153.95311133719105	221.29189106016312	1
91.02650852947703	282.1209416833359	1
132.97757706795304	325.12078781350976	1
91.02650852947703	359.7304200646253	1
103.61182909101983	317.7793506693338	1
131.92880035449116	382.8035082320357	1
29.148682435224885	307.2915833205109	1
241.0015785545288	460.41298661332513	1
236.80647170068121	410.0717033389752	1
346.9280266141808	490.82751192491156	1
322.80616220455704	447.8276657947377	1
329.09882248532847	475.0958609016772	1
376.293774591114	543.266348669026	1
467.53734866229934	547.4614556085552	1
491.6592130719231	532.7785813202031	1
485.36655279115166	487.6811817202647	1
449.708144533447	492.92506539467615	1
409.8546294218948	422.6570241575627	1
417.19606641612813	444.6813355900908	1
588.1466707104179	575.778427450377	1
580.8052337161846	462.5105400830897	1
501.0982034930802	438.38867518079707	1
527.3176213296276	288.4136020926297	1
570.3174665815656	312.53546699492233	1
515.7810774815467	418.4619172180336	1
406.7082992815091	358.68164332974305	1
487.4641062180755	220.24311432528083	1
562.9760295873323	269.53562086474847	1
607.0246515527322	178.29204492998923	1
595.4881077046513	156.26773349746117	1
501.0982034930802	63.97538082781967	1
429.78138697767093	131.0970918602862	1
489.5616596449993	79.70703185105401	1
416.1472897026662	103.82889675334667	1
371.0498910238045	121.6581012463456	1
384.6839882988092	78.65825511617172	1
418.24484312959004	10.487767348822896	1
589.1954474238798	75.51192491152486	1
599.6832145584988	123.75565471611017	1
499.00065006615637	115.36544083705186	1
472.78123222960886	126.90198492075704	1
453.90325138729463	161.51161717187262	1
331.1963759122523	192.97491921834128	1
304.9769580757048	226.53577473457457	1
314.41594849686186	270.58439759963073	1
328.05004577186656	306.24280658562856	1
350.07435675456645	347.1450992460379	1
244.14790869491452	262.1941837205724	1
297.63552108147144	200.31635636251733	1
529.4151747565514	62.92660409293738	1
524.171291189242	14.682874288352055	1
473.83000894307077	49.29250653946761	1
360.5621238891855	19.926757962763503	1
321.75738549109514	166.75550084628406	1
447.61059110652326	187.73103554392983	1
561.9272528738704	61.877827358055086	1
237.85524841414312	317.7793506693338	1
270.367326531462	326.1695645483921	1
228.416257992986	289.46237882751194	1
217.928490858367	253.8039698415141	1
61.660760552543806	186.68225880904757	1
31.246235862148687	248.56008616710264	1
63.75831397946761	256.950300046161	1
32.295012575610585	211.85290044622252	1
11.319478306372575	188.77981227881213	1
28.099905721762987	160.46284043699032	1
28.099905721762987	128.99953839052162	1
53.2705468448486	75.51192491152486	1
19.70969201406778	71.31681797199569	1
202.1968401564385	55.58516694876135	1
259.87955939684304	105.92645022311126	1
181.2213058872005	420.5594706877981	1
278.7575402391572	415.3155870133867	1
344.830473187257	421.60824742268045	1
311.26961835647614	368.1206339436837	1
375.2449978776521	480.33974457608866	1
604.9270981258084	248.56008616710264	1
415.0985129892043	51.390060009232194	1
446.56181439306135	95.43868287428836	1
538.8541651777086	37.75596245576243	1
475.85870176555767	490.9619507294399	1
181.28696376461448	265.3403789153197	1
87.27470695580284	354.64891775840897	1
488.3936693400659	533.2659954445875	1
347.37528412684844	494.0955836713027	1
573.0047004679964	461.1924377817435	1
499.3617659677606	442.3906401305668	1
328.5728327650861	307.64442363046726	1
306.6366395096967	226.16996714203498	1
134.28083536020867	284.1421765664964	1
131.14709346658162	229.30360008389775	1
203.22315702000387	204.23453654899552	1
236.12744690308796	409.4874942410076	1
325.43909087145903	443.9574566014982	1
243.9618016371556	271.60764479904526	1
62.2047718067864	147.82914359546547	1
131.14709346658162	182.29910595595604	1
294.1016719351885	108.65873182218071	1
483.6930564996253	215.20225184551524	1
515.0304754358958	384.41843070610537	1
419.4513476802707	52.25333886865067	1
162.48451240285218	16.2165600372287	1
200.08941512637682	58.52060475237623	1
369.3114773822378	116.49281417683767	1
19.89925624282115	77.32240240355291	1
70.03912654085403	27.18427533374843	1
24.59986908326173	301.3771577467417	1
93.54219074305695	282.57536009556503	1
128.01335157295455	382.851614235174	1
327.00596181827257	197.96727066526995	1
