205.24669597716527	198.19459789202563	1
198.31681463361048	239.77388416307994	1
195.54486209618858	225.9141220727285	1
165.0533841845475	246.70376520825567	1
273.15953314400224	309.0726946148372	1
284.24734329368994	371.44162402141865	1
255.1418416507598	382.5294336936998	1
368.79189568505836	285.5110990612397	1
375.7217770286132	214.82631240044736	1
521.2492852432638	462.91605381773815	1
507.38952255615425	296.5989087335209	1
485.2139022567789	273.0373131799234	1
467.19621076353644	232.84400311790424	1
456.1084006138488	212.05435998237706	1
517.0913564371309	112.26407293184668	1
255.1418416507598	253.63364625343138	1
239.89610269493926	245.31778899922054	1
235.73817388880636	310.4586708238723	1
410.37118374638715	292.44098010641545	1
253.75586538204882	299.37086115159116	1
109.61433343610915	22.175619344562307	1
565.6005258420145	414.4068865015081	1
186.6640153851698	22.4929753663454	1
109.15814543486387	22.4929753663454	1
206.93478137217286	201.35267426278193	1
468.06994320474206	8.184199454630482	1
599.2337231206444	127.4239987189215	1
407.2576452437328	194.19828630692444	1
375.06289926437495	213.27665418921103	1
428.72080922997134	203.73747024806775	1
485.95591319327417	264.54976787285614	1
507.4190771795127	293.167319696286	1
487.14831119250965	340.8632394020024	1
365.52371527049115	284.82053374778565	1
414.41203323914567	294.3597176889289	1
274.901467328595	395.71354706357624	1
520.535455171103	462.48783465157925	1
276.0938653278305	308.66849360064384	1
450.1839732162099	29.647363322202864	1
514.5734651749256	105.9608348513491	1
439.4523912230906	358.749209291646	1
522.9202511695739	338.4784434167166	1
453.76116721391634	210.8918582039252	1
563.4617831435801	414.7919149458628	1
280.86345732477236	365.9035972475035	1
193.81840338058265	219.23864415242556	1
307.09621330795284	14.146189417845033	1
561.0769871451091	228.77782809356884	1
507.4190771795127	367.0959952401464	1
547.9606091535189	473.2194165853654	1
547.9606091535189	499.45217242350947	1
454.9535652131518	249.04859396849832	1
88.88737944786078	18.915781388416672	1
248.66871134541452	290.7825237110002	1
85.78262496216752	15.731651023234345	1
182.2700826006624	23.073088167410372	1
110.95326608525313	26.21941837205724	1
464.3910185219136	9.438990613940607	1
515.7810774815467	114.31666410216957	1
398.3180855738139	62.92660409293738	1
204.29439358336228	17.829204492998922	1
205.34317029682418	203.46268656716418	1
199.05051001605278	245.41375596245578	1
190.6602963083576	222.34066779504542	1
275.61121009877155	280.0233882135713	1
277.70876352569536	310.43791352515774	1
410.9034061353567	293.6574857670411	1
376.293774591114	222.3406677950454	1
405.65952256804724	203.46268656716418	1
399.3668622872758	309.3891367902755	1
363.7084540295712	285.26727188798276	1
393.0742020065044	250.65763963686723	1
430.83016369113284	266.38929066010155	1
485.36655279115166	268.48684412986614	1
505.2933103469278	291.55993229727653	1
524.171291189242	338.7548853669796	1
564.0248063007942	412.1692568087398	1
530.4639514700134	395.3888290506232	1
562.9760295873323	229.68210493922143	1
307.0745115026285	17.829204492998922	1
542.0004953180943	110.12155716264041	1
571.3662432950275	120.60932451146331	1
252.53812240260973	381.75473149715344	1
409.8546294218948	352.38898292044934	1
589.19544742388	428.9496845668565	1
374.3234110703232	219.74629404617255	1
194.33023203313635	22.08505467800729	1
113.71978988764779	20.980801944106926	1
518.9805058793506	115.94653705953827	1
205.37275835443617	200.97399756986633	1
432.84880057321215	263.91640340218714	1
396.40846371292275	250.66537059538274	1
504.6252216616609	289.3142162818955	1
565.3591164288098	414.0947752126367	1
258.37688469667523	382.07144592952613	1
111.84375	18.0	1
331.84375	70.0	1
564.84375	135.0	1
433.84375	262.0	1
189.84375	21.0	1
521.84375	466.0	1
275.84375	357.0	1
200.84375	202.0	1
516.84375	111.0	1
38.171875	11.0	1
86.171875	20.0	1
69.171875	59.0	1
103.171875	70.0	1
51.171875	181.0	1
378.171875	212.0	1
320.171875	197.0	1
369.171875	291.0	1
353.171875	395.0	1
272.171875	398.0	1
411.234375	293.0	1
372.234375	220.0	1
382.234375	122.0	1
399.234375	313.0	1
371.234375	283.0	1
328.234375	293.0	1
215.234375	194.0	1
193.234375	224.0	1
453.234375	253.0	1
499.234375	301.0	1
348.234375	349.0	1
283.234375	396.0	1
237.234375	399.0	1
223.234375	251.0	1
131.234375	116.0	1
373.234375	33.0	1
470.234375	79.0	1
481.234375	131.0	1
324.234375	193.0	1
255.234375	300.0	1
375.234375	355.0	1
528.234375	337.0	1
189.234375	20.0	1
81.234375	16.0	1
109.234375	204.0	1
277.234375	352.0	1
330.234375	265.0	1
446.234375	356.0	1
576.234375	136.0	1
115.3125	19.0	1
144.3125	39.0	1
111.3125	56.0	1
106.3125	207.0	1
199.3125	246.0	1
206.3125	200.0	1
197.3125	226.0	1
381.3125	218.0	1
427.3125	262.0	1
395.3125	252.0	1
279.3125	352.0	1
524.3125	339.0	1
526.3125	461.0	1
518.3125	111.0	1
572.3125	26.0	1
341.3125	70.0	1
486.3125	270.0	1
