180.171875	63.0	1
78.171875	166.0	1
47.171875	148.0	1
70.171875	198.0	1
127.171875	128.0	1
151.171875	177.0	1
175.171875	250.0	1
206.171875	238.0	1
362.171875	234.0	1
381.171875	287.0	1
339.171875	294.0	1
297.171875	288.0	1
371.171875	314.0	1
582.171875	179.0	1
604.171875	401.0	1
455.171875	436.0	1
419.171875	508.0	1
268.171875	417.0	1
333.171875	395.0	1
604.171875	453.0	1
64.55934405006104	62.47203074186497	1
179.23889050564415	61.410183102045686	1
252.50637851893336	94.32745993644356	1
242.94974964763475	138.9250608088536	1
128.27020319205164	127.24473677084144	1
151.63085154411488	178.2134234821672	1
147.38346093464884	250.41906298987868	1
90.04368770685728	325.810245417048	1
310.9079993990914	161.22386124505863	1
319.4027806180235	78.39974533915426	1
582.7409984049181	180.33711876180578	1
470.18514725406794	205.82146211746866	1
378.8662491505481	280.1507969048187	1
334.2686477511546	299.26405442156585	1
291.79474165649424	438.3660952378924	1
411.78352637390987	503.1388012668689	1
451.0718895114708	428.8094664795188	1
550.8855688339228	231.30580547313153	1
580.617303100185	150.60538484686575	1
553.0092641386558	154.85277540614288	1
213.21801538137248	362.974912810723	1
264.18670269496494	360.8512175310845	1
408.59798341681034	282.2744921844573	1
402.2268975026113	337.49056945506015	1
603.9779514522482	454.29380983518166	1
434.0823270736066	197.32668099891436	1
13.590656736468546	109.19332689391358	1
585.6171406505542	185.25934314835786	1
471.9352654428976	206.31154123339854	1
432.6378270995101	195.08370225471018	1
368.0777498210878	234.38113868011942	1
379.30558934776997	283.502934211881	1
361.0603501169115	318.5899310202821	1
408.77866810531054	283.502934211881	1
332.9907513002061	304.5551322969216	1
303.51767254266554	286.3098939565531	1
347.0255507085588	248.41593740347986	1
307.72811236517134	162.80366519098115	1
245.97499496841957	209.1185009780706	1
247.37847490925483	141.7514671059405	1
153.34531887329192	179.6454236590137	1
130.88963981992765	140.34798723360444	1
70.54000236401114	193.68022238237413	1
48.084323310646866	148.7688664676207	1
172.99403804498567	247.0124575311438	1
328.7803114777003	394.3778441264285	1
449.4795863895333	430.8683208071656	1
487.37354479208557	439.2892000411819	1
605.265859822248	457.5344383815505	1
603.8623798814127	394.3778441264285	1
318.9559518918535	79.99835272315454	1
412.9891079278164	506.65623391331206	1
470.3933900656315	213.12077764277035	1
558.7336006360299	153.49113001215068	1
586.3399164392794	184.41020656136087	1
602.9037059212291	396.42673147023083	1
584.1314111750195	446.1181044957473	1
609.5292217140089	459.3691373025516	1
452.7253479515518	429.5543134872418	1
482.54016901906124	438.38833535844475	1
409.6594952984825	286.0014580801944	1
376.5319163345831	283.79295261239366	1
363.28088474902336	231.89307411907654	1
347.82134789920366	248.456865127582	1
331.2575584172539	294.8354799513973	1
314.6937689353042	160.11664641555285	1
318.00652683169415	75.08918590522478	1
255.0641268002853	94.96573511543134	1
282.6704426035348	123.67630619684083	1
240.70884258259554	143.5528554070474	1
185.4962109760965	56.31688942891859	1
176.6621899190567	34.2318347509113	1
62.9241688096687	65.1509113001215	1
125.86656884107758	128.09331713244228	1
152.3686320121971	184.41020656136087	1
76.17520039522846	192.13997569866342	1
77.27945302735844	167.8464155528554	1
51.8816424883689	146.86561360874848	1
90.5304846129182	330.171567436209	1
265.0024004894551	361.0906439854192	1
209.78976888295608	363.2991494532199	1
228.56206362916575	405.26075334143377	1
329.04905315299396	399.73948967193195	1
375.4276637024531	318.024787363305	1
414.07650582700245	501.3307411907655	1
170.0366741262768	247.35261239368165	1
145.74311621941723	253.97812879708383	1
604.0079585533591	457.1606318347509	1
606.216463817619	393.1139732685298	1
484.7486742833212	433.9713244228432	1
456.0381058479417	430.65856622114217	1
414.07650582700245	504.6434993924666	1
265.0024004894551	428.4500607533414	1
371.01065317393324	315.81628189550423	1
378.74042159884306	279.3759416767922	1
408.55524266635257	286.0014580801944	1
336.77882157790384	299.25249088699877	1
298.1299794533545	289.3142162818955	1
347.82134789920366	247.35261239368165	1
470.3933900656315	210.91227217496962	1
584.1314111750195	182.20170109356013	1
551.00383221112	234.10157958687728	1
438.370063733862	195.4527339003645	1
367.6978952775433	230.7888213851762	1
308.0682531425243	161.22089914945323	1
322.4235373602141	79.50619684082625	1
368.80214790967324	86.13171324422844	1
256.16837943241524	93.86148238153099	1
241.8130952147255	138.03159173754557	1
247.33435837537542	205.3910085054678	1
167.82816886201684	249.5611178614824	1
152.3686320121971	185.51445929526125	1
183.28770571183657	67.35941676792224	1
71.75818986670853	194.34848116646415	1
75.07094776309849	161.22089914945323	1
125.86656884107758	134.71883353584448	1
44.15187406345903	147.96986634264886	1
67.34117933818862	71.7764277035237	1
366.36317008552163	231.77965840898602	1
346.4364125297455	247.51130943222034	1
312.8755576989647	161.51161717187262	1
167.0955945277605	241.21864902292663	1
201.70522607200323	233.8772118787506	1
374.7533837932168	317.7793506693338	1
409.36301533745956	281.07216494845363	1
319.1682179797361	76.56070164640714	1
177.5833616623795	31.46330204646869	1
126.19330270274638	130.04831512540392	1
149.2663903989082	175.14571472534237	1
416.70445233169283	506.5591629481459	1
452.3628605893975	432.09601477150335	1
280.3634795816458	272.6819510693953	1
460.9302947049583	428.2340395227459	1
410.86252722330636	279.3483059495925	1
325.22029337311216	80.39480356422814	1
176.33456375662075	55.3609191581227	1
80.15174727871037	164.71946682689912	1
69.61116465099417	201.61150700431767	1
165.79398112890456	246.40898436261162	1
152.6182528442593	173.94247687125375	1
123.63165061803973	130.46257237643903	1
70.92873747945869	61.948783475518866	1
251.43621497909874	94.88810506249972	1
468.8357316757455	201.61150700431767	1
587.4172862375528	184.48305977908763	1
549.2076742120815	233.23325572781928	1
607.1808786645207	318.8754918539695	1
604.5457330075916	393.9771450722858	1
604.5457330075916	455.9030696558098	1
588.7348590660174	446.6800596114552	1
370.01776954090604	233.23325572781928	1
251.43621497909874	201.61150700431767	1
305.4567009461443	287.25374313046785	1
342.348740143151	297.79432603830173	1
380.55835216862226	287.25374313046785	1
371.33534236937055	317.55791899049024	1
333.1257303438993	392.6595722088066	1
275.1525258914602	416.3758837514328	1
314.67971074539594	160.7667482364614	1
285.6931085191764	117.28684374164669	1
244.8483508367761	138.36800955731442	1
561.0658296682623	160.7667482364614	1
260.6592247783504	368.94326066618044	1
209.27388446823392	362.35539634878415	1
410.86252722330636	498.0654012871453	1
51.16514505249081	146.27344673818985	1
170.3125	247.0	1
73.3125	197.0	1
72.3125	164.0	1
46.3125	144.0	1
178.3125	59.0	1
181.3125	36.0	1
319.3125	80.0	1
254.3125	93.0	1
281.3125	115.0	1
307.3125	163.0	1
349.3125	244.0	1
380.3125	319.0	1
308.3125	288.0	1
269.3125	428.0	1
415.3125	507.0	1
459.3125	434.0	1
603.3125	451.0	1
587.3125	181.0	1
93.3125	333.0	1
475.234375	211.0	1
366.234375	234.0	1
329.234375	75.0	1
247.234375	92.0	1
247.234375	136.0	1
185.234375	181.0	1
249.234375	203.0	1
150.234375	182.0	1
127.234375	131.0	1
122.234375	93.0	1
129.234375	38.0	1
410.234375	285.0	1
379.234375	283.0	1
324.234375	302.0	1
365.234375	319.0	1
260.234375	373.0	1
164.234375	252.0	1
174.234375	218.0	1
279.234375	123.0	1
318.234375	159.0	1
342.234375	189.0	1
365.234375	82.0	1
580.234375	186.0	1
547.234375	237.0	1
264.234375	423.0	1
285.234375	438.0	1
412.234375	501.0	1
448.234375	432.0	1
488.234375	440.0	1
156.234375	213.0	1
75.234375	161.0	1
437.234375	203.0	1
606.234375	459.0	1
524.234375	489.0	1
211.234375	366.0	1
