367.9085112689621	176.3123164172808	1
320.2125912995431	153.6567545570655	1
339.29095928731067	184.65910236578117	1
301.13422331177543	194.19828630692444	1
248.66871134541452	71.38129306470472	1
299.94182531254	29.647363322202864	1
192.62600538134717	28.454965329559954	1
164.00845339969575	78.53568102056218	1
116.31253343027673	65.41930310149017	1
133.00610541957337	125.03920273363568	1
142.5452894134572	160.81114251292297	1
177.124831391286	101.19124288077747	1
167.58564739740217	237.12461404206923	1
236.74473135305976	294.3597176889289	1
193.81840338058265	326.5544634902875	1
366.71611326972663	280.050941777214	1
515.765863174161	183.46670437313827	1
494.30269918792254	252.62578794642704	1
438.25999322385513	331.32405546085914	1
524.1126491688094	204.92986824071065	1
609.9653051137636	152.46435656442262	1
611.1577031129991	301.51410564478635	1
563.4617831435801	339.67084140935947	1
487.14831119250965	359.941607284289	1
546.7682111542834	401.67553702679083	1
481.1863211963323	436.2550788134352	1
429.9132072292068	411.2147209679341	1
508.6114751787482	485.14339651179455	1
544.3834151558125	457.7182426810076	1
606.3881111160572	491.1053864750091	1
564.6541811428156	541.1861021660113	1
521.7278531703384	622.2691656657291	1
491.9179031894516	556.6872760703691	1
422.758819233794	472.0270185927225	1
400.10325724831995	510.18375435729564	1
304.7114173094819	418.36910892379154	1
295.1722333155981	445.7942627545785	1
266.5546813339467	381.4047711518613	1
251.05350734388549	407.63752699000537	1
298.7494273133045	364.7111992548606	1
358.36932727507826	387.3667611150759	1
203.35758737446645	127.4239987189215	1
386.9868792567297	97.61404890284874	1
336.9061632888397	218.04624615978267	1
338.0985612880752	359.941607284289	1
332.13657129189784	284.82053374778565	1
179.50962738975693	269.3193598434278	1
173.54763739357955	135.77078466742185	1
485.95591319327417	463.68023264422214	1
161.6236574012248	153.6567545570655	1
236.74473135305976	151.2719585717797	1
284.4406513224788	165.5807344834946	1
339.29095928731067	55.88011916034689	1
481.1863211963323	121.46200875570695	1
562.2693851443446	206.12226623335357	1
291.171875	27.0	1
188.171875	27.0	1
162.171875	81.0	1
120.171875	67.0	1
134.171875	127.0	1
98.171875	144.0	1
210.171875	115.0	1
238.171875	154.0	1
330.171875	153.0	1
370.171875	177.0	1
387.171875	97.0	1
335.171875	68.0	1
580.171875	147.0	1
515.171875	181.0	1
342.171875	225.0	1
172.171875	240.0	1
180.171875	275.0	1
232.171875	293.0	1
366.171875	275.0	1
505.171875	486.0	1
602.171875	487.0	1
523.171875	619.0	1
576.171875	630.0	1
566.171875	538.0	1
486.171875	561.0	1
547.171875	462.0	1
546.171875	401.0	1
481.171875	431.0	1
400.171875	509.0	1
485.171875	365.0	1
567.171875	344.0	1
422.171875	288.0	1
360.171875	388.0	1
266.171875	377.0	1
252.171875	412.0	1
305.171875	423.0	1
299.171875	357.0	1
339.171875	363.0	1
304.171875	193.0	1
248.171875	73.0	1
169.171875	137.0	1
168.171875	185.0	1
564.171875	208.0	1
496.171875	253.0	1
194.171875	331.0	1
301.5039824607507	29.009461888538016	1
192.14543769819505	25.056743298100315	1
248.80106932216967	69.85422065639428	1
333.1257303438993	65.90150206595656	1
516.2683535004684	183.1654869156084	1
525.49136329972	209.51694418519307	1
566.3361209821204	13.198587526787211	1
497.82233390196507	251.67927581652856	1
367.382623883977	169.98975828081603	1
329.17301185850573	159.44917537298218	1
337.0784488292929	221.37509995650618	1
366.06505105551247	279.3483059495925	1
331.8081575154348	283.30102454003014	1
420.085537022558	314.9227732635318	1
443.8018479349195	336.00393907919954	1
488.59932410271335	363.6729692122634	1
568.9712666390494	345.22694912355416	1
607.1808786645207	296.4767531748225	1
549.2076742120815	404.5177279801197	1
479.3763143034617	432.1867581131836	1
500.4574795588941	486.2072455158322	1
542.619810069759	459.8557882462475	1
605.8633058360562	503.33569274106225	1
437.2139837925969	407.15287370707813	1
453.0248577341712	359.72025062182576	1
140.76009738807855	122.55713519556363	1
300.1864096322862	188.4357783695253	1
238.26048669445348	292.5240345843848	1
198.7333018405177	342.5918033965957	1
305.4567009461443	420.32860234187046	1
421.4031098510226	473.03151688103986	1
487.28175127424885	562.6264715976278	1
566.3361209821204	552.0858886897939	1
608.4984514929852	143.63830101123136	1
571.6064122959785	89.61781360858278	1
381.87592499708677	90.935386472062	1
410.8625272233063	154.17888391906524	1
120.99650496111067	64.58392920247734	1
346.3014586285446	238.50354718173622	1
343.6663129716155	355.76753203138804	1
364.74747822704796	392.6595722088066	1
290.9633998330345	368.9432606661804	1
395.05165328173206	379.48384357401426	1
594.0051503798754	237.18597431825697	1
483.3290327888553	122.55713519556363	1
287.0106813476409	158.13160250950295	1
570.288839467514	195.0236426869215	1
400.32194459559014	508.60598419497916	1
242.21320517984705	148.9085924651483	1
512.933427630998	181.5628833836039	1
522.6352615119748	205.12447893720133	1
499.0736649438885	253.63364625343138	1
547.582834348772	397.7751719930864	1
496.30171240646655	358.96783814010234	1
445.0205904641611	340.9501474226455	1
421.45899389607484	307.686718405802	1
370.17787195376934	277.1952418070288	1
375.7217770286132	170.47507371132275	1
338.3004177734173	188.49276442877962	1
300.8790585182214	195.42264547395533	1
285.63331956240086	166.31714508421732	1
235.73817388880636	295.2129325244857	1
167.8253367219694	235.6159555359745	1
170.59728925939132	182.94885959263902	1
135.94788254161736	127.50981123123327	1
252.36988911333788	72.0707628698275	1
316.12479747404194	156.61531162097128	1
341.07237031083923	162.15921645711188	1
565.6005258420145	342.3361236316806	1
546.1968580800611	468.45995865387874	1
512.933427630998	489.2496017894059	1
483.82792598806793	468.45995865387874	1
483.82792598806793	431.03860100992983	1
432.5468040457625	410.24895787440266	1
361.8620143415036	393.617243365981	1
342.45834657955015	364.51174297624294	1
309.1949161304872	422.72274375571897	1
289.79124836853373	408.86298166536756	1
295.3351534433775	449.0562917273867	1
487.9858547942008	559.9343884501983	1
564.2145495733035	546.0746263598468	1
522.6352615119748	622.3033178567798	1
194.1588858274776	27.719524180702884	1
335.5284652359954	285.5110990612397	1
349.388227923105	241.1598603721151	1
508.4375	482.0	1
479.4375	434.0	1
480.4375	462.0	1
604.4375	489.0	1
441.4375	339.0	1
487.4375	361.0	1
547.4375	402.0	1
571.4375	339.0	1
544.4375	465.0	1
486.4375	558.0	1
565.4375	539.0	1
238.4375	158.0	1
296.4375	31.0	1
332.4375	63.0	1
389.4375	97.0	1
197.4375	29.0	1
251.4375	71.0	1
134.4375	126.0	1
120.4375	63.0	1
467.4375	280.0	1
500.4375	254.0	1
512.4375	176.0	1
584.4375	148.0	1
478.4375	123.0	1
569.4375	91.0	1
609.4375	153.0	1
371.4375	171.0	1
172.4375	235.0	1
182.4375	271.0	1
523.4375	625.0	1
304.3125	192.0	1
369.3125	175.0	1
389.3125	99.0	1
336.3125	56.0	1
299.3125	33.0	1
247.3125	71.0	1
191.3125	31.0	1
524.3125	206.0	1
439.3125	336.0	1
484.3125	357.0	1
548.3125	408.0	1
480.3125	434.0	1
511.3125	486.0	1
545.3125	466.0	1
428.3125	499.0	1
488.3125	558.0	1
526.3125	615.0	1
569.3125	546.0	1
433.3125	409.0	1
134.3125	127.0	1
116.3125	65.0	1
236.3125	145.0	1
235.3125	294.0	1
423.3125	303.0	1
366.3125	278.0	1
325.3125	159.0	1
496.3125	258.0	1
563.3125	341.0	1
613.3125	154.0	1
365.3125	389.0	1
342.3125	366.0	1
266.3125	378.0	1
307.3125	411.0	1
256.3125	414.0	1
184.3125	269.0	1
168.3125	240.0	1
170.3125	183.0	1
159.3125	77.0	1
381.3125	210.0	1
483.3125	465.0	1
606.3125	492.0	1
512.3125	176.0	1
611.3125	298.0	1
490.13149656762886	360.8658441355615	1
550.8080529935894	403.44588474152744	1
483.7444906280541	435.38091519600187	1
433.7129441013849	408.76838981727315	1
495.45400151727455	256.5447446509449	1
522.0665262655028	203.31969389348743	1
513.5505183460698	184.15867562080277	1
571.0335718022429	92.61158831797596	1
562.5175638828099	7.451507106044042	1
587.0010866511799	147.9656411057317	1
615.7426133792665	147.9656411057317	1
610.4201084296208	301.25378728720915	1
569.9690708123138	341.7048258628768	1
422.00343321216445	304.44729033265656	1
443.29345301074704	338.51132281742935	1
369.84288470563695	174.5781664844604	1
296.39231640052685	28.741527409027018	1
329.39184708832994	61.741058878650634	1
249.55427284364504	67.06356395439639	1
195.26472235725927	34.06403248477277	1
244.23176789399935	155.41714821177573	1
285.7473065012355	158.6106512572232	1
330.45634807825905	158.6106512572232	1
300.65032036024337	196.93268780259254	1
338.97235599769215	185.22317663595192	1
314.4888332293221	226.7387162267687	1
345.3593619372669	221.41621115102296	1
336.84335401783386	261.8672497266906	1
368.77838371570783	282.09276901452444	1
338.97235599769215	286.350773075121	1
507.163512406495	484.3479618928627	1
548.6790510137312	468.3804466656255	1
605.0976034799752	496.05747305950337	1
565.7110668525972	545.0245197563643	1
523.131027255432	622.7330938622521	1
577.4205777418177	635.5071060440418	1
489.06699557769974	557.798531938154	1
459.26096785968406	572.701546150242	1
420.9389322222353	473.70295174137124	1
426.26143717188097	504.57348118069655	1
491.19599755755803	467.31594565047635	1
301.7148213501725	365.12384819615806	1
343.23035995740867	365.12384819615806	1
363.45587876606214	393.8653756051851	1
398.5844114337235	385.3493674839919	1
445.42245499060533	383.2203654536936	1
295.3278154105977	405.57488677182573	1
265.521787692582	382.1558644385444	1
316.6178352091803	422.6069030142121	1
294.26331442066856	449.2194283929408	1
235.7157599745663	295.9312822114634	1
180.36170849825143	265.0607527721381	1
167.58769661910185	236.31922536311106	1
115.42714811257437	67.06356395439639	1
133.52366494136962	126.67562080274871	1
164.39419364931445	79.83757613618617	1
178.23270651839317	103.25659846946743	1
176.1037045385349	130.9336248633453	1
212.2967381961254	122.41761674215212	1
165.4586946392436	156.48164922692487	1
175.03920354860577	182.02967359050444	1
595.5170945706129	242.70623145400594	1
566.7755678425264	196.93268780259254	1
479.4864866683376	127.74012181789786	1
387.9394015344322	96.86959237857255	1
260.19928274293636	293.8022801811651	1
442.78707426238196	339.0055893074119	1
485.8529269154512	361.0906439854192	1
539.9613058898202	403.05224787363306	1
565.3591164288098	340.1098420413123	1
495.791200604621	250.66537059538274	1
526.7102743042605	212.01652490887	1
513.4592427187007	184.41020656136087	1
563.1506111645498	94.96573511543134	1
579.7144006464995	149.0741190765492	1
610.633474346139	155.69963547995138	1
479.2274111226713	122.57205346294046	1
415.18075845913245	153.49113001215068	1
375.4276637024531	173.36767922235722	1
336.77882157790384	185.51445929526125	1
329.04905315299396	159.0123936816525	1
300.3384847176145	197.66123936816524	1
298.1299794533545	26.50206561360875	1
332.3618110493839	67.35941676792224	1
253.9598741681553	68.4636695018226	1
191.01747413674642	26.50206561360875	1
160.09840043710696	79.50619684082625	1
176.6621899190567	104.90400972053463	1
122.55381094468764	66.25516403402187	1
130.2835793695975	130.301822600243	1
207.5812636186961	126.98906439854191	1
170.0366741262768	241.83134872417983	1
181.0792004475766	265.0206561360875	1
235.18757942194563	294.8354799513973	1
301.44273734974445	362.19489671931956	1
266.1066531215851	376.5501822600243	1
309.1725057746543	415.19902794653706	1
287.0874531320547	406.3650060753341	1
294.81722155696457	446.1181044957473	1
337.8830742100338	361.0906439854192	1
359.9681268526334	394.21822600243013	1
485.8529269154512	431.7628189550425	1
429.5360426768222	411.88626974483594	1
481.43591638693124	464.89040097205344	1
505.7294742937908	492.49671931956254	1
543.2740637862101	464.89040097205344	1
606.216463817619	492.49671931956254	1
570.8803795894597	547.7093560145807	1
495.791200604621	560.9603888213852	1
522.2932637757406	618.3815309842041	1
421.234375	312.0	1
366.234375	278.0	1
374.234375	182.0	1
344.234375	163.0	1
342.234375	52.0	1
302.234375	31.0	1
244.234375	63.0	1
493.234375	124.0	1
509.234375	181.0	1
344.234375	226.0	1
238.234375	294.0	1
302.234375	369.0	1
240.234375	164.0	1
478.234375	428.0	1
509.234375	490.0	1
555.234375	460.0	1
486.234375	556.0	1
494.234375	590.0	1
524.234375	625.0	1
497.234375	362.0	1
548.234375	403.0	1
567.234375	342.0	1
493.234375	257.0	1
529.234375	215.0	1
390.234375	102.0	1
317.234375	153.0	1
302.234375	198.0	1
331.234375	291.0	1
323.234375	265.0	1
140.234375	130.0	1
194.234375	23.0	1
582.234375	140.0	1
586.234375	246.0	1
450.234375	341.0	1
429.234375	412.0	1
178.234375	268.0	1
600.234375	498.0	1
