227.45781099703578	226.37181044957472	1
300.3384847176145	218.64204131227217	1
202.06000045804623	155.69963547995138	1
167.82816886201684	136.9273390036452	1
171.14092675840678	96.06998784933171	1
461.5593690085916	132.51032806804375	1
429.5360426768222	261.7078979343864	1
463.7678742728516	306.98226002430135	1
456.0381058479417	97.17424058323208	1
321.3192847280841	37.54459295261239	1
502.4167163974009	244.03985419198057	1
376.5319163345831	189.9314702308627	1
379.84467423097306	435.07557715674363	1
557.6293480038998	253.97812879708383	1
483.64442165119124	410.7820170109356	1
596.2781901284492	408.5735115431349	1
594.0696848641893	301.46099635479953	1
427.3275374125622	490.28821385176184	1
458.24661111220166	492.49671931956254	1
528.9187795685204	411.88626974483594	1
510.14648482231075	453.8478736330498	1
136.90909516237738	56.31688942891859	1
596.234375	308.0	1
561.234375	248.0	1
433.234375	271.0	1
348.234375	248.0	1
303.234375	249.0	1
231.234375	234.0	1
211.234375	154.0	1
172.234375	142.0	1
327.234375	305.0	1
386.234375	363.0	1
368.234375	429.0	1
452.234375	460.0	1
501.234375	246.0	1
488.234375	127.0	1
461.234375	126.0	1
515.234375	115.0	1
300.234375	116.0	1
215.234375	303.0	1
233.234375	363.0	1
482.234375	417.0	1
508.234375	449.0	1
585.234375	273.0	1
136.234375	146.0	1
169.234375	103.0	1
367.234375	189.0	1
442.234375	208.0	1
602.234375	203.0	1
540.234375	428.0	1
426.234375	493.0	1
303.234375	370.0	1
295.234375	301.0	1
172.234375	283.0	1
332.234375	129.0	1
526.234375	393.0	1
406.234375	118.0	1
516.234375	485.0	1
594.234375	386.0	1
460.234375	493.0	1
364.234375	516.0	1
138.21912422225793	57.73409946502873	1
310.4085580738425	359.57202298395083	1
368.14266236525623	429.4606697047751	1
554.5124025340302	245.11670299187637	1
461.3275324496432	311.9667128987517	1
471.456322676207	282.5932236972459	1
499.8169353105856	240.05230830196155	1
296.2282517566532	303.86368139488803	1
357.00099311603606	298.79928670497327	1
381.3100896597892	348.43035466613827	1
458.2888953816741	488.2076481077868	1
427.90252470198266	491.2462849217357	1
536.2805801262153	476.0531008519913	1
513.997241627775	489.22052704576976	1
488.67526606136545	411.22884882108184	1
523.1131528316824	388.9455121854567	1
547.4222493754355	422.3705171388944	1
596.0404424629418	386.91975430949077	1
224.31384114805024	225.87200317020012	1
299.26688882462236	244.1038240538934	1
167.59261587929294	134.7128987517337	1
219.24944603476834	302.8508024569051	1
601.1048375762236	204.60154547255794	1
612.2465068254438	444.6538537745195	1
483.6108709480836	121.54547255795522	1
415.74797643010606	83.05607291460274	1
451.1987422230794	49.63106796116505	1
329.6532595043138	30.386368139488805	1
176.70852708320038	271.45155537943333	1
296.2282517566532	112.42956211610858	1
137.84375	59.0	1
220.84375	224.0	1
202.84375	156.0	1
168.84375	144.0	1
63.84375	97.0	1
333.84375	32.0	1
283.84375	98.0	1
68.171875	34.0	1
59.171875	102.0	1
139.171875	50.0	1
174.171875	96.0	1
174.171875	137.0	1
333.171875	34.0	1
419.171875	89.0	1
305.171875	112.0	1
224.171875	231.0	1
152.171875	283.0	1
264.171875	337.0	1
430.171875	261.0	1
373.171875	429.0	1
371.171875	518.0	1
430.171875	490.0	1
488.171875	411.0	1
519.171875	484.0	1
596.171875	395.0	1
299.171875	305.0	1
371.171875	297.0	1
465.171875	296.0	1
167.82816886201684	136.9273390036452	1
206.47701098656614	155.69963547995138	1
139.11760042663735	142.44860267314704	1
130.2835793695975	189.9314702308627	1
224.14505310064584	224.163304981774	1
302.54698998187445	248.456865127582	1
596.2781901284492	298.1482381530984	1
521.1890111436105	388.6969623329283	1
486.9571795475812	407.46925880923453	1
448.30833742303184	458.26488456865127	1
453.8296005836817	492.49671931956254	1
422.9105268840423	488.07970838396113	1
546.5868216826001	552.1263669501823	1
378.74042159884306	354.46512758201703	1
337.8830742100338	247.35261239368165	1
71.75818986670853	33.12758201701094	1
174.45368465479672	277.1674362089915	1
587.4441690714094	76.19343863912515	1
200.65644935854132	151.02384982304972	1
224.77831376816505	226.53577473457457	1
162.9004876739129	134.24342206493307	1
427.1922194663119	481.38852131097093	1
511.0943565432639	446.7788890598554	1
302.38779056434566	243.3162024926912	1
180.72969180276522	274.77950453915986	1
67.46180674887994	101.73134328358209	1
428.24099617977373	260.09663025080783	1
496.4114825547973	238.07231881827974	1
554.0942017952018	247.51130943222034	1
218.8587795590772	297.9369116668576	1
228.397963552961	222.8158381303543	1
147.31489960494864	283.6281357551427	1
136.58331761182936	58.264915145632706	1
68.61663165540725	34.4169552927745	1
582.5401693258973	76.15088503527636	1
570.6161893335425	15.338587410487943	1
452.5687874092304	51.11052718977525	1
297.55704750861855	243.08660400528376	1
433.49041942146283	260.97257389492745	1
496.687513380943	243.08660400528376	1
604.0033333121359	203.73747024806775	1
592.079353319781	296.7445136742147	1
519.3430753664171	388.5591591077188	1
483.5711353893528	405.2527310047195	1
545.5758313495975	418.36910892379154	1
536.0366473557137	474.4118145780083	1
459.72317540464326	489.9129884823662	1
425.14363342681446	488.72059048972324	1
506.2266973748268	445.7942627545785	1
563.4618013381297	427.9082928649348	1
608.7729253090778	450.5638547251501	1
446.606797413053	455.33344669572176	1
527.6898613610654	414.7919149458628	1
522.9202693641234	247.8561959758554	1
171.16285958965815	139.3479786453506	1
202.16520756978053	162.0035405055659	1
187.8564315789548	43.95613923391778	1
382.21730545433735	356.36441330636023	1
391.75648944822115	413.5995169532199	1
367.9085294635116	433.8702828281494	1
458.5307774054078	128.6163967115644	1
609.9653233083133	33.22455730013159	1
509.80389137253326	565.0340620188695	1
514.5734833694752	481.5662025338658	1
556.3074133427168	252.62578794642704	1
564.6541993373652	505.414162386724	1
