338.3125	14.0	1
334.3125	46.0	1
278.3125	11.0	1
298.3125	79.0	1
237.3125	261.0	1
321.3125	151.0	1
296.3125	192.0	1
412.3125	7.0	1
377.3125	377.0	1
472.3125	333.0	1
464.3125	406.0	1
431.3125	451.0	1
414.3125	412.0	1
288.3125	360.0	1
343.3125	195.0	1
567.3125	395.0	1
530.3125	431.0	1
612.3125	416.0	1
457.3125	521.0	1
397.3125	251.0	1
586.3125	254.0	1
558.3125	528.0	1
562.3125	568.0	1
584.3125	487.0	1
425.3125	299.0	1
585.2356638071494	256.18663426488456	1
492.47844270823106	252.87387606318347	1
329.04905315299396	47.48286755771567	1
342.3000847385537	197.66123936816524	1
321.3192847280841	155.69963547995138	1
295.92147418909457	197.66123936816524	1
400.8254742414427	247.35261239368165	1
368.80214790967324	231.89307411907654	1
472.6018953298914	332.3800729040097	1
436.1615584696021	336.79708383961116	1
417.3892637233924	295.9397326852977	1
461.5593690085916	406.3650060753341	1
452.7253479515518	524.5200486026731	1
485.8529269154512	471.5159173754557	1
564.2548637966798	388.6969623329283	1
583.0271585428894	492.49671931956254	1
555.42084273964	522.3115431348724	1
557.6293480038998	569.7944106925881	1
464.5834728093297	411.9618928627206	1
472.0349797388336	334.25331875683275	1
436.9064470711723	258.6737466812432	1
400.7134134135818	253.35124160549742	1
370.90738569556606	172.44916445416212	1
342.1658589674795	192.67468374199595	1
292.13431244081033	200.12619084803998	1
288.94080947102293	254.41574262064657	1
301.7148213501725	87.2890832422302	1
335.77885302790474	11.709511166640638	1
361.3268767862039	13.838513196938935	1
414.55192628266053	8.516008121193192	1
279.3603005616607	9.58050913634234	1
565.7110668525972	390.67187255973766	1
536.9695401245107	300.18928627206	1
609.3556074396917	215.02920506012808	1
605.0976034799752	425.80040605965957	1
607.2266054598334	521.605497423083	1
581.6785817015342	498.18647508980166	1
556.1305579432351	530.1215055442761	1
451.80946093018014	523.7344994533812	1
525.2600292352903	410.89739184757144	1
583.8075836813925	258.6737466812432	1
609.3556074396917	162.8686553178198	1
548.6790510137312	22.354521318132125	1
329.39184708832994	50.031547712009996	1
203.78073027669234	15.967515227237232	1
321.940340158826	158.6106512572232	1
267.6507896724403	156.48164922692487	1
320.87583916889685	126.67562080274871	1
544.4210470540146	340.64032484772764	1
612.5491104094791	340.64032484772764	1
378.35889262507	196.93268780259254	1
276.1667975918733	124.54661877245042	1
252.7477758134324	134.12712790879277	1
272.9732946220859	32.99953146962361	1
252.7477758134324	223.54521318132126	1
370.90738569556606	236.31922536311106	1
416.68092826251876	292.73777916601597	1
433.7129441013849	337.44682180228017	1
436.9064470711723	454.5419334686866	1
528.4535322050776	443.8969233171951	1
507.163512406495	290.6087771357176	1
492.26049854748715	257.609245666094	1
227.19975205513325	232.06122130251447	1
460.9302947049583	404.5177279801197	1
522.8562176427911	436.1394767036213	1
583.4645677521593	494.11268269670757	1
561.0658296682623	531.0047228741262	1
453.0248577341712	521.7817128297715	1
338.39602165775744	193.70606982344225	1
290.9633998330345	192.38849695996302	1
417.45039136562895	287.25374313046785	1
402.9570902525192	247.72655722609085	1
370.01776954090604	221.37509995650618	1
373.9704880262996	171.3073311442953	1
310.72699226000236	155.49645678254447	1
248.80106932216967	275.3955873591548	1
466.2005860188164	333.368793352241	1
567.6536938105849	386.0717078914104	1
607.1808786645207	420.32860234187046	1
607.1808786645207	511.2411299219376	1
488.59932410271335	473.03151688103986	1
339.71359448622195	11.881014663307976	1
339.71359448622195	51.40820056768499	1
583.4645677521593	258.2671401339247	1
302.8215552892152	76.44208497379044	1
500.4574795588941	284.6185974035094	1
557.1131111828687	565.2616173245863	1
243.5307780083116	224.01024568346466	1
292.28097266149905	357.08510489486724	1
566.6795223567447	389.0961686413295	1
419.85078247207855	299.95014617633484	1
321.2657714066599	152.072626557932	1
400.9728016297643	248.56008616710264	1
372.655830366293	231.77965840898602	1
582.4111730586732	496.071395599323	1
559.3380853625114	567.3882135713187	1
451.3140838759356	521.2420372364979	1
462.6520605812294	409.7099775860898	1
412.6535581582628	404.15458805949874	1
523.7613413204108	438.8757726006928	1
568.20445458527	384.7107247164301	1
468.2074497393368	333.3233715954629	1
400.15393255252116	255.54791822318822	1
373.765834051511	234.71520749847178	1
291.82384396942683	195.82748081233444	1
319.6007897599638	151.38436459960607	1
344.60004097144713	198.60517557562997	1
419.59779460589704	295.8244922909733	1
432.0974202116387	454.1530937988182	1
451.5412822650146	519.428920736263	1
561.2602181376358	534.7062419343883	1
584.8706220595923	486.09658357671674	1
373.765834051511	169.43938056102698	1
376.5435286305647	197.2163281939822	1
583.4817747700654	256.93676560483595	1
329.32272078665176	49.998505739319434	1
307.10116415422215	81.94199551721796	1
336.266957234286	13.888473816477621	1
205.7153120187621	152.77321198125384	1
284.87960752179254	359.7114718467704	1
489.04015908223954	474.9858045235346	1
291.79474165649424	190.95559515999864	1
342.7634289700867	190.95559515999864	1
471.24699490643445	331.11948361614446	1
537.081549353158	296.078511502108	1
397.97950689314524	245.10982479078226	1
338.51603836062066	10.441496390719934	1
563.6277406623209	385.2737132469281	1
606.1016467569813	422.4383806406031	1
524.3393775247599	411.81990424241025	1
459.56667073040285	405.4488184034945	1
551.9474164862893	528.6231446225318	1
588.0502366667506	496.76771542795314	1
563.6277406623209	568.9733549356646	1
251.44453086656685	218.5636337953001	1
223.83649190503758	231.30580547313153	1
586.9883890143841	254.66645354915582	1
438.32971768307266	254.66645354915582	1
328.95940948932207	45.48246850475639	1
463.234375	413.0	1
472.234375	330.0	1
441.234375	339.0	1
396.234375	255.0	1
531.234375	299.0	1
566.234375	385.0	1
528.234375	427.0	1
283.234375	359.0	1
324.234375	157.0	1
253.234375	228.0	1
270.234375	164.0	1
210.234375	146.0	1
506.234375	287.0	1
586.234375	350.0	1
556.234375	323.0	1
590.234375	253.0	1
406.234375	409.0	1
428.234375	458.0	1
364.234375	174.0	1
338.234375	203.0	1
292.234375	201.0	1
255.234375	134.0	1
192.234375	70.0	1
525.234375	367.0	1
396.5260814451631	253.81818593906996	1
373.87051945968904	232.3550220714976	1
333.32898748568283	41.57134324863196	1
339.29097748186024	14.146189417845033	1
414.4120514336952	10.568995439916302	1
279.67107752008644	359.941607284289	1
410.8348574359888	402.86793501943373	1
470.45475739776253	331.32405546085914	1
564.6541993373652	387.3667611150759	1
519.3430753664171	432.67788483550646	1
583.7325673251328	488.72059048972324	1
551.5378213457749	524.4925302690106	1
564.6541993373652	569.8036539894412	1
450.18399141075946	526.8773262542963	1
607.5805273098423	517.3381423131531	1
609.9653233083133	423.1387008943632	1
583.7325673251328	256.20298192435575	1
606.3881293106068	162.0035405055659	1
336.9061814833893	191.81349032163862	1
420.3740414298726	293.167319696286	1
462.1079714031142	406.4451289973625	1
293.97985351091216	197.7754802848532	1
274.9014855231445	10.568995439916302	1
265.3623015292607	154.84915254970844	1
299.9418435070895	80.920477005848	1
