457.2414038419863	19.642745784115775	4
253.96386146605295	273.5851677171305	6
193.62478953941888	152.15610202560435	8
466.72799458890313	447.57255755897734	7
249.60803845104738	39.06460252762692	8
427.67199779531035	447.15329407714154	6
301.506853723629	72.22975336972036	8
361.912581051074	53.81910045431568	6
265.0742062315675	166.7649905136148	9
502.5780853570669	350.5447893189288	3
280.7777241928886	346.2997012999664	3
485.1461626205234	433.65030376670717	3
566.7810068963553	80.36110507895347	10
164.81252035103455	175.15076668849173	8
201.62298918293214	186.74687896983858	8
293.59002970315197	269.4191938388377	7
389.5595787048343	370.243788670585	10
111.60649400611024	66.23046442903369	10
609.4361131426779	121.53721149489792	5
613.684173279277	168.83019445753322	5
578.0999458037616	124.62563314282632	6
348.2490779596774	157.84627456017606	7
250.94532745934777	190.34894199070163	3
339.05531216872794	122.32326496656185	7
142.65037548649076	65.37425004982988	10
395.7840418448272	205.89118638902502	7
334.86679333745246	388.3287253668536	5
405.3470027000181	402.9527672697591	9
289.0516396008872	294.0844810034332	5
541.4883333864432	233.254415658455	4
591.8665118340484	442.4174877960077	3
586.707172443661	213.47873396119618	8
552.9318615019499	260.3539489671932	2
546.364831813854	120.93116487668831	3
30.511600884741725	73.96076433912032	5
596.8018241276063	450.1793679971305	6
23.754322352830023	14.616731633590469	4
126.04760457460557	163.71585810946655	3
432.84465390462873	234.21189276810225	7
506.65529392683	343.96875587284364	2
344.09760309987735	392.7030600576318	2
530.9920587021395	184.9529687777179	5
25.140262216978847	127.76207878135098	3
224.88625892156347	256.6289853822716	6
373.7041912492441	273.70475042824586	5
197.38833112547073	243.53965348740337	4
345.8851322157887	164.2558085859363	3
207.10415930828893	201.3828703389255	1
34.39256600253439	149.97507308816742	1
577.658903575799	134.24342206493307	1
147.66045105641965	219.19433759039853	1
591.2930008508037	484.5348515156178	1
273.51365667184774	386.9986151715649	1
506.34208706038964	128.99953839052162	1
586.234375	129.0	1
379.234375	156.0	1
333.234375	286.0	1
224.234375	207.0	1
575.234375	418.0	1
317.234375	342.0	1
310.234375	103.0	1
312.3125	70.0	1
293.8570773769836	282.4843858386573	1
284.7402217983828	338.7049908829646	1
