201.61812114273357	279.8892887342705	7
598.3836140273156	86.96892027207377	4
318.98669290698126	258.43605419145024	10
236.80595682006796	168.78406229709833	6
541.1657547559034	238.74995055763011	7
482.830948235335	224.56942321906936	10
183.1067652088807	51.04048123825993	6
376.4743304673335	170.70223440695224	10
323.3663111708521	191.68984883319735	7
373.86494688925336	390.35995247011806	9
465.14249816551273	419.56516853151834	5
588.8227610826617	373.0276359602269	10
228.0437504114451	105.72921054192443	7
221.02537589713427	210.0235371447045	6
586.0251277247684	278.9942117918159	8
561.9512684985978	307.82801224097284	4
364.51058594230653	222.02843163202087	9
580.3360732063579	412.1385157977918	7
327.51439189882115	432.9655250903055	10
483.2620299351448	478.6905321615026	4
548.9637422365342	494.36393270652195	5
413.7941686416301	275.9310236508255	5
333.33525118926264	404.96323460548103	5
162.81226948328597	25.78818575100976	9
415.3561485684015	441.6136228251851	8
131.72411452033185	62.36320528831803	2
491.5978874962971	427.8887297850001	4
261.6646243696658	166.95091552546546	2
196.52264704289814	323.9808432066472	3
270.66544479323545	223.42078149439942	8
513.6887541283629	161.82897368825974	2
433.42602349547013	104.30583922851216	5
450.0689922198708	188.62331038043857	9
345.16785859554784	247.03030016653014	7
376.14267467334827	333.0702346250215	3
400.3156133321015	358.51654927595246	9
319.69580191650533	115.15238453702096	8
271.4562738575038	272.29462166682765	3
342.1710825254845	408.4135315507864	3
99.7734375	96.5	2
535.5276575932638	221.1340026566189	5
506.72252737201416	236.28245196896353	4
140.3872984271809	57.505058829525	6
380.4399833720415	339.10985137433784	4
360.7692830176563	295.6445251463099	6
165.44691885180558	192.8329654183153	4
199.37070450415965	135.19659523760603	4
294.6697528709011	28.815379499401125	4
133.2262893020847	155.50596245576241	3
419.35940649644465	408.8620820500348	9
107.78583060073497	58.13737053939313	4
445.30641216980064	336.08270710114004	7
311.4836045407229	380.5316112856936	7
433.6419863618182	509.20536986996973	3
230.54846818546477	29.303052246899572	5
198.1815050080264	179.67041083243578	2
38.42569807146005	114.68272041852593	2
503.4851468822992	387.98707029669794	6
254.828996942857	53.462911985055165	6
281.03854251573216	439.3898708840525	4
517.7724494687774	170.21012867979394	8
578.0957999212491	477.57577655385427	5
47.193969995500495	35.329204492998926	2
467.7149421304784	494.05443145099247	3
451.9786346784032	379.10507216735067	4
267.83275867412357	355.26251609559364	4
64.37656102065866	96.61760829073687	3
337.04039399650543	300.8608620385641	8
438.19951413287015	113.40934521342727	3
238.03509749360967	386.54808432066477	2
204.85222350514306	83.87790429296815	2
283.6660015340054	151.3024742957157	5
128.28841669679542	113.59136020926297	3
276.8534190166958	399.85656277331543	6
474.64074473752993	532.3440381314207	4
239.9991232846714	306.4740773765709	4
476.89592352581144	350.2961144836155	5
561.8762114432925	313.3326413574779	5
551.1013434064089	117.05534119614966	5
491.7383441871168	149.50606631322103	3
603.3533566871079	422.660662664249	3
225.16196468756573	142.71973983935874	3
200.68963818644815	123.99049465724698	3
281.70444859876454	24.294831985228114	2
398.3325607948377	109.3508061902649	4
567.5468131833837	508.6313503064448	2
382.73948079267365	203.70695491614094	2
125.33762282429538	13.204054867629775	2
221.9504447142437	55.84360090718366	4
363.5978906742839	329.6398804443707	2
264.41132763243854	71.43530532638928	3
299.12719644439017	12.171002413014346	2
198.97325913388602	5.610440173813693	3
235.84949920707157	343.42621941837206	2
146.15454710128603	95.67056470226188	2
425.35582833641615	434.82190384014206	1
56.1474333838231	16.381833632810363	2
147.53490084813484	122.01427257384857	2
439.15936177786375	125.19991347916259	2
413.84375	289.0	1
517.8124137407733	191.8655177719649	2
425.2150150619117	250.20687798122788	2
493.88032346558896	439.72852478355026	2
560.84375	253.0	1
426.84375	373.0	1
398.5844114337235	486.476963923161	1
297.09433015709726	156.77082469954414	1
236.3632903161125	111.57563199336926	1
579.5118492667657	465.12607970016444	1
188.5627428814338	97.53623634405294	1
611.2197584065798	297.85259270657025	1
591.2930008508037	523.3395907062626	1
602.8295446988845	554.8028927527312	1
592.3417775642655	584.1686413294353	1
506.34208706038964	538.0224649946146	1
476.9763390834565	483.4860747807355	1
458.09835824114225	538.0224649946146	1
490.6104363584612	552.7053392829666	1
380.4888814449616	465.6568702877366	1
332.2451526257142	460.41298661332513	1
421.3911732699757	317.7793506693338	1
356.3670170353379	281.07216494845363	1
266.1722196776144	176.19449146022467	1
194.8554031622052	201.36513309739962	1
136.12390720833875	173.04816125557778	1
78.44118796793421	37.75596245576243	1
79.48996468139612	169.90183105093092	1
174.9286456064291	218.14556085551624	1
213.7333840045194	304.145253115864	1
215.5751463116844	423.68837362047765	1
457.6936612115552	-28.2777685269984	1
463.0740726537745	-64.14809726886156	1
58.3125	122.0	1
75.3125	117.0	1
390.3125	470.0	1
370.3125	210.0	1
573.3125	407.0	1
249.3125	177.0	1
319.234375	392.0	1
341.234375	316.0	1
140.234375	115.0	1
200.234375	294.0	1
591.234375	405.0	1
