81.51995590243632	186.11693904551953	2
530.0018730115653	391.7437852584847	8
75.64210669719643	316.9269608247754	6
172.49093082381043	380.40653896346146	8
381.2824206849351	357.21215101237397	3
354.43801545047836	418.1589829695807	7
219.39407465282778	431.40129461277263	2
149.6324390674921	337.15740369033244	8
374.54243321200977	384.88789919313376	6
587.8666322355448	525.4260385251771	3
291.23230634859874	386.07416365640415	5
545.2140893868335	504.17435127681335	6
323.47044881400177	193.65024184592068	8
399.8685861694151	409.70639520621484	8
188.1946692720528	82.0469328889649	4
112.74324849200497	307.5546882418233	8
226.77170622224082	394.4342002960028	4
549.3776060881951	415.3903115076354	7
370.0689679417094	514.974688413602	2
329.777031159686	504.1224413632966	3
405.45159062522254	254.5588795668694	8
342.2827381741576	281.0949309883491	7
557.2299426371774	470.9133712878904	3
412.18665625176527	339.5937966077211	6
480.7337245623148	431.32234479216856	6
89.71106911862532	244.75481877325612	7
332.1075760954165	463.75055842724385	7
524.4688835511275	266.8254983251627	3
312.20712621477617	338.17621941837206	3
220.50600054627475	389.98718212704625	3
384.89164180708474	328.67198549845966	4
365.171875	420.0	1
591.5868397999647	515.4472660996355	2
610.1709816931178	366.0230804739191	1
537.8053884642467	355.5353131250962	1
612.2685351200416	470.90075396214803	1
334.342706052638	323.02323434374523	1
