541.3445917575468	208.85187625712183	8
270.17890319591197	402.93896511302523	5
285.790462540906	310.06828222617685	8
292.171548940654	424.1420174489166	6
412.4139238498605	121.59933877813899	6
11.351091006923106	58.25172439183051	5
588.9602716453899	274.53883819859925	6
545.9946336090328	248.26897368747257	3
212.8487595806709	124.63739742381973	5
489.2132116737873	151.03834020928076	6
115.56575400282102	314.38483286399	2
321.03890062639886	262.91324947354474	9
37.95106940941504	246.08830752460145	5
282.27064760708765	157.8324154947524	8
346.8890227447928	257.6669916006908	8
80.58753954207856	254.7576657186708	5
68.48470858612265	16.40673534727383	2
348.08795681342815	480.82219780405035	7
463.93725925818126	192.79955873973472	6
35.195299064729994	140.37611045185974	2
313.7805571476405	381.1861919787035	3
216.91846119507898	309.33576574060044	8
515.6069337399886	506.670296957535	6
362.9861449935055	74.1312749390396	6
339.1048604654508	151.4864061282867	7
401.504282330124	61.30384039585821	5
491.85200155554514	461.68203655158925	8
334.4948412893813	33.0034907269295	4
395.62015161653375	200.92123566157656	3
174.64626025034062	131.9126844679502	8
310.5982383018834	75.52891557515652	6
384.0287271773798	23.585320818587476	2
271.0362928855606	203.7676989644906	8
284.11621600973854	122.79791651392983	7
234.86037210300287	163.3763336337533	8
411.82948479232243	412.6463986893836	3
46.37373630867066	202.69377178928897	3
121.45365550994813	201.94732247841333	5
179.06419115964985	331.7698510786224	3
211.34193428221442	222.40791906517717	2
229.60491528476007	419.1699202465651	4
371.5290390127023	509.72420052532823	4
594.7749707237328	326.7066363623977	2
571.820199301379	508.65511100307515	5
581.8061663848581	164.19284211458992	4
66.1338337299357	164.5515219193105	3
252.44589802739063	20.790268039758807	4
223.4535948758599	202.51511126757987	3
442.51267383735774	360.55395512636005	5
200.90332306105392	380.0909201280932	3
336.7530629501341	443.8905966392315	5
606.8873483593259	298.9875059258072	3
470.46703234377975	541.1774486826364	2
134.9135367046974	353.67024608459553	2
442.98686146745973	319.43774592698475	2
424.10981290166393	460.02896453828015	3
518.6798535351979	406.9474433285757	4
102.12742821983929	57.1421852978407	3
180.86120401164385	173.98752912058688	3
570.695815092708	468.92474209998954	3
460.7650328486299	299.4624777128605	4
474.56487189004474	530.5230175731506	2
499.6740589317852	365.3557585631711	2
418.07861395874295	261.85721826458496	2
193.89662127989797	238.40440878731803	2
154.469801670925	70.81532417995899	2
431.2376934909787	507.9325123430698	3
414.07650582700245	424.03304981774	1
170.0366741262768	205.3910085054678	1
133.59633726598744	26.50206561360875	1
161.20265306923696	345.6311057108141	1
513.4592427187007	302.5652490886999	1
192.14543769819505	9.24586893634951	1
491.2344697596424	304.3821903556979	1
60.388154851742485	63.2663563389981	1
584.7821405806237	90.935386472062	1
90.69232990642658	250.3617029530493	1
236.94291386598894	249.04413008957007	1
39.306989596310075	79.07723070074891	1
218.49689426748557	363.6729692122634	1
95.171875	156.0	1
12.171875	110.0	1
149.171875	349.0	1
405.171875	339.0	1
588.171875	361.0	1
535.171875	360.0	1
208.171875	368.0	1
469.26235939852705	305.0912996227151	1
76.96341765005558	301.51410564478635	1
432.29802142222735	519.7229382984389	1
557.4998113419523	544.76329614394	1
561.0770053396587	376.6351791812897	1
381.02490745510187	365.9035972475035	1
409.71875	131.0	1
358.71875	160.0	1
572.71875	156.0	1
129.73348446577654	3.132432915464549	1
