519.0698908349259	547.0094251417734	4
245.75645704354463	342.28487241798297	4
492.9475976701805	447.1111786148238	2
288.9165744620399	45.33142460343683	6
597.9455385123972	444.3727924486391	3
554.8605349906588	116.16153950929402	3
229.70996200593484	221.31112900570696	5
266.104751814818	147.3196740742922	4
382.04566341063014	442.3116345507706	6
550.8619668148615	183.18690109641832	2
320.5063691380306	81.3381530984204	3
475.03149728660486	114.05094082219982	8
378.69031556791856	295.34095596911163	3
321.12993912342563	57.33073215409169	6
372.68653181228535	384.4644253559807	7
462.0682197713509	425.56263423909616	6
601.695219384955	566.219303774533	3
297.5741867928733	272.35402653428105	3
343.8384625421519	340.7766347449965	5
488.3839361157129	427.7649650570462	3
310.7318752166359	13.346740105618704	2
517.2640915833995	147.88865047502404	6
494.134821656426	511.26901579586877	2
400.72505745203733	208.02543493667497	3
250.8757466927342	187.91790773667913	5
521.3228605750928	430.96558292531347	4
483.0641363909234	386.41403360892	6
205.33163060779464	183.1773390036452	3
428.5869887723461	576.6057108140948	3
294.43730862838265	375.6648708868819	6
532.5660120637422	592.5986918721862	3
560.6216938221994	271.32335456553164	6
197.76959542508018	68.08113622782844	3
253.52876060489882	38.08815836510626	3
605.1821732416943	96.24938270260542	3
503.2502054770013	123.09797629577656	7
408.66410235630804	23.670472108028456	3
576.493757404945	208.69423605356187	5
518.7546315994641	398.9003986310678	5
361.45798201374885	170.516242995332	4
557.523050318015	175.2359659781288	2
401.8007435143945	335.03217374657044	3
521.5703613127398	421.6642560393907	3
396.0698429918703	125.1225662130916	5
387.1772674268432	300.1813938399841	5
378.4456733845211	148.2207619858606	4
225.71059036638792	71.38821385176185	2
289.7408583138516	270.8482491775076	3
411.5720640974362	163.76682867557716	2
579.9869731324258	258.3119574348922	1
198.171875	30.0	1
188.171875	186.0	1
182.171875	233.0	1
542.171875	494.0	1
522.171875	598.0	1
272.732168914365	361.0906439854192	1
393.0957058165328	170.05492102065614	1
573.0888848537196	357.7778857837181	1
310.7838050593027	213.52759472310103	1
600.2122081277448	578.3259014618417	1
493.18399657639384	382.35986891623725	1
233.9043854942478	132.1263196656961	1
487.1542381791346	501.4469194631815	1
340.93259704559875	109.5148543719725	1
363.234375	392.0	1
365.3143933720597	352.38898292044934	1
180.3125	146.0	1
563.3125	255.0	1
555.3125	64.0	1
608.3125	572.0	1
606.3125	518.0	1
209.78976888295608	104.90400972053463	1
187.70471624035648	241.83134872417983	1
386.47019002375293	140.2400972053463	1
397.51271634505275	541.0838396111786	1
426.22328478043227	542.188092345079	1
477.01890585841136	542.188092345079	1
323.5277899923441	373.2374240583232	1
