488.203125	407.5	2
572.1418803714406	241.61315798408523	4
496.1387749383592	162.29287402241206	4
238.8152298431028	232.9465370595383	2
439.965250599707	176.81081704877673	3
536.9954933753925	102.93883674411448	2
605.2992917301709	311.38531087512723	5
553.8215479971594	382.91699650502255	4
479.703125	263.5	2
562.3444361192544	130.6188637648698	4
160.203125	294.5	2
373.9680071606821	104.76378371969436	3
565.2671447833239	482.31664214346836	5
385.91040493594267	140.74365286967225	2
576.8490858609757	402.29196799507616	2
455.7293405772005	200.85916787459777	4
443.88316325402	479.7426142483459	3
596.9477141249379	66.93865258792238	3
525.1982169370217	70.70655542470709	3
594.4010483079053	509.25473149715344	3
329.61210139952067	54.869941358650664	4
506.0541303140361	130.53284217395048	4
420.4486899584788	259.96118980450683	3
503.2129926713187	468.51378410025507	3
455.10878763699407	14.149784381320174	5
525.14719473789	532.3161255577782	2
522.5496413109663	52.67064163717495	2
364.59892202142726	49.49193978249201	2
405.4232657096709	325.4376721570586	2
144.54875429232658	89.8751113219213	2
438.8506964850131	215.66090724865234	2
445.83417287851967	93.5458298940093	2
410.00451333903214	58.13284643964285	3
428.05261044526094	30.581668288490583	3
86.44469992067982	246.27223218003257	2
362.4001572729046	75.87197792122781	4
602.9221012287248	341.4744411748924	2
518.1159134380237	19.336335493873825	3
283.60291951590455	41.215164558855335	2
540.9517186046324	46.146176334820744	1
471.73245551614696	144.73118941375597	1
560.8784761604085	192.97491921834128	1
259.87955939684304	40.902292660409294	1
225.2699278526003	30.4145253115864	1
199.05051001605278	27.26819510693953	1
170.73353875258147	10.487767348822896	1
169.68476203911956	29.36574857670411	1
186.46518945450998	57.68272041852593	1
217.928490858367	62.92660409293738	1
249.39179226222402	65.02415756270196	1
233.6601415602955	104.87767348822896	1
230.5138114199098	74.46314817664256	1
98.36794552371033	72.36559470687799	1
81.58751810831991	155.21895676257887	1
114.09959622563883	174.09693799046008	1
121.44103321987214	202.4139098322819	1
130.88002364102925	232.8284351438683	1
130.88002364102925	259.04785351592557	1
96.27039209678652	281.07216494845363	1
77.39241125447232	214.99923065086938	1
76.34363454101042	188.77981227881213	1
193.8066264487433	246.46253269733808	1
170.73353875258147	255.90152331127868	1
168.63598532565766	143.68241267887367	1
414.0497362757424	225.48699799969228	1
416.1472897026662	198.21880289275273	1
393.0742020065044	160.46284043699032	1
422.4399499834376	132.1458685951685	1
366.8547841699569	130.04831512540392	1
338.53781290648556	102.78012001846439	1
306.0257347891667	103.82889675334667	1
200.0992867295147	134.24342206493307	1
578.7076802892608	305.1940298507463	1
611.2197584065798	392.24249884597634	1
586.0491172834941	435.2423449761502	1
504.2445336334659	436.2911217110325	1
398.3180855738139	286.3160486228651	1
523.1225144757801	409.02292660409296	1
550.3907090257895	429.99846130173876	1
533.610281610399	453.07154946914915	1
597.3824427605792	430.65856622114217	1
570.8803795894597	426.2415552855407	1
89.42623198078823	147.96986634264886	1
344.171875	414.0	1
485.171875	162.0	1
448.234375	309.0	1
423.234375	143.0	1
340.234375	351.0	1
305.234375	309.0	1
535.234375	338.0	1
490.234375	370.0	1
497.234375	305.0	1
453.234375	345.0	1
457.234375	387.0	1
356.234375	144.0	1
302.234375	190.0	1
332.234375	225.0	1
225.234375	188.0	1
259.234375	146.0	1
348.234375	179.0	1
410.234375	262.0	1
376.234375	206.0	1
310.234375	276.0	1
595.234375	210.0	1
