398.92754481143527	139.25755811746632	7
369.4973142600706	371.2066074824802	7
265.37032309690164	33.88059272789873	7
585.6629751200023	451.2434547791616	7
388.73360560097876	401.3447938687043	8
607.0049428919135	158.54595502188158	4
346.3307265357138	267.9918146173267	4
448.1402733685728	341.03457999519924	4
472.4050713488807	613.4301336573512	2
452.41516251495557	101.54690975249602	8
265.01920195487395	134.23216225689555	8
509.19875992851416	441.51175534432434	7
390.58824568185776	514.6566646600926	8
216.56450108534563	20.53571346491563	5
185.46161735948874	198.50938905261978	5
290.7516780273361	89.6803916045958	9
361.2160333456792	197.1386567227632	4
316.2578273100378	9.429918517053828	4
295.069148128669	137.50359893391467	7
515.5602900720432	524.6102732334741	8
521.6318574660315	288.0918040892564	6
529.5555627907954	430.1195507711117	5
309.58736733602785	202.0907668685295	7
299.31172994548194	164.98403429509744	8
265.19187319444245	328.671283980254	6
500.2631391298984	246.69074109139967	6
265.69778738830973	222.82888585613296	8
315.286241289548	377.0477406546503	7
300.7799821141317	228.70136852082237	9
455.38621224850397	380.3764580801944	4
580.6515809331675	486.35509628895585	9
458.67870082702933	509.53600394667916	3
398.1236974135388	191.8729861461821	6
499.2822456672642	549.2768232460285	3
354.95597909220976	199.71440655158304	4
448.18966218724205	380.13557955002295	4
428.66435345849743	550.3605413505242	2
574.1278405086396	628.4670686990112	3
407.930950309358	75.21350907255743	2
386.2418634520079	444.14745694224837	4
576.3292918022581	210.89532656807856	3
383.05390928918064	286.62760060533117	2
309.8577012504867	349.1050126752514	2
462.69026163944767	610.6115965148506	3
546.1090229485254	405.2346294046173	2
496.44558740953585	574.3142162818955	3
462.234375	403.0	1
555.234375	590.0	1
613.234375	141.0	1
459.234375	103.0	1
408.234375	537.0	1
513.3125	519.0	1
261.3125	335.0	1
320.3125	355.0	1
366.3125	300.0	1
351.3125	278.0	1
378.171875	394.0	1
145.03571280173796	30.919076549210207	1
397.90956555950345	447.2223572296476	1
370.30324975625393	456.05637910085056	1
472.9987445443421	399.73948967193195	1
501.70931297972163	408.5735115431349	1
301.13424150632505	384.98196512979007	1
489.9168969311779	540.2277329184808	1
381.87592499708677	7.928296072870275	1
