500.6704910099268	238.3155120072489	3
198.19175912457342	261.62412197752974	7
512.9378060385629	128.82522441619187	4
219.1150638371269	36.08025516403403	3
533.4087344438744	232.508636048369	2
199.73109261283622	129.2739875143063	5
222.37775087457928	188.97413564024123	8
162.99595121597608	334.29824621161106	4
330.95612759697804	472.4008886493294	5
276.4204849660147	190.2784136804471	9
571.4575953506126	309.8047324786909	7
373.75539937723926	137.60129764470202	4
531.5594004919511	337.38351464700804	6
269.3409828508439	263.09873580020866	5
165.2722492014389	272.0621878265199	6
148.20125069191664	220.76617361151807	6
534.8704501507275	301.23561426831697	8
360.0564687334655	324.3044200531011	7
224.72763540974998	402.986481393217	3
445.7988271253048	173.41141353132508	9
338.5357372673335	407.53060371522423	8
91.84788529911947	247.3684866886491	4
605.2305797581018	196.61177840837718	3
275.2914505480579	64.66601246758412	7
215.10938464615776	374.72805276404677	6
295.5007756831908	316.6015834542456	8
107.08323956423212	208.15080822315025	6
596.3872266963097	367.2992704117808	2
236.05658786790792	276.5233742918103	7
495.11704043444047	181.5487241798299	2
395.74620533281103	583.5202556577069	5
533.7568733169587	268.0286702691079	2
365.0459604589425	41.415906593069856	4
478.8593408733834	84.71377168856189	3
360.06418654874494	551.0712278101146	7
575.6444342200282	564.0033629529182	3
430.8083207229974	221.72588101979989	7
430.0523866538517	19.36866459742425	5
600.9736679774343	283.77021081301075	3
303.4707604140275	106.34395942426394	5
291.8537943302873	397.3069866342649	3
101.4370825195179	100.91455240684955	2
411.26811299721203	455.9665567863127	7
600.1031715598845	510.93290174984145	2
450.5056697186245	534.1127713323417	4
242.46969053235995	239.89654500453798	8
421.6250579455449	187.4997306731216	2
416.4320656264401	289.2946241057228	3
513.862190886484	436.2737875997544	2
412.7369322393513	265.4628081515457	4
502.4852243857987	482.9251581043105	2
460.01229869297174	487.83510871940854	4
311.7521394779843	330.299262623544	3
420.7994788807776	491.6171729196113	5
293.71073263410517	471.649149535775	2
426.3070540545194	403.8067420955563	5
385.7788258927617	437.28741018261246	6
273.31093658571126	294.6430325352977	2
88.71652061856794	109.99249728879911	6
283.9747906133389	28.447726392907413	2
219.9876275115092	64.89472108640129	3
324.1827643959384	52.39034667199991	4
447.6879798954509	365.0453219927096	2
604.5850054835312	126.20422902897192	2
242.0245506939196	110.86698250218875	2
601.6920415638724	585.9240972602931	2
559.8833750402312	122.07485617218462	2
275.8660018453113	78.89330719686363	1
412.5093454778453	424.7545776273273	1
188.171875	400.0	1
589.171875	507.0	1
586.171875	113.0	1
337.9177178469692	463.76114397364216	1
616.7940437202076	465.26857499322375	1
406.234375	337.0	1
210.234375	305.0	1
463.234375	438.0	1
115.11546369820508	259.99193198355755	1
411.6524564117974	486.57124620215995	1
71.75818986670853	223.05905224787364	1
415.18075845913245	278.27168894289184	1
511.25073745444075	297.04398541919807	1
558.7336006360299	278.27168894289184	1
610.633474346139	591.8794653705954	1
469.2891374335015	553.2306196840826	1
