484.56204884337814	473.34112842755985	11
165.12810239211757	174.79001375612904	6
224.65454273527865	54.248393762302044	5
110.4157408842444	290.78200919765055	8
351.66874815296035	466.2153270117295	2
334.3625244541406	7.16226998108856	8
206.77221198113722	320.158163875803	2
258.3848465421672	367.8186543793979	11
239.94453330589639	299.9397590334648	11
332.93036064330977	62.96653214496793	6
366.37878621475545	42.61823351024202	8
469.76431422531743	352.25608598676	7
165.14417865374168	251.11012237670727	9
440.92144818210176	36.666162009227335	9
518.8654926246306	405.09174098792965	8
506.9786163523727	542.0046115501814	7
260.721773612892	322.91147565635043	8
491.89415657128666	429.92951029694837	10
479.1235638628036	170.6457358290557	7
574.6433836772624	318.33756865696853	6
390.5930548439628	395.01614021054	11
522.3903698687737	247.14258088066543	5
534.0529080353523	382.2063204085877	9
271.680803551799	396.13941078877116	7
599.8506217702209	327.5952046626114	8
249.7471500198916	227.20492492198218	5
397.77682931553227	55.442872771314185	6
508.9671343031247	92.4533994491826	8
504.37340346216024	293.1144201349449	12
567.9830496820657	170.53032009093516	5
373.9529894508081	172.41963799625805	3
478.7483548094573	230.33656195684836	5
230.30616519958483	270.8318870555486	9
384.1929203088687	239.3619539196908	6
566.9294916264646	308.96225408543853	4
545.1628770924672	191.1016317291258	5
455.51636027214806	296.1068328199384	3
173.65174103705516	207.3957300716536	10
259.0224708753891	114.17169312496489	6
230.57780411706904	133.4722829695466	5
550.0082362469793	137.01907188640416	9
350.7977152383042	218.91022852797255	6
223.3600369163888	368.16827144488803	10
478.4610720353727	382.2718214941815	10
309.62836667753965	207.84760881809063	5
543.6975841458114	274.6691236461031	11
355.3054842257045	291.43191386013075	4
463.68653296591344	413.8073491717108	9
465.28401745370894	448.8142708861043	8
359.9733071943083	70.10163602089006	10
382.44929734154914	428.50737307219833	4
80.99272038079707	119.01070765388661	5
132.09430658284452	17.64803102554138	6
15.58385894009691	112.90142351068613	5
374.70843118790026	5.7730885062870225	6
15.85871663010476	48.345686512758206	2
397.069700645463	351.6114716097465	7
286.28565258475027	427.67920272211353	5
114.13404691932898	96.96173813431682	6
478.1228837551901	20.938990613940607	2
109.35883261446934	228.2061585509214	9
221.58358516591858	329.51683163892676	4
297.1553523525996	105.28733989413809	10
133.1676337969846	211.9519694227439	7
159.6571974410287	295.43875980920143	3
586.4431786552418	385.85346712478525	3
62.51902500699673	156.23821602327524	7
77.78639819538805	41.373451479900254	5
564.8308492243495	540.0534918430247	8
475.043425884062	349.43847856899305	4
156.82646286936128	361.82777959463215	9
88.96419966729857	161.63148014253548	5
431.3693167026467	545.6776319153394	6
181.8855174671031	51.878278986055555	6
94.83792100626059	6.368329951798356	4
458.7515315005251	305.2450740773039	9
317.2592570134144	97.56752087008189	3
35.726212187770955	173.59669687916983	3
322.7963463014301	461.0557268088919	5
488.36690244886347	505.0195051611856	7
530.2563182044955	319.3733058555902	5
519.9195195861014	8.059991508180435	2
213.32331377224241	313.6355455077269	2
599.1646959494667	580.3384651061941	2
190.60083995185153	401.8960789547104	3
34.615494235031946	131.28252562365074	4
531.3956805415289	583.652836678717	4
5.858590046899005	47.71970425377892	6
244.73739093501268	238.75370977272416	2
204.28144965283423	207.65639173948998	2
432.58005305583595	475.14236038684834	3
572.6884398210752	186.6995898912608	3
520.2983707373303	111.78152660486185	4
428.50058844545	501.11674248265933	3
333.5392791511831	269.9212959989518	5
546.7221420000188	79.30956651524235	3
233.57037367061946	78.09889649355111	5
584.5658758725258	373.190018840173	2
562.6498838565462	405.56867487043996	2
269.39752740276333	207.84775397239974	4
472.41596812245484	32.747942985353866	2
485.0301797990824	35.251769841072814	3
195.06792489796584	105.65602536143851	2
356.71008279267903	242.49469074604087	2
447.19557456790733	206.61440797112505	4
539.7714611740494	589.0486553307965	2
250.26522049822253	183.56415564173346	4
352.81584278124774	356.860713930968	5
166.01428754545594	274.17027057611216	2
403.51263135487466	345.1903597602633	3
190.29339471975197	128.39341652461002	2
327.155643498139	381.95529796784894	2
576.14811869798	124.0644529821083	3
609.8126790288665	510.9974282248316	3
612.7842381447983	440.86101592174435	4
608.3227311272024	135.15381161886944	3
431.2306393210306	12.171002413014346	2
608.2058537726791	66.01241219801545	2
377.1231002119199	506.9351597071686	2
390.96852587510875	546.3914959576716	2
211.3438843192462	159.34567791029286	2
360.0256802142532	520.8158074995038	2
549.8430985758633	146.60031493075593	2
333.5725106536894	489.2543468225881	2
483.6877035730753	161.4346243299008	2
555.0167494568954	56.628622102388675	2
514.288150966801	249.70593919305878	1
408.7673790147649	55.24733766703587	1
469.064962987357	469.79086805196846	1
526.2688446161658	77.60947838128943	1
420.34239655651385	192.97491921834128	1
609.122204979656	184.58470533928298	1
492.70798978538494	550.6077858132021	1
615.4148652604273	562.1443298969073	1
379.4401047314997	477.1934143714418	1
407.757075994971	482.43729804585325	1
311.26961835647614	400.63271272503465	1
241.0015785545288	449.92521926450223	1
294.4891909410857	484.5348515156178	1
26.002352294839184	198.21880289275273	1
141.36779077564825	151.02384982304972	1
401.4644157141996	217.09678412063397	1
421.3911732699757	141.5848592091091	1
456.00080481421844	167.80427758116633	1
60.61198383908191	31.46330204646869	1
0.831711171753569	92.29235266964149	1
91.02650852947703	69.21926450223111	1
170.73353875258147	89.14602246499462	1
213.7333840045194	117.46299430681644	1
400.4156390007377	276.87705800892445	1
352.17191018149026	391.193722111094	1
560.8784761604085	379.65717802738885	1
591.2930008508037	406.92537313432837	1
507.39086377385155	262.1941837205724	1
302.87940464878096	12.585320818587476	1
113.05081951217694	123.75565471611017	1
462.234375	319.0	1
490.234375	181.0	1
442.234375	49.0	1
326.234375	101.0	1
445.234375	386.0	1
405.234375	228.0	1
271.72061090645144	421.6752988575821	1
524.1955282453611	260.8027487115415	1
429.4549401416684	186.28767765110106	1
383.6813975747157	172.44916445416212	1
572.098072792172	387.4783695142902	1
271.9087936321568	320.4148055598938	1
169.7166985989601	301.25378728720915	1
363.45587876606214	464.12244260502894	1
10.041550109590284	98.99859440887084	1
88.81462336434606	113.90160862095892	1
135.65266692122788	134.12712790879277	1
184.61971245796795	84.09558019678276	1
314.4888332293221	389.6073715445885	1
40.98121551980699	231.80003574437663	1
297.8407232928482	126.34146092373682	1
227.88305247661344	340.391043480481	1
475.171875	420.0	1
120.62433449372982	225.22766732007844	1
