25.275727158624683	318.0123936816525	2
95.21683605886159	336.31499877067563	4
231.26592180595793	348.65711306816917	10
511.53741743911695	468.77416794455945	4
565.3176220304699	516.343013365735	2
358.7793363935227	487.2894048661319	5
394.86773637508514	256.1953805942732	10
330.9905960123456	456.76840079799837	6
189.31744658632243	132.42525132976758	6
86.97033245503013	251.1208702326017	5
543.5100889864465	411.7134300874777	4
6.669643712288566	29.823009923374435	4
267.24234238314966	352.85506599297776	10
79.44125819700817	83.22124884426725	5
391.33054331943663	455.26000686487157	9
17.406532095328338	120.69778345985766	6
315.5166921675897	287.7550218463789	3
599.0665094958359	371.47036642926435	4
248.65797524895396	416.95799495939514	2
451.18381354966436	363.8594423554399	5
30.308418640627302	225.49849892191676	7
278.4848322124967	164.85594019175628	8
507.3135021417137	521.5126023588053	9
96.95706807761519	25.810505167074567	2
537.5237454199429	412.7079290291665	5
135.31070071845153	182.58874856967427	2
166.05630148031645	110.76517655101077	5
557.9955675799732	519.8463263831406	7
453.17633118978017	451.11750287951503	9
373.9177425566576	202.5084847358831	9
257.52090176476264	115.46949457144345	3
438.3204797478394	494.53748460557824	6
347.5768471352231	462.4758167236014	3
458.8075663935308	355.29044507727156	2
346.4958968810066	324.89758605617106	5
599.6247470127865	360.0179256218527	2
473.7304407479063	468.7690599267908	6
307.7954722631164	292.4530188588459	7
564.2577213215432	364.2129442073525	3
514.5117924638705	480.05139836359535	2
460.7773922041056	332.8542793932356	4
348.4230743840826	251.62028908401624	3
389.1734461275255	350.7331336917174	3
193.59243787769265	345.0841727419761	3
241.4147678427064	187.7559813876273	2
450.74173819526413	125.37057592149378	2
412.2508037781164	158.71608408574252	2
335.8210612598858	116.22804564469195	2
413.5243795109375	494.15309842041313	2
261.461455446938	267.9016912827991	2
415.18075845913245	186.6187120291616	1
602.9037059212291	417.40753341433776	1
325.736295256604	194.34848116646415	1
311.38101103891427	166.74216281895505	1
211.99827414721605	436.179829890644	1
245.12585311111545	464.89040097205344	1
151.26437938006714	415.19902794653706	1
122.55381094468764	390.905467800729	1
150.16012674793714	353.3608748481166	1
191.01747413674642	308.0865127582017	1
140.22185305876732	207.59951397326853	1
86.11347408439829	102.6955042527339	1
242.78290977401412	227.5303064191456	1
250.7864889433749	184.08230820845446	1
131.87616985572885	373.88145828673674	1
262.2201734710332	393.3187206441512	1
142.1664859306213	16.00715723551778	1
265.0024004894551	142.44860267314704	1
225.2493057327758	133.6145808019441	1
338.70493104089076	257.12437210296645	1
598.6476948742245	326.28345567625524	1
312.8755576989647	480.33974457608866	1
86.92356650360298	38.63333929072944	1
195.51457791984808	139.91533689074987	1
362.57767240637895	466.7325044042178	1
604.8191594118488	405.12799040008167	1
363.5441910353208	323.57005915255587	1
246.171875	105.0	1
466.171875	460.0	1
428.171875	496.0	1
250.171875	284.0	1
