553.569318412912	516.2168791707271	8
155.41823986501035	284.1717146037794	8
314.43984558580735	413.6576301666943	5
512.224491536145	349.7355485823383	3
269.9572724247605	167.77667161819923	5
317.528624654818	94.65293750177622	6
369.0483364791693	235.66251269039864	6
270.8760505914291	369.3456294103231	7
583.7451952518173	452.8803093726144	8
320.7227915815569	353.6209088084287	8
525.1944328508484	374.3688860800326	4
431.52132614243715	437.5328720708061	2
594.8750338778844	316.95467026424416	7
140.95053832657152	255.02222649856037	5
413.55417292720995	419.45577930195816	8
360.706782302305	377.66189587337726	7
565.6284416097822	287.13664666533447	7
349.2947527111993	410.2260055931026	7
382.36298115651823	302.6534317590638	3
593.1128508954993	409.35655687200347	4
506.6303977726085	458.92522486708674	6
422.56713968351767	499.99604536332	5
598.6988562980305	518.1970548872395	8
279.52034597630956	433.59678412063397	2
516.0321145975043	418.2309586090168	2
247.51937871625006	414.8805193253724	4
300.50811311092855	444.29189106016315	2
149.7116025702414	225.70701261732574	4
365.7969643008761	325.15284071182464	3
260.7302599680383	393.9954785108117	4
95.90978727008351	264.3420561197586	5
402.4274658105451	489.99234889300664	3
152.92911186342255	364.06161257558927	4
203.562858902053	407.41702905223104	4
440.9440205781287	441.456446818531	3
408.4510497134578	233.04308818464793	4
278.95240880176743	122.73390036452005	2
221.48480171797854	366.5683632980642	3
408.94375817457984	450.1379439916522	3
75.18370463416883	239.8313098230991	5
95.1264665294537	140.00103704431308	4
257.9609817674231	11.053762715527597	3
514.5130428545763	407.2250539712905	2
112.28105206778238	30.11467456344812	2
130.8518660724809	13.132926856091169	3
188.88187825255687	379.7748416175634	3
167.12782446170726	6.486826405857	2
144.9535947191851	174.09899914566023	4
81.59856609565855	199.17468600403515	3
539.010098509443	430.98366444542074	2
82.171875	244.0	1
603.4742275447899	130.09185486429635	2
118.13680041616772	53.0041312272175	1
285.98320049992475	443.9095990279465	1
29.148682435224885	173.04816125557778	1
565.0735830142561	376.510847822742	1
380.4888814449616	223.3894445299277	1
486.41532950461357	334.5597784274504	1
128.29085612967017	325.12078781350976	1
445.234375	486.0	1
390.234375	360.0	1
389.234375	308.0	1
210.234375	317.0	1
138.234375	328.0	1
191.234375	310.0	1
502.234375	345.0	1
509.234375	469.0	1
259.234375	219.0	1
430.234375	384.0	1
583.4645677521593	50.09062770420576	1
409.5449543948418	221.37509995650618	1
344.98388580008003	292.5240345843848	1
453.0248577341712	429.55161238622514	1
389.7813619678739	349.1796677139919	1
