598.9692458245372	165.43526828999265	2
537.5014335212138	21.969875923829164	4
490.8581926976252	173.64693461962275	4
216.63901824360497	322.75925517194673	6
400.1551810260213	23.103307742760734	6
543.3033770535886	187.25998970968794	2
212.57078592899444	140.10669381556443	4
509.7887080016766	76.41252807224194	6
610.6318865144166	381.97014361418445	3
580.3296852155929	249.29465537338365	6
573.1971520388108	299.44775276284497	2
189.50362457172383	72.93260097322465	5
443.6031538007718	78.67520987342547	5
423.0180850142204	293.4192039277237	4
248.20056660386	111.53326211562522	6
453.7429911479089	227.17558929292352	4
402.6934413687344	182.18336363137337	5
532.8140045567184	225.4189387584347	5
478.14539251395433	286.5723396942487	3
476.22953809094133	118.93908120231532	5
425.0868065844253	240.93408488319338	4
265.1557409531722	70.892276469109	6
375.388883827569	254.90244118274373	5
429.56099446310765	148.27018817467166	3
581.8181164448783	337.73788820258653	3
435.3332388344571	180.5779472517623	3
310.80900109957827	222.96987004017808	3
522.2362545584399	125.30162874100385	4
518.9935771830376	336.28028447894394	4
367.207004273635	302.0837499961144	2
125.63726982608475	140.9003484331797	3
426.8758480055841	345.0357695453726	2
349.43163818088374	361.64453083077365	3
391.0687415106066	115.58284265745223	3
439.41928111098855	467.774365527324	2
164.15145306057923	83.53372994464831	4
255.39954038700358	283.66647155439694	2
139.8848608296819	291.08522837282766	4
488.70912431824036	222.38531882216378	2
446.86135932114996	444.2116592655698	2
224.27514420770407	183.04873875020866	2
398.12364242996307	467.774365527324	2
181.58507481726684	305.44945081503613	2
383.19541332608765	334.74491390529914	2
137.85044992195859	264.1449403787791	2
254.4509509448347	162.98463908184107	4
179.15234891153062	263.9323906258215	4
583.3063046341845	365.1308387209571	3
469.82786563480454	458.4555447330371	2
343.58799725569764	270.1289531601508	3
190.0946745683732	302.33475091130015	2
562.7654957144049	303.7826245443499	2
239.54461142342774	24.251032806804375	2
398.22172023328073	374.46069957112763	2
477.0833282470703	302.0	1
518.9805058793506	110.42527339003645	1
543.2740637862101	29.814823815309843	1
496.895453236751	55.212636695018226	1
594.0696848641893	439.4925880923451	1
343.4043373706837	13.251032806804375	1
556.5250953717698	473.72442284325655	1
155.68138990858705	193.2442284325638	1
613.9462322425289	160.11664641555285	1
587.4441690714094	141.34434993924665	1
385.365937391623	544.3965978128797	1
355.5511163241135	533.354070473876	1
516.7720006150906	578.628432563791	1
564.2548637966798	573.1071688942892	1
164.5154109656269	238.51859052247875	1
62.9241688096687	183.3059538274605	1
39.73486353493911	301.46099635479953	1
96.05174777356811	395.3224787363305	1
372.1149058060632	424.03304981774	1
253.9598741681553	489.1839611178615	1
269.41941101797505	246.24835965978127	1
506.2266791802773	193.00588831428155	1
135.39090141804434	78.53568102056218	1
549.1530071527544	299.12930965950056	1
253.50110028534024	25.09871727540441	1
