402.9812717399674	335.9975111584515	4
259.5471974429329	59.79043530657174	7
384.5676646405005	128.9346525659488	5
474.52848094982846	451.5088849897521	5
375.9925620697056	342.25895996427374	8
236.73054173823124	168.10457003019133	6
410.2275428452004	142.57557043140318	7
289.7683041382091	306.219139778142	7
392.37136190768	315.82860150784484	2
248.98966904871702	17.670844438946723	7
234.28316538185243	212.09748971834455	6
327.70171104342234	77.16587101144502	6
259.6909605422288	243.14088348539036	5
396.8380164554366	411.095462008725	3
302.6780406848883	91.92397675228284	8
435.89607675181276	137.53659430098338	6
419.7028420493548	27.597653901692926	5
381.2867434219311	438.793594644823	7
440.82729514713907	419.1036457373238	5
569.5967458080038	261.85517685182606	6
275.56846611028294	19.634914240989946	6
559.7651734886396	478.8175528916671	7
465.69483552005505	330.06691314156194	7
504.4593257984178	396.6360849164164	8
465.6010846414528	527.2113879764815	6
484.5503156940317	367.8382985462939	5
198.59737285730495	148.93653154124644	7
596.9341841941384	461.3872412099437	7
390.04229832469497	100.72447714215332	2
488.1485460060716	339.42832966409617	5
450.4929549052292	225.35072998318677	5
269.5452658462449	120.23367849472342	8
306.619726429508	190.2787254728791	7
591.9016073459819	511.7971558231768	4
488.82093614694264	176.4106668749024	3
347.5937467343167	228.7814305794159	3
359.6796875	86.0	2
498.4394810662794	46.36863782010366	5
290.39430535538986	271.0640117734134	7
445.18987217136015	196.5916693222809	4
465.1796875	34.5	2
581.448870031172	213.5670233741983	5
454.47558632985545	99.26749696233293	3
405.09311825512145	252.44232440551048	3
500.90127992457695	164.80991651134883	3
326.0066193865413	311.5987798275413	5
387.6171875	111.0	2
414.2046501463657	368.2554271435265	2
499.06549593439183	245.26744486228642	4
523.7809612106864	289.5394076281167	6
416.8659026211885	398.69069186318916	2
406.6796875	61.5	2
526.7299156069259	362.4709472644297	4
593.847388525863	255.43466352280095	6
508.74043689338305	444.91455494643026	4
532.83203125	141.25	3
292.35350521150906	373.2202754639608	5
372.4015665044176	470.4256721135031	4
202.5143646433816	200.5308449164454	2
613.5578061946687	577.5442761205685	2
567.0164947843517	96.38743596475224	6
613.9933052047395	510.4157426206466	2
582.7083924972858	430.60109712298816	4
164.83594602208217	119.10451400413613	2
593.3335716658997	423.922587892869	1
499.4375	329.0	1
556.4375	550.0	1
267.4375	236.0	1
469.4375	417.0	1
560.171875	95.0	1
371.171875	500.0	1
242.171875	332.0	1
258.3125	231.0	1
448.3125	89.0	1
214.3125	97.0	1
440.3125	215.0	1
343.23035995740867	382.1558644385444	1
610.4201084296208	161.80415430267064	1
499.71200547699107	56.41855380290489	1
613.6136113994082	540.7665156957677	1
549.7435520036603	137.32063095424022	1
345.3593619372669	202.25519287833828	1
573.921875	440.0	1
555.921875	311.0	1
546.921875	225.0	1
570.921875	107.0	1
209.921875	208.0	1
247.921875	220.0	1
483.921875	449.0	1
223.921875	190.0	1
375.921875	233.0	1
