134.21955681758925	126.91233107507811	8
524.0371136597882	205.88025742484297	7
366.66489368459145	277.8982729215886	7
170.40378035099963	183.37231664789294	4
266.1807756150435	378.39166764306094	5
369.81542220320074	175.11568370583052	8
234.78728065868398	294.0278409099969	8
432.71084215651183	409.46170412532126	7
487.8573017401144	558.6972924527472	9
480.9419408705603	433.36037771823294	9
248.2503432234139	71.0078250892737	8
191.51522399208193	29.98705710711845	9
388.5696518873268	98.1591380755356	6
546.0912973973362	464.9580173742195	8
610.5535998295952	299.06230417425337	4
117.59519636979604	65.65915954804142	7
169.4411699780604	239.09766148826844	7
303.4390579972222	193.2613406561131	8
613.0590145610605	152.3766597792063	5
485.04667653818785	465.22619969119336	6
341.335206330505	364.47873244805805	7
496.3423750251974	256.0470705910954	9
605.0416921833548	490.35013161216074	5
182.37072653457972	270.06477184375075	7
363.16115582799216	389.53909897257785	7
161.00517132096448	78.60731438336005	5
438.7862466119276	333.6620277304296	2
508.91060745137696	485.6308012542194	9
338.53758357182767	54.97002979008672	3
565.7311463511506	341.71066483326234	9
422.40793836045566	305.5249158124975	5
327.6451413230011	157.48017947306755	5
513.2745134529246	178.68559654333973	9
427.2869685859405	501.78674059034824	2
547.9502950540179	404.91715987415284	9
253.96259558597137	411.90938174750136	3
567.598745265086	543.3521970483589	8
485.85698263880977	359.96069984410224	9
524.7141025316873	618.0585235414057	8
296.80583652791165	30.624729838557737	8
238.1630607700566	149.18842796627996	5
400.19223796097754	509.19743463806867	3
563.2206300721723	207.06113311667679	2
342.1210998847525	223.0707773050102	5
305.82748176373127	421.15309709343825	5
193.99513919029133	328.77723174514375	2
582.5126951407012	147.05854271871726	5
576.7962263709089	632.7535530220209	2
333.0815581091627	65.63907214678008	5
171.99877298302863	135.1761023826918	3
300.0881407735652	361.06954300085454	5
209.52747842317666	119.90603707522095	4
338.6938227395889	185.52726687492634	4
177.56310858678225	103.15211238506174	3
443.8050891030492	339.03409338471164	6
421.5099483823218	473.1161097391262	3
570.7777639751162	91.46024756113367	3
294.69376241427653	447.9550794130068	4
568.5322036550201	195.978165244757	2
163.5411760202342	155.0692018919952	2
604.0732219490017	498.36265971501723	3
479.66068622818074	125.1233862945688	5
285.56431619499267	161.25660269870028	4
594.7611224752442	239.94610288613146	2
335.63315661878494	286.3062776995863	5
396.8180323577278	382.41660552900305	2
564.4268424324652	10.325047316415628	2
291.883583080446	406.5944403210883	3
239.3359375	161.0	2
318.44608876828204	154.2322051837756	3
342.6533726554196	162.57960822855594	2
347.8448432758248	239.83170377692568	2
413.0216428412194	153.83500696560796	2
563.1506111645498	94.96573511543134	1
453.0248577341712	359.72025062182576	1
140.76009738807855	122.55713519556363	1
198.7333018405177	342.5918033965957	1
608.4984514929852	143.63830101123136	1
381.87592499708677	90.935386472062	1
290.9633998330345	368.9432606661804	1
374.234375	182.0	1
244.234375	63.0	1
493.234375	124.0	1
555.234375	460.0	1
494.234375	590.0	1
323.234375	265.0	1
586.234375	246.0	1
142.5452894134572	160.81114251292297	1
467.4375	280.0	1
314.4888332293221	226.7387162267687	1
336.84335401783386	261.8672497266906	1
459.26096785968406	572.701546150242	1
445.42245499060533	383.2203654536936	1
316.6178352091803	422.6069030142121	1
260.19928274293636	293.8022801811651	1
98.171875	144.0	1
422.171875	288.0	1
307.3125	411.0	1
381.3125	210.0	1
