352.10405126027615	209.9266425603939	3
586.0744544015888	306.18107959621096	6
470.95354287090834	229.36853339798364	8
544.078125	385.5	2
554.3349457349547	505.44489536851825	4
312.3077807649771	111.7168208925576	7
445.83471872798424	478.09840466156396	4
426.9347159186426	200.1825665486998	2
536.8778827499473	288.11698843665374	6
429.78890074079294	72.27875353866037	6
263.67578125	311.25	3
498.3624116515386	179.53650561624866	4
584.3111588574117	249.39002154177567	3
483.17006457573984	298.30161115932054	6
435.4810798382341	280.6451487141036	5
543.6359752610176	102.98331983480594	5
448.2059993755924	507.39832330561023	8
495.02728315826647	456.4943501636012	4
589.4278596493368	45.45069712803195	7
453.92578125	404.0	3
457.7734375	170.5	2
522.8690074277214	526.9016960348208	7
486.92578125	372.75	3
454.7137557808636	119.94506847207262	4
311.2882035642562	426.42546072274274	2
452.1639405764372	205.25229074436322	2
409.45235782291263	461.7464363626664	5
383.09901455468344	313.0329007949364	8
377.5431445045094	347.74969226034773	3
435.28735099557287	102.52086678686817	4
219.10339175056492	120.17068010463149	4
192.68355164728223	196.57908909062934	3
363.96126990351775	115.14709777855876	6
591.9033803162445	476.4992121217249	5
324.0934336724714	367.4383751346361	2
291.13236790035	179.17041083243578	2
522.52219473789	382.40175411601786	2
485.64421389557583	142.29242960455457	2
376.6865642618485	473.92456260983244	5
609.8412755053945	148.30573073006414	4
559.827737818015	548.9068043742407	2
419.74765539029437	229.84197817480396	4
558.8270105100114	367.5359286044007	2
612.5708167032899	465.3284351438683	2
406.7906987840236	424.9016771811048	2
332.05300022806307	179.32301123249732	3
580.3147776446303	356.79204492998923	2
491.6171875	399.0	2
534.2660783051995	469.3772118787506	2
512.7539228138496	439.6943375903985	2
456.5571636280865	162.1032089581546	3
164.06102965442943	50.59282446950624	4
317.4617780576065	434.29442799238046	5
389.83203125	172.0	3
553.1611281131784	322.2436144022157	3
599.5233248585483	607.0666819324478	4
495.6495800850903	590.0480558930741	3
544.558738585971	341.9993845206955	2
593.0671527097168	531.5436823162064	3
340.92391010619485	448.87275875481373	3
439.54673784268306	315.3896753346669	2
414.1973474257032	43.462503795734456	6
487.2725201740104	104.12080797670569	4
508.62977417231275	564.4801467052527	5
596.8058821649001	376.67250343853703	2
517.6527976135588	75.05789352208032	4
521.9122257928831	40.029717892456866	5
204.45067961763078	28.323616108303128	6
215.13847553766794	64.4572626557932	3
565.7974769360474	580.4583331203559	3
477.6623240035423	73.33583382518539	7
591.6806029955947	497.51130943222034	2
544.317834612474	436.24077161511156	3
385.23444793143324	63.94506847207263	3
559.7099048266402	231.15833205108478	3
506.83578219299716	323.4812387724775	4
613.0716141538453	257.4262539935255	3
234.3970876313075	79.70021783994297	3
456.02849581028556	13.835359286044007	3
397.58882653590945	232.69806893368212	4
554.1171875	205.5	2
559.2382044791841	17.178164470636634	7
303.3030863974667	41.4267579627635	2
460.25213625344503	402.8806333261184	3
483.6512319750424	392.1894096439096	2
249.62412669510684	265.99592603339244	3
274.9150459062953	41.01386639134323	3
433.2511952272431	274.1145199111721	3
596.9275447792494	367.60909370672414	2
214.23855852359486	144.4674565634574	2
267.3125	39.0	1
513.3125	453.0	1
218.3125	73.0	1
232.3125	323.0	1
588.4241005322248	524.9014722536806	1
452.8544746738327	191.92614248345902	1
414.0497362757424	165.70672411140177	1
379.4401047314997	185.63348207416527	1
314.41594849686186	55.58516694876135	1
486.41532950461357	594.6564086782582	1
611.2197584065798	631.3635943991384	1
568.2199131546419	628.2172641944915	1
476.9763390834565	370.2181874134482	1
385.7327650122711	160.46284043699032	1
243.09913198145262	321.9744576088629	1
508.43964048731345	491.87628865979383	1
524.171291189242	616.6807201107863	1
419.29361984305194	544.3151254039083	1
180.171875	205.0	1
320.171875	228.0	1
467.55752338804217	7.009545040425533	1
556.4964597476155	218.04988778184577	1
532.3774261585787	94.44054417615676	1
532.921875	623.0	1
573.921875	521.0	1
514.921875	484.0	1
447.921875	387.0	1
416.921875	383.0	1
387.921875	342.0	1
462.921875	195.0	1
434.921875	195.0	1
308.921875	278.0	1
263.921875	274.0	1
342.921875	249.0	1
413.921875	177.0	1
440.921875	139.0	1
203.921875	170.0	1
277.921875	55.0	1
255.921875	39.0	1
567.921875	462.0	1
611.921875	170.0	1
559.921875	120.0	1
389.921875	439.0	1
382.921875	211.0	1
188.921875	86.0	1
370.921875	388.0	1
355.921875	355.0	1
329.921875	221.0	1
311.921875	172.0	1
309.921875	213.0	1
517.921875	101.0	1
418.234375	243.0	1
489.234375	73.0	1
395.234375	157.0	1
552.234375	9.0	1
513.234375	45.0	1
239.234375	262.0	1
395.234375	219.0	1
