502.0633724539871	375.96698497317107	7
265.11733725486465	164.3246241900335	6
286.64737789600144	140.5668617936094	7
249.65318938384155	356.02007210253606	6
147.7982206349301	227.92456266113632	6
230.85542413138893	321.3604495747266	3
406.74036485548794	466.45460446400375	8
135.810104045819	189.359232745716	6
92.57345054358228	175.67095990279466	5
191.7035872841866	335.8971445929526	3
473.72485694647355	176.7920245993951	7
368.2734375	272.5	2
297.5700372571613	96.27937934175162	6
351.6920433915847	182.44421753916097	7
575.8248595834194	43.34914730858119	6
301.763344576196	226.42967831396612	6
527.4411805484838	49.44813183475091	5
253.96428670842027	234.88662851199308	5
282.4878936980516	307.49612761300887	6
495.6300305526313	273.1500971478945	4
388.8861836298746	379.0335344258554	6
326.8265870546112	446.26871222398063	4
474.1292841202527	52.87551640340219	4
247.70865865336106	74.58951926438411	5
183.08575399721974	248.02266002144495	5
586.1609793338963	100.9035787107641	5
416.41012110596887	23.50685102620517	3
150.95419801971087	145.50824832231257	5
613.5491928909578	91.28139513571836	3
362.76273404784394	265.941146403891	4
180.5628901112908	126.50925976737118	4
474.14545519675175	59.04144030717413	3
295.2929281269306	364.73153437033386	4
371.77219806226174	7.905825591313149	3
433.76865831980075	296.5860220321524	5
94.5824288705886	207.3441868984706	5
299.6406537454686	9.932442284325639	3
302.23443249093725	298.02199270959903	2
92.95067055861604	31.739274454740197	3
596.6521588802896	53.054191980558926	2
89.80974927967078	101.73513412724154	2
531.889980090325	533.1406439854192	3
470.99341899367846	219.02494389092288	2
384.53883001252143	106.50371167619546	2
481.10734372705053	462.3438344315124	6
247.69660844404052	22.788212108329844	2
568.5261274634299	547.2034021871203	3
410.4256285100992	93.34811166041696	3
570.635373515235	177.47223572296477	3
511.078125	496.5	2
440.046875	138.0	2
108.16445349562892	14.073390036452004	2
348.9634618378985	122.23997121869465	5
571.8282537794948	417.1018833535844	3
531.7816238240036	156.85034757258484	4
547.6228143881029	362.5639586605238	4
463.4711001957341	411.00052914414357	2
466.73617689017743	133.84186156507133	3
184.15691667198325	57.00206561360875	2
604.4127904606146	526.1557715674362	2
265.3057587965326	98.24349939246659	2
449.68762199881746	374.9039258895831	2
51.225487342626515	95.86245900495867	3
542.9618208495018	445.21456207965554	5
193.83455878082816	369.96233292831107	2
225.69739752782522	315.46742408078694	4
528.5885369481698	39.41093657886645	2
442.427348315126	294.46986634264886	2
503.37767201476544	141.2764277035237	2
237.47160879129777	72.59671931956257	2
14.337052995949561	17.668043742405832	1
447.20408479090185	415.19902794653706	1
58.507158281148776	60.733900364520046	1
379.84467423097306	115.94653705953827	1
429.5360426768222	135.82308626974483	1
309.1725057746543	219.74629404617255	1
136.90909516237738	175.57618469015796	1
545.4825690504701	355.5693803159174	1
553.21233747538	382.07144592952613	1
259.48113732880523	393.1139732685298	1
100.46875830208803	102.6955042527339	1
315.234375	294.0	1
452.234375	387.0	1
414.234375	103.0	1
451.234375	337.0	1
178.234375	289.0	1
583.234375	431.0	1
369.90640054180324	331.27582017010934	1
12.171875	157.0	1
104.171875	23.0	1
403.171875	100.0	1
93.71250275797118	163.78237107690913	1
606.241966525004	201.46814656644847	1
374.09626823052446	418.53821338619497	1
292.6945298675251	358.24097260293206	1
598.70476852843	272.3174044867824	1
592.921875	426.0	1
369.921875	405.0	1
255.921875	403.0	1
187.921875	347.0	1
577.921875	391.0	1
469.921875	493.0	1
304.921875	269.0	1
251.921875	257.0	1
157.921875	258.0	1
554.921875	224.0	1
513.921875	137.0	1
467.921875	83.0	1
583.921875	81.0	1
418.921875	71.0	1
373.921875	22.0	1
298.921875	73.0	1
272.921875	57.0	1
284.921875	30.0	1
586.921875	361.0	1
576.921875	507.0	1
494.921875	527.0	1
450.921875	29.0	1
221.921875	55.0	1
170.921875	48.0	1
319.921875	21.0	1
184.921875	35.0	1
338.921875	420.0	1
312.921875	55.0	1
81.70284480089889	168.1072331299308	1
161.05781468200107	247.46220032169938	1
238.3244958820216	357.0973523629586	1
458.3125	401.0	1
535.3125	366.0	1
487.3125	452.0	1
561.3125	538.0	1
