93.84324250930815	121.46780072904009
92.73898987717817	87.2359659781288
287.0874531320547	40.857351154313484
325.736295256604	66.25516403402187
313.58951630317426	176.6804374240583
483.64442165119124	615.0687727825031
528.9187795685204	618.3815309842041
604.0079585533591	552.1263669501823
511.25073745444075	573.1071688942892
420.70202161978233	575.3156743620899
416.2850110912624	545.50085054678
305.8597478782644	506.8520048602673
342.3000847385537	523.4157958687728
354.44686369198354	565.3773997569866
525.6060216721305	511.26901579586877
556.5250953717699	460.473390036452
586.3399164392794	451.6393681652491
557.6293480038998	356.67363304981774
543.2740637862101	309.19076549210206
568.6718743251997	278.27168894289184
549.89957957899	238.51859052247875
583.0271585428894	129.19756986634266
527.8145269363904	100.48699878493316
510.14648482231075	78.40194410692588
480.3316637548013	46.37861482381531
479.2274111226713	20.980801944106926
446.0998321587719	57.42114216281895
393.0957058165328	56.31688942891859
365.4893900132833	59.62964763061969
183.28770571183657	56.31688942891859
225.2493057327758	204.28675577156744
153.47288464432708	282.6886998784933
118.13680041616772	263.91640340218714
114.82404251977778	216.43353584447144
131.38783200172747	142.44860267314704
94.94749514143813	4.417010935601458
135.8048425302474	9.938274605103281
108.1985267269979	186.6187120291616
256.16837943241524	287.1057108140948
262.7938952251952	315.81628189550423
289.2959583963147	312.5035236938032
336.77882157790384	333.4843256379101
314.69376893530426	412.99052247873635
287.0874531320547	411.88626974483594
367.6978952775433	482.5584447144593
379.84467423097306	510.1647630619684
490.2699374439711	533.354070473876
467.08063216924154	579.7326852976913
531.1272848327803	450.53511543134874
503.5209690295309	438.3883353584447
533.3357900970403	425.13730255164035
547.69107431473	531.1455650060753
533.3357900970403	556.5433778857837
492.47844270823106	310.2950182260024
499.10395850101094	334.58857837181046
464.87212690498154	299.25249088699877
407.45099003422257	334.58857837181046
504.6252216616609	257.2908869987849
372.1149058060632	92.75722964763062
482.54016901906124	91.65297691373026
179.97494781544663	241.83134872417983
438.370063733862	9.938274605103281
578.6101480143695	422.9287970838396
514.5634953508306	477.0371810449575
506.8337269259208	502.43499392466583
334.57031631364384	182.20170109356013
299.2342320854845	186.6187120291616
