249.171875	4
265.171875	109
193.171875	130
8.171875	195
33.171875	249
182.171875	352
384.171875	304
454.171875	351
590.171875	180
497.171875	208
590.171875	496
329.171875	297
452.171875	478
502.171875	532
224.171875	269
