386.5470577971866	420.45520953752737
458.62312135060887	442.3906401305668
403.7826382121354	501.92966602595965
569.8709585743693	475.293786020126
416.31760578664364	219.9027012583094
297.2354138288155	139.99506124080852
504.0623788082012	262.2067459734569
560.4697328934882	255.93948008973138
417.8844767334572	165.06412477571075
231.42683406264737	61.654237694239015
428.8525733611519	135.29461182801435
544.8010234253529	100.82464946752377
538.5335396380988	20.91700945002287
557.3359909998611	302.9439742176731
164.05138334966568	30.31790827561121
196.95567323274977	121.19326358963184
