282.5538035314481	48.96704669686085
338.97235599769215	71.32156801499298
598.7105975404004	87.2890832422302
568.9045698223847	103.25659846946743
531.6470351748651	120.28861471185382
496.51850250720366	135.19162892394192
376.22989064521175	147.9656411057317
397.5199104437944	166.06215836326723
538.0340411144398	177.77166952990785
437.9709480611014	254.41574262064657
468.84147676904627	245.8997344994534
511.4215163662115	230.9967202873653
574.2270747720303	255.48024363579572
492.26049854748715	331.0598157113853
380.4878946049283	317.2213025144464
406.03591836322744	306.57629236295486
472.0349797388336	385.3493674839919
541.2275440842272	402.38138372637826
534.8405381446524	328.930813681087
480.5509876582667	365.12384819615806
571.0335718022429	337.44682180228017
602.9686015001168	201.19069186318913
585.9365856612508	226.7387162267687
616.8071143691956	219.28720912072467
614.6781123893373	368.31735124160554
600.8395995202586	391.7363735748868
320.87583916889685	202.25519287833828
169.7166985989601	54.28955177260659
146.29767682051923	57.48305481805404
41.97657980746425	68.12806496954553
83.4921184147004	139.4496329845385
28.13806693838553	137.32063095424022
103.71763722335392	119.22411369670468
152.684682760094	190.54568171169765
159.07168869966878	242.70623145400594
139.9106708809444	266.1252537872872
195.26472235725927	229.93221927221614
204.84523126662148	213.96470404497893
210.16773621626712	252.28674059034827
200.58722730690494	300.18928627206
239.97376393428283	268.25425581758554
287.87630848109376	212.90020302982978
251.6832748235033	364.0593471810089
344.2948609473378	356.6078400749649
323.00484114875513	334.25331875683275
300.65032036024337	356.6078400749649
281.489302541519	338.51132281742935
268.7152906623694	311.8987974387006
255.94127878321981	318.2858035295955
209.103235226338	178.836170545057
209.103235226338	21.290020302982978
452.87396192010925	219.28720912072467
409.22942133301484	218.22270810557552
16.428556049165078	35.128533499921915
