467.171875	103
412.171875	69
313.171875	29
373.171875	21
388.171875	80
412.171875	94
386.171875	140
347.171875	168
386.171875	191
351.171875	196
450.171875	186
565.171875	200
538.171875	130
597.171875	191
386.171875	265
342.171875	294
323.171875	327
226.171875	128
110.171875	134
234.171875	61
298.171875	241
300.171875	389
351.171875	457
460.171875	431
494.171875	431
585.171875	390
602.171875	418
583.171875	459
573.171875	528
587.171875	498
600.171875	544
554.171875	581
591.171875	617
472.171875	533
400.171875	509
439.171875	564
261.171875	338
190.171875	303
474.171875	299
