209.490640807258	281.0085436246336
231.42683406264737	218.33588478737803
195.38880228593624	202.66772007806412
283.1335753074938	102.39146593845516
541.6672815317258	132.16097888615155
295.668542882002	351.51528481654617
386.5470577971866	442.3906401305668
604.3421194042669	425.15565895032154
413.18386389301656	69.48832004889596
181.28696376461448	168.19775771757355
287.83418814793436	52.25333886865067
571.4378295211828	42.85244004306233
591.8071518297587	154.09640947919104
