437.40873140174614	58.26219970619901
491.67655697707903	101.97769927406463
304.75404666204355	64.29192378452531
235.4118250935626	37.158165432057
114.81665714837841	89.91825111741205
155.51752632987808	129.11145762653294
108.7868987511192	186.39383637063273
53.01163357647151	95.94797519573834
187.17375791548892	68.81421684327003
440.42361060037575	120.06687150904351
583.6303725352819	38.665596451638564
466.05008378872736	205.99043962519318
410.2748186140797	175.84181923356172
384.64834542572805	228.60190491891677
251.99366068602544	67.30678582368846
438.91617100106095	26.60614829498598
518.8104697647454	166.79723311607228
349.9772346414876	266.2876804084561
53.01163357647151	55.24733766703587
48.4893147785271	150.21549190067498
387.66322462435767	52.232475627872724
547.4518221517267	11.531838099170253
10.80332479565704	14.546700138333398
485.6467985798198	20.57642421665969
93.71250275797118	50.72504460829115
