290.2255735172339	346.9932110795275	5
597.4397856709727	365.1765211536464	6
179.70920777693266	181.49991057609088	4
503.18331120488665	88.59983567452326	6
255.89487042883678	183.34553553919437	7
227.37850640776674	333.27181677054125	3
269.0640446570676	364.0900104706707	5
505.7294742937908	111.52952612393682	2
560.0627995602615	474.9645049774058	7
516.5709706127824	179.70273385581677	7
508.2457808855056	309.8202004860267	4
157.58257887976717	117.65209111350806	4
511.32152019358966	207.44066483118908	5
502.485429205423	531.975024390007	6
466.49164654194783	248.28008181606128	5
225.53590003129133	223.32774446598572	7
475.0532298463685	288.64540093079324	4
371.8881636909915	505.8158510481072	6
198.28180246268164	153.37325438199565	6
508.8067481728374	465.25739549579043	5
250.93036150542048	70.28255024980386	5
523.6013279111414	488.899973113515	5
210.13366390936181	46.57780742769822	5
501.18613312863215	153.05133140652467	6
449.50271258850984	507.29588169630233	6
470.7436796773588	114.02971823079588	6
171.43066718335655	54.846801008585814	5
585.0310111874521	411.70242744332	5
267.6563418582408	252.01931167269203	6
328.5634200375612	301.58072354764386	7
332.76499319198166	197.5038475807342	7
437.8420068424749	430.1339606294637	7
532.7836637809755	536.6668286755771	2
292.6848940885775	216.9488471240856	7
334.6490333025746	121.35644678877193	6
373.73586794157984	72.72656691973918	7
354.49602754786633	445.3220389547972	7
526.4252253030659	351.93765944397796	4
527.8778719355394	382.67344006679883	3
566.6812749994236	385.95037647388585	5
219.67594629719517	275.76895639604004	6
443.2375847688803	108.53673954209043	3
552.3900677598235	264.59458267013224	2
361.3330079210954	58.52879220706821	2
564.7283232797834	366.61338781088216	2
551.8379414437586	109.41797791995214	2
215.3321762168648	303.2957835874988	2
418.7367113007151	520.3820431941103	3
410.6083120712566	502.2334107794827	1
370.203125	332.0	2
309.171875	397.0	1
356.171875	367.0	1
342.171875	398.0	1
563.234375	211.0	1
229.234375	129.0	1
537.7528006255602	119.25929526123937	1
372.1149058060632	251.76962332928312	1
375.4276637024531	472.620170109356	1
297.0257268212245	314.7120291616039	1
323.5277899923441	336.79708383961116	1
319.7677544442054	101.28199760002042	1
612.1281697956344	203.60813950519568	1
