254.24751290698822	232.21484843908905	5
346.0394200951505	122.97770620078545	5
244.58753256386396	357.30902463095447	7
471.22044565374455	174.98991037758145	7
466.0258661824878	134.52156994903243	3
540.0556360960356	444.7904874214935	5
577.361190300254	42.8066969835737	6
596.6521588802896	53.054191980558926	2
372.5835178204533	10.015670997357667	4
349.80171277762065	186.53781920396688	7
613.2055731743785	90.93237436008275	3
86.61952847074757	174.37920174521113	7
440.069656660736	295.386821211114	7
296.83703300352596	99.98343587379196	6
92.32266302187767	207.71359077079018	5
278.91410603229815	305.9269710057754	6
406.2890644580445	465.7726754827635	8
288.0400734503485	141.71450669027823	7
93.15494927791057	32.82329632594312	3
572.9221325589898	416.4537667071689	3
300.54693249093725	9.364884568651275	3
243.3499812895905	76.57447580637549	7
228.54494832862883	316.33252885924117	7
147.0252102581823	226.73250459909792	6
49.887239740621254	97.98420870119196	3
504.1051982628148	373.4279619931589	7
569.0207470304699	177.44447144592954	3
481.6137146916425	457.8567608197349	7
533.2955851806502	533.5312879708383	3
191.2060026933732	337.6692891859052	4
583.3199213932967	102.42914067917235	5
389.372903584581	379.5192770853457	6
329.01688922403264	442.70343275861006	4
262.95577904485816	164.12931163936668	6
472.8863650881967	57.48820524484443	7
506.04954701476544	140.7764277035237	3
180.61374333680706	244.54009623043646	5
184.15691667198325	57.00206561360875	2
604.4127904606146	526.1557715674362	2
528.0255450935524	42.93421178648292	7
305.2944293038224	221.71183748553892	7
546.0693514035108	359.92567982308964	6
107.72695349562892	15.823390036452004	3
569.3667080518599	545.7818043742407	4
193.83455878082816	369.96233292831107	2
257.70150616440264	398.0569866342649	2
382.19175212174724	111.22512436786687	3
95.13925379087941	102.21531918998772	3
434.79145883841113	136.91154313487243	3
410.4474956143384	93.90648417269841	5
135.7659711683271	182.37376694479596	7
454.7442315068845	410.97464625930445	5
553.21233747538	382.07144592952613	1
416.41012110596887	23.50685102620517	3
150.73877470624578	145.44349265350115	5
295.00918780615086	363.87159515801716	5
362.9640969769292	266.51784525581013	6
180.5628901112908	126.50925976737118	4
159.48984484100055	252.73110016084968	2
470.99341899367846	219.02494389092288	2
247.69660844404052	22.788212108329844	2
494.65205398312764	275.82208985749355	4
511.078125	496.5	2
305.4062787454686	297.26099635479954	3
531.3120581630262	155.85316588835803	4
265.3057587965326	98.24349939246659	2
449.68762199881746	374.9039258895831	2
588.078125	428.5	2
372.0090716152622	411.76910669309746	2
451.234375	337.0	1
178.234375	289.0	1
606.241966525004	201.46814656644847	1
598.70476852843	272.3174044867824	1
369.90640054180324	331.27582017010934	1
577.921875	391.0	1
469.921875	493.0	1
304.921875	269.0	1
251.921875	257.0	1
554.921875	224.0	1
467.921875	83.0	1
583.921875	81.0	1
418.921875	71.0	1
298.921875	73.0	1
272.921875	57.0	1
284.921875	30.0	1
586.921875	361.0	1
576.921875	507.0	1
494.921875	527.0	1
450.921875	29.0	1
221.921875	55.0	1
170.921875	48.0	1
319.921875	21.0	1
184.921875	35.0	1
338.921875	420.0	1
312.921875	55.0	1
12.171875	157.0	1
14.337052995949561	17.668043742405832	1
58.507158281148776	60.733900364520046	1
