432.8510076874238	132.76716646095514	8
520.2440861930535	583.6425100382739	5
483.93899748257127	104.85271594753635	8
554.3545877079717	114.98947125194417	9
407.13481420042825	355.2035723726211	9
163.93449583276842	307.3917503292513	2
207.55797629060103	386.1031462648808	6
606.9814300104708	171.09925028349647	4
278.59699737862667	424.90929615962114	6
385.9465949338574	185.3714033681112	7
361.29266798959327	286.03544310977463	10
575.90011329328	70.63957610158255	5
605.3689279009476	353.709491092287	7
446.85818466302067	34.460858400039484	7
82.07984893814381	126.3143580326036	5
384.81194993014185	158.74660568798242	7
468.5083521871933	269.1825294509883	5
319.3471725962267	254.40444049014923	4
531.6829961971071	191.0600297275668	4
210.38251810354717	37.805628012382954	3
517.946545284613	149.89678904047247	5
339.25729894118547	329.97287889044196	5
601.3070023983864	46.16070367969001	3
407.38330678577825	84.44443164620006	7
384.11004222996485	99.96722966128665	4
249.97107442270726	354.23980866053716	3
389.36788173373026	52.1247461779285	6
257.82755298831864	260.93352462145305	4
244.83354440759013	62.01117677064829	7
372.8932083881059	126.61645046927696	5
571.2845360381957	580.2483683401263	3
242.91341167500082	146.8473822969255	2
592.6915466952416	423.574571277135	6
288.5836522807655	102.53784699648148	4
446.6082550185956	406.557616852724	4
344.0694918835375	156.32400902190315	5
611.6274254556542	293.0387026153654	3
565.5055695428998	525.7337283535871	3
512.1479552793012	212.90103096549296	6
572.5297704894243	385.5372773560404	4
436.216010083328	565.2792261637776	6
548.3670162192058	422.2207623719078	7
475.7575836238311	436.5436001400708	4
367.8091836172316	533.0614005783309	4
238.88156910211518	424.2151907895262	5
530.0534214945411	256.4296026871333	4
461.4405856393156	240.12303900972353	5
501.3309321250723	250.36512247136335	5
444.2260201057012	216.8781306512893	2
370.27739828630945	72.89977832507299	5
543.7584593092528	471.10515415428574	5
396.7318733161702	272.4955602555856	4
82.58952052087523	22.446205703989087	3
495.24177200404387	460.1022103848562	2
566.7913428712702	232.82872990478984	5
429.2956222000297	173.28387497121258	6
524.9994760966049	359.09725910187586	4
589.7527188599045	559.4358545233067	2
345.6623245730429	188.11639651078798	6
393.9382866272181	493.12988721543326	2
579.7308771775295	158.1794398242477	3
600.3639278957143	497.8714082190777	3
404.4925206916846	135.12806496954553	3
284.6557065202768	12.454049346713925	2
273.63608530600754	321.271903795096	2
362.1575115482998	250.25757884142476	4
497.07596404920884	328.8733796748363	3
466.98622482942824	365.1430405370479	3
507.7632144680881	58.550989018386666	2
319.742538090022	162.07355939040954	3
454.25944987542596	148.5482917896191	3
507.33475768814117	86.80579415898798	2
324.7734375	399.5	2
277.972723211339	134.63721476292469	4
283.7734375	190.0	2
454.7194803557805	330.44199551721795	3
323.67099263616194	221.53802247803787	3
224.7734375	229.0	2
396.76322281379987	223.05645668677664	3
215.58712430527828	94.12647966777062	2
607.7466893322603	92.94405253124987	2
519.1759551468615	419.715954628812	2
103.85788268934688	60.61763564896299	2
445.9858931069072	376.3776404265435	1
425.15318376400444	466.65272023364804	1
520.9836467413571	280.5471710928479	1
355.52446842779625	27.691889025058785	1
156.57097132965288	287.25374313046785	1
418.7679641940935	258.2671401339247	1
302.8215552892152	278.03073308611323	1
260.6592247783504	127.82742664948056	1
139.44252455961404	48.77305484072652	1
575.5591307813721	14.516160390266444	1
303.3125	143.0	1
312.3125	457.0	1
170.3125	349.0	1
194.3125	175.0	1
425.3125	318.0	1
458.3125	462.0	1
537.3125	607.0	1
564.3125	627.0	1
532.3125	516.0	1
396.234375	318.0	1
400.234375	399.0	1
466.234375	530.0	1
271.234375	473.0	1
324.234375	120.0	1
235.234375	182.0	1
228.234375	111.0	1
317.234375	491.0	1
186.234375	251.0	1
508.22801339642416	121.35311572700297	1
500.7765064669202	193.7391847571451	1
469.9059777589754	293.8022801811651	1
366.64938173584954	212.90020302982978	1
581.6785817015342	125.61111978759956	1
469.9059777589754	20.22551928783383	1
445.42245499060533	13.838513196938935	1
552.9370549734476	75.57957207558957	1
565.7110668525972	47.9025456817117	1
573.1625737821012	278.899265969077	1
484.7635151940387	569.8036539894412	1
134.19850341880885	226.39303210828302	1
81.73299145244793	52.30292518241816	1
162.81605540046027	251.43338995378414	1
313.0582033041302	361.1340052769319	1
364.38513738115336	485.87120291616037	1
