316.3908651926294	318.68386545543285	8
335.96596908032893	401.4855580166768	8
190.40768483792772	352.17533319615836	6
348.93658375345797	267.0482970099588	8
106.08885426028978	88.82606005464893	8
496.7349120400687	260.95962404565444	8
393.96693897351815	281.73684516603146	8
351.6838826164792	103.39556374388876	8
264.08716111444807	350.6440069075603	8
227.17174188098699	368.1445873447832	8
296.8860569660248	52.56554992654975	3
463.383133180974	115.4059680873219	6
478.12317436814544	296.1753796315146	8
306.5525444284641	254.45247463327152	7
518.8166809908837	478.5798000748077	6
423.0070024120648	353.5559634268268	8
536.5819391768912	247.86040061611095	2
12.657423365364139	186.73778548766683	7
45.430208262324655	209.3589574876298	7
282.21294165595737	413.915341778974	6
58.195604779384894	15.356695858190673	5
152.08050803791474	348.79144534821387	5
35.28792589480068	135.0587869629775	5
573.234375	249.0	1
169.234375	47.0	1
457.234375	322.0	1
