587.6731583175891	57.43393290147749	2
276.709128489891	339.68167327231345	2
408.3172789886115	450.28197456033797	4
298.76349121895225	378.98852297298924	2
343.6587764204863	399.47013737375244	2
292.7733612036092	160.649072663559	2
398.2901693564614	372.01445929526125	2
308.5679377551972	331.7421628189551	2
441.82309568299604	427.6729040097205	2
349.75724302992677	346.8676792223572	2
380.7689061958115	404.52612393681653	2
588.5484217035394	523.4157958687728	1
193.31501236430802	156.26773349746117	1
501.171875	433.0	1
415.171875	493.0	1
542.171875	457.0	1
578.171875	455.0	1
602.171875	499.0	1
187.07013364267547	206.63735719562163	1
517.4252258755189	570.0422090733636	1
432.47677358707347	376.5409243072932	1
