284.0931347760898	131.57772809299792	8
240.57860327029005	51.3809178440942	7
584.1836689526843	245.3966059216501	8
312.0490086439775	271.1956560662934	7
263.6874100726676	86.27054666666234	5
342.81973150310614	57.33789328829301	6
327.34593001863675	220.21646322146012	6
483.4028155597363	194.4058255582541	8
521.0236319037333	307.0513009748216	5
394.4077691529631	282.8007334949399	7
454.3109856021052	210.8990465662223	7
145.39018486459864	183.84433931463866	4
343.3946204484917	334.06215836326726	2
307.4343477535822	334.5967368301236	7
251.9994415912571	286.1855139178981	6
235.46879629034012	260.9220004599576	5
476.15887220941136	251.4002640112492	2
432.8330727159953	352.28531039370387	4
605.1982397349522	433.1259565828518	2
594.3757347853065	475.38372637826023	2
381.1417202841254	330.08582570748723	3
510.7261099657819	241.81159909930432	2
325.15185856934215	176.82133374980478	2
233.09328544830032	317.14502528788444	3
167.0184635804548	230.10808982225456	3
369.23887942681824	258.87607869810915	3
399.3771427218972	393.900437295018	2
234.5073179822477	185.64383882555052	2
233.410566497354	216.48235202248947	2
557.8145959490394	305.2523945201857	3
533.4407050874325	370.8199281586756	2
538.0374565723263	396.5616898328907	2
285.16309836396897	221.45388481132807	3
263.7121047507926	196.10687683896424	3
516.5859496428222	385.6101827268468	2
563.0372219162277	453.2709667343433	2
539.7632100370781	442.5452131813213	2
213.84975305867158	99.67152054440825	2
391.52238727728695	413.60994846165863	2
566.234375	286.0	1
366.234375	417.0	1
605.4166204444003	294.4065197965808	3
64.3922459063537	10.4075503999409	2
517.8954954010561	321.88018332516754	2
278.0019808225727	319.508157377384	1
613.1723141361753	271.4775193402609	1
296.39231640052685	51.09604872715914	1
305.972825309889	25.54802436357957	1
303.8438233300308	6.387006090894893	1
284.68280551130636	13.838513196938935	1
277.23129858180243	50.031547712009996	1
621.0651183289121	401.31688271122914	1
96.26613029384998	8.516008121193192	1
89.87912435427519	26.612525378728723	1
302.7793223401016	170.32016242386382	1
294.26331442066856	201.19069186318913	1
398.5844114337235	336.38232078713105	1
506.0990114165659	451.3484304232391	1
449.68045895032185	403.44588474152744	1
427.32593816181014	422.60690301421215	1
204.84523126662148	227.80321724191785	1
176.1037045385349	170.32016242386382	1
198.45822532704668	161.80415430267064	1
189.9422174076136	193.7391847571451	1
213.36123918605452	189.4811806965485	1
606.1621044699043	333.1888177416836	1
577.4205777418177	365.12384819615806	1
572.098072792172	329.99531469623616	1
556.1305579432351	350.22083398407	1
54.75059168661384	57.483054818054036	1
45.17008277725164	85.16008121193191	1
121.81415405214916	89.4180852725285	1
87.75012237441693	102.19209745431829	1
103.71763722335392	124.54661877245042	1
123.94315603200742	125.61111978759956	1
101.58863524349564	152.22364516632828	1
206.97423324647974	14.903014212088085	1
178.23270651839317	9.58050913634234	1
131.39466296151136	19.16101827268468	1
163.3296926593853	34.06403248477277	1
107.97564118307044	32.99953146962361	1
117.55615009243263	50.031547712009996	1
147.36217781044834	55.35405278775574	1
462.234375	172.0	1
203.234375	256.0	1
461.234375	240.0	1
156.234375	262.0	1
