236.95827934208543	103.48788894479813	8
165.5470741132297	214.142797847727	4
174.87460458792688	131.86541707040766	7
446.60640926153536	322.1446837679947	5
497.6869766226118	277.271371534153	7
566.9386647998081	54.783922733297985	6
143.610270719233	183.06551743029732	8
142.73046875	47.0	3
321.69886768473845	228.93461020436848	8
523.8820449115923	269.9489783762057	5
450.227787485274	254.62156630501914	7
228.21899105934637	143.55556904065787	6
486.0697311744679	242.21448556280805	8
198.30427662099078	168.2999748829708	9
98.7292579050222	118.58774287279181	5
288.9301885577712	127.93959222972074	8
321.91228133749183	68.22387503568291	7
514.0720722583175	105.7533535831623	9
571.7893110898946	140.1907391549387	8
319.1530550428432	42.4319146897223	5
123.43669214306976	195.16719672679082	4
561.8905652999993	415.0451454026084	6
154.07504666421903	116.40301372272538	8
193.7658445949901	228.3330865745749	4
337.8225361782558	164.87570962846678	7
489.27086543764364	186.51015881768603	9
148.83826691599052	145.32528001744683	7
393.8927863543515	220.9495489755583	5
308.17442568996967	263.47480656745716	8
519.2108729962832	226.01976926960316	8
291.9387548742439	69.30586811448883	9
463.6708951893218	88.5729284127043	9
179.51631639293294	45.07964763061968	5
257.8381857944608	79.1042102001513	8
256.259765625	141.625	4
173.11345679984487	163.4863239227165	7
103.5009765625	44.625	5
373.8989265704187	260.5347514546435	7
362.8050241983956	299.1585859166588	4
198.611467747019	70.02365732889328	7
388.48617522462496	31.952169639769	6
469.8197933412562	21.147936996083683	5
412.419049950313	81.90447335653971	5
578.6494019436107	30.97677474304968	2
484.0662052767317	318.25031657879543	7
329.44761202388577	20.226187790870767	2
337.53236169319877	109.42797978480415	4
110.90908224769426	66.47607934655775	2
76.68731105400403	80.01662777129522	3
394.5609167243314	357.8889428918591	2
373.1453435280316	95.48286755771568	4
399.3736746207213	173.13171324422842	2
292.6610430142223	205.69550425273388	2
412.89493778137125	339.9506682867558	2
291.2826947217942	240.4751822600243	4
268.1640466268575	290.85498177399757	3
298.4257097927423	179.84021871202916	3
260.5972535322726	224.581652490887	2
407.0300535689163	142.82855407047387	2
379.80502066729156	272.7294653705954	3
551.35860097343	219.11251518833535	2
244.2111061591678	245.51992709599028	2
518.2118220200002	348.3155528554071	2
156.578125	58.5	2
442.578125	23.0	2
546.578125	194.5	2
597.140625	187.25	3
59.046875	23.0	2
429.546875	366.0	2
470.546875	393.0	2
46.08203125	64.5	3
365.2056325066417	224.92527339003647	2
559.046875	280.0	2
25.046875	15.5	2
572.6171875	368.5	2
288.171875	344.0	1
220.8322952042559	6.625516403402187	1
50.77738985623891	110.42527339003645	1
440.921875	43.0	1
419.921875	61.0	1
573.921875	187.0	1
611.921875	341.0	1
592.921875	359.0	1
459.921875	368.0	1
573.921875	310.0	1
549.921875	261.0	1
571.921875	347.0	1
547.921875	360.0	1
554.921875	324.0	1
518.921875	322.0	1
429.921875	173.0	1
595.921875	404.0	1
615.921875	264.0	1
589.921875	293.0	1
147.921875	18.0	1
389.921875	9.0	1
366.921875	121.0	1
385.921875	142.0	1
391.921875	201.0	1
237.921875	269.0	1
212.921875	273.0	1
491.921875	377.0	1
612.921875	392.0	1
548.921875	173.0	1
521.921875	397.0	1
473.921875	336.0	1
534.921875	307.0	1
538.921875	336.0	1
580.921875	253.0	1
66.921875	38.0	1
88.921875	26.0	1
42.921875	30.0	1
577.234375	439.0	1
351.234375	77.0	1
