229.3797531862415	28.24603313897883	5
322.22210987869846	190.18384646587518	7
366.9260674288645	221.70910926861325	10
320.487424261287	115.94456296174445	8
438.4154312102062	119.36866879664518	4
135.06792632479306	57.59641986201319	8
271.3814854140237	226.2116765421677	8
362.400017064019	300.12388854979747	6
316.7714979841593	255.965734069749	10
417.7544429095394	440.8406538167303	9
400.6560924011168	355.9020378605119	9
222.09447381768547	209.25362314242295	6
449.71383253417696	188.9157548891411	9
106.57847583371102	60.13187944946358	4
485.92131497507444	224.24025970596938	10
541.0193191367434	239.57422448450552	7
447.4029990638078	336.06744851969046	7
255.26093322212324	52.90345526370028	6
344.9333548507649	247.7498873631513	7
276.87232243242903	396.8891439474343	6
239.64895925322787	169.0077950990924	7
182.69455539154066	51.600883717563875	6
580.1927285085162	414.2452370402384	9
586.5263542144413	277.4438334491963	8
338.4674285774208	299.17523041849904	9
328.2781093242681	429.91766876254854	10
379.1032695346436	169.01131344010838	10
515.0123749191675	163.77619908233237	10
162.8142345922552	28.070301250989754	9
576.6929264040872	473.1938700728218	6
561.9615100105395	308.2619149012961	9
266.1288831470521	71.1695797249435	3
375.75894653196053	388.74925260464244	9
315.9920799074788	383.87103965185383	8
376.1905360307321	334.9050270148053	7
545.7877368341399	496.9918206586053	5
417.94342216693	408.31545143983055	9
223.64344479067205	55.47936974649694	4
593.4150267775642	373.14632898427084	10
272.5511471028609	356.8286264688495	4
232.39157075393203	108.1588673809542	8
338.9863178350356	405.5947970627242	8
291.2114894008496	152.30050787793593	6
598.4962433099573	86.9923573949361	4
262.74674178906935	169.99953839052162	3
202.41339297717988	278.8409434771871	8
482.905551775478	479.1689147245692	5
465.51284418623186	418.83341100075995	5
434.29253153116355	105.43529338007872	6
413.44460639871204	277.07127634303026	6
196.52264704289814	323.9808432066472	3
493.2292945463009	431.493506688799	6
567.5468131833837	508.6313503064448	2
550.7812285936595	117.18029721909014	5
476.055956905686	354.4462523043594	5
603.1236173500524	422.0785572103259	3
297.0060353214093	32.37130411854618	3
200.33932603933096	4.372383010358785	3
533.4390094140189	219.56791799538635	5
506.33815687767066	385.26542353157447	6
450.4788803890046	382.06381888257505	4
241.5244795335188	303.47349445781464	4
202.8344867582023	134.93733516431308	7
506.46288386609285	235.1993669322339	4
382.73948079267365	203.70695491614094	2
400.2068396567799	107.82971027240265	4
224.30542022441568	142.54913666964035	3
467.3477546304784	493.55443145099247	3
490.784478419136	149.26229804117915	3
235.84949920707157	343.42621941837206	2
146.15454710128603	95.67056470226188	2
129.42122919679542	115.84136020926297	3
517.8124137407733	191.8655177719649	2
425.2150150619117	250.20687798122788	2
281.5696610968905	439.89767941418086	4
434.1042509792188	509.49656063546183	3
475.43323381846295	527.6070574286512	4
125.33762282429538	13.204054867629775	2
272.15712901050756	272.1565613825859	3
284.54926893224433	24.502171575934376	3
363.5978906742839	329.6398804443707	2
167.05522658774535	194.3077233442875	4
299.12719644439017	12.171002413014346	2
56.1474333838231	16.381833632810363	2
146.46496436912633	119.56316471110046	3
198.1815050080264	179.67041083243578	2
38.42569807146005	114.68272041852593	2
99.7734375	96.5	2
134.7458205520847	154.75596245576241	3
47.193969995500495	35.329204492998926	2
64.37656102065866	96.61760829073687	3
238.03509749360967	386.54808432066477	2
204.85222350514306	83.87790429296815	2
385.4006907224808	467.8284351438683	2
215.5751463116844	423.68837362047765	1
457.6936612115552	-28.2777685269984	1
463.0740726537745	-64.14809726886156	1
188.5627428814338	97.53623634405294	1
611.2197584065798	297.85259270657025	1
591.2930008508037	523.3395907062626	1
602.8295446988845	554.8028927527312	1
592.3417775642655	584.1686413294353	1
506.34208706038964	538.0224649946146	1
458.09835824114225	538.0224649946146	1
490.6104363584612	552.7053392829666	1
332.2451526257142	460.41298661332513	1
421.3911732699757	317.7793506693338	1
356.3670170353379	281.07216494845363	1
194.8554031622052	201.36513309739962	1
136.12390720833875	173.04816125557778	1
78.44118796793421	37.75596245576243	1
79.48996468139612	169.90183105093092	1
174.9286456064291	218.14556085551624	1
213.7333840045194	304.145253115864	1
58.3125	122.0	1
75.3125	117.0	1
398.5844114337235	486.476963923161	1
560.84375	253.0	1
426.84375	373.0	1
