306.81648551572255	162.06382517936268	4
530.8661739562041	392.6110325075239	7
579.7593699155668	608.1389582960694	3
404.20883760932117	366.51298685748986	4
576.7018408583576	546.5008211988911	8
452.3788692419462	518.623707594355	7
226.8738197841959	191.38173651192184	5
126.43796937093376	80.39399560457895	4
159.44742295471804	161.78747501074955	4
556.9093138796247	109.5963332317406	7
434.75457483313426	437.0531385734381	8
487.7799014428665	227.23792694416954	8
423.5168571152926	197.5027124007908	7
195.59775616114655	159.51740992644358	5
399.04569113087524	181.0698519606727	7
416.70565891650585	44.76786312015079	3
215.7426535790632	83.0341252364874	5
283.6577567597727	264.99135951632866	4
310.7918686787576	257.26701655569036	6
311.31769957558254	237.3918900215201	4
339.0223676156757	414.9338681031583	7
506.9781459743057	401.166435111169	8
354.79984069735883	301.36714315280335	2
450.5228827403439	230.9718079503062	6
281.09105586527585	393.1242432543022	2
157.18284319223977	128.9480558743342	5
468.73346959214655	166.01364720108057	7
200.83249240963187	231.68271299826017	3
295.46464223752366	381.1398034542352	5
448.4037173092811	411.4543629016436	7
220.83904132582737	60.72195829500852	6
516.0486647682787	67.65398171393305	6
462.7656826189633	84.71518313026685	6
412.0330025489027	454.67833852183526	6
370.7272717050459	446.99734107492395	5
229.55212510896894	162.62009007777448	4
424.6818673993264	510.8912913048556	4
294.68235288305857	183.05491382958525	6
385.3859020681327	360.2490207569499	3
517.3767421944804	441.0440839098792	6
169.77869201643017	143.3948937465644	1
364.39453125	253.5	3
538.7629504658596	5.161034674324965	4
609.1459185170368	451.04736796165287	6
609.3373584511938	148.85446895192155	6
141.91043906694085	7.698244387172416	4
501.8827310805714	316.0933715264424	4
486.5306169902525	18.788212108329844	2
547.5974419244394	258.67552734010155	6
429.66323677342024	347.97971421295847	2
386.3564120926785	430.45683042274084	6
527.5263713300967	555.5332947952287	3
499.64993083011865	556.4276633741717	4
253.4250517440742	94.39607186903011	4
509.5745466646604	280.7219218095501	4
98.43155360689182	6.808658932694879	2
538.0754510801999	324.0848337525008	2
601.477488745023	569.6572700296736	2
531.253680332063	352.82546432606864	3
593.4937313205545	279.48188349211307	2
277.23129858180243	347.0273309386225	1
613.6136113994082	265.0607527721381	1
452.87396192010925	333.1888177416836	1
422.921875	80.0	1
460.921875	27.0	1
537.921875	289.0	1
564.921875	294.0	1
557.921875	344.0	1
555.921875	309.0	1
486.921875	50.0	1
589.921875	346.0	1
575.921875	317.0	1
564.921875	368.0	1
379.921875	380.0	1
382.15461663626536	289.8585508976555	1
