282.6720054790819	31.73395270623028	7
328.7826822121866	49.42736361392249	2
335.0696728144622	18.531360043953207	7
441.79397982854056	100.97642557393236	2
442.83154879577637	263.0666815933042	7
315.9491548634627	176.64611724366148	5
556.8767215600974	112.62222477226649	9
300.27005410812944	8.921012550215416	4
530.5510008184548	431.4945410631733	9
378.75817229875327	50.5244711990053	6
473.5137303975477	182.45804271237978	6
583.9004567926968	375.3304971429008	7
291.03286160448	435.66052687061097	5
187.22646609006034	58.394557327223005	5
384.6000306792009	271.9238436495882	10
522.8470256947969	132.4267304441716	6
308.6070119487224	335.1113826268156	9
419.94934131305297	92.51076832377781	8
219.3703506827509	88.45775357578239	9
251.87254481012843	141.4895449957799	9
347.8288283329091	285.4616493600146	10
283.0761844648301	252.21404840062075	9
356.65580951406366	506.5720606993589	8
468.05885280255575	63.38128733456462	9
389.1039228893744	119.38190206168466	8
217.09890675919715	17.43514530373293	3
180.93957816163336	7.397695734029574	3
362.72424393864947	81.10872720506057	7
524.7327839167514	386.5803577245935	4
282.67112771602933	284.47396041129343	8
441.6410191772709	380.40147464565376	10
513.1493129501806	288.8331580090946	9
269.7834088468918	60.703373357795016	9
204.72052777273035	130.89022991605356	8
428.2781004933323	324.20495648414624	7
484.0668851689295	121.3549175800193	9
481.797142273836	161.87744946166453	8
465.98692021672065	451.1538200444335	3
428.2177905155338	115.71869842464312	7
494.85395231337145	454.92619385916373	9
538.2458049824545	75.01513095171333	9
347.5051192377029	373.5383483180815	9
488.6504759567198	85.81917744073313	8
316.2893768382678	391.30158023870547	9
455.12259156107984	149.83189592170868	10
424.718912855872	375.76894593927426	1
470.55365162974965	593.6958158479388	3
527.0191900681388	340.48743160717873	4
605.4681323204761	309.34400576519033	7
404.0401240161068	10.879772999719828	5
511.18752410408234	22.25254838651061	8
439.6741086158236	420.7772989138439	6
483.3147089011376	199.20785680386362	6
343.6513406750039	216.13720261256555	6
539.68958176736	563.0267217180505	3
575.6765683635191	520.6403910339924	3
470.67793432581306	524.9159541783868	3
484.5119778146168	393.4265676735912	5
493.25449805690505	56.365196242544954	2
606.0799511359965	166.2947452155471	4
314.1137752388724	114.46009116815875	3
541.7377715471491	38.378767765110105	2
415.9311613729133	156.3278928889237	6
371.2085588383574	164.8213989541896	6
473.85833411438136	323.0824027799469	3
383.16146300706475	437.8075558780227	4
603.4129877550938	598.0280337341871	2
383.56695252691895	234.03294796877663	8
400.7853937118263	373.9811806965485	2
336.84335401783386	202.25519287833828	1
343.5323318721142	321.6525985566964	3
296.1632982830773	159.24760798950064	3
605.0127437607167	353.2601602775008	4
220.1296520502073	209.2415043028058	2
481.0231773909377	305.97929692941614	2
476.0456590399251	240.22502786960206	3
599.1171875	191.75	2
226.1171875	187.75	2
519.921875	84.0	1
586.921875	426.0	1
556.921875	551.0	1
602.921875	506.0	1
367.921875	388.0	1
398.921875	45.0	1
198.921875	31.0	1
609.921875	480.0	1
593.921875	566.0	1
230.921875	240.0	1
204.921875	240.0	1
513.921875	622.0	1
524.3125	8.5	1
402.2849481043607	554.1189829671688	1
422.4755163807209	570.9444581584794	1
