344.4338559527314	281.9855705440233	7
545.2137715421725	503.58196919946613	6
175.0573737681014	380.38852570732394	8
405.22136440386913	255.29688934529588	8
91.91068764941267	242.12098071228024	7
112.70188235023528	307.9841534462916	8
325.69258507755626	195.13786913857106	8
551.2761711813953	412.899639265423	7
398.5848919569313	409.204986935786	8
334.1354835574799	463.74666624694714	7
351.59455435786106	418.36723769211653	8
377.2734196683117	384.7815738840728	6
151.1841049598147	338.56374543625	8
530.8992365990748	392.9286401511878	8
292.30007133856384	384.1498852447979	5
482.8690631503348	432.0014486801706	6
222.94333125258305	393.38510106874924	7
76.08074814860022	318.21841223918847	6
558.161613667268	471.1881827973534	3
313.7422349823881	336.963109709186	3
188.13175008386526	82.19311100331447	4
384.98360700859615	325.245644269129	4
525.528574110548	265.1915931089756	3
413.753911513587	340.4606080434329	6
590.5882029588686	517.330142681112	5
380.84530572340543	356.420216259163	3
81.51995590243632	186.11693904551953	2
219.39407465282778	431.40129461277263	2
370.0689679417094	514.974688413602	2
329.777031159686	504.1224413632966	3
610.1709816931178	366.0230804739191	1
537.8053884642467	355.5353131250962	1
612.2685351200416	470.90075396214803	1
334.342706052638	323.02323434374523	1
