439.4832240532682	505.2938218629149	8
453.2022768712062	428.0070362897405	8
302.8829575012363	42.98309839924534	6
366.2935377824409	430.7153074936886	4
468.8585496358039	229.70386422750653	8
441.77173708721955	465.0111501572036	7
389.8496349075757	323.4454487013218	6
588.6184357283969	363.9753743023813	5
469.3232016336864	31.24740251863276	4
377.00453016793944	64.74388118733012	7
303.3145520764904	200.06907847263415	4
284.453875751787	168.14279098359614	7
523.4805393383085	117.15423333905962	5
461.51519704812677	287.63612138623387	7
537.3489859140107	571.8055696135295	8
214.74550039572898	28.65624287721087	3
608.7456103618168	442.3211238301685	2
552.0304498896526	289.5680240758156	8
502.10551582343624	454.99565303670533	6
602.4770113635298	484.9251581043105	2
284.9395215518266	366.6464577609683	7
344.40435811631653	277.8684496624712	3
480.75215971425706	530.3624368310909	7
256.50007669577553	208.147089544726	4
577.2860353318417	302.26824712688676	7
352.55777120049225	192.90650462564557	3
283.6375343375688	106.42808232684709	4
399.7616948636237	468.00870629712693	5
523.7393904296223	506.36275980234564	5
349.4293825917662	383.5939352858588	6
504.7854281674064	286.44235617698405	2
603.513592099351	564.3223557623703	2
345.8446454217716	328.02388304690555	2
322.3462280371503	32.32141226991118	3
298.1707404903996	251.23785881316297	2
340.8636985291474	259.32715119475944	2
512.52483361166	226.75016375584053	4
441.9039149868063	557.9005321208114	2
563.0521504478156	570.8625220840258	2
573.6505906735941	440.14572577417323	3
447.0284494856595	102.36391853705116	2
536.5390625	188.5	2
279.234375	199.0	1
184.171875	160.0	1
249.171875	345.0	1
608.84375	230.0	1
603.234375	398.0	1
505.234375	204.0	1
494.234375	141.0	1
534.4400427291703	9.938274605103281	1
407.86401499654835	379.9413653451862	1
580.6154933366523	524.0583847569051	1
289.6796506688955	281.36199060427185	1
