311.46433151692213	444.2428203002192	8
530.5363517955107	120.87677039090234	6
332.14012841088487	152.32464162640454	8
593.7365998593423	226.0688909952625	7
364.76826200768573	117.1746357843407	6
304.53406079256837	164.92233550763964	8
312.5771777517497	127.5275264724362	3
519.32373665125	80.3750018479038	8
230.28387025623772	137.6696553610975	7
212.87522111242157	253.59628560959044	3
451.36965984132905	112.06660067412187	5
392.99992245612464	144.5689291664415	8
334.90955241782814	441.1722000635511	8
87.93371513495357	135.2584870859054	7
130.32380302062884	103.22142973085607	7
183.23008799654949	30.302070991871492	7
437.1799950412111	89.63146279339355	5
283.52511697412456	263.8842439264343	7
169.1190204546217	244.05530613979005	3
434.85347478140164	150.56220838904156	6
42.936481567882645	155.21911274242427	8
131.06981312023356	234.90588974596577	9
266.33998080645415	314.66440692907446	6
596.3926286065579	459.5971334112909	5
92.68086874210883	36.225254706944824	4
297.0716466018132	398.66323429481747	8
58.826353161726495	77.31168949967206	3
138.4292513732645	22.96467369536754	4
519.8175018537613	456.358936251897	8
406.08297603276634	479.79198620383397	3
12.45893302844725	102.5709315077001	2
109.90698019032503	81.93530520575742	3
492.81713298690073	249.98771290620488	2
579.4460512870135	115.3060024363883	6
455.3852990548404	65.80929579220978	3
609.109873683751	91.2681301285709	3
484.8045309602054	378.1236641582791	3
601.8367622193064	521.6307078705058	3
383.4980098702353	341.4351426910338	3
574.8628519818986	434.12575792402276	3
246.47276859898955	438.43143875479507	3
278.695405931319	102.18554373987516	2
491.52537352659004	270.2727683507138	2
450.371992320844	302.6492464749357	3
599.0504928847795	562.533557486985	3
566.416910473155	501.8546064372839	4
439.6942029367119	497.83516274471515	2
302.41321818015933	113.44071745319073	1
508.00888654763514	169.43895969701225	3
553.4171893900439	35.034476115388486	4
276.48852710931504	478.8581527755126	2
267.8940573741862	203.50650061357413	4
384.35978420405013	14.788474424459952	2
615.2866041208928	237.64649103640622	1
422.40200289757496	388.4592561663859	1
336.39234305588764	252.54275826951726	1
308.6804508451171	225.48699799969228	1
436.171875	433.0	1
417.171875	452.0	1
150.16012674793714	316.92053462940464	1
361.0723794847634	156.80388821385176	1
394.1999584486628	215.32928311057108	1
385.365937391623	247.35261239368165	1
350.0298531634636	196.5569866342649	1
554.3165901075099	72.88068043742406	1
228.56206362916575	186.6187120291616	1
245.12585311111545	277.1674362089915	1
52.985895120498874	217.53778857837182	1
101.573010934218	282.6886998784933	1
510.14648482231075	512.3732685297691	1
471.4976426977614	200.97399756986633	1
19.858316156599464	78.40194410692588	1
46.360379327718995	40.857351154313484	1
357.7596215883735	13.251032806804375	1
606.216463817619	49.691373025516405	1
