604.1652558358085	492.689008081437	5
492.766353082328	105.26453776921525	8
364.7088963928089	231.88002510890084	9
316.52790326241853	358.6030158485921	3
544.3411527084822	196.0211780727484	10
513.2734375	511.5	2
497.084175018714	130.86480617409984	9
502.4012496146809	303.6049781887899	8
525.1394081274132	549.4534135456051	3
415.47832398936055	376.2636878051196	4
322.71325124301495	202.97925230034346	9
480.24450431576895	270.7832218742956	6
492.8175293688992	414.638357930825	7
574.5929871088533	451.56666410216957	3
481.5581677031161	439.100123653511	7
384.83904835979683	253.14987002873946	6
457.9656643894223	117.70439245026138	7
473.55801713254516	173.99305069963538	7
582.2132223219749	188.99686490229266	4
407.56535902143025	344.36226903240185	7
323.1150393566057	278.52195182026094	7
308.2734375	308.5	2
462.5297512004088	394.139732079335	5
550.2710641429926	235.81281061876848	9
340.2384099658787	167.66486553401754	7
384.76158356509814	430.83345576170075	7
535.6720597450372	126.81624906097508	9
349.55301389196933	388.6692103070258	4
556.5194168837429	494.5659799221368	4
524.6813002588216	320.81078838818917	5
363.66210955965505	314.2119853797992	6
487.60484077231774	247.53310700614372	3
429.89062688119293	233.60178599778732	2
439.5964906296226	257.8103275874556	4
534.8800414337493	18.090612814485624	5
324.0202686022785	239.6093245114633	2
428.9347159186426	441.2431143252808	2
373.6421330119023	126.90221572549623	2
276.6173947933123	105.435836282505	4
586.9573842788519	580.534800483332	2
472.9765536148044	201.73134328358208	2
376.732824795557	491.9869210647792	2
599.6526544293174	183.75251269302663	2
422.92312178480563	464.1079686177221	2
391.7423245244202	471.8825412347195	2
460.7961128585465	225.53702043972294	2
276.3183774791929	253.40198492075706	2
557.1764604116088	599.8366655839235	2
279.34276583592384	316.21895676257884	2
595.171875	442.0	1
549.3419323123276	566.3394368364364	1
545.14682545848	89.14602246499462	1
612.2685351200416	65.02415756270196	1
582.9027871431084	61.877827358055086	1
257.7820059699192	270.58439759963073	1
612.2685351200416	170.95060778581322	1
456.00080481421844	552.7053392829666	1
406.7082992815091	47.19495306970303	1
216.8797141449051	155.21895676257887	1
331.1963759122523	388.04739190644716	1
471.73245551614696	488.72995845514697	1
447.61059110652326	464.6080935528543	1
330.234375	85.0	1
188.234375	26.0	1
155.234375	72.0	1
241.234375	39.0	1
292.234375	168.0	1
440.234375	60.0	1
383.234375	80.0	1
355.234375	37.0	1
319.234375	46.0	1
264.234375	152.0	1
565.234375	349.0	1
406.234375	156.0	1
352.234375	282.0	1
597.234375	385.0	1
599.234375	352.0	1
540.234375	387.0	1
457.096671423122	149.9955172179583	1
301.78125	17.0	1
