483.42478623338025	256.2121698703535	7
472.869448801658	462.6242612125192	7
610.3767681760507	584.9402891786549	5
457.57020342138276	342.9901467644966	8
588.9528969699418	264.2635189770933	6
462.0194532735815	286.1861544307818	4
458.13546493576143	123.25132959262694	5
492.7812313893802	382.0495525830379	6
370.53695353209963	342.327716824345	3
376.80362157207986	365.29683594566393	3
412.51509990176226	240.68935078289533	6
499.7286457487453	100.14157619779256	6
598.7295544168235	418.1397520893828	7
428.358756209838	38.86892583584982	7
451.4567515778093	198.87416268384936	7
342.6470929002295	277.8861512265729	7
219.55045009880337	17.096236417706024	3
359.9114479007	319.08921597448034	2
471.38291568546015	425.2932161237603	2
438.13320021285597	104.91456458468711	5
603.1171381145059	114.47733349130444	4
461.739531690764	380.82858901369445	2
530.5935967445033	88.73458064489593	3
575.738456225427	188.2180694123051	3
609.2514550600208	217.52400369287585	2
455.14352978776276	487.7601977928374	3
273.78599094650747	212.54231504351452	2
480.3316637548013	135.82308626974483	1
440.3125	265.0	1
599.234375	330.0	1
555.634592593099	4.1951069395291585	1
233.6601415602955	179.34082166487153	1
165.48965518527197	103.82889675334667	1
373.1474444507283	310.43791352515774	1
352.17191018149026	340.8524388367441	1
361.6109006026474	370.2181874134482	1
360.5621238891855	419.51069395291586	1
383.6352115853473	457.2666564086783	1
438.1716006853661	433.1447915063856	1
405.65952256804724	414.2668102785044	1
390.9766485795806	380.7059547622711	1
451.8056979603708	399.5839359901523	1
346.9280266141808	404.8278196645638	1
446.56181439306135	474.04708416679495	1
