261.22465804899565	188.65392421107347	6
329.5860487762005	127.69562767308716	8
519.964357924612	510.71413803535376	7
608.0181366210879	90.02583989893964	10
455.10731425260815	434.1184588304024	10
304.06845148781576	244.4639838945251	10
374.5454240436	216.96736336009286	9
550.9986744434744	124.05110742495444	9
336.60127131178115	70.46579056795409	9
519.6071899426579	350.0355170869549	10
471.9792639251177	180.1932729135376	9
241.32869345825924	151.84229756834242	9
292.8136530477242	300.8837304304791	10
404.95709079697053	72.8578446028186	7
488.83941692876425	523.2822849020606	9
582.0728814735501	597.2024309656238	4
425.3283711510287	460.55405402311817	5
517.1344458102845	473.7965321454758	4
552.1408639635006	342.95713265879795	7
395.8462346252884	44.394620169945235	10
209.1902759693662	17.664627800582622	6
570.9769247425481	414.7420034904385	9
450.3571443185165	62.19799188298417	9
597.8081792999594	196.42213545648514	9
429.0751459244896	33.40275824489427	5
401.59280731373974	186.64403280261354	8
198.87513079554003	204.33743277730161	4
575.8020378809797	34.06426674996096	2
511.424864690626	545.9413378599606	5
184.89579372898396	78.41878806809308	2
510.270759229526	479.4313164472386	4
398.83982306299845	399.7653485740312	8
360.6938018646252	306.4591408740547	5
524.4659869947457	76.46149368440197	9
566.1885071251295	568.3843150887083	4
404.4416437118263	154.20857410588786	2
222.15076818833336	72.18269205359553	5
176.1037045385349	63.87006090894893	1
373.3810840214958	462.45076631020476	3
410.0455840526553	455.36373931843923	2
271.078125	147.5	2
423.84375	56.0	1
560.84375	294.0	1
599.86068440215	617.2614400964104	1
352.3125	14.0	1
312.3125	414.0	1
186.3125	15.0	1
213.69495632920842	89.82271182950684	1
363.45587876606214	124.54661877245042	1
395.3909084639361	127.74012181789786	1
371.97188668549524	145.8366390754334	1
201.65172829683408	234.19022333281276	1
