363.9714145147856	326.0847822741961	2
552.6754310984652	517.9542846524664	8
140.05768090096547	253.57432328527292	5
268.99455600334875	369.35498461565373	7
595.0341454758785	521.0649169084631	8
247.37614430479238	414.84175184393257	4
584.1243698421879	452.98424821595216	8
314.7190667149766	412.86994382853925	5
95.14127788466149	264.32918332923214	5
362.17389186320867	380.0964250668241	7
156.39994981432486	284.1138661910876	8
591.668888055716	411.0642892410813	4
300.50811311092855	444.29189106016315	2
524.0407322800627	373.60857018903414	4
148.80039978864693	225.75284659178334	4
402.4274658105451	489.99234889300664	3
203.562858902053	407.41702905223104	4
261.1459694915629	394.45338724502255	4
370.94625781113257	234.05860141498522	6
565.1044244781268	286.37908448257053	7
152.76992647847078	363.81168870955	4
269.04463223364337	167.0548359412918	5
414.89967570207006	420.55765113438997	8
422.73309960899354	503.30829923303787	5
596.0917626601765	317.76348395863096	7
347.0642698245116	410.84432444961567	7
281.06456686313595	436.0257918173036	3
278.95240880176743	122.73390036452005	2
221.48480171797854	366.5683632980642	3
408.94375817457984	450.1379439916522	3
439.1370413448899	441.21843805461293	5
514.6048774667454	413.8485776950076	4
318.6885893858209	93.48663825372947	6
407.7473179729648	231.73184420348719	5
385.27431293467794	305.56862947231355	5
133.26261556483507	326.5603939067549	2
390.00786848393693	354.58983385699594	2
507.0431739447208	347.76893869197636	4
507.28200916753826	463.7223098439064	7
322.7358415717862	353.15295811061316	8
95.3301419928152	140.36855354700435	4
145.50714365437733	174.0072228808778	4
78.60650200758415	241.23285823959822	6
188.94660784588643	380.1171277826289	3
80.79579518601113	197.6341491595042	3
539.010098509443	430.98366444542074	2
130.73836335275908	13.790168080015729	3
257.9609817674231	11.053762715527597	3
112.28105206778238	30.11467456344812	2
167.12782446170726	6.486826405857	2
603.4742275447899	130.09185486429635	2
453.0248577341712	429.55161238622514	1
583.4645677521593	50.09062770420576	1
344.98388580008003	292.5240345843848	1
118.13680041616772	53.0041312272175	1
29.148682435224885	173.04816125557778	1
565.0735830142561	376.510847822742	1
380.4888814449616	223.3894445299277	1
486.41532950461357	334.5597784274504	1
445.234375	486.0	1
210.234375	317.0	1
191.234375	310.0	1
259.234375	219.0	1
430.234375	384.0	1
