591.2310604138953	71.57747348913827
455.0935061528744	99.64707093585915
386.3229890519463	157.18974570163698
349.83251059022933	211.9254607227427
368.0777498210878	251.22289714815196
321.762911773524	259.6437763821682
271.23763390345437	138.9445073612684
377.9021094069347	54.73571502110573
361.0603501169115	273.67857510552864
342.815110886053	307.3620920415937
293.69331295681866	335.43168948831465
340.00815100438246	408.41264284978894
372.2881896435936	439.2892000411819
401.76126840113426	423.8509214454854
415.7960678094869	464.5518377432307
436.8482669220159	436.4822402965098
494.3909444962619	465.95531761556674
480.3561450879092	503.84927416863997
535.0918627804847	552.9710697004015
512.6361837271204	443.49963965819
580.0032208872132	593.6719859981467
262.81675425844276	327.01081025429835
210.8879964475379	239.9950581694636
424.2169474544985	289.1168537012251
