324.632042624474	256.18663426488456
354.44686369198354	274.9589307411908
362.17663211689336	246.24835965978127
345.61284263494366	220.8505467800729
393.0957058165328	192.13997569866342
388.67869528801293	161.22089914945323
265.0024004894551	135.82308626974483
534.4400427291703	111.52952612393682
584.1314111750195	76.19343863912515
380.94892686310305	60.733900364520046
477.01890585841136	13.251032806804375
411.8680005627425	119.25929526123937
340.0915794742938	315.81628189550423
265.0024004894551	324.65030376670717
344.5085900028137	409.67776427703524
318.00652683169415	458.26488456865127
373.2191584381932	439.4925880923451
404.13823213783263	424.03304981774
418.4935163555224	463.7861482381531
439.474316365992	433.9713244228432
474.81040059415136	390.905467800729
509.04223219018075	441.7010935601457
496.895453236751	473.7244228432564
481.43591638693124	502.43499392466583
532.2315374649104	515.6860267314702
536.6485479934303	559.8561360874849
574.1931374858497	592.9837181044958
298.1299794533545	333.4843256379101
206.47701098656614	241.83134872417983
134.7005898981174	124.7805589307412
597.3824427605792	38.64884568651276
