18.754063524469483	17.668043742405832
103.78151619847797	8.834021871202916
36.42210563854917	35.336087484811664
47.46463195984897	68.4636695018226
124.7623162089476	39.753098420413124
93.84324250930815	80.61044957472662
67.34117933818862	48.58712029161604
55.194400384758836	91.65297691373026
38.63061090280913	143.5528554070474
80.59221092374838	146.86561360874848
60.71566354540874	172.26342648845687
40.83911616706909	228.58031591737546
262.7938952251952	22.08505467800729
241.8130952147255	82.81895504252734
342.3000847385537	30.919076549210207
218.62378993999593	13.251032806804375
168.9324214941468	144.65710814094774
192.1217267688764	207.59951397326853
155.68138990858705	196.5569866342649
125.86656884107758	219.74629404617255
83.90496882013832	262.81215066828673
154.57713727645708	311.39927095990276
187.70471624035648	308.0865127582017
211.99827414721605	332.3800729040097
151.26437938006714	336.79708383961116
85.0092214522683	309.19076549210206
473.7061479620214	107.11251518833535
422.9105268840423	144.65710814094774
501.31246376527093	141.34434993924665
313.58951630317426	139.13584447144592
255.0641268002853	171.1591737545565
338.9873268421638	65.1509113001215
309.1725057746543	171.1591737545565
524.5017690400005	215.32928311057108
515.6677479829607	274.9589307411908
465.97637953711154	256.18663426488456
397.51271634505275	274.9589307411908
334.57031631364384	305.87800729040094
298.1299794533545	315.81628189550423
265.0024004894551	345.6311057108141
293.71296892483457	384.27995139732684
353.34261105985354	359.98639125151885
274.94067417862493	409.67776427703524
268.31515838584505	373.2374240583232
368.80214790967324	337.9013365735115
374.3234110703232	371.0289185905225
322.4235373602141	429.5543134872418
379.84467423097306	428.4500607533414
335.67456894577384	407.46925880923453
412.97225319487245	324.65030376670717
465.97637953711154	309.19076549210206
424.01477951617227	354.46512758201703
502.4167163974009	361.0906439854192
551.00383221112	376.5501822600243
478.1231584905413	382.07144592952613
443.8913268945119	395.3224787363305
543.2740637862101	473.7244228432564
581.9229059107595	474.82867557715673
510.14648482231075	515.6860267314702
576.4016427501095	500.2264884568651
583.0271585428894	541.0838396111786
472.6018953298914	523.4157958687728
463.7678742728516	474.82867557715673
440.57856899812197	451.6393681652491
412.97225319487245	522.3115431348724
419.59776898765233	489.1839611178615
364.38513738115336	459.3691373025516
587.4441690714094	253.97812879708383
255.0641268002853	276.06318347509114
224.14505310064584	242.93560145808019
309.1725057746543	241.83134872417983
173.34943202266675	263.91640340218714
