351.8085274134602	25.799061960009873
337.2264503249778	57.206615650456676
250.85568603165916	44.86793384349543
271.04625430801934	12.338681806961244
222.81323009227	10.095285114786472
241.88210013105464	86.3707726487287
129.71227637349793	42.62453715132066
109.52170809713773	10.095285114786472
138.68586227410248	28.042458652184646
74.74906273229516	53.84152061219452
32.12452970442362	32.52925203653419
44.46321031775486	67.30190076524315
60.166985643812794	31.407553690446804
20.907547328667953	8.973586768699086
56.80189093108609	90.85756603307824
87.0877433456264	75.15378918785485
173.45850763894504	137.96889656874845
136.44246579895133	170.49814860528264
136.44246579895133	209.75759071834113
120.73869047289341	231.06985929400147
68.01887330684175	272.57269809923474
27.637736754121352	274.8160947914095
209.3528512413632	189.5670204887682
254.22078074438588	163.76795852875833
310.3056926231642	128.99530980004937
424.718912855872	142.455689953098
392.1896639661806	160.40286349049617
461.7349546958657	102.0745494939521
467.3434458837436	246.77363613922486
428.08400756859874	253.5038262157492
395.5547586789073	280.42458652184644
334.98305384982666	307.34534682794373
292.35852082195515	289.3981732905455
302.45380496013524	241.16514440878794
251.97738426923473	246.77363613922486
249.7339877940836	279.30288817575905
253.0990825068103	216.48778079486547
231.78681599287452	238.92174771661317
210.47454947893877	390.35102443841026
274.41134902074606	367.91705751666257
294.6019172971063	332.0227104418662
366.39060450194256	337.6312021723031
373.12079392739594	370.16045420883734
411.2585340049652	326.41421871142927
326.00946794922214	420.63687978276965
272.1679525455949	407.17649962972104
340.5915450377045	399.32461120710934
290.115124346804	429.61046655146873
500.9943930110106	133.4821031843989
530.1585471879753	217.60947914095286
515.576470099493	283.7896815601086
495.38590182313277	218.73117748704024
545.8623225140333	183.95852875833128
465.10004940859244	299.49345840533203
512.2113753867662	397.0812145149346
376.48588864012265	430.7321648975562
480.8038247346504	378.01234263144903
441.54438641950554	399.32461120710934
415.7453269552675	495.7906689706245
290.115124346804	383.62083436188595
466.221747646168	474.4784003949642
552.5925119394867	474.4784003949642
