235.84375	86
141.84375	94
467.84375	106
504.84375	139
393.84375	164
424.84375	138
316.84375	137
310.84375	165
251.84375	176
164.84375	151
196.84375	207
245.84375	227
544.84375	186
492.84375	205
253.84375	277
393.84375	279
349.84375	359
374.84375	365
368.84375	335
338.84375	404
380.84375	424
329.84375	435
337.84375	63
516.84375	239
522.84375	212
519.84375	268
462.84375	256
407.84375	319
421.84375	347
436.84375	401
471.84375	385
361.84375	456
430.84375	446
417.84375	488
444.84375	488
464.84375	467
532.84375	437
333.84375	306
