457.94473096443835	162.92493068417656
510.41024293079926	199.88926845610678
540.2201929116861	227.31442228689372
586.7237148818697	301.24309783075415
554.5289689025119	276.202739985253
599.84009287346	208.23605440460716
552.1441729040409	61.571101309529205
459.13712896367383	55.609111346314656
375.6692690171905	261.8939640735381
394.7476370049581	303.62789381603994
462.7143229613802	310.78228177189743
535.4506009147442	351.32381352175634
521.1418249239185	393.0577432642582
457.94473096443835	412.13611114654475
384.01605501183883	480.10279672719065
437.6739649774352	487.25718468304814
312.4721750577103	470.5636127860474
506.8330489330928	600.5349939841245
417.40319899043214	530.1835124181929
406.6716169973128	548.0694823078366
277.8926330798815	308.3974857866116
298.1633990668846	331.0530476468269
400.7096270011355	166.5021246621053
412.6336069934903	248.7775861544661
200.3867631295756	86.61145915503032
198.00196713110464	134.30737886074672
184.8855891395144	177.23370659589148
232.58150910893343	149.80855276510457
234.96630510740437	68.72548926538667
218.2727331181077	29.376355508170633
180.1159971425725	67.53309127274376
307.7025830607684	53.224315361028836
277.8926330798815	137.88457283867547
358.97569702789383	162.92493068417656
606.9944808688728	551.6466762857652
480.6002929499124	538.5302983666933
485.36988494685426	371.59457939668584
609.3792768673437	617.2285658811253
267.1610510867622	60.378703316886295
153.88324115939204	11.490385618526982
556.9137649009829	11.490385618526982
