520.2434678280425	297.5811269691322
484.7425602496547	315.33158015676463
453.4182300334301	304.8901371052161
558.8768084280528	578.4559450557867
530.6849112334506	560.7054918681542
540.082210298318	491.7919677279342
606.9074480929304	460.4676385732887
423.13804415774644	486.57124620215995
473.2569725037057	467.77664870937264
532.7731999145324	407.21627901039136
535.9056329361548	433.3198866392626
613.1723141361753	355.0090637526489
521.2876121685833	373.80366124543616
484.7425602496547	413.4811448413205
508.7578800820935	194.21084075880205
391.8137139415219	180.63696479178898
388.6812809198994	208.82886103096993
553.6560867253487	55.33964817320703
130.77762880631735	73.09010136083948
128.6893401252357	116.94416217734316
103.62987595225607	95.01713176909132
127.64519578469489	301.75770418975156
197.6028666009297	289.22797252789337
96.32086556847035	275.6540965608803
60.81995799008253	192.12255214849233
3.3920192603375354	144.09191411136925
