538.234375	364
391.234375	383
497.234375	371
370.234375	272
315.234375	294
277.234375	307
298.234375	225
286.234375	148
263.234375	167
135.234375	187
180.234375	125
184.234375	247
142.234375	234
223.234375	312
253.234375	363
297.234375	372
433.234375	303
452.234375	387
476.234375	50
524.234375	51
234.234375	69
289.234375	95
348.234375	131
570.234375	44
530.234375	153
475.234375	177
348.234375	183
414.234375	103
255.234375	235
451.234375	337
483.234375	462
512.234375	499
410.234375	470
570.234375	173
585.234375	107
93.234375	206
178.234375	289
148.234375	143
503.234375	139
583.234375	431
