437.14362534914943	439.83116883116884	1
320.96180537911397	218.53246753246754	1
585.1371341205041	495.15584415584414	1
338.9423251363814	309.8181818181818	1
38.805956880456485	135.54545454545453	1
167.4358289901386	390.038961038961	1
319.234375	223.0	1
334.234375	317.0	1
216.234375	229.0	1
136.234375	210.0	1
296.234375	154.0	1
508.234375	255.0	1
432.234375	441.0	1
484.234375	471.0	1
589.234375	501.0	1
431.3789730044869	436.62738562117386	1
484.139358980505	475.82059213029476	1
588.1526913332264	493.90976436527365	1
340.93259704559875	314.52547303506645	1
147.98032833330407	210.51273268393788	1
113.3092175490636	270.80997346720085	1
119.33897594632282	136.64861272444082	1
324.35076145313593	221.06474982100892	1
573.0782953400784	237.64649103640622	1
615.2866041208928	418.53821338619497	1
392.1855434223021	459.23885091489745	1
169.0844827237113	386.88216197498195	1
83.16042556276756	104.99256131322778	1
220.0260442852908	229.68210493922143	1
317.5622786372476	225.48699799969228	1
293.4404142276238	161.51161717187262	1
332.2451526257142	313.5842437298046	1
438.1716006853661	442.58378212032625	1
474.87878565653267	471.94953069703035	1
580.8052337161846	500.26650253885214	1
73.19730440062472	102.78012001846439	1
392.02542529304253	465.6568702877366	1
321.40500749332807	219.23864415242556	1
117.50494962406175	140.5403766379935	1
110.35056162864889	268.1269618507849	1
165.20086959348077	389.7515571003617	1
437.0676134191692	439.83227279136395	1
482.3787373901173	470.8346206000796	1
75.77101965082011	103.57603886606329	1
333.32898748568283	313.4380855712155	1
586.1173633236037	495.8749784455807	1
390.56409144898566	452.94865071043597	1
453.7611854084659	489.9129884823662	1
323.00484114875513	219.28720912072467	1
510.3570153762824	252.28674059034827	1
144.16867484066094	210.7712009995315	1
113.2981461327161	141.5786350148368	1
86.6856213844878	108.57910354521319	1
43.041080797393384	129.86912384819615	1
109.04014217299958	267.18975480243637	1
176.1037045385349	394.92987662033426	1
323.00484114875513	370.44635327190383	1
340.03685698762126	311.8987974387006	1
441.1644510308888	440.70342027174763	1
485.87349260791234	475.83195377166953	1
587.0010866511799	493.92847102920507	1
614.6781123893373	422.6069030142121	1
456.06746488989666	492.86397001405595	1
221.87724710548758	370.44635327190383	1
393.2619064840779	463.05794158987976	1
385.81039955457396	361.9303451507106	1
373.03638767542435	211.83570201468063	1
323.5277899923441	217.53778857837182	1
511.25073745444075	252.87387606318347	1
336.77882157790384	313.6077764277035	1
117.03254778403773	141.34434993924665	1
80.59221092374838	100.48699878493316	1
39.73486353493911	135.82308626974483	1
111.51128462338784	268.33341433778855	1
166.72391622988684	396.42673147023083	1
440.57856899812197	441.7010935601458	1
483.64442165119124	471.5159173754557	1
589.6526743356693	495.80947752126366	1
393.0957058165328	461.5776427703524	1
440.8263167413166	441.5350053854439	1
110.46165200081786	272.6819510693953	1
321.2657714066599	216.04800738575167	1
333.8510919682027	310.43791352515774	1
144.0225068315987	211.85290044622252	1
491.1675989874878	477.1934143714418	1
440.3125	440.0	1
482.3125	467.0	1
579.3125	499.0	1
139.3125	203.0	1
76.3125	104.0	1
331.3125	309.0	1
377.3125	224.0	1
168.3125	394.0	1
382.3125	364.0	1
569.3125	237.0	1
