587.0206205913895	188.06630289302996	1
508.42574390461454	262.4507361268403	1
537.8988226621552	415.43004221146913	1
526.6709831354731	374.72912591372386	1
478.95266514707396	262.4507361268403	1
436.8482669220159	275.0820549778647	1
477.5491852062387	336.83516936065064	1
460.70742591621547	377.53608565839596	1
432.6378270995101	356.4838875733553	1
420.0065076319927	385.9569648924122	1
441.0587067445217	385.9569648924122	1
383.5160291702758	286.3098939565531	1
362.46383005774675	321.39689076495415	1
334.3942312410414	301.74817255224957	1
344.21859082688826	256.83681663749616	1
414.3925878686516	199.2941418717183	1
334.3942312410414	349.466488211675	1
310.5350722468419	334.0282096159786	1
258.60631443593695	230.1706990631113	1
182.81839763083252	204.9080613610625	1
217.90539615171423	310.1690517862658	1
168.78359822247987	95.43663131885103	1
229.13323567839635	51.92875527643364	1
269.8341539626191	123.5062287655719	1
223.04080046851584	57.42114216281895	1
271.627916282235	124.7805589307412	1
161.20265306923696	94.96573511543134	1
383.157432127363	210.91227217496962	1
588.5484217035394	191.03572296476307	1
589.6526743356693	318.024787363305	1
442.78707426238196	277.1674362089915	1
415.18075845913245	208.70376670716888	1
522.2932637757406	371.0289185905225	1
471.4976426977614	342.318347509113	1
461.5593690085916	373.2374240583232	1
440.57856899812197	359.98639125151885	1
421.8062742519123	388.6969623329283	1
448.30833742303184	390.905467800729	1
383.157432127363	288.20996354799513	1
345.61284263494366	258.3951397326853	1
330.15330578512396	230.7888213851762	1
124.7623162089476	46.37861482381531	1
131.38783200172747	113.73803159173754	1
197.6429899295263	142.44860267314704	1
221.93654783638587	172.26342648845687	1
220.8322952042559	207.59951397326853	1
273.83642154649493	209.80801944106926	1
532.2315374649104	416.3032806804374	1
363.28088474902336	332.3800729040097	1
326.840547888734	357.7778857837181	1
277.1491794428849	322.44179829890646	1
285.98320049992475	263.91640340218714	1
250.64711627176536	228.58031591737546	1
474.4378288856546	338.91712707182324	1
440.96453355367174	276.1546961325967	1
226.1775551734483	54.39410681399632	1
164.80984706481303	93.44628606507061	1
273.59805689375736	124.13014119091469	1
180.15177409197184	210.60282381829344	1
128.54711045516493	40.446899938612646	1
385.17570800036697	210.60282381829342	1
220.59867261811783	266.39165131982816	1
332.1763237247274	304.04910988336405	1
330.78160308589474	354.25905463474527	1
588.8049212699294	188.28729281767957	1
233.1511583676114	334.7329650092081	1
153.6520819541521	284.5230202578269	1
81.12660873485586	209.2081031307551	1
387.9651492780322	287.31246163290365	1
530.2266544389594	411.44260282381833	1
590.199641908762	311.0227133210559	1
362.86017777904505	400.2848373235114	1
415.85956205468455	383.548189073051	1
463.2800637749936	369.6009821976673	1
432.59620972067603	358.44321669736036	1
446.5434161090022	396.1006752608963	1
526.0424925224615	369.6009821976673	1
585.9365856612508	188.41667968139936	1
589.1300886310381	311.8987974387006	1
506.0990114165659	262.9317507418398	1
446.48695598053445	272.51225987818214	1
391.1329045042196	211.83570201468063	1
266.5862886825111	126.67562080274871	1
231.45775601484976	58.54755583320319	1
99.45963326363739	7.451507106044042	1
128.20115999172396	36.19303451507106	1
125.00765702193655	108.57910354521319	1
163.3296926593853	93.6760893331251	1
201.65172829683408	147.9656411057317	1
183.55521146803883	207.57769795408404	1
216.55474215584192	269.31875683273466	1
347.4883639171251	257.6092456660939	1
335.77885302790474	233.12572231766362	1
255.94127878321981	224.6097141964704	1
278.2957995717316	253.35124160549742	1
304.9083243199599	242.70623145400594	1
232.5222570047789	336.38232078713105	1
209.103235226338	306.57629236295486	1
155.87818572988138	283.1572700296736	1
366.64938173584954	401.31688271122914	1
335.77885302790474	356.6078400749649	1
311.2953302595347	341.7048258628768	1
335.77885302790474	303.38278931750745	1
369.84288470563695	321.4793065750427	1
439.0354490510305	360.8658441355615	1
466.712474789188	370.44635327190383	1
425.1969361819518	380.02686240824613	1
446.48695598053445	390.67187255973766	1
526.3245302252194	409.8328908324223	1
560.3885619029516	449.2194283929408	1
524.1955282453611	365.12384819615806	1
476.2929836985502	335.3178197719819	1
475.228482708621	270.38325784788384	1
415.61642727258965	207.57769795408404	1
366.64938173584954	161.80415430267064	1
611.48460941955	378.962361393097	1
120.74965306222003	253.35124160549742	1
35.589573867889456	102.19209745431829	1
381.5523955948574	279.96376698422614	1
591.8611795999293	192.13997569866342	1
591.8611795999293	309.19076549210206	1
538.8570532576903	417.40753341433776	1
523.3975164078705	371.0289185905225	1
478.1231584905413	335.6928311057108	1
463.7678742728516	374.34167679222355	1
436.1615584696021	353.3608748481166	1
450.5168426872918	270.5419198055893	1
382.05317949523305	212.01652490887	1
271.627916282235	123.67630619684083	1
220.8322952042559	163.42940461725394	1
197.6429899295263	144.65710814094774	1
163.4111583334969	99.38274605103281	1
227.45781099703578	56.31688942891859	1
128.07507410533754	39.753098420413124	1
122.55381094468764	11.042527339003644	1
98.26025303782806	18.772296476306195	1
251.75136890389535	232.99732685297693	1
283.77469523566475	217.53778857837182	1
342.3000847385537	260.603645200486	1
377.6361689667131	288.20996354799513	1
338.9873268421638	229.6845686512758	1
304.7554952461344	246.24835965978127	1
282.6704426035348	319.12904009720535	1
369.90640054180324	337.9013365735115	1
282.6704426035348	267.2291616038882	1
227.45781099703578	272.75042527339	1
237.3960846862056	334.58857837181046	1
253.9598741681553	362.19489671931956	1
308.0682531425243	346.73535844471445	1
366.5936426454133	404.1565006075334	1
331.2575584172539	355.5693803159174	1
263.8981478573251	294.8354799513973	1
209.78976888295608	302.5652490886999	1
158.994147804977	287.1057108140948	1
178.87069518331663	209.80801944106926	1
224.14505310064584	209.80801944106926	1
412.97225319487245	203.18250303766706	1
439.474316365992	392.0097205346294	1
415.18075845913245	378.758687727825	1
164.19024770362353	91.88469885362677	1
270.692970438787	123.20902800827227	1
83.79113348198052	207.7847167258151	1
121.38032974144998	255.81535476293817	1
98.40915424955199	263.1243648990221	1
289.4875685685217	396.77483595884286	1
581.8479839199508	182.7252534020987	1
418.96146679558314	201.519850894886	1
388.6812809198994	215.09372686189903	1
259.207382692838	234.9324686598412	1
337.5182082333993	229.71174713406694	1
436.71192058477703	358.14149666811346	1
479.5218385469506	335.17032195470676	1
464.90381777937915	366.4946511093522	1
446.10921964964444	393.64240304337835	1
422.0938998172056	379.0243827712104	1
358.4010950442157	322.6405902928486	1
334.3857752117769	353.964919447494	1
179.8524128117358	209.87300533612478	1
217.44160907120525	56.38379247836188	1
588.065587641109	190.54568171169765	1
588.065587641109	312.96329845384975	1
529.5180331950068	370.44635327190383	1
473.0994807287628	336.38232078713105	1
463.5189718194006	378.962361393097	1
437.9709480611014	356.6078400749649	1
416.68092826251876	382.1558644385444	1
442.2289520208179	397.05887865063255	1
439.0354490510305	279.96376698422614	1
375.16538965528264	210.7712009995315	1
269.7797916522985	123.48211775730127	1
226.1352510652041	56.41855380290489	1
165.4586946392436	94.74059034827425	1
214.42574017598366	307.64079337810404	1
378.35889262507	284.22177104482273	1
354.9398708466291	322.5438075901921	1
373.03638767542435	338.51132281742935	1
523.131027255432	415.1553959081681	1
546.5500490338729	418.3488989536155	1
511.4215163662115	266.1252537872872	1
476.2929836985502	268.25425581758554	1
334.7143520379756	354.4788380446666	1
412.42292430280224	204.38419490863657	1
363.45587876606214	161.80415430267064	1
120.74965306222003	256.5447446509449	1
175.03920354860577	207.57769795408404	1
139.9106708809444	199.06168983289083	1
349.6173658969834	256.5447446509449	1
308.1018272897473	342.76932687802594	1
272.732168914365	124.7805589307412	1
220.8322952042559	55.212636695018226	1
163.4111583334969	92.75722964763062	1
362.17663211689336	164.53365735115432	1
417.3892637233924	205.3910085054678	1
441.68282163025196	278.27168894289184	1
383.157432127363	288.20996354799513	1
334.57031631364384	297.04398541919807	1
334.57031631364384	354.46512758201703	1
300.3384847176145	342.318347509113	1
441.68282163025196	350.04811664641556	1
421.8062742519123	382.07144592952613	1
465.97637953711154	371.0289185905225	1
446.0998321587719	394.21822600243013	1
473.7061479620214	333.4843256379101	1
586.3399164392794	188.82721749696233	1
533.3357900970403	408.5735115431349	1
208.6855162508261	308.0865127582017	1
177.76644255118666	207.59951397326853	1
140.22185305876732	198.76549210206562	1
83.90496882013832	86.13171324422844	1
128.07507410533754	43.06585662211422	1
262.234375	136.0	1
224.234375	60.0	1
582.234375	190.0	1
507.234375	227.0	1
507.234375	269.0	1
586.234375	313.0	1
527.234375	375.0	1
477.234375	342.0	1
434.234375	357.0	1
463.234375	375.0	1
452.234375	269.0	1
383.234375	290.0	1
376.234375	208.0	1
334.234375	238.0	1
231.234375	274.0	1
210.234375	311.0	1
234.234375	339.0	1
321.234375	356.0	1
378.234375	335.0	1
533.234375	414.0	1
421.234375	381.0	1
359.234375	318.0	1
311.234375	243.0	1
367.234375	166.0	1
164.234375	86.0	1
209.234375	147.0	1
141.234375	125.0	1
181.234375	208.0	1
118.234375	254.0	1
140.234375	209.0	1
159.234375	171.0	1
276.234375	257.0	1
345.234375	266.0	1
269.8757124470268	124.80443145099247	1
224.77831376816505	53.48761347899677	1
162.9004876739129	92.29235266964149	1
377.8997139336025	209.75534697645793	1
412.5093454778453	202.4139098322819	1
447.11897702208796	271.633174334513	1
475.4359482855593	334.5597784274504	1
477.5335017124831	264.291737190337	1
350.6315193835931	261.1454069856901	1
336.9974221085884	233.8772118787506	1
234.21730418932214	327.21834128327436	1
250.99773160471256	360.77919679950764	1
463.8994044374784	367.07185720880136	1
433.48487974708326	348.19387598092015	1
417.75322904515474	377.55962455762426	1
449.21653044901177	390.14494537621175	1
525.7772305317305	414.2668102785044	1
587.6550566259826	182.48715186951839	1
173.3882548085319	208.70657024157563	1
166.0468178142986	167.80427758116633	1
145.0712835450606	192.97491921834128	1
278.26592615472197	314.63302046468687	1
303.43656727780757	346.09632251115556	1
328.6072084008932	298.9013694414526	1
356.92417966436454	318.82812740421605	1
305.5341207047314	237.02354208339747	1
160.3125	90.0	1
217.3125	58.0	1
273.3125	126.0	1
378.3125	207.0	1
337.3125	233.0	1
587.3125	189.0	1
445.3125	273.0	1
476.3125	338.0	1
525.3125	373.0	1
538.3125	411.0	1
592.3125	318.0	1
561.3125	455.0	1
461.3125	377.0	1
436.3125	354.0	1
420.3125	382.0	1
399.3125	426.0	1
361.3125	326.0	1
310.3125	341.0	1
342.3125	253.0	1
336.3125	299.0	1
197.3125	145.0	1
177.3125	207.0	1
222.3125	273.0	1
205.3125	302.0	1
153.3125	290.0	1
118.3125	261.0	1
77.3125	210.0	1
235.3125	333.0	1
272.3125	310.0	1
256.3125	362.0	1
