568.555976542134	178.85668127272487	1
548.9592617510415	31.1284413537307	1
457.0054461928386	7.009545040425533	1
301.73916746341393	14.546700138333398	1
226.3671874976738	193.93099146854058	1
176.62168072028533	189.40869840979587	1
300.2317278640991	189.40869840979587	1
352.9921138401172	275.33226652594556	1
431.3789730044869	316.032904054648	1
523.3327885626899	421.55307542535814	1
475.0947213846162	193.93099146854058	1
425.34921460722774	184.88640535105114	1
386.15578502504286	89.91825111741205	1
478.1096005832458	104.99256131322778	1
527.8551073606343	145.69319884193024	1
559.5113389462451	311.5106109959033	1
450.97568779557935	284.376852643435	1
324.35076145313593	242.16878409515093	1
184.15887871685933	62.784492764943735	1
449.46824819626454	118.55944048946193	1
413.2896978127093	213.52759472310103	1
411.78225821339447	409.49362726870555	1
270.08293587780304	189.40869840979587	1
349.3125	281.0	1
302.3125	191.0	1
270.3125	193.0	1
300.3125	9.0	1
547.3125	34.0	1
478.3125	105.0	1
430.3125	180.0	1
431.3125	314.0	1
407.3125	410.0	1
450.3125	289.0	1
181.3125	62.0	1
149.3125	51.0	1
346.55270235780904	279.91846550160415	1
211.2917839126201	237.2045605965017	1
436.2520482740922	315.5133862558562	1
551.5797787378849	36.44920754252028	1
138.22146063526256	5.243883674411448	1
150.80678119680536	53.48761347899677	1
181.2213058872005	62.92660409293738	1
303.92818136224287	14.682874288352055	1
457.04958152768035	7.3414371441760276	1
473.83000894307077	108.02400369287584	1
526.2688446161658	143.68241267887367	1
473.83000894307077	192.97491921834128	1
427.6838335507471	181.43837513463612	1
448.65936781998516	121.6581012463456	1
344.830473187257	281.07216494845363	1
435.0252705449804	315.6817971995692	1
452.8544746738327	288.4136020926297	1
553.5370391661752	325.12078781350976	1
607.0246515527322	280.0233882135713	1
519.9761843353944	423.70580089244504	1
299.73307450839525	195.07247268810588	1
267.2209963910763	194.02369595322358	1
209.5382771506718	235.97476534851518	1
501.0982034930802	5.243883674411448	1
546.1956021719419	37.75596245576243	1
224.2211511391384	194.02369595322358	1
177.02619903335287	185.63348207416527	1
388.8790951526568	94.38990613940607	1
399.3668622872758	280.0233882135713	1
402.5131924276615	415.3155870133867	1
429.3125	181.0	1
447.3125	120.0	1
472.3125	102.0	1
526.3125	142.0	1
472.3125	190.0	1
453.3125	288.0	1
351.3125	273.0	1
225.3125	194.0	1
298.3125	191.0	1
324.3125	243.0	1
184.3125	185.0	1
301.3125	11.0	1
568.3125	186.0	1
435.3125	310.0	1
301.171875	17.0	1
459.171875	7.0	1
548.171875	33.0	1
473.171875	106.0	1
525.171875	141.0	1
469.171875	191.0	1
177.171875	184.0	1
267.171875	193.0	1
348.171875	282.0	1
449.171875	287.0	1
474.3871715720974	103.82889675334667	1
528.9235606721162	140.53608247422682	1
302.38779056434566	13.634097553469765	1
298.1926837104981	194.02369595322358	1
352.7290728105169	278.97461147868904	1
431.38732632015945	314.63302046468687	1
457.60674415670695	288.4136020926297	1
431.38732632015945	184.58470533928298	1
531.02111409904	415.3155870133867	1
456.234375	293.0	1
431.234375	323.0	1
347.234375	289.0	1
329.234375	248.0	1
301.234375	195.0	1
268.234375	192.0	1
228.234375	194.0	1
184.234375	181.0	1
167.234375	107.0	1
183.234375	64.0	1
156.234375	62.0	1
293.234375	16.0	1
392.234375	89.0	1
438.234375	109.0	1
456.234375	12.0	1
476.234375	100.0	1
529.234375	141.0	1
564.234375	188.0	1
467.234375	202.0	1
426.234375	179.0	1
512.234375	423.0	1
214.234375	242.0	1
426.234375	264.0	1
469.59629702886366	195.82748081233444	1
477.92938076602474	108.33009576852544	1
551.5382871109479	31.943489777898527	1
223.77032678261116	190.2720912857434	1
264.0468981788898	197.2163281939822	1
302.93462228564164	193.04978604903891	1
352.9331247086082	277.7694763295524	1
432.0974202116387	316.65720301568973	1
444.5970458173805	288.88025538273456	1
529.3167304785181	144.44012769136725	1
307.10116415422215	15.277321198125383	1
389.04315423630635	90.27507980710453	1
447.37474039643405	127.77395911159411	1
452.7253479515518	9.938274605103281	1
553.21233747538	38.64884568651276	1
473.7061479620214	103.79975698663426	1
450.5168426872918	126.98906439854191	1
530.0230322006504	145.76136087484812	1
475.91465322628136	191.03572296476307	1
422.9105268840423	183.3059538274605	1
388.67869528801293	99.38274605103281	1
301.44273734974445	14.355285540704738	1
183.28770571183657	62.94240583232078	1
147.9516214836772	56.31688942891859	1
183.28770571183657	183.3059538274605	1
221.93654783638587	194.34848116646415	1
265.0024004894551	185.51445929526125	1
303.65124261400445	192.13997569866342	1
327.94480052086396	246.24835965978127	1
208.6855162508261	239.6228432563791	1
347.82134789920366	278.27168894289184	1
456.0381058479417	283.79295261239366	1
431.74454794108215	319.12904009720535	1
303.06144499555234	13.573875967013047	1
395.9902913036851	98.14956468455587	1
445.0650753091036	123.20902800827227	1
471.1686838226241	100.23785329486557	1
178.808268471195	185.85768631756324	1
272.7812591198686	196.29912936911174	1
220.5740420928277	195.2549850639569	1
306.19387801717477	190.03426353818264	1
472.2128281631649	192.12255214849233	1
524.4200451902058	138.871192585595	1
302.0173006550115	345.61176500625527	1
351.09208466043	277.74238517119	1
