273.171875	37.0	1
290.171875	8.0	1
325.171875	155.0	1
346.171875	260.0	1
477.171875	236.0	1
510.171875	189.0	1
538.171875	252.0	1
579.171875	214.0	1
498.171875	329.0	1
564.171875	319.0	1
468.171875	386.0	1
488.171875	464.0	1
533.171875	389.0	1
490.6253255131718	466.5053385681179	1
567.8719022987322	515.8130088247309	1
533.357474373269	389.2566551660909	1
541.5751953079031	247.90800043046704	1
543.2187394948298	417.1976683115049	1
380.84531772765996	127.99547005542044	1
510.5578007161716	188.40979978732034	1
549.649233945586	96.01141313853226	1
503.4502674017326	56.91978801789116	1
563.864300574464	37.37397545757061	1
583.4100171891713	215.0631805513938	1
347.08453448407477	261.26237387578783	1
311.5468679118798	151.09506671761744	1
272.45543468246535	37.37397545757061	1
469.68948415814737	383.86792539052584	1
494.56585075868384	328.78427181144065	1
554.9798839314153	318.12291950581124	1
292.0011512971726	16.051270846311827	1
296.7965789523074	16.706308882477597	1
503.53715837938944	53.251359562897335	1
579.7596952388691	57.427936783516735	1
563.053385790216	31.32432915464549	1
547.3912206821037	99.19370898971071	1
418.96146679558314	129.47389383920137	1
388.6812809198994	127.38560522889166	1
468.0362508010016	231.80003574437663	1
540.082210298318	252.68292184747364	1
493.0957149739812	332.0378890392422	1
517.1110348064201	315.33158015676463	1
555.7443754064303	311.1550029361452	1
468.0362508010016	379.0243827712104	1
533.8173442550732	388.4216815176041	1
541.1263546388589	423.922587892869	1
573.4948291956242	516.8514310516506	1
480.56598288749143	462.5559271835984	1
322.90018746582786	152.44506855260806	1
514.9507806720039	184.48305977908763	1
547.890101383617	96.20567792597895	1
580.8294220952301	209.51694418519307	1
543.9373828982234	249.04413008957007	1
557.1131111828687	313.6052004000525	1
491.2344697596424	328.0985018983241	1
534.7143730989718	390.02442648184814	1
470.15330450421	382.1189893009727	1
509.6804893581458	59.313637748560396	1
571.6064122959785	64.58392920247734	1
476.7411686465326	230.5981100008608	1
342.348740143151	254.31442154348701	1
418.7679641940935	133.0977181033975	1
563.7009753251913	38.23247193289266	1
389.7813619678739	129.1449995129598	1
294.91611831842795	23.739170434621087	1
317.314856402325	147.59101960166907	1
539.0386615052062	249.99252869659716	1
511.26171571466915	188.88324390409565	1
476.5405334764979	234.71520749847178	1
532.0944250575719	388.87726686137336	1
469.59629702886366	379.15533518983904	1
491.81785366129327	331.9345242138151	1
387.65430694677946	127.77395911159411	1
570.9821491643237	509.70698906472865	1
579.3152329014848	211.10480201045982	1
544.234375	106.0	1
511.234375	191.0	1
540.234375	240.0	1
552.234375	307.0	1
342.234375	258.0	1
464.234375	384.0	1
471.234375	224.0	1
489.234375	459.0	1
546.234375	423.0	1
526.234375	382.0	1
582.234375	211.0	1
572.234375	518.0	1
547.69107431473	100.48699878493316	1
574.1931374858497	66.25516403402187	1
568.6718743251997	43.06585662211422	1
507.9379795580508	64.04665856622114	1
511.25073745444075	181.09744835965978	1
541.0655585219502	250.66537059538274	1
578.6101480143695	214.2250303766707	1
496.895453236751	334.58857837181046	1
530.0230322006504	390.905467800729	1
465.97637953711154	382.07144592952613	1
596.2781901284492	400.8437424058323	1
473.7061479620214	234.10157958687728	1
346.71709526707366	262.81215066828673	1
314.6937689353042	151.28262454434994	1
389.7829479201429	130.301822600243	1
297.0257268212245	12.14678007290401	1
514.3125	184.0	1
545.3125	242.0	1
584.3125	214.0	1
555.3125	105.0	1
581.3125	63.0	1
386.3125	129.0	1
319.3125	152.0	1
341.3125	263.0	1
513.3125	323.0	1
465.3125	387.0	1
526.3125	390.0	1
561.3125	315.0	1
511.0943565432639	189.82858901369443	1
472.28961814517356	383.85228496691803	1
548.8503182278923	101.73134328358209	1
539.4113278067352	253.8039698415141	1
383.14359750091205	127.95076165563934	1
571.9234059240541	523.3395907062626	1
289.80247000280286	11.536544083705186	1
339.3756549154607	259.83437746509094	1
511.0809668053692	185.90570192123053	1
567.1236727694366	38.04835083350968	1
577.8552547625559	209.75366177408873	1
539.6985187870206	246.71799954601894	1
478.88622082601137	234.79401961958985	1
559.9692847740238	317.06948111195067	1
528.9669367939014	386.2285646852394	1
543.275712784727	422.0005044645267	1
462.19264883671474	386.2285646852394	1
569.5084687679075	516.1999458833167	1
487.2330068206597	464.9268321996715	1
378.7247888902314	128.67059827437086	1
492.0025988176016	332.5706550163085	1
