484.234375	69.0	1
454.234375	82.0	1
365.234375	116.0	1
281.234375	105.0	1
517.234375	84.0	1
486.234375	114.0	1
437.234375	46.0	1
432.234375	126.0	1
559.234375	198.0	1
511.234375	220.0	1
529.234375	277.0	1
476.234375	328.0	1
420.234375	333.0	1
356.234375	342.0	1
226.234375	328.0	1
258.234375	258.0	1
271.234375	279.0	1
237.234375	211.0	1
303.234375	224.0	1
342.234375	438.0	1
445.234375	531.0	1
484.234375	479.0	1
513.234375	442.0	1
481.234375	408.0	1
452.234375	421.0	1
591.234375	175.0	1
555.234375	272.0	1
603.234375	335.0	1
350.234375	386.0	1
326.234375	352.0	1
451.3140838759356	522.2908139713802	1
463.8994044374784	565.2906601015541	1
511.0943565432639	581.0223111247884	1
505.8504729759544	621.9246037851977	1
579.2648429182874	613.5343899061395	1
609.6793676086826	521.2420372364979	1
532.069890812502	404.8278196645638	1
583.459949772135	406.92537313432837	1
599.1916004740635	357.6328665948608	1
475.4359482855593	324.0720110786275	1
425.0946660393881	330.3646714879212	1
342.24130567589793	383.85228496691803	1
346.4364125297455	446.7788890598554	1
342.24130567589793	527.5346976457917	1
418.80200575861664	481.38852131097093	1
513.1919099701877	439.43745191567933	1
455.5091907297832	376.510847822742	1
437.6799866009309	46.146176334820744	1
505.8504729759544	22.024311432528084	1
458.65552087016886	77.60947838128943	1
475.4359482855593	105.92645022311126	1
483.8261619932545	67.12171103246654	1
289.80247000280286	109.07278042775812	1
235.26608090278404	212.9016771811048	1
232.11975076239835	313.5842437298046	1
282.4610330085696	439.43745191567933	1
289.80247000280286	266.38929066010155	1
362.168063231674	241.21864902292663	1
417.75322904515474	282.1209416833359	1
453.25331336850724	531.3499656183991	1
344.86343032331257	444.28225512242574	1
335.97901368026385	527.7961815165227	1
510.11357988401915	579.3260509937313	1
463.9146133401657	568.6646986881019	1
510.11357988401915	621.9714602162489	1
581.188913028409	609.5332158596813	1
524.3286465128971	435.39779486773455	1
485.2372132834827	408.7444141036611	1
424.82318011075125	438.95157896961103	1
503.0060465695802	451.38982332617866	1
575.8582630425798	406.96752205272287	1
607.8421629575553	451.38982332617866	1
609.619046286165	524.2423974146461	1
476.35279664043395	334.11494796425535	1
424.82318011075125	335.89184001519357	1
337.7558970088736	383.86792539052584	1
231.14289729228872	325.23048770956416	1
321.76394705138586	35.59708340663238	1
289.7800471364104	108.44965749509988	1
240.02731393533747	216.84007260233204	1
172.50574744816706	215.0631805513938	1
295.1106971222396	268.36994207954075	1
277.3418638361422	161.75641902324685	1
403.5005801674343	227.50142490796142	1
442.5920133968487	115.55722569885282	1
421.26941345353174	191.9635838891968	1
439.03824673962924	51.58911186507646	1
487.01409661209243	71.13492442539702	1
481.68344662626316	115.55722569885282	1
510.11357988401915	24.935731101002986	1
552.7587797706531	72.91181647633525	1
586.5195630142383	179.52533953262918	1
515.4442298698484	218.61696465327026	1
561.6431964137018	39.15086750850884	1
417.7156467963122	282.58507848704664	1
382.1779802241173	311.0153513020583	1
360.8553802808003	353.6607605245759	1
566.9738463995311	268.36994207954075	1
595.4039796572871	358.9914366773906	1
507.09517384608864	218.04903891869864	1
447.37474039643405	151.38436459960607	1
373.765834051511	112.49663791346873	1
239.0476469674065	211.10480201045982	1
289.0461493903731	263.8810025130748	1
259.88035631030925	255.54791822318822	1
266.8245927579435	277.7694763295524	1
230.7145632302454	324.9902873055763	1
359.8773611562425	343.0453032669972	1
337.6558045238129	379.15533518983904	1
345.98888826097397	444.43116212728387	1
448.7635876859609	530.5396997894451	1
462.6520605812294	563.8720369489914	1
487.6513117927127	480.5411940501257	1
477.92938076602474	402.765740677851	1
527.9278831889914	409.7099775860898	1
582.0929274805385	416.65421449432864	1
562.6490654271627	263.8810025130748	1
480.70707534507847	108.33009576852544	1
455.7078241335951	86.10853766216125	1
436.26396208021924	52.776200502614955	1
484.87361721365903	69.4423690823881	1
516.8171048727764	84.71969028051348	1
287.65730210084627	338.87876112205396	1
477.92938076602474	329.1568294505196	1
420.9866418954239	487.4854309583645	1
286.26845481131943	190.27209128574341	1
420.9866418954239	437.486925219045	1
287.65730210084627	437.486925219045	1
366.5	111.48333740234375	1
340.5	116.48333740234375	1
292.5	108.48333740234375	1
322.5	39.48333740234375	1
424.5	53.48333740234375	1
455.5	89.48333740234375	1
495.5	60.48333740234375	1
511.5	89.48333740234375	1
477.5	112.48333740234375	1
432.5	125.48333740234375	1
438.5	149.48333740234375	1
425.5	176.48333740234375	1
408.5	196.48333740234375	1
424.5	217.48333740234375	1
407.5	231.48333740234375	1
390.5	215.48333740234375	1
363.5	193.48333740234375	1
337.5	205.48333740234375	1
353.5	241.48333740234375	1
275.5	162.48333740234375	1
284.5	193.48333740234375	1
237.5	211.48333740234375	1
235.5	255.48333740234375	1
179.5	242.48333740234375	1
261.5	251.48333740234375	1
264.5	277.48333740234375	1
290.5	273.48333740234375	1
225.5	321.48333740234375	1
281.5	338.48333740234375	1
281.5	369.48333740234375	1
286.5	439.48333740234375	1
335.5	358.48333740234375	1
340.5	381.48333740234375	1
357.5	346.48333740234375	1
338.5	316.48333740234375	1
380.5	306.48333740234375	1
453.5	238.48333740234375	1
486.5	235.48333740234375	1
516.5	212.48333740234375	1
579.5	168.48333740234375	1
565.5	189.48333740234375	1
562.5	253.48333740234375	1
535.5	276.48333740234375	1
513.5	292.48333740234375	1
514.5	255.48333740234375	1
473.5	321.48333740234375	1
468.5	276.48333740234375	1
437.5	314.48333740234375	1
415.5	340.48333740234375	1
601.5	339.48333740234375	1
591.5	370.48333740234375	1
587.5	406.48333740234375	1
607.5	438.48333740234375	1
536.5	404.48333740234375	1
522.5	442.48333740234375	1
500.5	452.48333740234375	1
488.5	483.48333740234375	1
476.5	402.48333740234375	1
462.5	421.48333740234375	1
455.5	378.48333740234375	1
426.5	391.48333740234375	1
348.5	433.48333740234375	1
436.5	544.4833374023438	1
509.5	575.4833374023438	1
494.5	542.4833374023438	1
473.5	567.4833374023438	1
452.5	536.4833374023438	1
338.5	533.4833374023438	1
502.5	613.4833374023438	1
230.4979777830837	321.5629465951158	1
286.8301670441348	333.2988205584412	1
513.332511364611	215.94008092518726	1
563.7967642443026	266.40433896748647	1
595.4836207036439	352.07621889976184	1
582.574160664653	410.7555887163888	1
609.5666680189066	442.44244841736736	1
532.1099077849614	404.8876517347261	1
522.7212095747863	437.7480988320372	1
448.7852111696567	528.1143283496427	1
464.0418457611913	573.8842368066117	1
512.1589240883392	579.7521737882745	1
505.11740043070773	546.8917266909634	1
285.6565797678629	112.66439004792379	1
368.98127638316765	112.66439004792379	1
347.8567054102735	117.35873963325395	1
447.6116238933848	150.21918673056504	1
485.1664167340855	112.66439004792379	1
473.43054397136655	332.12523316210866	1
427.66064019676253	330.9516457657761	1
377.1963873170709	305.1327230464602	1
418.2719419865873	276.9666255344793	1
580.2269861121092	176.03810944988095	1
518.0268604696986	93.88699170660315	1
486.3400040103574	68.06806898728729	1
458.17390937983185	84.49829253594284	1
441.7436875120253	43.42273366430396	1
439.39651295948147	115.01156484058886	1
232.84515233562752	213.5929061325222	1
228.1508032305399	255.8420524004936	1
263.35842151869684	251.14770281516343	1
266.87918334751254	278.14021293081186	1
292.6981034254943	272.27227594914916	1
305.60756346448517	228.8495422848452	1
346.6831181340016	440.09527362470226	1
285.6565797678629	436.57451143570466	1
302.0868016356695	485.8651820816713	1
332.6000708187388	522.2463913679801	1
419.4455292628592	483.5180072890062	1
422.9662910916749	427.1858122650444	1
448.7852111696567	379.0687290154102	1
459.3474966561038	420.14428788704913	1
486.3400040103574	477.6500703073435	1
467.562607590007	278.14021293081186	1
476.7411686465326	329.4160747618034	1
538.6670915843654	275.3955873591548	1
514.9507806720039	83.02994929118661	1
487.28175127424885	67.2190749294358	1
437.2139837925969	48.77305484072652	1
459.6127218764938	80.39480356422814	1
484.6466056173198	109.38140656077128	1
449.0721392487776	155.49645678254447	1
582.1469949236947	179.21276832517069	1
513.6332078435394	213.46966277563078	1
608.4984514929852	337.32151194267874	1
578.1942764383011	412.4231651609951	1
530.7616546135782	405.83530084359893	1
512.3156350150748	442.7273410210175	1
479.3763143034617	407.15287370707813	1
422.7206826794871	332.0512204887618	1
287.0106813476409	109.38140656077128	1
325.22029337311216	30.32703475201725	1
367.382623883977	109.38140656077128	1
294.91611831842806	272.7604416321963	1
360.7947597416544	346.5445219870334	1
343.6663129716155	436.1394767036213	1
449.0721392487776	528.3695771471677	1
420.085537022558	486.2072455158322	1
420.085537022558	425.59889379578743	1
487.28175127424885	470.3963711540814	1
534.7143730989718	536.2750143280431	1
597.957868865269	570.5319087785032	1
613.7687428068433	524.41685855673	1
609.8160243214497	441.4097681575382	1
591.3700047229464	359.72025062182576	1
509.6804893581458	289.8888888574263	1
470.15330450421	274.0780144956755	1
421.4031098510226	284.6185974035094	1
376.6056336832287	309.65248180961487	1
334.44330317236387	380.80141643749346	1
288.3282541761055	341.27423053311645	1
235.6253410375244	325.46335617136566	1
265.92951609220853	270.1252959052378	1
304.1391281176798	224.01024568346463	1
287.0106813476409	191.0709240964838	1
276.4700987199247	154.17888391906524	1
235.6253410375244	208.19937132171384	1
235.6253410375244	260.9022858608832	1
570.288839467514	197.65878841387996	1
554.4779655259397	69.85422065639428	1
513.6332078435394	581.072491686337	1
460.9302947049583	570.5319087785032	1
586.0997134090883	611.3766675463594	1
516.2683535004684	554.7210344167523	1
449.0721392487776	380.80141643749346	1
462.24786753342283	428.2340395227459	1
563.7009753251913	264.8550044513209	1
293.59854548996356	430.86918524970434	1
255.3889334644923	437.4570495671005	1
350.25417711393817	115.96927087816745	1
339.71359448622195	317.55791899049024	1
551.8428198690106	629.8226876350686	1
522.8562176427911	181.84791405212914	1
