264.3125	275.0	1
283.3125	287.0	1
309.3125	276.0	1
337.3125	275.0	1
330.3125	239.0	1
370.3125	263.0	1
365.3125	293.0	1
317.3125	350.0	1
375.3125	348.0	1
451.3125	344.0	1
492.3125	321.0	1
569.3125	419.0	1
406.3125	488.0	1
422.3125	399.0	1
341.3125	450.0	1
322.3125	432.0	1
514.3125	178.0	1
578.3125	243.0	1
434.3125	171.0	1
455.3125	141.0	1
428.3125	123.0	1
394.3125	122.0	1
438.3125	101.0	1
389.3125	17.0	1
318.3125	54.0	1
223.3125	222.0	1
277.3125	418.0	1
354.3125	517.0	1
441.3125	580.0	1
552.3125	374.0	1
407.3125	84.0	1
497.3125	587.0	1
265.3125	278.0	1
230.3125	222.0	1
329.3125	435.0	1
343.3125	400.0	1
316.3125	346.0	1
373.3125	347.0	1
371.3125	297.0	1
373.3125	270.0	1
365.3125	240.0	1
342.3125	274.0	1
341.3125	13.0	1
407.3125	79.0	1
399.3125	117.0	1
447.3125	140.0	1
434.3125	166.0	1
521.3125	178.0	1
579.3125	237.0	1
520.3125	264.0	1
492.3125	322.0	1
458.3125	347.0	1
419.3125	399.0	1
402.3125	482.0	1
353.3125	518.0	1
497.3125	586.0	1
563.3125	563.0	1
609.3125	571.0	1
608.3125	436.0	1
575.3125	417.0	1
590.3125	343.0	1
564.3125	337.0	1
554.3125	374.0	1
470.3125	448.0	1
583.234375	345.0	1
497.234375	330.0	1
459.234375	344.0	1
522.234375	260.0	1
420.234375	404.0	1
338.234375	397.0	1
405.234375	485.0	1
476.234375	440.0	1
526.234375	390.0	1
315.234375	330.0	1
278.234375	285.0	1
258.234375	276.0	1
372.234375	361.0	1
562.234375	335.0	1
405.171875	85.0	1
451.171875	138.0	1
433.171875	170.0	1
514.171875	178.0	1
575.171875	242.0	1
493.171875	321.0	1
456.171875	350.0	1
422.171875	404.0	1
233.171875	226.0	1
260.171875	278.0	1
323.171875	433.0	1
406.171875	481.0	1
355.171875	519.0	1
448.171875	580.0	1
575.171875	417.0	1
601.171875	572.0	1
572.171875	554.0	1
372.5739257692473	351.2024642957155	1
455.28465017787676	344.8401008120975	1
488.3689399413285	320.66311957434897	1
523.9981750711997	262.12937552506304	1
372.5739257692473	295.2136656398768	1
373.846398452457	267.2192663119574	1
339.4896360057955	276.1265751890227	1
306.4053462423437	277.3990478857463	1
288.59072867740815	288.8513021562588	1
258.0513842803757	274.8541024922991	1
184.24796865421402	274.8541024922991	1
405.65821553269905	486.08457014841787	1
451.4672321282477	578.9750770092412	1
573.6246097163773	422.4609353122375	1
590.1667545981032	347.3850462055447	1
551.9925741018127	353.74740968916274	1
555.8099921514417	374.10697283674045	1
576.1695550827967	243.04228507420893	1
434.9250872465218	166.6939232707925	1
456.55712286108644	139.97199663959677	1
424.7453057808443	127.24726967236069	1
319.13007307444053	351.2024642957155	1
606.7088994798291	437.73060767292077	1
515.090866288732	181.96359563147578	1
445.1048687121993	94.16297955754692	1
391.6610160173925	124.70232427891348	1
406.93068821590873	78.89330719686363	1
223.69462183371422	223.95519462335483	1
330.5823272233277	235.40744889386727	1
364.9390896699892	243.04228507420893	1
418.3829423647959	405.9187902548307	1
492.18635799095756	586.6099131895829	1
454.01217749466707	608.2419490338841	1
178.87069518331663	274.9589307411908	1
228.56206362916575	223.05905224787364	1
182.18345307970657	173.36767922235722	1
262.7938952251952	270.5419198055893	1
332.3618110493839	234.10157958687728	1
372.1149058060632	278.27168894289184	1
338.9873268421638	270.5419198055893	1
400.8254742414427	86.13171324422844	1
426.22328478043227	129.19756986634266	1
398.61696897718275	122.57205346294046	1
458.24661111220166	136.9273390036452	1
435.0573058374721	170.05492102065614	1
514.5634953508306	175.57618469015796	1
520.0847585114806	262.81215066828673	1
577.5058953822396	238.51859052247875	1
495.791200604621	324.65030376670717	1
451.6210953194218	352.25662211421627	1
371.01065317393324	345.6311057108141	1
321.3192847280841	348.9438639125152	1
287.0874531320547	292.6269744835966	1
340.0915794742938	437.28408262454434	1
422.9105268840423	401.94799513973265	1
341.1958321064238	394.21822600243013	1
406.3467374020926	483.66269744835967	1
436.1615584696021	457.1606318347509	1
475.91465322628136	446.1181044957473	1
573.0888848537196	424.03304981774	1
611.7377269782689	439.4925880923451	1
565.3591164288098	558.7518833535844	1
354.44686369198354	520.1030376670717	1
405.7524998161353	82.38109601950418	1
460.0203253914682	142.67833680276712	1
515.7955905661158	180.36411229230643	1
574.5857349393932	240.66135307556937	1
526.3476677613195	266.2876804084561	1
496.19887577502345	320.55519711339275	1
461.527764990783	347.68895546586106	1
423.84177500791293	403.46390319037926	1
372.58882863120965	350.7038175050242	1
374.09626823052446	291.91400774134286	1
226.3671874976738	219.55731880142733	1
407.2599394154501	477.32802314987634	1
478.1096005832458	450.194264797408	1
580.6154933366523	418.53821338619497	1
612.2717249222633	435.11995460159227	1
568.555976542134	332.6146452700453	1
613.7791645215781	153.23035393983812	1
432.8864126038017	160.76750903774598	1
392.1855434223021	11.531838099170253	1
443.43848979900537	91.42568213699363	1
334.9028386483396	435.11995460159227	1
343.94747624422837	391.40445503372666	1
322.8433218538212	347.68895546586106	1
288.17221106958067	293.4214387609244	1
259.53085868259944	273.82483550636397	1
346.962355442858	278.3471285651087	1
322.8433218538212	234.63162899724307	1
455.49800659352377	572.2961773835154	1
500.7211945729678	585.8630565597496	1
393.6929830216169	123.08173354820666	1
492.2163757009497	319.8769041390983	1
579.2648429182874	234.92598861363288	1
329.6559851143551	436.2911217110325	1
342.24130567589793	392.24249884597634	1
353.77784952397883	521.2420372364979	1
408.31423862399765	483.4860747807355	1
497.4602592682592	592.5588552084937	1
518.4357935374973	178.29204492998923	1
288.75369328934096	291.55993229727653	1
320.216994693198	270.58439759963073	1
454.4604140163213	346.09632251115556	1
228.97342062201264	225.48699799969228	1
264.63182887971726	275.8282812740422	1
