508.171875	48.0	1
429.171875	36.0	1
138.171875	18.0	1
366.171875	71.0	1
472.171875	100.0	1
332.171875	254.0	1
579.171875	328.0	1
521.171875	276.0	1
521.171875	323.0	1
485.171875	351.0	1
445.171875	373.0	1
502.171875	396.0	1
526.171875	455.0	1
489.171875	479.0	1
322.171875	11.0	1
61.171875	11.0	1
307.171875	423.0	1
326.171875	394.0	1
128.171875	280.0	1
526.234375	275.0	1
516.234375	320.0	1
459.234375	320.0	1
446.234375	293.0	1
435.234375	261.0	1
328.234375	248.0	1
556.234375	191.0	1
560.234375	231.0	1
557.234375	308.0	1
560.234375	382.0	1
501.234375	416.0	1
481.234375	346.0	1
444.234375	362.0	1
456.234375	460.0	1
438.234375	425.0	1
440.234375	394.0	1
430.234375	487.0	1
494.234375	487.0	1
492.234375	458.0	1
523.234375	450.0	1
599.234375	446.0	1
519.234375	516.0	1
367.234375	510.0	1
323.234375	400.0	1
304.234375	186.0	1
415.234375	173.0	1
409.234375	313.0	1
492.234375	378.0	1
493.234375	172.0	1
522.234375	118.0	1
466.234375	109.0	1
370.234375	148.0	1
303.234375	320.0	1
307.234375	421.0	1
395.234375	549.0	1
410.234375	355.0	1
469.234375	253.0	1
578.234375	328.0	1
447.234375	494.0	1
334.234375	296.0	1
323.234375	141.0	1
222.234375	222.0	1
264.234375	318.0	1
299.234375	285.0	1
383.234375	92.0	1
370.8996770202486	146.23135878717582	1
330.35814504624244	249.96998414710902	1
381.63125901336787	292.89631188225377	1
417.40319899043214	315.55187374246907	1
442.44355697437715	253.54717812503773	1
521.1418249239185	273.8179439999672	1
518.7570289254476	319.1290677203978	1
454.3675369667319	317.93666972775486	1
405.4792189980774	353.7086095070422	1
446.0207509720836	296.4735058601825	1
555.7213669017474	236.853606228037	1
461.52192496214474	99.72783707410233	1
519.949426924683	121.19100094167472	1
425.7499849850805	32.95354948609936	1
327.9733490477715	5.5283956553124325	1
199.19436513034012	104.49742904467396	1
231.38911110969795	68.72548926538667	1
264.7762550882913	36.5307434640281	1
293.3938070699427	289.319117904325	1
329.16574704700696	397.82733523482983	1
308.8949810600039	424.0600910729739	1
347.05171703553907	487.25718468304814	1
294.58620506917816	396.63493724218694	1
366.1300850233067	503.95075658004885	1
406.67161699731287	477.71800074190486	1
436.4815669781998	425.25248906561677	1
456.75233296520287	462.216826837547	1
516.3722329269766	447.9080509258321	1
598.6476948742245	452.6776428964037	1
539.0277949124506	464.60162282283284	1
487.7546809453252	486.0647866904052	1
493.7166709415026	453.8700408890466	1
503.2558549353864	401.4045292127586	1
596.2628988757535	117.61380696374599	1
369.7072790210131	441.94606096261754	1
282.6622250768234	487.25718468304814	1
280.27742907835244	177.23370659589148	1
366.1300850233067	190.3500845149635	1
56.106605222083026	87.80385714767323	1
56.106605222083026	10.297987625884073	1
508.0254469323283	248.7775861544661	1
497.70631537433826	50.72504460829115	1
429.8715334051721	34.14330339289385	1
467.55752338804217	103.48513029364621	1
316.81356345656195	7.009545040425533	1
336.4102782476544	245.18364613431407	1
443.43848979900537	257.24309429096667	1
523.3327885626899	272.3174044867824	1
553.4815805489859	230.10933593849833	1
601.7196477270596	236.13906001682463	1
598.70476852843	114.03714743071721	1
446.453368997635	288.8991457021797	1
515.7955905661158	319.04776609381116	1
597.1973289291152	450.194264797408	1
515.7955905661158	442.65710969950015	1
556.4964597476155	389.8970240141451	1
458.5128857921534	314.52547303506645	1
372.58882863120965	148.7080608810934	1
440.42361060037575	426.07536848410285	1
460.0203253914682	468.28343703238687	1
389.1706642236725	469.79086805196846	1
369.57394943258004	507.47664354150777	1
604.7345269256892	297.94373181966915	1
375.60370782983927	68.81421684327003	1
336.4102782476544	41.68045849080171	1
541.4220637544676	471.29829907155005	1
408.7673790147649	322.0626281329743	1
374.09626823052446	398.94161013163455	1
465.97637953711154	24.29356014580802	1
330.15330578512396	7.729769137302552	1
143.53461095515726	24.29356014580802	1
88.32197934865825	30.919076549210207	1
60.71566354540874	15.459538274605103	1
424.01477951617227	37.54459295261239	1
504.6252216616609	46.37861482381531	1
326.840547888734	41.96160388821385	1
268.31515838584505	39.753098420413124	1
443.8913268945119	53.0041312272175	1
548.7953269468601	82.81895504252734	1
590.7569269677994	113.73803159173754	1
515.6677479829607	126.98906439854191	1
543.2740637862101	106.008262454435	1
468.1848848013715	103.79975698663426	1
369.90640054180324	71.7764277035237	1
304.7554952461344	45.274362089914945	1
482.54016901906124	157.90814094775212	1
563.1506111645498	141.34434993924665	1
557.6293480038998	237.41433778857837	1
520.0847585114806	269.43766707168896	1
524.5017690400005	323.5460510328068	1
446.0998321587719	293.73122721749695	1
460.45511637646166	323.5460510328068	1
474.81040059415136	352.25662211421627	1
335.67456894577384	257.2908869987849	1
373.2191584381932	149.0741190765492	1
335.67456894577384	186.6187120291616	1
321.3192847280841	151.28262454434994	1
258.37688469667523	98.27849331713244	1
234.08332678981566	119.25929526123937	1
161.20265306923696	102.6955042527339	1
228.56206362916575	71.7764277035237	1
279.35768470714487	185.51445929526125	1
473.7061479620214	182.20170109356013	1
418.4935163555224	171.1591737545565	1
596.2781901284492	242.93560145808019	1
599.5909480248391	189.9314702308627	1
604.0079585533591	301.46099635479953	1
571.9846322215897	326.8588092345079	1
558.7336006360299	384.27995139732684	1
503.5209690295309	378.758687727825	1
509.04223219018075	406.3650060753341	1
516.7720006150906	451.6393681652491	1
601.7994532890991	450.53511543134874	1
526.7102743042605	479.2456865127582	1
486.9571795475812	488.07970838396113	1
502.4167163974009	454.95212636695015	1
461.5593690085916	457.1606318347509	1
440.57856899812197	437.28408262454434	1
449.41259005516184	377.65443499392467	1
408.55524266635257	358.88213851761844	1
415.18075845913245	315.81628189550423	1
395.3042110807928	332.3800729040097	1
580.8186532786295	514.5817739975698	1
136.90909516237738	65.1509113001215	1
114.82404251977778	45.274362089914945	1
128.07507410533754	12.14678007290401	1
98.26025303782806	68.4636695018226	1
64.02842144179868	69.56792223572296	1
104.88576883060796	89.44447144592952	1
129.17932673746753	114.8422843256379	1
199.85149519378626	212.01652490887	1
301.44273734974445	293.73122721749695	1
272.732168914365	330.171567436209	1
316.9022741995642	374.34167679222355	1
308.0682531425243	419.6160388821385	1
271.627916282235	369.9246658566221	1
338.9873268421638	342.318347509113	1
438.370063733862	255.0823815309842	1
267.21090575371505	274.9589307411908	1
215.311032043606	266.12490886998785	1
232.9790741576857	294.8354799513973	1
367.6978952775433	507.95625759416765	1
354.44686369198354	481.4541919805589	1
327.94480052086396	395.3224787363305	1
318.00652683169415	463.7861482381531	1
399.7212216093127	479.2456865127582	1
536.6485479934303	468.20315917375456	1
596.2781901284492	448.326609963548	1
521.1890111436105	445.0138517618469	1
495.791200604621	454.95212636695015	1
491.37419007610106	489.1839611178615	1
451.6210953194218	461.5776427703524	1
435.0573058374721	431.7628189550425	1
443.8913268945119	369.9246658566221	1
367.6978952775433	511.26901579586877	1
376.5319163345831	398.6352369380316	1
327.94480052086396	396.42673147023083	1
308.0682531425243	425.13730255164035	1
301.44273734974445	397.53098420413124	1
288.1917057641847	489.1839611178615	1
331.2575584172539	251.76962332928312	1
446.0998321587719	295.9397326852977	1
457.14235848007166	319.12904009720535	1
514.5634953508306	315.81628189550423	1
555.42084273964	231.89307411907654	1
600.6952006569692	110.42527339003645	1
516.7720006150906	118.155042527339	1
463.7678742728516	102.6955042527339	1
428.4317900446922	33.12758201701094	1
323.5277899923441	7.729769137302552	1
368.80214790967324	144.65710814094774	1
284.87894786779475	178.88894289185905	1
251.75136890389535	196.5569866342649	1
204.26850572230617	102.6955042527339	1
224.14505310064584	67.35941676792224	1
133.59633726598744	279.3759416767922	1
154.57713727645708	106.008262454435	1
427.93087834305817	34.72118454119405	1
522.372494030884	126.38511172994635	1
516.8171048727766	273.6029341846091	1
452.93012955454145	315.268355634042	1
440.4305039487998	368.0445561366569	1
401.542779842048	355.5449297018271	1
419.59779460589704	318.0460503973375	1
390.4320015258332	337.48991374040617	1
515.4282575832497	449.9865516538749	1
497.3732428194007	456.9307885621137	1
458.48551871264885	458.31963594376145	1
440.4305039487998	426.37614616586296	1
365.4327503143499	504.15159953813765	1
534.8721196366256	466.65272023364804	1
593.2037057967533	447.2088568905794	1
519.5947994518302	322.2125925422808	1
337.6558045238129	248.6036813149494	1
552.9271344004746	233.32636011682402	1
466.81860244980993	101.38585886028663	1
443.2081985278536	291.6579501460299	1
333.4892626552323	340.2676085037017	1
376.5435286305647	398.59919853290774	1
323.76733162854435	398.59919853290774	1
308.49001144374904	426.37614616586296	1
297.37923312753423	394.4326563879644	1
318.21194247043695	376.3776404265435	1
401.542779842048	476.37465190518236	1
264.0468981788898	33.33233715954629	1
230.7145632302454	66.66467431909258	1
283.49076023226576	181.93900699585677	1
520.5333469644211	266.38929066010155	1
557.2405319355876	233.8772118787506	1
438.7287633143928	254.85274657639638	1
443.97264688170225	295.75503923680566	1
520.5333469644211	444.6813355900908	1
538.3625510932733	467.7544237575012	1
591.8501634798303	446.7788890598554	1
334.8998686816646	248.56008616710264	1
413.5581221913072	316.73057393445146	1
460.75307429709267	97.53623634405294	1
326.5096549739694	4.1951069395291585	1
257.290391885484	195.07247268810588	1
320.216994693198	393.2912755808586	1
400.9728016297643	477.1934143714418	1
372.655830366293	504.4616094783813	1
288.75369328934096	490.82751192491156	1
195.41256579123183	405.8765963994461	1
195.41256579123183	102.78012001846439	1
267.778159020103	31.46330204646869	1
522.6309003913448	315.6817971995692	1
404.11913177015003	354.48653639021387	1
388.3874810682215	329.31589475303895	1
488.0212688471021	478.24219110632407	1
563.5331922163589	345.0475457762733	1
601.2891539009873	113.26788736728729	1
511.0943565432639	40.902292660409294	1
491.1675989874878	57.68272041852593	1
370.55827693936925	149.97507308816742	1
457.60674415670695	461.46176334820746	1
503.7529195490306	397.4863825203878	1
600.2403771875255	295.75503923680566	1
598.1428237606017	239.12109555316204	1
367.3125	440.0	1
435.3125	432.0	1
521.3125	316.0	1
520.3125	267.0	1
575.3125	320.0	1
549.3125	383.0	1
503.3125	400.0	1
516.3125	447.0	1
488.3125	481.0	1
519.3125	515.0	1
572.3125	536.0	1
535.3125	460.0	1
591.3125	448.0	1
454.3125	457.0	1
444.3125	499.0	1
371.3125	503.0	1
566.3125	618.0	1
316.3125	459.0	1
288.3125	491.0	1
310.3125	418.0	1
328.3125	393.0	1
302.3125	316.0	1
299.3125	288.0	1
334.3125	249.0	1
413.3125	316.0	1
457.3125	318.0	1
444.3125	300.0	1
441.3125	373.0	1
402.3125	351.0	1
250.3125	456.0	1
269.3125	364.0	1
188.3125	284.0	1
206.3125	249.0	1
371.3125	147.0	1
469.3125	97.0	1
524.3125	119.0	1
518.3125	44.0	1
541.3125	184.0	1
555.3125	230.0	1
596.3125	241.0	1
597.3125	116.0	1
235.3125	114.0	1
203.3125	105.0	1
260.3125	34.0	1
264.3125	94.0	1
365.3125	69.0	1
252.3125	195.0	1
139.3125	63.0	1
159.3125	105.0	1
166.3125	247.0	1
132.3125	279.0	1
112.3125	49.0	1
334.3125	39.0	1
329.3125	181.0	1
212.3125	348.0	1
263.3125	322.0	1
494.3125	374.0	1
