174.171875	119.0	1
352.171875	104.0	1
266.171875	145.0	1
234.171875	159.0	1
408.171875	137.0	1
409.171875	235.0	1
220.171875	206.0	1
492.171875	418.0	1
249.171875	390.0	1
124.84375	69.0	1
356.84375	101.0	1
326.84375	129.0	1
294.84375	135.0	1
287.84375	89.0	1
226.84375	124.0	1
261.84375	141.0	1
231.84375	163.0	1
175.84375	121.0	1
282.84375	187.0	1
314.84375	215.0	1
396.84375	118.0	1
417.84375	146.0	1
362.84375	217.0	1
412.84375	234.0	1
490.84375	163.0	1
470.84375	219.0	1
587.84375	222.0	1
288.4052720998228	90.08845358728438	1
321.6687025488858	130.28176364930357	1
288.4052720998228	188.49276442877962	1
232.96622135138446	162.15921645711188	1
410.37118374638715	234.22997932693937	1
422.84497016478576	144.141525739655	1
350.77420419181595	105.33419188667096	1
173.36924179681324	128.8957874402684	1
264.8436755317365	142.75554953061985	1
234.3521976200954	130.28176364930357	1
583.618217335257	217.59826481851763	1
320.28272628017487	209.28240756430677	1
223.26438747040774	207.89643135527163	1
420.9389322222353	144.77213806028425	1
354.9398708466291	106.45010151491489	1
332.58535005811734	70.25706699984383	1
285.7473065012355	92.61158831797596	1
301.7148213501725	137.32063095424022	1
262.3282847227946	141.5786350148368	1
235.7157599745663	126.67562080274871	1
172.9102015687475	114.96610963610807	1
284.68280551130636	184.15867562080277	1
324.06934213868425	210.7712009995315	1
219.74824512562932	210.7712009995315	1
230.39325502492065	166.06215836326723	1
557.1950589331642	380.02686240824613	1
245.2962688839285	244.83523348430424	1
582.7430826914634	219.28720912072467	1
381.5523955948574	21.290020302982978	1
411.35842331287313	233.12572231766362	1
249.554272843645	398.12337966578167	1
340.03685698762126	391.7363735748868	1
491.19599755755803	169.25566140871467	1
368.77838371570783	223.54521318132126	1
203.78073027669234	324.6728096204904	1
229.3125	369.0	1
251.3125	396.0	1
275.3125	364.0	1
286.3125	410.0	1
319.3125	427.0	1
337.3125	395.0	1
371.3125	441.0	1
331.3125	470.0	1
448.3125	503.0	1
498.3125	523.0	1
616.3125	489.0	1
517.3125	431.0	1
558.3125	383.0	1
491.3125	336.0	1
512.3125	300.0	1
583.3125	222.0	1
492.3125	162.0	1
418.3125	232.0	1
367.3125	207.0	1
395.3125	115.0	1
174.3125	119.0	1
180.3125	61.0	1
38.3125	165.0	1
36.3125	187.0	1
63.3125	207.0	1
99.3125	104.0	1
121.3125	69.0	1
286.3125	90.0	1
260.3125	141.0	1
235.3125	157.0	1
289.3125	184.0	1
320.3125	210.0	1
326.3125	123.0	1
349.3125	97.0	1
376.3125	18.0	1
419.3125	139.0	1
216.3125	205.0	1
242.3125	242.0	1
158.3125	152.0	1
205.3125	339.0	1
148.3125	312.0	1
472.3125	221.0	1
395.3125	281.0	1
502.3125	416.0	1
617.3125	440.0	1
352.23835842772354	102.6955042527339	1
323.5277899923441	126.98906439854191	1
288.1917057641847	90.54872417982989	1
301.44273734974445	130.301822600243	1
321.3192847280841	210.91227217496962	1
495.791200604621	165.63791008505467	1
586.3399164392794	214.2250303766707	1
410.7637479306125	230.7888213851762	1
344.5085900028137	261.7078979343864	1
398.61696897718275	277.1674362089915	1
376.5319163345831	263.91640340218714	1
421.8062742519123	145.76136087484812	1
376.5319163345831	22.08505467800729	1
238.50033731833557	126.98906439854191	1
261.6896425930652	140.2400972053463	1
232.9790741576857	162.32515188335358	1
175.5579372869267	120.36354799513973	1
178.87069518331663	60.733900364520046	1
146.8473688515472	59.62964763061969	1
340.0915794742938	397.53098420413124	1
289.2959583963147	410.7820170109356	1
494.686947972491	417.40753341433776	1
283.77469523566475	189.9314702308627	1
588.921875	227.0	1
417.921875	141.0	1
396.921875	113.0	1
352.921875	101.0	1
323.921875	130.0	1
284.921875	98.0	1
335.921875	68.0	1
379.921875	29.0	1
299.921875	77.0	1
370.921875	218.0	1
417.921875	242.0	1
323.921875	205.0	1
285.921875	195.0	1
263.921875	141.0	1
240.921875	158.0	1
350.921875	261.0	1
174.921875	121.0	1
176.921875	56.0	1
486.921875	165.0	1
469.921875	221.0	1
443.921875	231.0	1
447.921875	263.0	1
398.921875	279.0	1
246.921875	244.0	1
314.921875	55.0	1
490.921875	241.0	1
465.921875	245.0	1
487.921875	342.0	1
545.921875	354.0	1
465.921875	377.0	1
447.921875	390.0	1
443.921875	343.0	1
497.921875	414.0	1
556.921875	381.0	1
528.921875	411.0	1
514.921875	437.0	1
572.921875	397.0	1
576.921875	326.0	1
341.921875	400.0	1
290.921875	411.0	1
249.921875	398.0	1
263.921875	368.0	1
226.921875	374.0	1
210.921875	348.0	1
278.921875	360.0	1
322.921875	415.0	1
311.921875	445.0	1
366.921875	371.0	1
278.921875	61.0	1
257.921875	40.0	1
243.921875	15.0	1
197.921875	82.0	1
124.921875	73.0	1
153.921875	62.0	1
238.921875	135.0	1
222.921875	217.0	1
279.921875	230.0	1
609.921875	340.0	1
514.921875	308.0	1
203.921875	328.0	1
360.921875	444.0	1
370.921875	348.0	1
297.921875	367.0	1
273.921875	323.0	1
270.921875	301.0	1
237.921875	265.0	1
272.921875	259.0	1
585.921875	353.0	1
560.921875	339.0	1
461.921875	425.0	1
446.921875	449.0	1
420.921875	385.0	1
447.921875	329.0	1
477.921875	302.0	1
408.921875	371.0	1
501.921875	298.0	1
419.921875	413.0	1
301.921875	353.0	1
307.921875	327.0	1
199.921875	233.0	1
335.921875	37.0	1
157.921875	160.0	1
186.921875	182.0	1
198.921875	210.0	1
172.921875	212.0	1
302.921875	141.0	1
297.921875	48.0	1
583.4375	220.0	1
494.4375	165.0	1
354.4375	105.0	1
404.4375	117.0	1
299.4375	134.0	1
327.4375	126.0	1
284.4375	89.0	1
263.4375	143.0	1
278.4375	188.0	1
238.4375	126.0	1
235.4375	166.0	1
177.4375	119.0	1
382.4375	18.0	1
413.4375	234.0	1
352.4375	268.0	1
320.4375	207.0	1
331.4375	63.0	1
320.2125912995431	208.5070622186394	1
258.2078953392983	144.11757061592223	1
235.55233335382428	128.6163967115644	1
234.35993535458883	159.61874452028007	1
283.2482533232433	188.2362963437099	1
352.4073372789009	102.38364087342038	1
422.758819233794	142.9251726232793	1
491.9179031894516	167.96553046878043	1
588.5021411275251	218.04624615978267	1
378.6400932620814	23.68537335898831	1
285.6330493217143	91.65205893963419	1
299.94182531254	136.96318266006477	1
177.124831391286	119.07721277042113	1
158.04646340351837	157.23394853499425	1
149.69967740887003	55.88011916034689	1
119.88972742798315	68.9964970794189	1
323.78978529724947	129.80879470420732	1
220.0511593637631	212.0842561965681	1
223.62835336146955	367.0959952401464	1
251.05350734388549	393.32875107829045	1
289.2102433194207	407.63752699000537	1
133.00610541957337	269.3193598434278	1
407.2576452437328	234.7398180567834	1
345.2529492834881	262.16497188757035	1
335.7137652896042	392.13635308564756	1
488.34070919174513	337.2860454240737	1
540.806221158106	350.4024233431457	1
490.7255051902161	415.98431293850575	1
527.6898431665159	410.02232297529116	1
563.4617831435801	377.82757717393264	1
606.3881111160572	334.90124943878783	1
606.3881111160572	307.4760956080009	1
609.9653051137636	487.52819249708034	1
614.7348971107056	443.4094667692927	1
582.5401511313477	487.52819249708034	1
604.0033151175862	519.7229382984389	1
186.66401538516982	313.43808557121554	1
297.557029314069	355.1720153137173	1
202.16518937523097	324.16966750500166	1
205.74238337293738	342.0556373946453	1
475.2243312001549	530.4545202322251	1
