560.8784761604085	32.51207878135098	1
461.24468838152796	20.97553469764579	1
467.53734866229934	97.53623634405294	1
503.195756920004	154.17018002769657	1
530.4639514700134	147.87751961840283	1
554.5858158796372	167.80427758116633	1
607.0246515527322	233.8772118787506	1
562.9760295873323	262.1941837205724	1
525.2200679027039	206.60901677181107	1
489.5616596449993	201.36513309739962	1
431.87894040459474	192.97491921834128	1
453.90325138729463	266.38929066010155	1
583.9515638565704	318.82812740421605	1
436.0740472584423	303.0964763809817	1
514.7323007680849	309.3891367902755	1
376.293774591114	166.75550084628406	1
327.00126905840466	57.68272041852593	1
307.0745115026285	84.95091552546546	1
246.24546212183833	51.390060009232194	1
273.51365667184774	168.85305431604863	1
228.416257992986	47.19495306970303	1
214.7821607179813	157.31651023234343	1
99.41672223717222	232.8284351438683	1
200.0992867295147	330.3646714879212	1
153.95311133719105	362.87675026927224	1
116.19714965256264	376.510847822742	1
427.6838335507471	235.97476534851518	1
342.7329197603332	188.77981227881213	1
418.24484312959004	256.950300046161	1
155.00188805065295	54.53639021387906	1
196.95295658912897	178.29204492998923	1
86.83140167562942	141.5848592091091	1
98.36794552371033	191.92614248345902	1
191.70907302181948	239.12109555316204	1
260.92833611030494	302.04769964609943	1
318.6110553507095	319.8769041390983	1
367.9035608834188	316.73057393445146	1
377.3425513045759	268.48684412986614	1
274.56243338530965	262.1941837205724	1
571.3662432950275	380.7059547622711	1
592.3417775642655	338.7548853669796	1
597.5856611315751	375.46207108785967	1
500.0494267796183	353.4377596553316	1
615.4148652604273	384.9010617018003	1
469.63490208922315	325.12078781350976	1
420.34239655651385	329.31589475303895	1
292.39163751416197	311.48669026004	1
296.58674436800953	238.07231881827974	1
233.6601415602955	402.73026619479924	1
265.1234429641525	463.55931681797205	1
317.5622786372476	476.1446376365595	1
285.05020051992864	476.1446376365595	1
336.44025947956175	345.0475457762733	1
450.7569212469089	538.0224649946146	1
155.00188805065295	326.1695645483921	1
122.48980993333404	199.26757962763503	1
71.0997509737009	112.21911063240499	1
70.05097426023902	81.80458532081859	1
212.6846072910575	17.829204492998922	1
310.22084164301424	119.56054777658102	1
490.9138853077479	206.14057686922433	1
460.3745409107155	22.904508541024924	1
320.4025457576502	376.6519182301877	1
359.84919893715045	402.1013721646598	1
434.9250872465218	383.0142817138057	1
367.48403503640856	315.5732287874545	1
465.46443164355424	327.025483057967	1
372.5739257692473	265.94679361523384	1
427.2902511472637	230.31755810697285	1
419.6554150480056	257.0394847381686	1
529.0880658040385	147.6068328199384	1
558.3549375178611	162.87650518062168	1
440.01497797936054	304.12097451694206	1
277.138474528521	165.4214505740689	1
512.5459209223125	310.48333800056	1
177.8856052381656	108.16017922150658	1
232.60193061618202	48.35396247549706	1
208.42494963519803	77.62083450014002	1
157.52604230681067	54.716325959115096	1
154.98109694039127	324.48053766451983	1
568.5347189835386	374.10697283674045	1
315.3126550248115	316.8457014841781	1
466.87756340005615	92.8444569322771	1
491.9179213840011	204.92986824071065	1
432.29802142222735	195.39068429956737	1
460.91557340387874	268.1269618507849	1
443.0296034153466	307.4760956080009	1
457.3383794061723	16.530985403130853	1
553.9226173442459	163.1959384982088	1
570.6161893335425	257.3953799169987	1
583.7325673251328	320.5924735270729	1
569.423791334307	376.6351791812897	1
321.40500749332807	48.72573120448943	1
273.7090875239091	164.3883364908517	1
174.74005358736457	113.11522280720656	1
262.97750553078976	303.8989016300722	1
278.47867952085096	259.7801759022845	1
367.9085294635116	270.51175783607073	1
361.9465394673343	314.6304835638584	1
500.26470737864946	150.0795605791368	1
531.2670553587718	148.88716258649387	1
514.5734833694752	308.66849360064384	1
501.45710537788494	352.7872193284315	1
316.6354154963862	317.0152795491442	1
496.687513380943	454.14104870307887	1
426.33603142604994	475.6042125706512	1
241.51434154455123	17.723383395773762	1
252.2459235376705	48.72573120448943	1
224.82076955525457	46.34093521920361	1
86.50260164393939	142.9251726232793	1
198.5880135720741	177.5047144099237	1
200.97280957054505	327.7468614829304	1
152.08449160189053	328.9392594755733	1
66.2318356569363	82.11287499849091	1
164.0084715942453	212.0842561965681	1
115.1201536255908	377.82757717393264	1
75.77101965082011	110.73042682192074	1
417.9892454314016	253.81818593906996	1
524.1126673633589	206.12226623335357	1
607.5805273098423	229.97022608621177	1
524.1126673633589	454.14104870307887	1
360.7541414680988	401.67553702679083	1
402.4880714413404	523.3001322763677	1
447.7991954122885	543.5708981512971	1
559.8846073404233	30.839761314845774	1
189.0488295781903	233.54742006414048	1
469.2891374335015	97.17424058323208	1
493.58269534036106	203.18250303766706	1
436.1615584696021	193.2442284325638	1
507.9379795580508	156.80388821385176	1
531.1272848327803	150.17837181044956	1
553.21233747538	165.63791008505467	1
566.4633690609397	260.603645200486	1
373.2191584381932	174.4719319562576	1
457.14235848007166	271.64617253948967	1
499.10395850101094	352.25662211421627	1
515.6677479829607	313.6077764277035	1
483.64442165119124	319.12904009720535	1
459.35086374433166	323.5460510328068	1
436.1615584696021	304.7737545565006	1
585.2356638071494	322.44179829890646	1
377.6361689667131	269.43766707168896	1
274.94067417862493	167.8464155528554	1
321.3192847280841	56.31688942891859	1
177.76644255118666	100.48699878493316	1
100.46875830208803	119.25929526123937	1
103.78151619847797	89.44447144592952	1
319.11077946382414	321.33754556500605	1
261.6896425930652	300.3567436208991	1
196.53873729739632	183.3059538274605	1
464.87212690498154	22.08505467800729	1
314.6937689353042	120.36354799513973	1
319.11077946382414	163.42940461725394	1
452.7253479515518	536.6668286755771	1
525.6060216721305	208.70376670716888	1
446.0998321587719	248.456865127582	1
419.59776898765233	258.3951397326853	1
428.4317900446922	231.89307411907654	1
279.35768470714487	260.603645200486	1
363.28088474902336	312.5035236938032	1
494.6278130767527	203.03343667241975	1
441.9472448402054	304.1230116144955	1
117.321040571752	381.0080404436799	1
370.7572877637902	268.5280908602435	1
275.3627452813938	167.43851591816772	1
457.6090353970168	268.5280908602435	1
467.5756293877149	93.40108074932351	1
323.77191609335614	50.68717584422109	1
465.97637953711154	93.86148238153099	1
459.35086374433166	20.980801944106926	1
533.3357900970403	144.65710814094774	1
500.20821113314094	153.49113001215068	1
565.3591164288099	34.231834750911304	1
556.5250953717699	163.42940461725394	1
525.6060216721305	204.28675577156744	1
491.37419007610106	202.0782503037667	1
430.64029530895215	188.82721749696233	1
380.9489268631031	171.15917375455646	1
327.94480052086396	56.31688942891859	1
251.75136890389535	46.37861482381531	1
229.66631626129575	46.37861482381531	1
103.78151619847797	86.13171324422844	1
87.21772671652826	145.76136087484812	1
96.05174777356811	226.37181044957472	1
197.6429899295263	177.7846901579587	1
279.35768470714487	164.53365735115432	1
456.0381058479417	269.43766707168896	1
566.4633690609397	259.4993924665857	1
570.8803795894597	373.2374240583232	1
601.7994532890991	371.0289185905225	1
500.20821113314094	346.73535844471445	1
616.1547375067888	384.27995139732684	1
514.5634953508306	312.5035236938032	1
375.4276637024531	268.33341433778855	1
365.4893900132833	315.81628189550423	1
153.47288464432708	326.8588092345079	1
230.3125	365.0	1
199.3125	329.0	1
323.3125	370.0	1
456.3125	265.0	1
431.3125	238.0	1
491.3125	198.0	1
464.3125	91.0	1
532.3125	150.0	1
578.3125	173.0	1
525.3125	205.0	1
534.3125	242.0	1
566.3125	259.0	1
585.3125	325.0	1
514.3125	310.0	1
493.3125	352.0	1
480.3125	384.0	1
431.3125	381.0	1
434.3125	307.0	1
446.3125	414.0	1
481.3125	541.0	1
453.3125	541.0	1
427.3125	478.0	1
251.3125	234.0	1
278.3125	259.0	1
267.3125	303.0	1
157.3125	359.0	1
152.3125	324.0	1
98.3125	197.0	1
98.3125	229.0	1
86.3125	149.0	1
35.3125	76.0	1
164.3125	58.0	1
207.3125	50.0	1
233.3125	48.0	1
282.3125	65.0	1
322.3125	58.0	1
181.3125	107.0	1
280.3125	168.0	1
200.3125	175.0	1
153.3125	135.0	1
48.3125	205.0	1
131.3125	277.0	1
185.3125	222.0	1
213.3125	211.0	1
435.3125	197.0	1
408.3125	217.0	1
342.3125	196.0	1
364.3125	310.0	1
327.3125	346.0	1
285.3125	349.0	1
314.3125	318.0	1
271.3125	364.0	1
477.3125	319.0	1
382.3125	171.0	1
344.3125	245.0	1
315.3125	170.0	1
230.3125	438.0	1
233.3125	402.0	1
194.3125	372.0	1
272.3125	472.0	1
301.3125	440.0	1
300.3125	404.0	1
359.3125	400.0	1
610.3125	386.0	1
543.3125	430.0	1
567.3125	498.0	1
599.3125	555.0	1
469.064962987357	95.94797519573834	1
461.527764990783	23.591286255822837	1
328.87308025108035	53.7399066474543	1
458.5128857921534	266.2876804084561	1
496.19887577502345	198.45328452728532	1
535.3923053572083	148.7080608810934	1
500.7211945729678	160.76750903774598	1
570.0634161414488	252.72080123222193	1
610.7642853229485	221.06474982100892	1
386.15578502504286	168.30466413565384	1
175.11424112097052	101.97769927406463	1
279.1275734736919	166.79723311607228	1
585.1378121345967	316.032904054648	1
437.40873140174614	195.43842248812217	1
591.167570531856	169.81209515523543	1
378.6185870284688	269.30254244761926	1
431.3789730044869	234.63162899724307	1
457.234375	271.0	1
425.234375	230.0	1
434.234375	190.0	1
497.234375	210.0	1
534.234375	208.0	1
582.234375	311.0	1
510.234375	312.0	1
437.234375	302.0	1
519.234375	455.0	1
425.234375	480.0	1
399.234375	425.0	1
356.234375	406.0	1
319.234375	356.0	1
314.234375	324.0	1
377.234375	266.0	1
472.234375	92.0	1
245.234375	27.0	1
171.234375	57.0	1
184.234375	117.0	1
62.234375	77.0	1
195.234375	176.0	1
277.234375	164.0	1
115.234375	384.0	1
197.234375	330.0	1
146.234375	324.0	1
277.234375	259.0	1
235.234375	367.0	1
479.234375	318.0	1
495.234375	353.0	1
561.234375	378.0	1
598.234375	376.0	1
385.234375	447.0	1
270.234375	465.0	1
157.234375	356.0	1
130.234375	292.0	1
176.234375	222.0	1
525.234375	157.0	1
550.234375	162.0	1
378.234375	172.0	1
313.234375	123.0	1
283.234375	117.0	1
534.171875	144.0	1
501.171875	156.0	1
495.171875	203.0	1
429.171875	190.0	1
458.171875	268.0	1
434.171875	237.0	1
565.171875	258.0	1
439.171875	305.0	1
372.171875	265.0	1
366.171875	307.0	1
329.171875	344.0	1
154.171875	321.0	1
116.171875	380.0	1
274.171875	165.0	1
