541.0655585219502	120.36354799513973	1
510.14648482231075	103.79975698663426	1
514.5634953508306	85.02746051032808	1
523.3975164078705	47.48286755771567	1
385.365937391623	61.83815309842041	1
379.84467423097306	102.6955042527339	1
444.9955795266419	111.52952612393682	1
497.99970586888094	128.09331713244228	1
481.43591638693124	189.9314702308627	1
520.0847585114806	216.43353584447144	1
545.4825690504701	175.57618469015796	1
585.2356638071494	236.310085054678	1
537.7528006255602	271.64617253948967	1
501.31246376527093	242.93560145808019	1
450.5168426872918	218.64204131227217	1
369.90640054180324	161.22089914945323	1
303.65124261400445	91.65297691373026	1
295.92147418909457	207.59951397326853	1
576.4016427501095	395.3224787363305	1
554.3165901075099	313.6077764277035	1
599.5909480248391	494.7052247873633	1
591.8611795999293	292.6269744835966	1
474.1639817186919	61.741058878650634	1
416.68092826251876	36.19303451507106	1
367.71388272577866	23.419022333281276	1
383.6813975747157	59.61205684835234	1
430.5194411315975	44.70904263626425	1
512.4860173561407	95.8050913634234	1
535.9050391345816	119.22411369670468	1
547.614550023802	176.7071685147587	1
588.065587641109	239.5127284085585	1
589.1300886310381	298.0602842417617	1
498.64750448706195	238.44822739340935	1
482.67998963812494	188.41667968139936	1
518.8730232957155	217.15820709042637	1
579.549579721676	393.8653756051851	1
594.4525935806838	430.05841012025616	1
544.4210470540146	414.0908948930189	1
614.6781123893373	415.1553959081681	1
601.9041005101877	498.18647508980166	1
555.066056953306	317.2213025144464	1
323.00484114875513	171.38466343901297	1
296.39231640052685	103.25659846946743	1
269.7797916522985	199.06168983289083	1
242.1027659141411	141.5786350148368	1
220.81274611555844	151.15914415117913	1
255.94127878321981	124.54661877245042	1
383.6813975747157	106.45010151491489	1
432.6484431114558	154.35264719662658	1
442.2289520208179	108.57910354521319	1
604.0331024900461	129.86912384819615	1
448.61595796039273	219.28720912072467	1
536.9695401245107	270.38325784788384	1
515.679520325928	261.8672497266906	1
472.0349797388336	230.9967202873653	1
394.326407474007	219.28720912072467	1
367.71388272577866	161.80415430267064	1
500.7765064669202	309.76979540840233	1
494.38950052734543	278.899265969077	1
464.5834728093297	253.35124160549742	1
475.228482708621	281.0282679993753	1
496.51850250720366	401.31688271122914	1
396.45540945386523	381.0913634233953	1
507.163512406495	436.44541621115104	1
528.4535322050776	395.9943776354834	1
550.8080529935894	439.6389192565985	1
614.6781123893373	550.3470248321099	1
357.0688728264874	273.57676089333125	1
412.42292430280224	307.64079337810404	1
395.3909084639361	288.4797751054193	1
428.3904391517392	246.96423551460254	1
410.29392232294396	254.41574262064657	1
427.3259381618101	283.1572700296736	1
439.0354490510305	342.76932687802594	1
488.0024945877706	332.12431672653446	1
459.26096785968406	333.1888177416836	1
500.7765064669202	364.0593471810089	1
526.3245302252194	369.38185225675466	1
547.614550023802	369.38185225675466	1
608.2911064497625	353.4143370295174	1
460.3254688496132	455.6064344838357	1
491.19599755755803	486.476963923161	1
517.8085223057864	496.05747305950337	1
544.4210470540146	517.3474933624864	1
573.1625737821012	474.7674527565204	1
555.066056953306	466.25144463532723	1
590.1945896209673	566.3145400593472	1
320.87583916889685	38.32203654536936	1
356.0043718365582	128.804622833047	1
342.1658589674795	112.83710760580978	1
343.23035995740867	77.70857410588786	1
349.6173658969834	149.03014212088084	1
276.1667975918733	147.9656411057317	1
258.0702807630781	168.19116039356553	1
284.68280551130636	173.51366546931126	1
291.06981145088116	202.25519287833828	1
352.8108688667708	199.06168983289083	1
295.3278154105977	226.7387162267687	1
359.1978748063456	227.80321724191785	1
327.26284510847165	227.80321724191785	1
338.97235599769215	248.02873652975168	1
308.1018272897473	241.6417304388568	1
276.1667975918733	245.8997344994534	1
291.06981145088116	296.99578322661256	1
336.84335401783386	359.8013431204123	1
346.42386292719607	307.64079337810404	1
303.8438233300308	282.09276901452444	1
262.3282847227946	79.83757613618617	1
264.4572867026529	47.9025456817117	1
300.65032036024337	51.09604872715914	1
234.65125898463717	43.6445416211151	1
204.84523126662148	85.16008121193191	1
198.45822532704668	106.45010151491489	1
559.234375	367.0	1
592.234375	291.0	1
587.234375	247.0	1
571.234375	187.0	1
595.234375	157.0	1
580.234375	105.0	1
536.234375	117.0	1
544.234375	180.0	1
502.234375	100.0	1
528.234375	47.0	1
478.234375	59.0	1
371.234375	29.0	1
393.234375	65.0	1
433.234375	146.0	1
448.234375	114.0	1
375.234375	118.0	1
337.234375	73.0	1
427.234375	168.0	1
370.234375	159.0	1
464.234375	155.0	1
480.234375	183.0	1
606.234375	130.0	1
517.234375	86.0	1
497.234375	48.0	1
351.234375	102.0	1
301.234375	90.0	1
256.234375	129.0	1
264.234375	84.0	1
324.234375	37.0	1
293.234375	208.0	1
266.234375	201.0	1
223.234375	157.0	1
345.234375	203.0	1
450.234375	221.0	1
428.234375	246.0	1
390.234375	261.0	1
358.234375	271.0	1
355.234375	322.0	1
323.234375	255.0	1
500.234375	242.0	1
525.234375	264.0	1
478.234375	223.0	1
561.234375	211.0	1
515.234375	155.0	1
313.234375	153.0	1
295.234375	238.0	1
338.234375	359.0	1
390.234375	381.0	1
413.234375	303.0	1
472.234375	249.0	1
489.234375	330.0	1
552.234375	319.0	1
596.234375	324.0	1
536.234375	361.0	1
579.234375	394.0	1
545.234375	416.0	1
508.234375	442.0	1
501.234375	368.0	1
419.234375	371.0	1
510.234375	304.0	1
477.234375	289.0	1
429.234375	283.0	1
414.234375	220.0	1
341.234375	152.0	1
341.234375	124.0	1
253.234375	168.0	1
408.234375	343.0	1
338.234375	303.0	1
496.234375	393.0	1
600.234375	430.0	1
454.234375	449.0	1
578.234375	494.0	1
436.234375	356.0	1
432.234375	327.0	1
499.234375	274.0	1
356.234375	139.0	1
295.234375	53.0	1
509.8728684251423	83.33084289886573	1
537.6498142156793	118.05202744005977	1
501.53978468798124	134.71819601983293	1
466.81860244980993	156.9397541261971	1
518.2059521623034	216.66019153705088	1
498.7620901089275	243.04829178835837	1
447.37474039643405	222.21558106364193	1
486.26246450318587	188.88324390409565	1
580.7040801910117	398.59919853290774	1
586.2594693491191	374.9887930448958	1
536.2609669261525	272.2140868029614	1
362.6550557352962	283.32486585614345	1
357.09966657718877	273.6029341846091	1
369.5992921829304	163.88399103443592	1
351.54427741908137	152.77321198125384	1
340.43349910286656	306.9352713441554	1
291.82384396942683	204.16056510222103	1
383.48776507819895	61.10928479250153	1
535.2162209528876	118.51177104169874	1
474.3871715720974	57.68272041852593	1
497.4602592682592	239.12109555316204	1
574.0209593509779	395.3888290506232	1
583.459949772135	241.21864902292663	1
486.9724921336402	188.77981227881213	1
500.6065894086449	137.38975226957993	1
545.7039880875067	176.19449146022467	1
519.4845702509591	209.75534697645793	1
365.3143933720597	160.46284043699032	1
439.7775400278547	106.97522695799354	1
539.9029418911705	121.6581012463456	1
543.0492720315561	175.14571472534237	1
591.2930008508037	148.92629635328512	1
508.43964048731345	103.82889675334667	1
501.0982034930802	137.38975226957993	1
608.073428266194	130.04831512540392	1
575.5613501488751	121.6581012463456	1
471.73245551614696	58.73149715340822	1
509.48841720077536	81.80458532081859	1
518.9274076219325	53.48761347899677	1
451.8056979603708	42.99984613017388	1
411.9521828488186	35.658408985997845	1
388.8790951526568	62.92660409293738	1
428.73261026420903	48.24372980458532	1
443.41548425267564	111.1703338975227	1
380.4888814449616	102.78012001846439	1
371.0498910238045	60.8290506231728	1
370.0011143103426	23.073088167410372	1
297.63552108147144	2.0975534697645792	1
323.85493891801895	39.853515925527006	1
429.78138697767093	166.75550084628406	1
465.4397952353755	152.072626557932	1
484.31777607768976	191.92614248345902	1
522.0737377623182	219.19433759039853	1
581.8540104296466	240.16987228804433	1
590.2442241373417	291.55993229727653	1
612.2685351200416	413.21803354362214	1
591.2930008508037	428.9496845668565	1
597.5856611315751	501.31527927373446	1
574.5125734354132	396.43760578550547	1
547.2443788854038	413.21803354362214	1
515.7810774815467	256.950300046161	1
258.83078268338113	77.60947838128943	1
228.416257992986	52.43883674411448	1
160.24577161796248	54.53639021387906	1
242.0503552679907	140.53608247422682	1
261.97711282376684	197.17002615787044	1
290.29408408723816	202.4139098322819	1
353.22068689495217	267.4380673949839	1
339.58658961994746	304.145253115864	1
338.53781290648556	362.87675026927224	1
395.1717554334282	220.24311432528083	1
363.7084540295712	159.41406370210802	1
334.342706052638	72.36559470687799	1
351.12313346802836	94.38990613940607	1
319.6598320641714	170.95060778581322	1
292.39163751416197	101.73134328358209	1
258.83078268338113	54.53639021387906	1
236.80647170068121	95.43868287428836	1
258.83078268338113	131.0970918602862	1
247.2942388353002	170.95060778581322	1
222.1235977122146	159.41406370210802	1
168.63598532565766	90.19479919987691	1
450.7569212469089	222.3406677950454	1
578.7076802892608	196.12124942298817	1
555.634592593099	319.8769041390983	1
593.3905542777275	326.1695645483921	1
572.4150200084894	295.75503923680566	1
499.00065006615637	308.34036005539315	1
503.195756920004	439.43745191567933	1
521.0249610488563	491.87628865979383	1
435.0252705449804	425.8033543622096	1
489.5616596449993	492.92506539467615	1
465.4397952353755	465.6568702877366	1
396.2205321468901	400.63271272503465	1
451.8056979603708	446.7788890598554	1
502.1469802065421	372.3157408832128	1
533.610281610399	269.53562086474847	1
495.85431992577065	242.2674257578089	1
552.4882624527133	375.46207108785967	1
612.2685351200416	348.19387598092015	1
574.5125734354132	491.87628865979383	1
551.4394857392514	550.6077858132021	1
466.48857194883743	281.07216494845363	1
297.63552108147144	321.9744576088629	1
345.8792499007189	153.12140329281428	1
321.2675748877186	34.27975334245495	1
265.92951609220853	56.67849202160193	1
334.44330317236387	75.1245121103112	1
387.14621631094485	56.67849202160193	1
484.6466056173198	6.610723209391041	1
541.3022372412944	121.23956233208439	1
583.4645677521593	117.28684374164669	1
584.7821405806237	241.13869290869468	1
592.6875775514109	296.4767531748225	1
525.4913632997201	214.78723563911	1
344.98388580008003	119.92198946860516	1
346.3014586285446	310.97005467309407	1
528.1265089566491	391.34199934532734	1
579.5118492667657	395.29471793576505	1
558.4306840113333	310.97005467309407	1
497.82233390196507	241.13869290869468	1
510.9980621866103	93.57053219902048	1
431.94369247873874	158.13160250950295	1
347.6190314570091	198.9763612773592	1
364.74747822704796	21.104024707662614	1
594.0051503798754	147.59101960166907	1
396.36922611019656	221.37509995650618	1
462.24786753342283	250.3617029530493	1
536.0319459274363	267.49015017827935	1
554.4779655259397	364.99054207574267	1
487.28175127424885	322.8282104444072	1
359.4771869131898	262.21985872436244	1
470.15330450421	158.13160250950295	1
476.7411686465326	52.72577343116423	1
421.4031098510226	30.32703475201725	1
364.74747822704796	156.8140296460237	1
595.32272320834	429.55161238622514	1
607.1808786645207	342.5918033965957	1
484.6466056173198	184.48305977908763	1
570.288839467514	179.21276832517069	1
305.4567009461443	83.02994929118661	1
252.75378780756324	81.71237642770737	1
450.3897120772421	221.37509995650618	1
264.61194326374397	122.55713519556363	1
495.187188245036	276.713160222634	1
430.62611965027423	276.713160222634	1
293.59854548996356	197.65878841387996	1
466.2005860188164	467.7612254271229	1
604.5457330075916	490.1599641062699	1
412.18010005177086	307.01733608265636	1
418.7679641940935	366.3081149392219	1
500.4574795588941	405.83530084359893	1
393.7340804532675	276.713160222634	1
223.76718558134368	46.13790911376806	1
297.55126397535713	47.455481977247295	1
543.9373828982234	175.26004973473297	1
542.619810069759	436.1394767036213	1
