262.6580508893629	194.43863343068668	1
222.3814794930843	174.994770087618	1
218.21493762450373	98.6081640969911	1
418.2089473163702	115.27433267676425	1
461.2632132917025	61.10928479250153	1
441.81935123832665	88.88623242545677	1
408.48701628968223	333.3233715954629	1
452.93012955454145	337.48991374040617	1
483.48476992413214	359.7114718467704	1
525.1501886099377	366.6557087550092	1
482.0959226346053	388.87726686137336	1
566.8156072957432	468.04156761529583	1
515.4282575832497	466.65272023364804	1
527.9278831889914	505.5404469197854	1
484.87361721365903	527.7620050261496	1
373.765834051511	398.59919853290774	1
482.0959226346053	423.59845140256743	1
259.88035631030925	316.65720301568973	1
312.65655331232955	306.9352713441554	1
311.2677060228027	186.10554914080012	1
209.8818538873427	30.554642396250767	1
182.10490809680564	133.32934863818517	1
362.6550557352962	268.04754465801807	1
590.4260112176996	240.27059702506284	1
562.6490654271627	265.26984989472254	1
561.2602181376358	252.7702234598927	1
486.9724921336402	67.12171103246654	1
439.7775400278547	87.04846899523004	1
409.36301533745956	114.31666410216957	1
367.41194679898354	32.51207878135098	1
300.29023713742185	192.97491921834128	1
177.5833616623795	131.0970918602862	1
350.6315193835931	269.53562086474847	1
367.41194679898354	203.46268656716418	1
434.53365646054516	209.75534697645793	1
454.4604140163213	333.51100169256813	1
411.46056876438337	330.3646714879212	1
360.0705098047502	463.55931681797205	1
371.6070536528311	353.4377596553316	1
567.7282990702065	464.6080935528543	1
513.1919099701877	466.7056470226189	1
474.3871715720974	428.9496845668565	1
485.92371542017827	359.7304200646253	1
427.1922194663119	157.31651023234343	1
459.70429758363076	58.73149715340822	1
202.75400278546513	35.658408985997845	1
257.290391885484	314.63302046468687	1
179.6809150893033	233.8772118787506	1
367.41194679898354	393.2912755808586	1
424.04588932592617	485.5836282505001	1
395.72891806245485	497.1201723342053	1
526.8260072451924	503.41283274349905	1
202.6226618159098	33.65095038262157	1
159.99812878803826	45.98963218958282	1
110.6434063347133	118.90002468526289	1
136.44246579895133	141.3339916070106	1
154.38963760016043	159.2811651444088	1
180.18869706439844	124.50851641569983	1
151.0245428874337	93.10096272525303	1
410.13683576738964	120.02172303135028	1
419.1104216679942	154.79437176005925	1
449.3962740825345	58.32831399654406	1
553.7142101770622	167.13305356702048	1
548.1057189891844	201.90570229572944	1
432.570800518901	212.0009874105159	1
588.4868555419048	240.04344606270055	1
575.026476690998	383.62083436188595	1
544.7406242764577	366.7953591705752	1
513.3330736243419	371.2821525549247	1
485.2906176849526	355.5783757097013	1
455.00476527041235	335.38780548012835	1
413.50193048011636	328.65761540360404	1
393.3113622037562	271.45099975314736	1
312.54908909831533	190.6887188348556	1
322.6443732364954	298.37176005924465	1
358.5387168389136	264.72080967662305	1
301.3321067225597	307.34534682794373	1
253.0990825068103	310.7104418662059	1
269.9245560704438	404.93310293754627	1
309.1839943855886	372.4038509010121	1
368.6340009770937	393.7161194766724	1
480.8038247346504	391.47272278449765	1
518.9415648122197	491.30387558627496	1
568.2962872655446	471.113305356702	1
326.00946794922214	458.7746235497408	1
451.63967055768563	473.3567020488768	1
452.7613687952612	500.2774623549741	1
478.56042825949925	532.8067143915083	1
223.93492832984555	173.8632436435448	1
200.37926534075865	220.974574179215	1
158.8764305504627	231.06985929400147	1
438.1792917067788	84.12737595655393	1
122.98208694804454	12.338681806961244	1
477.4387300219237	188.44532214268082	1
532.4019436631264	228.8264626018267	1
559.32270136494	246.77363613922486	1
212.71794595408988	95.3443594174278	1
271.04625430801934	172.7415452974574	1
580.6140807116051	8.516008121193192	1
489.06699557769974	70.25706699984383	1
461.38996983954235	60.676557863501486	1
436.9064470711723	91.54708730282681	1
370.90738569556606	32.99953146962361	1
210.16773621626712	32.99953146962361	1
171.84570057881837	54.28955177260659	1
136.71716791115702	22.354521318132125	1
149.4911797903066	94.74059034827425	1
117.55615009243263	124.54661877245042	1
145.23317583059006	141.5786350148368	1
159.07168869966878	162.8686553178198	1
220.81274611555844	103.25659846946743	1
189.9422174076136	133.0626268936436	1
221.87724710548758	171.38466343901297	1
199.52272631697582	221.41621115102296	1
180.36170849825143	237.3837263782602	1
263.39278571272376	190.54568171169765	1
303.8438233300308	190.54568171169765	1
423.06793420209357	156.48164922692487	1
412.42292430280224	113.90160862095892	1
498.64750448706195	159.67515227237234	1
551.8725539835185	190.54568171169765	1
555.066056953306	170.32016242386382	1
538.0340411144398	223.54521318132126	1
562.5175638828099	258.6737466812432	1
585.9365856612508	238.44822739340935	1
434.777445091314	209.70669998438234	1
366.6493817358496	204.38419490863657	1
367.71388272577866	184.15867562080277	1
357.0688728264874	269.31875683273466	1
389.0039025243613	277.83476495392784	1
261.2637837328655	315.09230048414804	1
292.13431244081033	308.70529439325315	1
316.6178352091803	305.51179134780574	1
407.10041935315655	334.25331875683275	1
437.9709480611014	255.48024363579572	1
452.87396192010925	272.51225987818214	1
457.13196587982577	336.38232078713105	1
485.87349260791234	359.8013431204123	1
521.0020252755737	365.12384819615806	1
482.67998963812494	386.413868499141	1
551.8725539835185	366.18834921130724	1
571.0335718022429	378.962361393097	1
478.4219856784084	425.80040605965957	1
373.03638767542435	399.18788068093085	1
331.52084906818817	456.6709354989849	1
357.0688728264874	467.31594565047635	1
394.326407474007	489.6704669686085	1
425.1969361819518	488.60596595345936	1
399.64891242365263	512.0249882867406	1
455.00296389996754	494.99297204435425	1
517.8085223057864	471.57394971107294	1
555.066056953306	467.31594565047635	1
529.5180331950068	497.12197407465254	1
536.9695401245107	575.8950491956896	1
595.5170945706129	519.4764953927846	1
583.8075836813925	551.4115258472591	1
488.171875	73.0	1
453.171875	60.0	1
441.171875	89.0	1
411.171875	116.0	1
407.171875	221.0	1
437.171875	209.0	1
440.171875	252.0	1
261.171875	196.0	1
186.171875	229.0	1
221.171875	174.0	1
204.171875	34.0	1
135.171875	20.0	1
167.171875	58.0	1
219.171875	98.0	1
361.171875	270.0	1
304.171875	309.0	1
259.171875	315.0	1
367.171875	395.0	1
338.171875	451.0	1
395.171875	498.0	1
455.171875	340.0	1
489.171875	362.0	1
523.171875	368.0	1
556.171875	368.0	1
481.171875	392.0	1
479.171875	424.0	1
515.171875	468.0	1
525.171875	505.0	1
567.171875	463.0	1
493.171875	157.0	1
592.171875	243.0	1
554.171875	261.0	1
406.171875	334.0	1
421.171875	485.0	1
531.171875	578.0	1
315.84375	300.0	1
292.84375	311.0	1
255.84375	322.0	1
146.84375	106.0	1
168.84375	51.0	1
209.84375	39.0	1
209.84375	107.0	1
234.84375	107.0	1
215.84375	175.0	1
259.84375	200.0	1
175.84375	244.0	1
442.84375	87.0	1
414.84375	121.0	1
365.84375	35.0	1
494.84375	67.0	1
454.84375	57.0	1
439.84375	257.0	1
440.84375	210.0	1
412.84375	219.0	1
387.84375	251.0	1
358.84375	274.0	1
370.84375	406.0	1
489.84375	360.0	1
484.84375	393.0	1
460.84375	340.0	1
476.84375	426.0	1
513.84375	371.0	1
556.84375	365.0	1
566.84375	385.0	1
579.84375	471.0	1
516.84375	467.0	1
532.84375	502.0	1
454.84375	498.0	1
479.84375	524.0	1
563.921875	469.0	1
573.921875	382.0	1
552.921875	369.0	1
515.921875	374.0	1
485.921875	358.0	1
560.921875	276.0	1
592.921875	242.0	1
557.921875	251.0	1
539.921875	228.0	1
512.921875	228.0	1
480.921875	198.0	1
548.921875	198.0	1
498.921875	158.0	1
588.921875	29.0	1
463.921875	66.0	1
438.921875	90.0	1
406.921875	125.0	1
372.921875	42.0	1
287.921875	44.0	1
205.921875	37.0	1
138.921875	19.0	1
175.921875	60.0	1
211.921875	102.0	1
257.921875	123.0	1
192.921875	141.0	1
151.921875	91.0	1
216.921875	179.0	1
308.921875	190.0	1
373.921875	210.0	1
359.921875	180.0	1
423.921875	157.0	1
440.921875	214.0	1
401.921875	220.0	1
399.921875	249.0	1
393.921875	276.0	1
360.921875	274.0	1
405.921875	335.0	1
460.921875	341.0	1
407.921875	373.0	1
373.921875	353.0	1
322.921875	306.0	1
258.921875	326.0	1
200.921875	225.0	1
159.921875	161.0	1
595.921875	522.0	1
581.921875	551.0	1
531.921875	505.0	1
519.921875	475.0	1
478.921875	428.0	1
482.921875	388.0	1
365.921875	397.0	1
462.921875	494.0	1
428.921875	485.0	1
484.921875	528.0	1
495.921875	560.0	1
538.921875	576.0	1
443.921875	270.0	1
300.921875	315.0	1
440.921875	61.0	1
328.921875	458.0	1
359.921875	466.0	1
396.921875	503.0	1
473.921875	560.0	1
489.921875	72.0	1
257.921875	201.0	1
180.921875	234.0	1
145.921875	145.0	1
233.921875	100.0	1
209.2738844682339	27.691889025058785	1
139.44252455961404	22.42159757114185	1
165.79398112890456	51.40820056768499	1
148.66553435886573	90.935386472062	1
180.28728224201433	129.1449995129598	1
215.86174861055653	102.79354224337511	1
442.48427510645496	83.02994929118661	1
489.9168969311779	76.44208497379044	1
549.2076742120815	192.38849695996302	1
587.4172862375528	239.82112004521545	1
518.9034991573975	363.6729692122634	1
484.6466056173198	363.6729692122634	1
480.69388713192626	393.9771450722858	1
512.3156350150748	465.12607970016444	1
456.97757621956475	488.84239124279065	1
359.4771869131898	272.7604416321963	1
313.36213791693143	303.0646174922187	1
258.0240791214214	313.6052004000525	1
258.0240791214214	193.70606982344225	1
359.4771869131898	204.24665273127613	1
416.13281853716444	109.38140656077128	1
422.7206826794871	156.8140296460237	1
370.01776954090604	27.691889025058785	1
555.7955383544041	358.4026777583465	1
567.6536938105849	382.11898930097266	1
368.70019671244154	395.29471793576505	1
406.9098087379128	332.0512204887618	1
456.97757621956475	336.00393907919954	1
439.8491294495259	264.8550044513209	1
437.2139837925969	206.88179845823458	1
474.10602298960356	188.4357783695253	1
493.8696154165715	159.44917537298215	1
186.87514638433697	230.5981100008608	1
310.72699226000236	185.80063264256685	1
355.52446842779625	455.9030696558098	1
475.4235958180681	422.963748068829	1
563.7009753251913	461.1733611097267	1
590.0524318944819	515.1938485123753	1
534.7143730989718	502.018119877583	1
360.7947597416544	169.98975828081603	1
222.44961275287915	171.3073311442953	1
565.0185481536558	262.21985872436244	1
376.6056336832287	351.81481344095033	1
406.9098087379128	370.2608335296596	1
319.9500020592541	371.57840639313883	1
420.085537022558	484.88967265235294	1
586.0997134090883	21.10402470766261	1
478.0972387049423	535.4322231802453	1
364.8326356536817	396.99227960777216	1
518.998345362342	371.82138077641343	1
555.1800935592724	466.2122513940087	1
456.0735658894194	340.35775723721497	1
358.54015770638944	269.5646042740185	1
256.2873910628903	195.62508895690218	1
160.3271023666834	162.58828424074383	1
215.38628440549064	168.8810089485835	1
264.1529884970056	408.0045478464916	1
259.43363003653644	321.4795831136959	1
306.62721464122836	307.32095252105665	1
407.30686179790445	332.4918513524154	1
419.8918176924889	154.72237835594422	1
441.9154905080118	85.50240656970765	1
490.68219459952684	66.62423244618859	1
366.40575514050477	36.73379008395007	1
437.1961320475426	214.50326308042125	1
586.6424832957337	239.67416191178	1
548.8876156119802	195.62508895690218	1
214.19125364769857	102.39146593845516	1
206.35689891363094	35.01835768840538	1
279.9998334138667	33.45154121747399	1
254.9298982648503	113.35918123497488	1
311.3372523501373	191.70000478154438	1
475.85870176555767	423.5888424793901	1
482.1261855528118	362.4830001130659	1
480.5593146059983	396.9529624735565	1
458.62312135060887	497.2292166131655	1
522.8648301699635	501.92966602595965	1
314.4709942437643	373.45071540958565	1
164.05138334966568	55.38697181051345	1
120.17899683888692	124.32689653149461	1
569.8709585743693	135.29461182801435	1
497.7948950209471	157.2300424210538	1
568.3040876275559	379.7179812933112	1
411.616992946203	114.92599770590627	1
590.2402808829452	525.4319130899305	1
205.85264498137386	29.339684908313487	1
367.80768910689574	36.381209286308724	1
438.2229256832096	85.67187993227537	1
494.55511494426065	71.5888311762849	1
458.17390937983185	58.67936981662697	1
501.59663860189204	158.4342985048928	1
412.40400560522784	115.01156484058886	1
424.13987836794684	152.5663615232301	1
259.83765968988115	187.7739834132063	1
305.60756346448517	185.42680862054124	1
160.08274120676987	158.4342985048928	1
147.17328116777898	89.192642121273	1
169.47143941694503	51.637845438631736	1
183.5544867322078	131.4417883892444	1
357.24540362044866	268.7515137601515	1
265.7055960712406	309.82707263179043	1
408.88324377641214	328.60447097311106	1
451.13238572220047	339.1667575401039	1
487.51359128662926	354.4233936924269	1
525.06838412733	368.5064424484174	1
555.5816533103994	368.5064424484174	1
590.7892715985563	240.5854162481706	1
546.1929551002241	193.641920394869	1
554.4080660341275	167.82299767555313	1
537.9778441663209	224.15519269951503	1
483.99282945781357	389.6310155824031	1
478.1248930764541	421.3178752833817	1
371.32845093571143	395.4989525640658	1
574.3590497307497	468.26137113668324	1
513.332511364611	462.39343415502054	1
528.5891459561457	495.2538812523316	1
440.5701002357534	210.07214394352457	1
386.5850855272461	271.0986885528166	1
364.28692727808004	207.72496915085947	1
476.95130580018224	530.4615031423078	1
