449.41259005516184	228.58031591737546	1
463.7678742728516	255.0823815309842	1
503.5209690295309	167.8464155528554	1
599.5909480248391	304.7737545565006	1
533.3357900970403	324.65030376670717	1
570.8803795894597	392.0097205346294	1
604.0079585533591	516.7902794653706	1
528.9187795685204	445.0138517618469	1
515.6677479829607	471.5159173754557	1
475.91465322628136	415.19902794653706	1
477.01890585841136	340.1098420413123	1
411.8680005627425	363.2991494532199	1
347.82134789920366	316.92053462940464	1
355.5511163241135	373.2374240583232	1
362.17663211689336	414.0947752126367	1
433.9530532053421	620.5900364520048	1
217.51953730786596	252.87387606318347	1
133.59633726598744	86.13171324422844	1
248.4386110075054	131.40607533414337	1
220.8322952042559	69.56792223572296	1
600.6952006569692	67.35941676792224	1
394.1999584486628	245.14410692588092	1
475.4359482855593	341.90121557162644	1
538.3625510932733	319.8769041390983	1
322.3145481201218	283.1697184182182	1
568.7770757836685	393.2912755808586	1
216.38810006046984	71.31681797199569	1
449.21653044901177	300.9989229112171	1
501.6553661221068	171.99938452069551	1
222.68076034124124	245.41375596245578	1
406.171875	359.0	1
419.171875	430.0	1
335.171875	363.0	1
316.171875	289.0	1
350.171875	414.0	1
405.171875	448.0	1
518.171875	473.0	1
529.171875	511.0	1
557.171875	548.0	1
560.171875	479.0	1
492.171875	182.0	1
441.171875	235.0	1
162.171875	57.0	1
172.171875	181.0	1
206.171875	136.0	1
219.171875	244.0	1
173.34943202266675	20.980801944106926	1
224.14505310064584	23.189307411907656	1
167.82816886201684	61.83815309842041	1
206.47701098656614	126.98906439854191	1
179.97494781544663	172.26342648845687	1
123.65806357681763	92.75722964763062	1
221.93654783638587	247.35261239368165	1
184.39195834396654	204.28675577156744	1
323.5277899923441	284.8972053462941	1
346.71709526707366	319.12904009720535	1
400.8254742414427	280.4801944106926	1
279.35768470714487	358.88213851761844	1
452.7253479515518	315.81628189550423	1
480.3316637548013	343.42260024301333	1
416.2850110912624	359.98639125151885	1
340.0915794742938	353.3608748481166	1
358.8638742205034	419.6160388821385	1
472.6018953298914	421.82454434993923	1
568.6718743251997	405.26075334143377	1
531.1272848327803	503.53924665856624	1
219.0833282470703	243.98333740234375	1
253.0833282470703	361.98333740234375	1
407.0833282470703	276.98333740234375	1
479.0833282470703	346.98333740234375	1
541.0833282470703	325.98333740234375	1
564.0833282470703	397.98333740234375	1
354.0833282470703	415.98333740234375	1
412.0833282470703	362.98333740234375	1
318.0833282470703	289.98333740234375	1
350.0833282470703	315.98333740234375	1
497.0833282470703	168.98333740234375	1
530.0833282470703	505.98333740234375	1
603.0833282470703	510.98333740234375	1
537.8988226621552	328.4142901266344	1
595.4415002364011	298.9412128075775	1
478.95266514707396	338.2386492329867	1
349.83251059022933	414.0265623391331	1
405.97170822364006	352.2734479563471	1
349.83251059022933	315.78297127561	1
323.1663917143593	286.3098939565531	1
563.1614615971899	394.3778441264285	1
442.462186685357	450.51703901987025	1
598.2484601180716	513.6736332749923	1
405.97170822364006	275.0820549778647	1
351.2359905310646	239.9950581694636	1
289.48287313431285	211.9254607227427	1
244.5715150275843	134.73406774426027	1
215.0984362700437	68.77051374446617	1
219.3088760925495	248.41593740347986	1
288.0793931934776	293.3272933182333	1
474.81040059415136	342.318347509113	1
453.8296005836817	313.6077764277035	1
485.8529269154512	291.52272174969625	1
411.8680005627425	365.5076549210207	1
530.0230322006504	512.3732685297691	1
565.3591164288098	496.913730255164	1
605.1122111854891	516.7902794653706	1
427.3275374125622	427.34580801944105	1
355.5511163241135	417.40753341433776	1
363.28088474902336	379.8629404617254	1
334.57031631364384	361.0906439854192	1
224.14505310064584	246.24835965978127	1
172.24517939053675	215.32928311057108	1
176.6621899190567	177.7846901579587	1
192.1217267688764	202.0782503037667	1
129.17932673746753	83.9232077764277	1
499.10395850101094	174.4719319562576	1
449.41259005516184	236.310085054678	1
403.03397950570263	274.9589307411908	1
347.82134789920366	315.81628189550423	1
316.9022741995642	289.3142162818955	1
166.72391622988684	62.94240583232078	1
565.3591164288098	395.3224787363305	1
