601.921875	607.0	1
567.921875	578.0	1
496.921875	588.0	1
532.921875	623.0	1
509.921875	562.0	1
524.921875	529.0	1
451.921875	508.0	1
573.921875	521.0	1
550.921875	504.0	1
514.921875	484.0	1
588.921875	500.0	1
586.921875	475.0	1
597.921875	374.0	1
544.921875	440.0	1
613.921875	465.0	1
534.921875	471.0	1
490.921875	457.0	1
449.921875	477.0	1
544.921875	386.0	1
492.921875	398.0	1
453.921875	408.0	1
410.921875	457.0	1
375.921875	474.0	1
407.921875	424.0	1
447.921875	387.0	1
488.921875	374.0	1
513.921875	441.0	1
559.921875	368.0	1
521.921875	382.0	1
553.921875	320.0	1
587.921875	310.0	1
542.921875	340.0	1
416.921875	383.0	1
614.921875	261.0	1
504.921875	327.0	1
539.921875	290.0	1
586.921875	247.0	1
437.921875	277.0	1
486.921875	298.0	1
387.921875	342.0	1
318.921875	436.0	1
593.921875	529.0	1
581.921875	357.0	1
562.921875	229.0	1
471.921875	229.0	1
396.921875	237.0	1
608.921875	148.0	1
588.921875	47.0	1
561.921875	21.0	1
542.921875	103.0	1
517.921875	78.0	1
501.921875	178.0	1
485.921875	143.0	1
489.921875	105.0	1
479.921875	71.0	1
462.921875	195.0	1
457.921875	161.0	1
434.921875	195.0	1
419.921875	231.0	1
380.921875	311.0	1
265.921875	312.0	1
308.921875	278.0	1
263.921875	274.0	1
354.921875	211.0	1
390.921875	174.0	1
342.921875	249.0	1
290.921875	179.0	1
313.921875	114.0	1
360.921875	123.0	1
413.921875	177.0	1
440.921875	139.0	1
524.921875	40.0	1
460.921875	119.0	1
416.921875	43.0	1
432.921875	73.0	1
438.921875	104.0	1
332.921875	178.0	1
203.921875	170.0	1
226.921875	118.0	1
307.921875	43.0	1
277.921875	55.0	1
255.921875	39.0	1
237.921875	82.0	1
217.921875	66.0	1
454.921875	18.0	1
440.921875	313.0	1
567.921875	462.0	1
611.921875	170.0	1
559.921875	120.0	1
382.921875	67.0	1
205.921875	31.0	1
389.921875	439.0	1
342.921875	447.0	1
382.921875	211.0	1
188.921875	86.0	1
162.921875	52.0	1
560.921875	549.0	1
370.921875	388.0	1
355.921875	355.0	1
329.921875	221.0	1
311.921875	172.0	1
309.921875	213.0	1
517.921875	101.0	1
557.921875	203.0	1
201.1480634429766	23.073088167410372	1
588.1466707104179	40.902292660409294	1
556.6833693065608	12.585320818587476	1
516.8298541950087	38.80473919064472	1
536.7566117507848	100.68256654869981	1
472.78123222960886	78.65825511617172	1
359.5133471757236	112.21911063240499	1
458.09835824114225	7.3414371441760276	1
209.5382771506718	60.8290506231728	1
430.83016369113284	274.77950453915986	1
418.24484312959004	231.77965840898602	1
468.58612537576124	229.68210493922143	1
452.8544746738327	191.92614248345902	1
458.09835824114225	163.60917064163718	1
414.0497362757424	165.70672411140177	1
379.4401047314997	185.63348207416527	1
349.0255800411046	208.70657024157563	1
478.0251157969183	294.7062625019234	1
381.5376581584235	309.3891367902755	1
581.8540104296466	302.04769964609943	1
610.1709816931178	257.99907678104324	1
556.6833693065608	228.63332820433914	1
408.8058527084329	45.097399599938456	1
314.41594849686186	55.58516694876135	1
272.46487995838584	41.95106939529158	1
298.68429779493334	39.853515925527006	1
232.6113648468336	77.60947838128943	1
165.48965518527197	49.29250653946761	1
213.7333840045194	115.36544083705186	1
214.7821607179813	145.77996614863827	1
196.95295658912897	200.31635636251733	1
245.19668540837642	267.4380673949839	1
291.34286080070007	179.34082166487153	1
378.39132801803777	343.99876904139103	1
452.8544746738327	507.6079396830282	1
486.41532950461357	594.6564086782582	1
510.53719391423726	563.1931066317895	1
372.0986677372664	469.85197722726576	1
315.46472521032376	431.047238036621	1
441.31793082575183	482.43729804585325	1
524.171291189242	519.1444837667334	1
588.1466707104179	472.9983074319126	1
588.1466707104179	535.92491152485	1
543.0492720315561	432.09601477150335	1
407.757075994971	461.46176334820746	1
535.7078350373229	286.3160486228651	1
581.8540104296466	248.56008616710264	1
460.19591166806606	404.8278196645638	1
495.85431992577065	458.3154331435606	1
611.2197584065798	631.3635943991384	1
596.5368844181131	608.290506231728	1
568.2199131546419	628.2172641944915	1
594.4393309911893	495.0226188644407	1
611.2197584065798	465.6568702877366	1
599.6832145584988	370.2181874134482	1
552.4882624527133	321.9744576088629	1
506.34208706038964	318.82812740421605	1
476.9763390834565	370.2181874134482	1
523.1225144757801	382.8035082320357	1
557.7321460200228	367.07185720880136	1
438.1716006853661	317.7793506693338	1
426.6350568372852	201.36513309739962	1
385.7327650122711	160.46284043699032	1
482.22022265076595	105.92645022311126	1
426.6350568372852	77.60947838128943	1
313.36717178339995	110.12155716264041	1
386.781541725733	59.78027388829051	1
494.80554321230875	178.29204492998923	1
450.7569212469089	119.56054777658102	1
243.09913198145262	321.9744576088629	1
336.44025947956175	450.97399599938456	1
325.95249234494275	362.8767502692722	1
331.1963759122523	178.29204492998923	1
533.610281610399	467.7544237575012	1
508.43964048731345	491.87628865979383	1
511.58597062769917	438.38867518079707	1
405.65952256804724	425.8033543622096	1
546.1956021719419	343.99876904139103	1
578.7076802892608	356.58408985997846	1
517.8786309084705	74.46314817664256	1
485.36655279115166	141.5848592091091	1
399.3668622872758	227.58455146945684	1
554.5858158796372	506.5591629481459	1
524.171291189242	616.6807201107863	1
419.29361984305194	544.3151254039083	1
467.7248256203918	228.76721919077525	1
455.0935061528744	203.50458148872644	1
421.40998757282796	228.76721919077525	1
483.16310496957976	294.7307731905693	1
449.4795863895333	506.65623391331206	1
523.8640232538025	523.4979923813446	1
383.5160291702758	311.57253165860186	1
313.3420321285124	423.8509214454854	1
341.4116309452177	450.51703901987025	1
522.4605433129673	39.297436425409245	1
553.3371020113431	16.841758468032534	1
452.28654627120386	162.80366519098115	1
314.7455120693477	105.26099042520333	1
276.85155366679544	42.10439617008133	1
213.69495632920842	143.15494697827654	1
483.16310496957976	392.97436425409245	1
462.11090585705074	402.79872336044474	1
585.6171406505542	303.1516524245856	1
588.4241005322248	524.9014722536806	1
591.2310604138953	470.1657572325749	1
410.18214804614587	457.5344383815505	1
429.83086721783957	273.6785751055287	1
543.5127424254962	101.0505508081952	1
484.56658491041503	103.85751055286728	1
481.7596250287445	79.99835272315454	1
429.83086721783957	75.7879131061464	1
438.2517468628512	109.47143004221147	1
412.9891079278164	47.718315659425514	1
229.13323567839635	77.19139297848244	1
206.67755662503208	25.2626377020488	1
362.17663211689336	114.8422843256379	1
314.6937689353042	110.42527339003645	1
379.84467423097306	306.98226002430135	1
433.9530532053421	280.4801944106926	1
535.5442953613003	290.4184690157959	1
468.1848848013715	228.58031591737546	1
586.3399164392794	38.64884568651276	1
557.6293480038998	13.251032806804375	1
520.0847585114806	39.753098420413124	1
414.07650582700245	45.274362089914945	1
427.3275374125622	72.88068043742406	1
437.265811101732	102.6955042527339	1
472.6018953298914	75.08918590522478	1
485.8529269154512	101.59125151883353	1
316.9022741995642	432.8670716889429	1
378.74042159884306	474.82867557715673	1
448.30833742303184	507.95625759416765	1
493.58269534036106	451.6393681652491	1
459.35086374433166	401.94799513973265	1
590.7569269677994	470.41166464155526	1
597.3824427605792	605.1304981773998	1
584.1314111750195	303.66950182260024	1
202.06000045804623	28.710571081409476	1
527.8145269363904	521.207290400972	1
493.58269534036106	595.1922235722965	1
506.83372692592076	566.4816524908871	1
558.7336006360299	548.8136087484812	1
596.2781901284492	532.2498177399757	1
440.57856899812197	480.34993924665855	1
544.3783164183401	432.8670716889429	1
411.8680005627425	460.473390036452	1
479.2274111226713	294.8354799513973	1
507.9379795580508	320.2332928311057	1
311.3125	437.0	1
375.3125	473.0	1
449.3125	506.0	1
504.3125	568.0	1
563.3125	586.0	1
557.3125	509.0	1
529.3125	528.0	1
513.3125	453.0	1
451.3125	404.0	1
490.3125	369.0	1
435.3125	284.0	1
390.3125	310.0	1
249.3125	270.0	1
397.3125	234.0	1
309.3125	113.0	1
361.3125	116.0	1
220.3125	118.0	1
218.3125	73.0	1
267.3125	39.0	1
478.3125	76.0	1
519.3125	76.0	1
581.3125	42.0	1
556.3125	9.0	1
608.3125	148.0	1
550.3125	208.0	1
468.3125	233.0	1
495.3125	178.0	1
460.3125	171.0	1
411.3125	42.0	1
388.3125	62.0	1
232.3125	323.0	1
195.3125	198.0	1
373.3125	345.0	1
552.3125	327.0	1
490.3125	400.0	1
535.3125	291.0	1
556.3125	238.0	1
386.3125	171.0	1
264.3125	311.0	1
204.171875	22.0	1
163.171875	46.0	1
215.171875	65.0	1
275.171875	40.0	1
456.171875	12.0	1
553.171875	12.0	1
584.171875	44.0	1
542.171875	101.0	1
516.171875	69.0	1
180.171875	205.0	1
436.171875	274.0	1
477.171875	77.0	1
444.171875	507.0	1
495.171875	589.0	1
594.171875	365.0	1
381.171875	309.0	1
428.171875	74.0	1
607.171875	143.0	1
398.171875	226.0	1
467.171875	229.0	1
456.171875	114.0	1
391.171875	169.0	1
331.171875	183.0	1
320.171875	228.0	1
484.139358980505	391.40445503372666	1
438.91617100106095	281.36199060427185	1
612.2717249222633	249.70593919305878	1
588.1526913332264	43.187889510383286	1
556.4964597476155	14.546700138333398	1
467.55752338804217	7.009545040425533	1
473.5872817853014	227.09447389933518	1
381.63346622709844	313.01804201548487	1
365.0516306346356	118.55944048946193	1
583.6303725352819	300.9585938588323	1
478.1096005832458	296.43630080008757	1
449.46824819626454	507.47664354150777	1
378.6185870284688	474.31316111071317	1
316.81356345656195	430.59766154284756	1
309.2763654599879	104.99256131322778	1
515.7955905661158	41.68045849080171	1
512.7807113674862	320.55519711339275	1
479.61704018256063	74.84394092159631	1
556.4964597476155	218.04988778184577	1
595.6898893298004	379.34500687707407	1
166.0696035250817	50.72504460829115	1
407.2599394154501	40.17302747122014	1
203.75559350795174	22.083855236241263	1
419.3194562099685	227.09447389933518	1
251.99366068602544	263.27281836929296	1
533.8848657578935	284.376852643435	1
532.3774261585787	94.44054417615676	1
564.0336577441896	579.8333324814233	1
597.1973289291152	609.9819528730548	1
508.25839256954185	569.2813153443523	1
523.3327885626899	525.5658157764866	1
613.7791645215781	151.72292292025654	1
484.234375	374.0	1
385.234375	316.0	1
379.234375	351.0	1
418.234375	243.0	1
449.234375	207.0	1
455.234375	170.0	1
489.234375	73.0	1
395.234375	157.0	1
352.234375	210.0	1
427.234375	199.0	1
591.234375	47.0	1
552.234375	9.0	1
513.234375	45.0	1
429.234375	71.0	1
452.234375	122.0	1
471.234375	230.0	1
434.234375	282.0	1
483.234375	300.0	1
455.234375	402.0	1
322.234375	372.0	1
262.234375	311.0	1
239.234375	262.0	1
189.234375	194.0	1
216.234375	123.0	1
446.234375	477.0	1
446.234375	507.0	1
497.234375	457.0	1
543.234375	385.0	1
586.234375	306.0	1
536.234375	287.0	1
584.234375	251.0	1
498.234375	181.0	1
545.234375	104.0	1
432.234375	100.0	1
309.234375	429.0	1
408.234375	465.0	1
555.234375	505.0	1
520.234375	528.0	1
595.234375	480.0	1
366.234375	111.0	1
311.234375	112.0	1
395.234375	219.0	1
