577.234375	439.0	1
563.234375	414.0	1
527.234375	271.0	1
527.234375	228.0	1
492.234375	246.0	1
491.234375	194.0	1
456.234375	251.0	1
508.234375	109.0	1
465.234375	96.0	1
414.234375	85.0	1
387.234375	32.0	1
377.234375	100.0	1
351.234375	77.0	1
320.234375	69.0	1
291.234375	67.0	1
255.234375	78.0	1
295.234375	130.0	1
262.234375	142.0	1
223.234375	142.0	1
238.234375	96.0	1
320.234375	44.0	1
562.234375	51.0	1
568.234375	141.0	1
594.234375	192.0	1
497.234375	278.0	1
487.234375	322.0	1
383.234375	266.0	1
389.234375	227.0	1
326.234375	172.0	1
335.234375	115.0	1
174.234375	42.0	1
176.234375	128.0	1
153.234375	145.0	1
197.234375	160.0	1
197.234375	69.0	1
154.234375	58.0	1
155.234375	117.0	1
167.234375	162.0	1
311.234375	260.0	1
321.234375	231.0	1
441.234375	331.0	1
438.234375	22.0	1
101.234375	39.0	1
144.234375	184.0	1
545.234375	190.0	1
306.9640005103944	266.12490886998785	1
324.632042624474	227.47606318347508	1
282.6704426035348	240.72709599027945	1
361.0723794847634	294.8354799513973	1
365.4893900132833	220.8505467800729	1
341.1958321064238	166.74216281895505	1
285.98320049992475	128.09331713244228	1
227.45781099703578	136.9273390036452	1
240.70884258259554	106.008262454435	1
255.0641268002853	75.08918590522478	1
295.92147418909457	70.67217496962333	1
320.21503209595414	75.08918590522478	1
319.11077946382414	44.17010935601458	1
220.8322952042559	6.625516403402187	1
200.95574782591623	76.19343863912515	1
175.5579372869267	45.274362089914945	1
193.22597940100638	167.8464155528554	1
151.26437938006714	113.73803159173754	1
176.6621899190567	133.6145808019441	1
50.77738985623891	110.42527339003645	1
191.01747413674642	226.37181044957472	1
376.5319163345831	263.91640340218714	1
454.9338532158117	255.0823815309842	1
489.1656848118411	242.93560145808019	1
485.8529269154512	189.9314702308627	1
512.3549900865708	103.79975698663426	1
457.1423584800717	91.65297691373026	1
565.3591164288098	55.212636695018226	1
386.47019002375293	27.606318347509113	1
470.3933900656315	22.08505467800729	1
574.1931374858497	142.44860267314704	1
523.3975164078705	223.05905224787364	1
523.3975164078705	267.2291616038882	1
565.3591164288098	415.19902794653706	1
21.171875	18.0	1
59.171875	24.0	1
106.171875	43.0	1
175.171875	42.0	1
293.171875	72.0	1
392.171875	30.0	1
464.171875	94.0	1
515.171875	99.0	1
491.171875	182.0	1
489.171875	239.0	1
496.171875	275.0	1
487.171875	320.0	1
432.171875	365.0	1
143.171875	187.0	1
203.171875	69.0	1
597.171875	183.0	1
522.171875	224.0	1
560.171875	276.0	1
473.171875	392.0	1
198.171875	168.0	1
42.171875	67.0	1
288.171875	344.0	1
375.171875	253.0	1
148.3125	145.0	1
152.3125	121.0	1
138.3125	193.0	1
167.3125	155.0	1
192.3125	168.0	1
99.3125	118.0	1
71.3125	84.0	1
102.3125	39.0	1
139.3125	49.0	1
198.3125	64.0	1
250.3125	82.0	1
238.3125	105.0	1
296.3125	68.0	1
324.3125	67.0	1
464.3125	86.0	1
513.3125	104.0	1
468.3125	17.0	1
411.3125	80.0	1
577.3125	143.0	1
493.3125	186.0	1
489.3125	247.0	1
451.3125	253.0	1
496.3125	278.0	1
566.3125	419.0	1
571.3125	362.0	1
479.3125	317.0	1
373.3125	255.0	1
367.3125	299.0	1
309.3125	259.0	1
326.3125	228.0	1
340.3125	161.0	1
297.3125	129.0	1
255.3125	139.0	1
293.3125	185.0	1
266.3125	298.0	1
293.3125	245.0	1
392.3125	30.0	1
374.3125	87.0	1
230.3125	143.0	1
42.3125	63.0	1
524.3125	223.0	1
570.3125	59.0	1
460.3295269629093	88.99625514031614	1
510.41024293079926	102.11263305938814	1
570.030142892573	141.46176681660418	1
286.23941907452985	129.53778689017508	1
254.044673095172	84.2266631697445	1
288.6242150730008	75.87987722124413	1
319.62656305312316	67.53309127274376	1
327.9733490477715	17.452375581741535	1
316.0493690554167	43.68513141988556	1
388.78564700878076	32.95354948609936	1
411.4412089942548	80.64946919181577	1
488.9470789445607	178.4261045885344	1
518.7570289254476	226.1220242942508	1
484.1774869476188	241.62319819860863	1
450.79034296902546	254.73957611768066	1
448.40554697055455	317.93666972775486	1
481.79269094914787	316.74427173511197	1
564.0681528963956	416.9057031171164	1
336.3201350424198	166.5021246621053	1
226.61951911275605	146.23135878717582	1
194.42477313339822	168.88692064739112	1
199.19436513034012	69.91788725802958	1
234.96630510740437	104.49742904467396	1
94.26334119761825	117.61380696374599	1
162.23002715404036	214.1980443678217	1
310.08737905923937	264.27876005882393	1
320.81896105235865	224.9296263016079	1
362.5528910256003	298.8583018454683	1
375.6692690171905	258.3167700956094	1
468.6763129575576	22.221967552313174	1
152.69084316015656	117.61380696374599	1
170.5768131486887	159.34773670624784	1
174.15400714639512	130.73018488281798	1
144.34405716550822	146.23135878717582	1
144.34405716550822	180.81090057382022	1
122.88089317926966	196.31207447817806	1
578.3769288872214	32.95354948609936	1
565.2605508956311	55.609111346314656	1
104.84375	49.0	1
182.84375	47.0	1
141.84375	48.0	1
261.84375	78.0	1
236.84375	103.0	1
251.84375	142.0	1
229.84375	143.0	1
153.84375	114.0	1
173.84375	132.0	1
151.84375	145.0	1
175.84375	167.0	1
198.84375	170.0	1
142.84375	184.0	1
99.84375	120.0	1
122.84375	193.0	1
165.84375	215.0	1
191.84375	230.0	1
288.84375	126.0	1
292.84375	66.0	1
323.84375	68.0	1
320.84375	41.0	1
466.84375	87.0	1
515.84375	107.0	1
567.84375	54.0	1
394.84375	218.0	1
339.84375	163.0	1
320.84375	230.0	1
304.84375	263.0	1
372.84375	265.0	1
487.84375	189.0	1
484.84375	241.0	1
498.84375	277.0	1
448.84375	254.0	1
515.84375	226.0	1
571.84375	138.0	1
522.84375	269.0	1
445.84375	323.0	1
559.84375	414.0	1
513.4592427187007	103.79975698663426	1
491.37419007610106	183.3059538274605	1
574.1931374858497	143.5528554070474	1
462.6636216407216	90.54872417982989	1
469.2891374335015	19.876549210206562	1
197.6429899295263	164.53365735115432	1
171.14092675840678	156.80388821385176	1
144.63886358728723	144.65710814094774	1
177.76644255118666	132.51032806804375	1
150.16012674793714	115.94653705953827	1
143.53461095515726	182.20170109356013	1
122.55381094468764	203.18250303766706	1
165.61966359775687	219.74629404617255	1
376.5319163345831	274.9589307411908	1
374.3234110703232	250.66537059538274	1
315.7980215674342	265.0206561360875	1
321.3192847280841	236.310085054678	1
292.6087162927046	238.51859052247875	1
267.21090575371505	288.20996354799513	1
394.1999584486628	357.7778857837181	1
397.51271634505275	223.05905224787364	1
400.8254742414427	172.26342648845687	1
404.13823213783263	144.65710814094774	1
372.1149058060632	94.96573511543134	1
297.0257268212245	125.88481166464156	1
318.00652683169415	68.4636695018226	1
289.2959583963147	73.98493317132443	1
251.75136890389535	81.71470230862697	1
483.64442165119124	320.2332928311057	1
548.7953269468601	214.2250303766707	1
336.77882157790384	164.53365735115432	1
299.2342320854845	176.6804374240583	1
290.40021102844463	205.3910085054678	1
257.27263206454523	224.163304981774	1
238.50033731833557	244.03985419198057	1
198.7472425616563	70.67217496962333	1
236.29183205407563	104.90400972053463	1
334.57031631364384	109.32102065613608	1
411.8680005627425	82.81895504252734	1
497.99970586888094	276.06318347509114	1
524.5017690400005	345.6311057108141	1
411.8680005627425	337.9013365735115	1
513.921875	105.0	1
465.921875	84.0	1
574.921875	63.0	1
475.921875	21.0	1
446.921875	24.0	1
419.921875	84.0	1
388.921875	31.0	1
440.921875	43.0	1
419.921875	61.0	1
492.921875	188.0	1
602.921875	182.0	1
490.921875	246.0	1
520.921875	227.0	1
553.921875	224.0	1
501.921875	277.0	1
361.921875	302.0	1
382.921875	275.0	1
364.921875	229.0	1
578.921875	29.0	1
573.921875	187.0	1
524.921875	271.0	1
557.921875	284.0	1
611.921875	341.0	1
592.921875	359.0	1
562.921875	416.0	1
467.921875	394.0	1
492.921875	317.0	1
459.921875	368.0	1
426.921875	367.0	1
446.921875	326.0	1
413.921875	342.0	1
573.921875	310.0	1
549.921875	261.0	1
573.921875	375.0	1
571.921875	347.0	1
547.921875	360.0	1
511.921875	351.0	1
554.921875	324.0	1
518.921875	322.0	1
448.921875	256.0	1
372.921875	255.0	1
332.921875	234.0	1
271.921875	289.0	1
341.921875	170.0	1
291.921875	242.0	1
263.921875	225.0	1
249.921875	247.0	1
429.921875	173.0	1
397.921875	174.0	1
409.921875	141.0	1
346.921875	107.0	1
292.921875	131.0	1
262.921875	142.0	1
241.921875	111.0	1
257.921875	85.0	1
290.921875	79.0	1
330.921875	23.0	1
327.921875	72.0	1
170.921875	205.0	1
146.921875	185.0	1
152.921875	141.0	1
154.921875	108.0	1
180.921875	45.0	1
147.921875	43.0	1
109.921875	113.0	1
77.921875	77.0	1
49.921875	64.0	1
595.921875	404.0	1
615.921875	264.0	1
589.921875	293.0	1
200.921875	219.0	1
28.921875	13.0	1
147.921875	18.0	1
389.921875	9.0	1
366.921875	121.0	1
385.921875	142.0	1
294.921875	206.0	1
301.921875	181.0	1
392.921875	222.0	1
391.921875	201.0	1
394.921875	358.0	1
305.921875	265.0	1
237.921875	269.0	1
212.921875	273.0	1
491.921875	377.0	1
612.921875	392.0	1
547.921875	199.0	1
548.921875	173.0	1
569.921875	138.0	1
521.921875	397.0	1
473.921875	336.0	1
534.921875	307.0	1
538.921875	336.0	1
580.921875	253.0	1
367.921875	97.0	1
315.921875	44.0	1
200.921875	168.0	1
174.921875	159.0	1
176.921875	133.0	1
158.921875	59.0	1
193.921875	69.0	1
101.921875	42.0	1
66.921875	38.0	1
109.921875	68.0	1
88.921875	26.0	1
58.921875	22.0	1
230.921875	144.0	1
42.921875	30.0	1
516.1903191214301	108.69544924154026	1
457.86593451964046	91.463243873979	1
574.5147037232197	144.48541423570595	1
493.6558977980114	192.2053675612602	1
528.120306880887	225.34422403733956	1
489.67923521152574	245.22753792298715	1
451.2381635421644	258.4830805134189	1
448.58705515117396	320.78413068844804	1
524.1436442944014	271.7386231038506	1
494.9814519935066	278.3663943990665	1
325.3105149701187	227.9953325554259	1
313.3805272106617	263.7852975495916	1
391.5882247448796	224.01866977829638	1
288.19499749625254	132.5554259043174	1
296.1483226692239	66.2777129521587	1
253.73058841337686	71.57992998833139	1
204.6850831800538	164.36872812135354	1
170.22067409717812	163.04317386231037	1
146.3606985782642	145.81096849474912	1
178.17399927014944	133.88098016336056	1
159.61624053321637	124.60210035005834	1
145.03514438276898	182.926487747958	1
127.80293984133114	193.53092182030338	1
195.40620381158726	230.64644107351225	1
111.89628949538852	64.95215869311552	1
97.31519334494112	117.97432905484247	1
337.2405027295756	108.69544924154026	1
240.47504645842469	103.39323220536755	1
487.0281268205353	319.4585764294049	1
78.75743460800805	79.53325554259042	1
