582.234375	440.0	1
567.234375	311.0	1
465.234375	544.0	1
439.234375	522.0	1
467.234375	424.0	1
424.234375	447.0	1
490.234375	330.0	1
429.234375	314.0	1
350.234375	493.0	1
276.234375	445.0	1
270.234375	222.0	1
208.234375	255.0	1
468.234375	64.0	1
415.5	86.0	1
460.5	65.0	1
369.5	90.0	1
252.5	71.0	1
198.5	33.0	1
271.5	218.0	1
218.5	238.0	1
478.5	203.0	1
511.5	266.0	1
486.5	325.0	1
436.5	310.0	1
329.5	306.0	1
270.5	372.0	1
570.5	310.0	1
547.5	324.0	1
588.5	429.0	1
477.5	477.0	1
520.5	563.0	1
447.5	519.0	1
362.5	484.0	1
407.59923120896525	88.70247737824923	1
486.5998785254899	203.7385027281662	1
511.5474513622871	264.7214559257126	1
481.05597345064604	328.4763615413292	1
435.3187565831844	307.686718405802	1
469.96816330095834	418.56481512861353	1
421.45899389607484	443.51238689124614	1
468.58218703224736	454.6001965635273	1
472.7401158383803	490.6355779984411	1
471.3541395696693	536.3727928966008	1
372.9498244911913	84.5445487511438	1
244.05403150107213	79.00064391500322	1
456.5579674432451	625.0709339898447	1
451.3140838759356	586.2661947991999	1
469.1432880047879	533.8273580550855	1
590.8013867663684	434.19356824126794	1
476.4847249990212	483.4860747807355	1
443.97264688170225	521.2420372364979	1
420.89955918554045	433.1447915063856	1
476.4847249990212	57.68272041852593	1
384.19237421437396	10.487767348822896	1
381.04604407398824	73.41437144176028	1
415.65567561823093	83.90213879058317	1
270.9244891604887	218.14556085551624	1
365.3143933720597	564.2418833666718	1
432.43610303362135	308.34036005539315	1
482.7773852797926	327.21834128327436	1
557.2405319355876	397.4863825203878	1
196.4639467711987	36.381209286308724	1
246.9281996508903	83.3247051396103	1
344.3359435814578	19.95098573765317	1
376.02280004079904	80.97753034694522	1
418.2719419865873	90.36622951760553	1
471.0833694188227	62.20013200562459	1
385.4114982509742	134.96255057824203	1
271.57353245260015	218.28725571785233	1
210.54699408646147	242.93259104083566	1
153.04121754913848	127.9210262002468	1
232.84515233562752	301.61196085746263	1
430.0078147493063	308.6534852354579	1
483.99282945781357	200.68344477286425	1
483.99282945781357	323.91012138778086	1
542.6721932714084	321.5629465951158	1
572.011875178206	312.1742474244555	1
513.332511364611	268.7515137601515	1
580.2269861121092	276.9666255344793	1
580.2269861121092	436.57451143570466	1
475.7777185239103	483.5180072890062	1
473.43054397136655	532.8086779349729	1
437.0493384069377	516.3784543863173	1
424.13987836794684	441.2688610210348	1
462.86825848491947	411.92917611272134	1
466.38902031373516	460.04625936235544	1
513.332511364611	563.3219502396189	1
460.52108393237563	622.0013200562458	1
453.47956027474424	584.4465233736046	1
373.6756254882552	558.6276006542888	1
358.4189908967206	483.5180072890062	1
161.25632848304176	249.9741154188309	1
