507.234375	401.0	1
554.234375	401.0	1
562.234375	294.0	1
590.234375	464.0	1
484.234375	492.0	1
494.234375	453.0	1
426.234375	404.0	1
464.234375	266.0	1
305.234375	333.0	1
321.234375	254.0	1
362.234375	425.0	1
236.234375	227.0	1
440.234375	31.0	1
350.234375	71.0	1
400.234375	129.0	1
502.234375	174.0	1
531.234375	211.0	1
566.234375	185.0	1
605.234375	197.0	1
576.234375	128.0	1
444.234375	180.0	1
253.234375	95.0	1
212.234375	29.0	1
140.234375	26.0	1
180.234375	42.0	1
190.234375	111.0	1
250.234375	165.0	1
425.234375	216.0	1
530.234375	311.0	1
360.0705098047502	418.4619172180336	1
557.2405319355876	392.24249884597634	1
586.6062799125208	468.8032004923835	1
549.8990949413542	235.97476534851518	1
580.3136196317494	114.31666410216957	1
568.7770757836685	185.63348207416527	1
310.7780042720409	335.60855516233266	1
319.1682179797361	254.85274657639638	1
216.38810006046984	28.31697184182182	1
354.82662623744073	73.41437144176028	1
467.0457345778641	267.4380673949839	1
460.75307429709267	194.02369595322358	1
511.0943565432639	163.60917064163718	1
508.9968031163401	200.31635636251733	1
601.2891539009873	185.63348207416527	1
502.7041428355687	397.4863825203878	1
155.171875	29.0	1
211.171875	26.0	1
350.171875	68.0	1
233.171875	229.0	1
269.171875	119.0	1
309.171875	328.0	1
463.171875	264.0	1
360.171875	431.0	1
507.171875	400.0	1
587.171875	474.0	1
555.171875	301.0	1
600.171875	191.0	1
607.171875	546.0	1
579.171875	132.0	1
400.15393255252116	138.8847381647762	1
441.81935123832665	174.994770087618	1
432.0974202116387	215.2713441554031	1
461.2632132917025	265.26984989472254	1
500.15093739845435	398.59919853290774	1
558.4825235585821	397.21035115125994	1
590.4260112176996	470.81926237859136	1
265.43574546841666	112.49663791346873	1
258.4915090207824	99.99701147863887	1
350.15543012955453	72.22006384568363	1
159.88335146437603	105.55240100522991	1
511.26171571466915	161.1062962711404	1
566.815607295743	188.88324390409565	1
605.703331402495	187.4943965224479	1
441.16445103088887	35.128533499921915	1
535.9050391345816	202.25519287833828	1
569.9690708123138	185.22317663595192	1
607.2266054598334	191.6101827268468	1
517.8085223057864	170.32016242386382	1
348.5528649070543	67.06356395439639	1
196.32922334718842	109.64360456036233	1
234.65125898463717	227.80321724191788	1
307.0373262998182	332.12431672653446	1
318.7468371890386	257.609245666094	1
463.5189718194006	268.25425581758554	1
558.2595599230933	298.0602842417617	1
401.7779144035109	136.25612993909107	1
184.61971245796795	37.25753553022021	1
435.8419460812431	398.12337966578167	1
502.90550844677847	407.703888802124	1
559.3240609130224	394.92987662033426	1
490.13149656762886	482.2189598625644	1
369.84288470563695	431.1229111354053	1
491.19599755755803	454.5419334686866	1
580.6140807116051	470.5094486959238	1
258.0702807630781	95.8050913634234	1
210.16773621626712	25.54802436357957	1
495.45400151727455	30.870529439325317	1
446.48695598053445	177.77166952990785	1
431.5839421215266	207.57769795408404	1
585.9365856612508	138.38513196938936	1
272.9732946220859	130.9336248633453	1
549.7435520036603	242.70623145400594	1
235.3125	229.0	1
443.3125	33.0	1
349.3125	67.0	1
210.3125	27.0	1
512.3125	169.0	1
433.3125	397.0	1
499.3125	400.0	1
557.3125	397.0	1
591.3125	469.0	1
365.3125	424.0	1
309.3125	334.0	1
536.3125	302.0	1
550.3125	240.0	1
609.3125	189.0	1
464.3125	263.0	1
163.3125	106.0	1
231.26942547160314	228.12026255367365	1
196.2284529435083	109.19332689391358	1
155.8782421535809	106.00778397445572	1
149.50715623938186	25.307363348189945	1
185.6099764198432	35.925839746382806	1
257.8156167807659	93.26561229662428	1
265.24855034733145	127.24473677084144	1
347.01081957955273	64.59572602150354	1
400.10320219787826	133.61582260975717	1
441.5152606401722	176.08972820252862	1
508.41166273926234	162.2857088848779	1
540.2670923102576	199.45037627855294	1
549.8237211815563	142.11060372831145	1
580.617303100185	129.36843205048	1
497.7931862155972	32.74029682692495	1
567.8751312717869	183.52266168126363	1
606.1016467569813	186.7082046007215	1
558.3185024004883	296.078511502108	1
498.8550338679637	399.0777325645788	1
435.14417472597313	394.83034200530165	1
495.66949091086417	456.41750511482024	1
486.1128620395656	486.1492390297603	1
364.00038201741694	423.5002282804224	1
306.66060878962537	335.36687417542163	1
318.340932965657	255.7283011889751	1
459.56667073040285	263.1612346677101	1
463.8140613398689	195.20298571927577	1
558.3185024004883	398.0158849247595	1
582.7409984049181	470.22152443247097	1
605.0397991046148	539.2416210207246	1
440.4534129878057	33.80214446674424	1
246.13529260473427	292.89296858265016	1
211.17674302796033	15.662164577322745	1
213.26503170904198	42.80991651134884	1
143.30736089280717	24.01531901856154	1
131.82177314685816	97.10542037940102	1
250.85422796851142	90.84055454847193	1
259.207382692838	112.76758495672377	1
266.51639307662373	135.73875967013046	1
345.87136295772586	69.95766844537494	1
472.2128281631649	201.519850894886	1
583.9362726010324	135.73875967013046	1
459.68309607667504	268.34508642479636	1
611.0840254550936	548.1757602062961	1
533.8173442550732	306.9784257155258	1
499.36058101722614	405.12799040008167	1
235.18757942194563	232.99732685297693	1
197.6429899295263	108.21676792223572	1
157.88989517284702	108.21676792223572	1
249.54286363963539	92.75722964763062	1
265.00240048945506	115.94653705953827	1
343.4043373706837	68.4636695018226	1
315.7980215674342	87.2359659781288	1
267.21090575371505	135.82308626974483	1
298.1299794533545	280.4801944106926	1
320.21503209595414	249.5611178614824	1
440.57856899812197	35.336087484811664	1
443.8913268945119	177.7846901579587	1
400.8254742414427	136.9273390036452	1
430.64029530895215	206.49526123936818	1
467.08063216924154	204.28675577156744	1
512.3549900865708	166.74216281895505	1
555.42084273964	142.44860267314704	1
580.8186532786295	126.98906439854193	1
605.1122111854891	194.34848116646415	1
569.7761269573297	185.51445929526125	1
552.10808484325	242.93560145808019	1
562.0463585324198	299.25249088699877	1
531.1272848327803	308.0865127582017	1
459.35086374433166	268.33341433778855	1
306.9640005103944	331.27582017010934	1
364.38513738115336	427.34580801944105	1
433.9530532053421	397.53098420413124	1
506.8337269259208	404.1565006075334	1
565.3591164288098	399.73948967193195	1
581.9229059107595	471.5159173754557	1
420.70202161978233	471.5159173754557	1
214.20677941147602	23.189307411907656	1
