499.10395850101094	25.397812879708383	1
568.0745795419665	69.34338135126518	1
569.2599364972629	33.78267296600099	1
558.5917238995953	129.7965856062143	1
557.406366944299	208.03014405379554	1
571.6306504078556	242.40549549288426	1
602.4499312455616	267.29799136256923	1
482.7288787606266	397.6872554418713	1
451.90959792292057	397.6872554418713	1
417.5342462193254	300.48798585548246	1
451.90959792292057	274.41013303962205	1
436.49995750406754	176.02550650705777	1
475.6167370288483	158.24515231442567	1
463.7631674758845	56.304454943334974	1
364.193183230988	8.890177096316048	1
376.0467527839519	38.524100750702885	1
230.24784728249634	50.37767021245761	1
207.726065131865	14.816961827193415	1
232.6185611930891	116.75765919828412	1
278.84748244964817	216.32764267702385	1
60.7418026751131	366.867974841309	1
72.59537222807695	90.6798063824237	1
154.38500214352763	270.85406220109564	1
264.62319898609155	296.93191501695605	1
365.3785401862844	286.26370250137677	1
474.4313800735519	270.85406220109564	1
463.7631674758845	363.3119040027825	1
404.4953197110651	443.9161763427147	1
429.38781577228923	460.51117358917134	1
205.35535122127223	484.2183125126808	1
249.21355856723852	517.408307005594	1
307.29604937676146	536.3740181444016	1
501.69459004536884	375.1654734645373	1
302.5546215555759	359.7558331642561	1
58.3125	367.0	1
73.3125	327.0	1
147.3125	348.0	1
185.3125	343.0	1
253.3125	331.0	1
213.3125	369.0	1
181.3125	402.0	1
110.3125	408.0	1
89.3125	397.0	1
119.3125	370.0	1
85.3125	145.0	1
56.3125	122.0	1
73.3125	92.0	1
101.3125	12.0	1
225.3125	51.0	1
239.3125	179.0	1
273.3125	215.0	1
366.3125	9.0	1
413.3125	32.0	1
378.3125	35.0	1
507.3125	29.0	1
565.3125	32.0	1
569.3125	65.0	1
424.3125	124.0	1
562.3125	130.0	1
469.3125	161.0	1
441.3125	181.0	1
557.3125	210.0	1
508.3125	187.0	1
471.3125	268.0	1
418.3125	306.0	1
454.3125	310.0	1
454.3125	285.0	1
547.3125	368.0	1
476.3125	392.0	1
449.3125	394.0	1
516.3125	452.0	1
545.3125	445.0	1
435.3125	486.0	1
431.3125	511.0	1
406.3125	442.0	1
391.3125	392.0	1
347.3125	356.0	1
303.3125	364.0	1
279.3125	396.0	1
317.3125	394.0	1
281.3125	439.0	1
212.3125	487.0	1
252.3125	520.0	1
353.3125	419.0	1
219.3125	401.0	1
306.3125	196.0	1
308.3125	145.0	1
233.3125	112.0	1
222.3125	162.0	1
152.3125	272.0	1
472.3125	472.0	1
527.3125	499.0	1
473.3125	513.0	1
572.3125	491.0	1
372.3125	479.0	1
305.3125	481.0	1
345.3125	561.0	1
424.3125	555.0	1
364.5203797559913	6.387006090894893	1
376.22989064521175	41.51553959081681	1
567.8400688324556	59.61205684835234	1
567.8400688324556	37.25753553022021	1
509.2925143863533	25.54802436357957	1
442.2289520208179	22.354521318132125	1
466.712474789188	53.225050757457446	1
587.0010866511799	26.612525378728723	1
420.9389322222353	28.741527409027018	1
404.9714173732983	19.16101827268468	1
539.098542104369	57.483054818054036	1
612.5491104094791	72.38606903014212	1
609.3556074396917	102.19209745431829	1
247.42527086378675	329.99531469623616	1
186.7487144378262	339.57582383257846	1
307.0373262998182	360.8658441355615	1
305.972825309889	197.9971888177417	1
305.972825309889	142.64313602998595	1
241.03826492421197	109.64360456036233	1
226.1352510652041	127.74012181789786	1
235.7157599745663	47.9025456817117	1
96.26613029384998	11.709511166640638	1
83.4921184147004	146.90114009058254	1
76.04061148519648	86.22458222708106	1
56.8795936664721	122.41761674215212	1
62.202098616117766	367.2528502264563	1
151.62018177016486	344.89832890832423	1
313.4243322393929	395.9943776354834	1
282.5538035314481	392.80087459003596	1
352.8108688667708	380.02686240824613	1
347.4883639171252	354.4788380446666	1
448.61595796039273	395.9943776354834	1
482.67998963812494	395.9943776354834	1
420.9389322222353	303.38278931750745	1
457.13196587982577	279.96376698422614	1
443.29345301074704	178.836170545057	1
473.0994807287628	158.6106512572232	1
559.3240609130224	128.804622833047	1
559.3240609130224	205.44869592378572	1
577.4205777418177	240.57722942370765	1
453.93846291003837	315.09230048414804	1
477.3574846884793	316.1568014992972	1
392.1974054941487	389.6073715445885	1
292.13431244081033	113.90160862095892	1
323.00484114875513	101.12759643916914	1
365.58488074592043	112.83710760580978	1
387.9394015344322	114.96610963610807	1
424.1324351920227	120.28861471185382	1
450.744959940251	135.19162892394192	1
144.16867484066094	245.8997344994534	1
160.13618968959793	271.44775886303296	1
109.04014217299958	405.57488677182573	1
94.13712831399172	392.80087459003596	1
76.04061148519648	327.86631266593787	1
48.36358574703904	324.6728096204904	1
104.78213821328305	340.64032484772764	1
118.62065108236176	366.18834921130724	1
187.81321542775535	399.18788068093085	1
144.16867484066094	426.8649070748087	1
160.13618968959793	441.7679212868968	1
211.23223720619626	485.4124629080119	1
209.103235226338	370.44635327190383	1
377.29439163514087	260.8027487115415	1
334.7143520379756	240.57722942370765	1
363.45587876606214	284.22177104482273	1
335.77885302790474	262.9317507418398	1
317.6823361991095	235.2547243479619	1
279.3603005616607	222.4807121661721	1
236.78026096449543	176.7071685147587	1
252.7477758134324	226.7387162267687	1
208.03873423640886	227.80321724191785	1
245.2962688839285	261.8672497266906	1
288.94080947102293	250.15773856004998	1
270.8442926422277	255.48024363579572	1
288.94080947102293	272.51225987818214	1
265.521787692582	295.9312822114634	1
418.80993024237705	251.22223957519913	1
425.1969361819518	224.6097141964704	1
394.326407474007	243.7707324691551	1
514.6150193359989	182.02967359050444	1
503.9700094367076	199.06168983289083	1
474.1639817186919	265.0607527721381	1
462.45447082947146	232.06122130251447	1
489.06699557769974	220.35171013587382	1
493.32499953741626	237.3837263782602	1
506.0990114165659	294.86678119631426	1
605.0976034799752	265.0607527721381	1
580.6140807116051	131.99812587849445	1
522.0665262655028	312.96329845384975	1
535.9050391345816	335.3178197719819	1
606.1621044699043	369.38185225675466	1
604.0331024900461	331.0598157113853	1
599.7750985303295	392.80087459003596	1
519.9375242856446	454.5419334686866	1
432.6484431114558	487.5414649383102	1
403.9069163833692	441.7679212868968	1
506.0990114165659	370.44635327190383	1
467.7769757791171	356.6078400749649	1
305.972825309889	485.4124629080119	1
249.554272843645	516.2829923473372	1
530.5825341849359	499.25097610495084	1
575.2915757619595	499.25097610495084	1
572.098072792172	469.44494768077465	1
567.8400688324556	447.0904263626425	1
543.3565460640855	444.9614243323442	1
477.3574846884793	476.8964547868187	1
453.93846291003837	483.2834608777136	1
472.0349797388336	508.83148524129314	1
379.42339361499916	410.89739184757144	1
351.7463678768417	419.4133999687647	1
288.94080947102293	442.8324223020459	1
307.0373262998182	532.2505075745744	1
20.686560008881607	106.45010151491489	1
26.00906495852727	79.83757613618617	1
27.073565948456398	40.45103857566766	1
5.783546149873756	51.09604872715914	1
149.4911797903066	30.870529439325317	1
213.36123918605452	14.903014212088085	1
188.8777164176845	7.451507106044042	1
301.7148213501725	32.99953146962361	1
315.5533342192512	77.70857410588786	1
321.940340158826	54.28955177260659	1
214.42574017598366	411.9618928627206	1
188.8777164176845	449.2194283929408	1
260.19928274293636	418.3488989536155	1
21.75106099881074	249.09323754490083	1
38.78307683767685	288.4797751054193	1
4.719045159944624	168.19116039356553	1
428.3904391517392	509.8959862564423	1
373.03638767542435	447.0904263626425	1
373.03638767542435	477.9609558019678	1
511.42151636621134	522.6699984382319	1
489.06699557769974	540.7665156957677	1
434.777445091314	550.3470248321099	1
463.5189718194006	542.8955177260659	1
346.42386292719607	559.9275339684523	1
351.7463678768417	572.701546150242	1
397.5199104437944	579.088552241137	1
378.35889262507	593.9915664532251	1
615.7426133792665	201.19069186318913	1
45.17008277725164	188.41667968139936	1
69.65360554562169	203.31969389348743	1
86.6856213844878	212.90020302982978	1
111.16914415285784	243.7707324691551	1
86.68562138448779	251.22223957519915	1
73.91160950533822	240.57722942370765	1
284.68280551130636	508.83148524129314	1
274.03779561201503	534.3795096048727	1
333.64985104804646	510.9604872715915	1
353.8753698567	522.6699984382321	1
400.7134134135818	530.1215055442761	1
376.22989064521175	531.1860065594253	1
395.3909084639361	547.1535217866625	1
404.9714173732983	609.9590816804623	1
221.84375	48.0	1
319.84375	106.0	1
309.84375	198.0	1
540.84375	56.0	1
530.84375	36.0	1
499.84375	23.0	1
377.84375	38.0	1
566.84375	39.0	1
565.84375	68.0	1
551.84375	125.0	1
469.84375	158.0	1
441.84375	176.0	1
559.84375	204.0	1
581.84375	245.0	1
580.84375	127.0	1
314.84375	160.0	1
306.84375	139.0	1
424.84375	232.0	1
350.84375	347.0	1
245.84375	326.0	1
303.84375	362.0	1
286.84375	394.0	1
208.84375	369.0	1
452.84375	397.0	1
482.84375	393.0	1
599.84375	393.0	1
474.84375	323.0	1
451.84375	317.0	1
426.84375	308.0	1
454.84375	279.0	1
481.84375	266.0	1
361.84375	284.0	1
330.84375	261.0	1
279.84375	209.0	1
97.1560004056981	15.459538274605103	1
79.4879582916184	86.13171324422844	1
25.379579317249366	45.274362089914945	1
146.8473688515472	29.814823815309843	1
55.194400384758836	118.155042527339	1
25.379579317249366	91.65297691373026	1
87.21772671652826	145.76136087484812	1
18.754063524469483	117.05078979343864	1
141.3261056908973	244.03985419198057	1
156.78564254071702	273.8546780072904	1
44.15187406345903	326.8588092345079	1
22.066821420859423	256.18663426488456	1
104.88576883060796	339.0055893074119	1
60.71566354540874	365.5076549210207	1
365.4893900132833	8.834021871202916	1
379.84467423097306	40.857351154313484	1
345.61284263494366	29.814823815309843	1
418.4935163555224	29.814823815309843	1
502.4167163974009	28.710571081409476	1
566.4633690609397	37.54459295261239	1
421.8062742519123	122.57205346294046	1
340.0915794742938	261.7078979343864	1
373.2191584381932	263.91640340218714	1
337.8830742100338	239.6228432563791	1
311.38101103891427	199.86974483596597	1
439.474316365992	181.09744835965978	1
458.24661111220166	130.301822600243	1
312.48526367104427	166.74216281895505	1
221.93654783638587	47.48286755771567	1
554.3165901075099	129.19756986634266	1
556.5250953717699	207.59951397326853	1
574.1931374858497	241.83134872417983	1
599.5909480248391	269.43766707168896	1
580.8186532786295	135.82308626974483	1
513.4592427187007	193.2442284325638	1
422.9105268840423	302.5652490886999	1
453.8296005836817	277.1674362089915	1
457.14235848007166	311.39927095990276	1
504.6252216616609	300.3567436208991	1
470.3933900656315	272.75042527339	1
427.3275374125622	227.47606318347508	1
521.1890111436105	341.21409477521263	1
481.43591638693124	390.905467800729	1
449.41259005516184	392.0097205346294	1
398.61696897718275	395.3224787363305	1
373.2191584381932	374.34167679222355	1
348.9256005313336	347.8396111786148	1
308.0682531425243	363.2991494532199	1
311.38101103891427	397.53098420413124	1
239.60458995046557	333.4843256379101	1
185.4962109760965	335.6928311057108	1
535.5442953613003	442.80534629404616	1
369.90640054180324	443.9095990279465	1
378.74042159884306	410.7820170109356	1
366.5936426454133	472.620170109356	1
346.71709526707366	431.7628189550425	1
253.9598741681553	416.3032806804374	1
210.89402151508608	372.13317132442285	1
185.4962109760965	403.05224787363306	1
112.61553725551782	375.44592952612396	1
241.8130952147255	115.94653705953827	1
313.58951630317426	108.21676792223572	1
75.46779697754918	89.44447144592952	1
23.567923267440108	45.274362089914945	1
101.96986014866872	12.14678007290401	1
57.7997548634695	113.73803159173754	1
20.25516537105017	117.05078979343864	1
34.61044958873991	195.4527339003645	1
88.71882856310896	143.5528554070474	1
109.69962857357858	77.29769137302551	1
145.03571280173796	26.50206561360875	1
224.54190231509654	51.89987849331713	1
51.174239070689616	327.9630619684083	1
19.150912738920187	249.5611178614824	1
64.42527065624938	363.2991494532199	1
36.81895485299987	378.758687727825	1
103.0741127807987	335.6928311057108	1
113.01238646996852	375.44592952612396	1
139.51444964108805	245.14410692588092	1
153.8697338587778	274.9589307411908	1
368.094744491994	8.834021871202916	1
375.82451291690387	44.17010935601458	1
442.07967084470266	18.772296476306195	1
506.1263235082415	27.606318347509113	1
569.0687235396504	64.04665856622114	1
421.098870834233	124.7805589307412	1
247.7312075898261	112.63377885783719	1
223.43764968296657	125.88481166464156	1
216.8121338901867	164.53365735115432	1
240.00143916491626	188.82721749696233	1
279.75453392159557	220.8505467800729	1
308.465102356975	143.5528554070474	1
308.465102356975	204.28675577156744	1
243.3141970613062	329.06731470230864	1
181.4760496620273	335.6928311057108	1
210.18661809740678	368.82041312272173	1
301.83958656419514	359.98639125151885	1
273.1290181288157	389.80121506682866	1
313.98636551762496	395.3224787363305	1
312.88211288549496	239.6228432563791	1
319.50762867827484	106.008262454435	1
381.34577607755375	113.73803159173754	1
411.1605971450632	24.29356014580802	1
475.20724980860206	157.90814094775212	1
442.07967084470266	178.88894289185905	1
418.8903655699731	256.18663426488456	1
422.203123466363	300.3567436208991	1
448.70518663748254	395.3224787363305	1
456.4349550623924	312.5035236938032	1
562.4432077468705	209.80801944106926	1
350.4267023779143	383.1756986634265	1
434.3499024197928	512.3732685297691	1
249.93971285408608	515.6860267314702	1
209.0823654652768	484.76695018226	1
90.92733382736891	390.905467800729	1
402.3265760880234	443.9095990279465	1
364.78198659560405	447.2223572296476	1
287.48430234650544	440.59684082624545	1
517.1688498295414	458.26488456865127	1
452.0179445338725	482.5584447144593	1
478.520007704992	395.3224787363305	1
476.31150244073206	263.91640340218714	1
449.80943926961254	283.79295261239366	1
513.8560919331514	192.13997569866342	1
555.8176919540906	126.98906439854191	1
537.045397207881	57.42114216281895	1
570.1729761717804	29.814823815309843	1
539.2539024721409	443.9095990279465	1
529.3156287829711	337.9013365735115	1
523.7943656223213	308.0865127582017	1
500.60506034759163	287.1057108140948	1
575.6942393324302	241.83134872417983	1
569.0687235396504	443.9095990279465	1
344.9054392172644	344.52685297691374	1
339.3841760566145	257.2908869987849	1
211.29087072953678	12.14678007290401	1
186.9973128226772	398.6352369380316	1
444.234375	175.0	1
345.234375	343.0	1
305.234375	362.0	1
280.234375	394.0	1
282.234375	220.0	1
310.234375	199.0	1
238.234375	177.0	1
186.234375	326.0	1
145.234375	342.0	1
214.234375	378.0	1
189.234375	409.0	1
156.234375	439.0	1
190.234375	454.0	1
215.234375	482.0	1
255.234375	418.0	1
310.234375	397.0	1
269.234375	295.0	1
418.234375	305.0	1
455.234375	279.0	1
518.234375	309.0	1
481.234375	388.0	1
445.234375	401.0	1
403.234375	447.0	1
247.234375	527.0	1
109.234375	409.0	1
90.234375	391.0	1
126.234375	360.0	1
435.234375	497.0	1
509.234375	369.0	1
493.234375	545.0	1
539.234375	431.0	1
580.234375	297.0	1
575.234375	245.0	1
550.234375	200.0	1
422.234375	222.0	1
330.234375	541.0	1
408.234375	605.0	1
461.52192496214474	59.186305324243385	1
500.87105893691546	26.991559522884813	1
539.0277949124506	55.609111346314656	1
361.3604930263648	10.297987625884073	1
373.28447301871955	38.91553944931392	1
227.81191711199153	49.64712138310011	1
75.18497320985064	88.99625514031614	1
276.70023508064605	218.96763633839333	1
438.8663629766707	183.19569655910604	1
471.0611089560286	156.96294072096202	1
559.2985608994537	204.65886042667842	1
574.799734889515	241.62319819860863	1
606.9944808688728	267.8559540367527	1
306.5101850615329	201.0816664487497	1
412.6336069934903	300.0506998381112	1
362.5528910256003	289.319117904325	1
451.98274096826094	282.1647299484676	1
447.2131489713191	396.63493724218694	1
474.638302953735	354.9010074996851	1
478.2154969514414	394.25014125690114	1
44.18262522972827	325.09105768361235	1
65.64578921596683	370.40218140404295	1
84.72415720373445	147.42375677981875	1
207.54115112498843	366.8249874261142	1
177.73120114410156	396.63493724218694	1
211.11834512269488	409.75131516125896	1
205.1563551265175	482.4875927124765	1
250.46747909746557	517.0671344991208	1
306.5101850615329	364.44019144082836	1
406.67161699731287	441.94606096261754	1
599.84009287346	385.90335530840076	1
151.49844516092108	270.24075002203847	1
306.5101850615329	534.9531043887645	1
502.06345693615094	291.7039138896109	1
473.4459049544995	265.47115805146683	1
424.55758698584503	223.73722830896497	1
604.6096848704018	104.49742904467396	1
605.8020828696373	72.3026832433154	1
590.3009088795761	21.029569559670264	1
565.2605508956311	34.14594747874227	1
561.6833568979247	61.571101309529205	1
553.3365709032764	127.15299090488926	1
568.8377448933376	490.8343786609768	1
548.5669789063345	365.6325894334713	1
575.9921328887505	296.4735058601825	1
208.7335491242239	224.9296263016079	1
242.12069310281723	328.6682516615411	1
343.4745230378327	358.4782014776138	1
302.9329910638265	480.10279672719065	1
169.38441514945322	232.08401425746536	1
21.171875	41.0	1
23.171875	94.0	1
72.171875	89.0	1
55.171875	121.0	1
88.171875	148.0	1
21.171875	262.0	1
71.171875	329.0	1
59.171875	366.0	1
67.171875	412.0	1
106.171875	336.0	1
118.171875	374.0	1
182.171875	400.0	1
156.171875	445.0	1
205.171875	486.0	1
251.171875	519.0	1
306.171875	363.0	1
366.171875	288.0	1
228.171875	49.0	1
272.171875	39.0	1
464.171875	60.0	1
501.171875	26.0	1
565.171875	32.0	1
558.171875	131.0	1
558.171875	207.0	1
482.171875	389.0	1
449.171875	395.0	1
449.171875	482.0	1
405.171875	443.0	1
421.171875	304.0	1
