297.8407232928482	6.264865830929098
167.322680725246	51.16307095258763
83.79113348198052	25.059463323716393
51.42265892521517	42.80991651134884
56.64338062791926	90.84055454847193
46.20193722251108	117.98830648249802
213.26503170904198	18.794597492787293
243.5452175847257	68.91352414022008
265.47224873608286	46.98649373196824
237.2803515414808	55.33964817320703
219.5298977522869	177.50453187632445
298.88486763338904	107.54686343094951
266.51639307662373	205.6964281155054
427.3146215199097	135.73875967013046
314.5470327415013	243.28562310107998
231.01548549823588	224.4910256082927
505.62544706047106	447.9379069114305
