501.3125	408
501.3125	464
423.3125	324
505.3125	235
507.3125	293
545.3125	307
605.3125	333
513.3125	82
457.3125	213
398.3125	205
359.3125	210
373.3125	233
403.3125	47
308.3125	82
318.3125	145
186.3125	204
170.3125	110
77.3125	126
146.3125	76
95.3125	14
41.3125	95
176.3125	284
262.3125	280
293.3125	319
356.3125	338
359.3125	436
464.3125	351
287.3125	257
