136.90909516237738	9.938274605103281
146.8473688515472	41.96160388821385
178.87069518331663	26.50206561360875
244.02160047898548	9.938274605103281
248.4386110075054	45.274362089914945
220.8322952042559	77.29769137302551
160.09840043710696	102.6955042527339
193.22597940100638	128.09331713244228
269.41941101797505	110.42527339003645
292.6087162927046	60.733900364520046
267.21090575371505	71.7764277035237
316.9022741995642	32.02332928311057
204.26850572230617	153.49113001215068
333.4660636815139	124.7805589307412
300.3384847176145	14.355285540704738
527.8145269363904	37.54459295261239
465.97637953711154	36.44034021871203
543.2740637862101	57.42114216281895
501.31246376527093	79.50619684082625
450.5168426872918	61.83815309842041
409.6594952984825	49.691373025516405
331.2575584172539	50.795625759416765
438.370063733862	117.05078979343864
601.7994532890991	76.19343863912515
584.1314111750195	125.88481166464156
538.8570532576903	122.57205346294046
463.7678742728516	132.51032806804375
506.8337269259208	173.36767922235722
605.1122111854891	200.97399756986633
609.5292217140089	157.90814094775212
560.9421059002898	245.14410692588092
518.9805058793506	248.456865127582
428.4317900446922	187.72296476306198
387.57444265588293	159.0123936816525
385.365937391623	119.25929526123937
292.6087162927046	134.71883353584448
280.4619373392748	163.42940461725394
220.8322952042559	199.86974483596597
268.31515838584505	196.5569866342649
400.8254742414427	200.97399756986633
316.9022741995642	197.66123936816524
320.21503209595414	229.6845686512758
278.25343207501487	219.74629404617255
269.41941101797505	298.1482381530984
379.84467423097306	223.05905224787364
452.7253479515518	234.10157958687728
421.8062742519123	286.0014580801944
545.4825690504701	295.9397326852977
557.6293480038998	345.6311057108141
576.4016427501095	312.5035236938032
585.2356638071494	217.53778857837182
532.2315374649104	205.3910085054678
525.6060216721305	401.94799513973265
563.1506111645498	380.9671931956258
494.686947972491	400.8437424058323
459.35086374433166	336.79708383961116
412.97225319487245	346.73535844471445
248.4386110075054	150.17837181044956
354.44686369198354	289.3142162818955
315.7980215674342	279.3759416767922
399.7212216093127	249.5611178614824
