448.7635876859609	180.55015961420906
450.1524349754877	229.15981797188073
519.5947994518302	319.43489777898526
564.0379127166894	345.82299803029275
559.8713708481089	383.3218773347823
415.43125273731647	283.32486585614345
391.82084881536	159.71744888949263
337.6558045238129	120.8297222033553
318.2119424704369	30.55464239625075
325.1561789180712	59.72043741085377
295.99038583800734	62.49813217414929
280.713065653212	98.6081640969911
294.6015385484805	138.8847381647762
223.77032678261114	72.22006384568363
