596.921875	526
537.921875	543
552.921875	507
555.921875	602
469.921875	554
385.921875	516
316.921875	468
442.921875	421
501.921875	441
375.921875	332
408.921875	301
390.921875	261
299.921875	422
271.921875	356
279.921875	252
292.921875	198
309.921875	133
222.921875	266
230.921875	219
415.921875	488
448.921875	511
484.921875	391
311.921875	338
169.921875	143
138.921875	64
587.921875	64
569.921875	145
392.921875	220
367.921875	174
252.921875	390
245.921875	406
458.921875	408
