379.87970583474606	327.09038533229403
543.4249055426392	543.3026739417766
415.915088821231	486.47764937133564
318.8967500114639	468.45995865387874
299.49308224951045	422.72274375571897
138.71983507903929	56.82502457044092
169.21131299068037	139.98359711254957
220.49243493298582	220.37021723658793
596.0920037536556	525.2849832243197
