338.3125	14
334.3125	46
278.3125	11
298.3125	79
237.3125	261
321.3125	151
296.3125	192
412.3125	7
377.3125	377
472.3125	333
464.3125	406
431.3125	451
414.3125	412
288.3125	360
343.3125	195
567.3125	395
530.3125	431
612.3125	416
457.3125	521
397.3125	251
586.3125	254
558.3125	528
562.3125	568
584.3125	487
425.3125	299
