462.6520605812294	409.7099775860898
412.6535581582628	404.15458805949874
523.7613413204108	438.8757726006928
568.20445458527	384.7107247164301
468.2074497393368	333.3233715954629
400.15393255252116	255.54791822318822
373.765834051511	234.71520749847178
291.82384396942683	195.82748081233444
319.6007897599638	151.38436459960607
344.60004097144713	198.60517557562997
419.59779460589704	295.8244922909733
432.0974202116387	454.1530937988182
451.5412822650146	519.428920736263
561.2602181376358	534.7062419343883
584.8706220595923	486.09658357671674
373.765834051511	169.43938056102698
376.5435286305647	197.2163281939822
583.4817747700654	256.93676560483595
329.32272078665176	49.998505739319434
307.10116415422215	81.94199551721796
336.266957234286	13.888473816477621
205.7153120187621	152.77321198125384
284.87960752179254	359.7114718467704
489.04015908223954	474.9858045235346
