276.54652378463146	251.38137607824493
202.9376174397084	233.32636011682402
164.04989333295657	216.66019153705088
172.38297707011768	265.26984989472254
232.10341051977224	288.8802553827345
122.38447464715107	262.492155131427
115.44023819951681	165.2728384160837
175.16067164917138	94.44162195204783
190.43799183396672	105.55240100522991
252.93611986267499	134.71819601983293
326.5450262075981	109.7189431501732
369.5992921829304	109.7189431501732
469.59629702886366	116.66318005841201
466.81860244980993	90.27507980710453
458.48551871264885	68.05352170074035
545.9828979528404	134.71819601983293
500.15093739845435	133.32934863818517
512.650563004196	94.44162195204783
547.3717452423673	98.6081640969911
434.8751147906924	273.6029341846091
500.15093739845435	295.8244922909733
554.3159816900015	327.76798206887185
519.5947994518302	337.48991374040617
497.3732428194007	334.71221897711064
470.9851443183905	379.15533518983904
469.59629702886366	422.20960402091964
445.9858931069072	433.32038307410176
394.59854339441375	415.26536711268085
69.60827764513076	101.38585886028663
100.16291801472146	277.7694763295524
329.32272078665176	59.72043741085377
139.05064212147326	66.66467431909258
241.8253415464602	229.15981797188073
270.99113462652406	408.32113020444206
368.2104448934036	398.59919853290774
329.32272078665176	162.49514365278816
386.2654596572526	161.1062962711404
