47.7598192274347	93.76584711088778
28.681451239667087	46.06992740517138
269.54584708523316	99.72783707410233
341.0897270393617	187.96528852967768
397.13243300342907	245.20039217653735
388.78564700878076	278.58753597053885
403.0944229996065	310.78228177189743
456.75233296520287	311.9746797645403
529.4886109185669	252.35478013239484
208.7335491242239	322.7062616983265
175.3464051456306	366.8249874261142
203.96395712728201	384.71095731575787
271.9306430837041	403.7893251980444
455.5599349659674	421.6752950876881
527.1038149200959	447.9080509258321
382.82365701260335	534.9531043887645
597.455296874989	518.2595324917638
280.27742907835244	168.88692064739112
106.187321189973	32.95354948609936
122.88089317926966	403.7893251980444
76.37737120908612	360.8629974628996
547.374580907099	552.8390742784081
