10.701029644123262	57.427936783516735
66.04067969278663	15.662164577322745
129.73348446577654	3.132432915464549
31.583916454939626	137.82704828044015
39.93707117926617	245.37391171138967
214.3091760495828	124.25317231342711
82.74698914143971	255.81535476293817
117.20375237928671	315.33158015676463
280.0902695036543	157.66579007838232
411.6524564117974	122.16488370311741
322.90018746582786	262.0802205938673
346.9155072982667	259.99193198355755
286.35513554689925	310.1108586309904
489.9632819523588	149.3126356371435
464.90381777937915	190.03426353818264
541.1263546388589	208.82886103096993
545.3029320010221	249.55048893200907
589.1569943037365	275.6540965608803
291.57585724960336	423.922587892869
269.64882609824616	403.039701789772
316.635321422583	385.28924860213954
349.00379597934835	483.4388132866954
