115.3125	19
144.3125	39
111.3125	56
106.3125	207
199.3125	246
206.3125	200
197.3125	226
381.3125	218
427.3125	262
395.3125	252
279.3125	352
524.3125	339
526.3125	461
518.3125	111
572.3125	26
341.3125	70
486.3125	270
