375.234375	330
206.234375	124
149.234375	150
80.234375	171
54.234375	133
44.234375	195
137.234375	216
172.234375	188
110.234375	149
74.234375	281
118.234375	279
287.234375	127
461.234375	218
212.234375	328
153.234375	360
175.234375	381
178.234375	421
317.234375	407
342.234375	371
392.234375	385
541.234375	292
355.234375	428
262.234375	384
509.234375	370
221.234375	159
187.234375	301
554.234375	390
479.234375	401
427.234375	372
293.234375	177
156.234375	271
239.234375	305
313.234375	378
583.234375	376
