339.4413486088618	349.9703686782822	9
442.1877315185823	241.19334725470526	9
362.2940672829567	430.4740085202267	8
208.42365530298852	242.517430801269	8
156.42026871660002	341.84419810505005	9
470.39813233013695	526.3709834156634	7
333.2482207298018	107.61546514971434	8
113.3517622461557	89.84218226464179	7
51.86014053164145	25.047148960989652	6
68.19217713259383	125.82940966878769	5
257.84109519421577	68.1864402980812	5
13.78605303766362	233.61365095227046	2
341.0897270393617	403.7893251980444	1
532.234375	286.0	1
529.234375	327.0	1
220.234375	340.0	1
