481.17751341127916	254.14976937434238	8
185.2985863726341	179.60541373743692	3
376.5366756017645	122.42487259835642	8
498.866777221095	311.3066657356067	7
331.93068577938806	239.74682180105503	7
594.9894432216192	155.80495117114236	5
452.12131477727075	260.35723018406577	2
233.1802198627445	392.3525221406339	6
381.66445119428784	545.0660368304362	7
226.87655875842935	296.9963632823702	7
386.4696742253294	459.2361874810684	7
581.0037669435378	586.8776102188297	3
347.2734375	384.0	2
159.91738885697094	314.4349302761292	4
383.83700824914854	17.16791226663459	4
480.97969997587023	201.4881917447782	5
114.68138202938829	145.36415760630067	4
478.53535359106473	446.0587540059963	7
261.53390588005294	285.25859588484974	8
315.91991862054385	489.6120426486533	7
507.87060727628597	189.36193008021084	4
562.0413889485832	360.59603216914167	6
573.6131692186992	303.19218229980305	3
432.7077845590967	571.3835987725599	3
178.17296283647156	353.03901267937823	8
514.6191745248053	276.2455992762075	6
167.7049984819509	195.26615536779434	3
344.8936397737722	445.7764453782594	5
257.23565758313947	170.8642162818955	4
452.9818624306289	500.55985319629633	7
258.4845582630292	77.14105350102736	6
299.97290305716655	318.0412896746401	6
307.2224439186472	208.72007793534274	5
585.4762791692331	445.0724432203597	6
468.1391287489899	340.88078261760637	3
275.53088742510243	333.0574196741146	6
553.3936270483687	590.1309092501004	5
289.0127701910462	187.33712029161603	3
188.25959254212015	378.74010314215343	5
371.1044098441982	185.7411675762142	5
346.61668913925223	527.9494205556919	7
438.56026676564244	115.81600908166943	4
468.8734215596343	538.2254393583205	3
391.99689045994967	247.75317231342711	2
546.5879496268557	431.5582477980753	7
447.0935596939353	382.3544483132158	7
563.7363864774379	522.1109609067478	4
604.5583686124148	117.37623703993933	3
576.9346093821716	8.047461577536676	4
531.2486624054511	205.22882732205582	5
592.2126749815978	536.8450864247964	2
487.7470999010664	489.6659078192546	4
283.52961110214835	41.52131818043294	4
427.4170570642428	166.86919774833137	8
546.6061224782616	39.83279822581928	2
220.839551708486	322.67213627743695	4
471.16129391118005	181.51972998826	3
496.3039820436635	421.69071799808336	4
277.4466037780951	67.61173015357181	2
609.7765657082763	34.17695117332428	3
117.7003305435218	276.9628927518861	2
337.118460759857	16.143032007286862	2
500.29216039523226	118.16925911208244	6
96.11788708181676	88.83733910564749	3
186.60228144965987	302.6915728420553	4
500.3665765370431	455.711756502928	2
577.1682418420672	262.4270793909848	3
509.31035650682657	502.67043300623277	2
513.8498361758618	227.98955205634644	6
339.8369406985594	53.16686586251022	3
93.33291382941668	22.75915833203734	2
115.01365367487982	53.89145913844742	3
221.85075525739092	407.3062082400727	4
205.96239567333004	386.4363118054764	3
607.8385116384106	291.91666622123137	4
527.5286077002963	309.7387480673385	4
306.74062136268424	139.1555228262563	2
218.4869204948102	187.20745257769045	3
445.7753309741714	354.16830762722446	2
255.12143896233889	418.8295503790574	2
290.8812263072539	397.319561119314	3
472.61317779887406	366.9269343169848	3
489.04015908223954	352.76723493853154	1
275.1576764951046	409.7099775860898	1
569.2080970553392	70.82256589074711	5
206.03603619976212	354.4685297691373	3
169.21004559252145	1.7957523577905894	2
318.0148255949053	79.83939369626485	2
150.61479126596683	227.039805930086	2
408.5008770073824	491.2085976924276	2
435.234375	309.0	1
410.234375	368.0	1
454.234375	62.0	1
444.9459293983202	20.57642421665969	1
607.7494061243189	522.5509537373235	1
470.5724025866718	421.55307542535814	1
491.67655697707903	602.4447977751469	1
280.4619373392748	439.4925880923451	1
443.8913268945119	280.4801944106926	1
234.08332678981566	149.0741190765492	1
247.33435837537542	125.88481166464156	1
489.04015908223954	548.594715750866	1
364.66596108746063	272.52166364541574	1
359.4452393847565	210.91714964127965	1
166.3125	136.0	1
195.3125	127.0	1
370.3125	235.0	1
357.3125	16.0	1
