207.520684707927	81.47614154277306	8
399.41441692942317	169.51694986784418	8
593.6233381528604	468.8218574732529	7
460.9037531115336	523.500283974547	6
247.71365765999397	405.72353805998284	8
86.96363005503275	45.35626484319368	7
274.6988314171041	484.87691401993686	9
252.3743115400652	468.2043476969214	5
52.69154748000599	11.55072818990823	4
611.7512531436169	284.07239806803636	7
428.00660033994063	364.80976956649056	5
281.25019847064686	450.56814400547734	7
493.97758637039817	294.9645043563015	9
371.1997529027408	460.45611263230427	10
148.5012677123524	341.1421138101034	9
391.795072546355	296.1014597437835	8
197.50218778828923	34.912925609118986	8
311.405317087532	467.70246193335265	8
484.6755468563162	340.8488692333408	4
368.29328398789715	201.94876278139287	4
543.7068286838098	342.72456512827705	8
590.3337205563806	267.904465975662	9
31.4308006126004	257.00316289523465	6
38.430435582178205	177.32755182531463	9
179.2271804168781	354.28711358714406	6
156.0784423100983	19.438082184825323	8
447.9207926399689	499.29195413630754	7
592.3964878111366	190.11570343211548	8
383.41505466825527	382.87586720527736	8
419.0062915597621	411.27553740614695	7
175.09476897776534	296.9098035800268	9
278.35079999734336	299.7631548641355	9
157.71268440642808	68.87603401390558	9
185.9107920061169	109.11108410289651	8
202.89220726763506	260.53440206062646	5
133.33675221339527	232.9014694317131	7
361.3727316034785	340.7436657412492	9
574.20280346923	508.08501917169053	6
148.12574478353184	401.77148197531665	6
82.52593403547557	293.3387661039436	8
492.5279624602829	426.66416009571395	6
489.63435297286304	353.24576904069943	5
340.5763580811765	427.111576872955	5
11.221735428401733	204.05784199112725	3
147.77161805859814	266.1423226395974	7
65.35852474990439	207.52537156226762	4
322.6437504148047	197.3472486145994	6
127.10495369633242	282.158769825842	6
145.9937922125273	307.297216187434	3
348.1668153200618	185.81244638237877	2
122.59049370815794	269.0881705095385	4
64.44200240149434	221.03539110718043	3
434.8671875	506.7416687011719	2
473.4459049544995	402.59692720540147	1
399.51722900190003	468.1788168007615	1
