458.57025743260357	395.67249611716886	6
303.1017195832145	277.27216481375825	9
359.628751576206	226.81144175335427	10
421.9031422894286	474.8042183830229	4
556.7230064765979	135.28020595733952	8
161.501191378167	128.14130557336208	6
371.35910668738893	287.0687807862049	8
233.436037150535	252.408828942943	8
526.2459418553163	460.8124783923914	8
209.52009535940442	206.97104253499066	6
569.2877315359092	424.78712791981627	8
478.5816235554711	542.4497615017696	3
244.11382096339554	161.06178546709486	10
586.8046686180425	319.32157731060386	5
534.9340905209218	319.6977805176468	6
293.0498173803075	164.573130383558	7
401.21297464857287	247.72887158223512	7
399.7127152911522	303.48030388596527	8
441.76000832345505	102.17249758626369	5
312.89011194293676	185.30797518187268	7
523.4634855702643	402.6843881458552	4
513.7370946957567	328.056995798029	7
473.33056729076577	125.64604373075396	6
503.02177145313715	474.8541938674868	5
490.3496860770813	322.617913443013	2
262.3516433356971	285.60497272023724	9
229.6463848729536	53.09573571149174	5
312.2252800127683	363.54741745387565	3
586.0612417056739	210.28413164012218	7
464.0957002324376	262.40655925509014	4
592.7661484413738	65.11967743690573	4
338.01908899292766	349.95629287023655	4
566.9240828357383	67.01204554350741	2
499.22640503998275	161.03831220816124	8
172.19896498330758	78.66653612137317	6
325.2139367541824	378.30148658092963	5
509.1650245553517	224.154352536383	7
365.1419572573928	182.3717879673796	3
420.91561399357454	55.78027923258894	7
443.83960376960687	196.03623634405295	2
415.3102792556783	209.18512333318728	5
272.80655322505754	318.06490801277005	5
369.7882873977785	373.84112940452377	3
403.80704169954095	460.1524997655863	4
176.28681802577657	102.36459115341799	6
481.7698994126915	29.140213879058315	3
577.757156792547	163.3247200029561	4
612.7270975874168	256.97445008780926	4
500.04517076299356	419.8194599392239	3
385.15687470358114	71.26671968808573	5
219.4537400336888	26.683702426817575	4
599.8375854606629	431.5180575701388	5
474.30906029316986	500.2978919833821	3
440.87715778712527	509.22946564533476	7
435.3913252148687	421.396623448411	5
520.2261748990005	239.00836237434706	6
533.2346506105107	148.98896846867765	3
481.36391475230675	277.4141406370211	2
525.3277734967958	101.76655087168103	4
309.6805386102783	320.23687573314925	3
337.77882631285706	150.84120633943684	2
256.8033694176501	383.99930758578245	2
268.2697731045382	345.0475457762733	2
421.2188853574274	309.32567496597756	3
499.5250384228873	512.8518233574397	2
363.57884085222236	363.30841210065677	4
445.34475682738037	288.3378228720205	3
311.2077627977455	15.09838514912256	3
334.03653500581845	101.32295197261486	5
150.5027674441435	20.766117886709885	5
288.0800532310327	417.87842146259175	3
404.6107458545853	428.42529619941536	2
334.3901902616045	458.19138520080867	4
370.0011143103426	458.83982151100173	2
554.1461657067528	224.3341515563451	6
471.5174228189859	291.2645244116368	4
235.14008863738766	324.89064652810407	3
208.25045615509492	316.101815277726	4
381.35360576457555	205.40962258517388	3
415.09327892440933	152.5850900138483	2
298.5718500467329	212.5717350376095	4
518.3623208871777	62.854941120287975	4
563.2041043987606	290.59001251305295	2
388.5370440885318	132.8773855881272	2
516.280307732736	361.04290820670474	2
563.0849486698368	93.93430234990305	3
458.0755594603587	153.3813474773428	2
249.5128288379751	214.36884477754853	2
599.084954975604	349.673122680618	2
588.3475462069787	47.227958315673206	2
535.84375	35.0	1
238.90402512760502	35.658408985997845	1
155.00188805065295	197.17002615787044	1
211.63583057759558	346.09632251115556	1
440.2691541122899	17.829204492998922	1
364.75723074303306	510.75426988767504	1
543.0492720315561	497.1201723342053	1
603.8783214123464	571.5833205108479	1
539.9029418911705	235.97476534851518	1
435.0252705449804	225.48699799969228	1
588.1466707104179	9.438990613940607	1
562.9760295873323	590.461301738729	1
301.83062793531906	446.7788890598554	1
396.2205321468901	177.24326819510694	1
531.5127281834752	207.65779350669334	1
451.8056979603708	349.2426527158025	1
550.3907090257895	6.292660409293738	1
411.9521828488186	8.390213879058317	1
462.29346509498987	216.04800738575167	1
362.234375	144.0	1
338.234375	425.0	1
460.19591166806606	12.585320818587476	1
364.3125	87.0	1
