304.43771334310645	367.0755153620209	6
526.1218148623427	203.8864713162872	7
517.2122399168211	360.32737009754544	5
254.77008539928505	280.5795873825863	3
319.6355140815726	337.3479183988965	4
285.11252059021297	155.78612155965337	7
608.2519664328061	391.636112281687	6
129.78346560780403	70.61414407190088	5
307.69464010932904	304.05470275325047	4
504.91904748639763	486.21311817242236	8
346.4804775889329	369.94812900625425	7
542.5445435958733	309.9157481241032	5
418.09870961412065	154.26893673653842	4
372.99530163295196	408.5111614876456	2
361.3563433610245	193.9295086490519	2
323.49251253475813	188.07472852352578	4
91.36900547278361	194.25294415714077	3
344.25113312731736	138.61930922613556	7
445.88679379331336	195.66182203977252	6
524.6244941620196	453.05442466351917	8
563.0187537048046	182.63864707373585	3
540.6503348981848	415.3612750170869	6
396.50264289848144	180.9229419449107	6
584.2333462466827	472.71704297232566	2
315.322430035165	97.07857798814322	5
279.02156353746125	331.60356976328393	7
294.69911888103735	254.73671092011034	7
584.1767787529441	412.46023778587994	6
528.1085853700743	257.79345442208796	5
139.7840243095335	281.8611109664803	6
579.8554052903477	97.69407623219871	2
310.8964226278189	144.7775998792853	8
239.71555649391257	18.64283498138331	3
554.9062330961476	461.07754120816264	6
550.4679196086279	266.1229981094614	6
350.46831461465007	33.944794735869195	4
454.18691734402785	413.71867410790196	5
252.73350075163853	105.78580881664365	5
241.93718411000646	305.98561217342854	3
222.43595536223407	308.66849360064384	1
245.52576828739848	85.9198890098522	2
444.1723535831096	384.57426580209085	2
492.29698765069907	23.591834034275685	2
568.0068444084505	379.610633430872	3
349.50026137972475	336.6475309580618	3
255.6919214760329	252.54275826951726	1
284.5585864354934	37.75596245576243	1
379.234375	333.0	1
484.234375	373.0	1
491.234375	337.0	1
195.234375	264.0	1
101.3125	241.0	1
363.3125	295.0	1
376.171875	12.0	1
100.81135944021554	57.072517152989796	1
209.31957737064383	361.1340052769319	1
563.4617831435801	317.0152795491442	1
148.50727940963458	201.35267426278193	1
124.65931942492506	189.4286943363528	1
