530.2006144158393	69.38112558092187	6
432.7918584815744	152.66690008963513	9
401.8289914001571	261.39402700447783	7
299.9516316749649	280.856558171129	4
66.03766871868595	106.34034203204584	8
262.0932044789346	198.68142718509577	5
219.23050989763107	273.6909563231859	6
330.1516917270062	245.70182408849428	10
281.8175569330021	264.3906283735181	5
179.93960419182693	187.88069277592012	8
172.62291151961972	166.9863542084461	8
374.82537825001157	284.98704429424544	9
130.42995790815445	201.49589311182046	5
374.82892773673404	10.309348606860489	6
439.96995000883487	349.3884873736275	6
421.0426078088207	275.7178834301907	9
377.32950834803637	257.8725658266362	7
377.43244277253933	191.186714238918	6
150.1890812198407	222.98371533295074	2
233.28723607505634	297.8862492330093	5
88.52660080227726	45.77335524364647	8
294.9680760913802	81.46982706830741	6
422.5639407010324	99.7988389017317	7
177.13791225803232	29.440056318618737	2
301.594721182918	168.9135723267019	6
157.67411601703463	43.28533052330701	7
141.53764552439625	269.5838220189834	6
125.84861005254723	100.29592107591645	6
390.6063783374738	328.060955653634	7
330.84428839375374	29.14063410887701	7
74.02029185306287	187.2395987725643	8
312.4293536115491	290.7122733966269	1
60.73168107950099	231.25161957402042	4
479.80271243293447	413.2405724206602	2
328.9784521043135	425.9821992709599	3
583.705969024279	47.37104549089545	5
589.1361041709763	254.2123074660713	7
506.1459122672095	188.18682280768172	8
152.08959681911426	334.6992709599028	3
552.7311916702154	343.22875364051754	8
458.07628311424514	363.03035008829306	3
192.08774200627767	276.26397468104585	2
548.6042579748355	247.50106339974752	2
371.04456805721156	46.8269205552414	3
356.63896197486883	145.25011429394783	2
481.14487932936413	383.5728913077014	3
272.38279241497037	28.20090156294754	6
13.767056418519758	158.5815246793325	2
102.90308361217461	285.29600132084033	2
190.4141173835218	130.16498187371707	2
12.350114659925353	96.44101959549405	4
494.3396374052063	11.393252596819835	3
255.31009714854827	102.96544129231917	2
409.0996524078448	9.711713821902826	4
283.49142061151485	326.20257442686943	2
34.240905348398	243.01429164587432	2
383.40438185749724	385.36752671785723	3
547.3160632321345	193.19623178419715	2
436.1615584696021	404.1565006075334	1
378.74042159884306	422.9287970838396	1
241.3125	418.0	1
544.5940506633136	380.54418257148683	1
526.3476677613195	231.39066150577145	1
579.1080537373376	293.19533330861594	1
607.7494061243189	362.5371602093683	1
3.3920192603375354	122.16488370311741	1
4.436163600878354	186.90183062271808	1
437.75606492531784	38.63333929072944	1
592.2894273253589	459.4234942681339	1
586.0245612821141	491.7919677279342	1
575.5831178767058	470.9090816248372	1
515.0227461253384	411.3928562310108	1
56.234375	142.0	1
462.234375	317.0	1
312.234375	313.0	1
306.234375	363.0	1
154.171875	378.0	1
