176.76862824286084	248.12929986206933	7
516.3754503589696	65.430476803132	3
340.25017169434784	252.44047066871047	7
158.11254161387424	157.87360521863047	7
397.52193897952156	374.4260697091854	7
80.26316657231564	161.1219042121101	4
228.0065897995348	358.31446958214025	7
263.4212187683853	63.27026051054194	5
425.6627517410993	403.6082927109911	6
292.20513943280446	97.69986010187822	7
567.4440344052924	519.914497119667	2
352.3384316867646	359.1493120512155	5
480.1652035674457	397.4205804560886	6
324.2669984944546	419.76377719363063	3
489.3054934425944	529.3593557262914	4
102.29284905777351	104.63486955826993	4
188.40420742412874	174.53704419789733	4
579.2329791414618	135.57218320453384	7
569.5750594675359	328.5017050394956	7
276.7210656367482	147.6558860098225	5
310.63200145574194	362.9242959872718	3
325.84172273923815	282.80705848308503	4
416.0010477656106	154.72577679549943	4
489.09516721558896	464.3366805548634	3
464.0931178963811	65.70653998660708	3
429.40684251229334	451.20597458977727	6
240.464160847076	213.00872420598466	6
250.87449004904428	248.83159285160295	4
515.2373904236568	204.53382154590125	3
301.5933816894027	270.25297302352607	4
247.57656028079685	157.0490181036499	4
231.90595265104702	91.6197740785056	4
370.2998157390844	227.91841670019863	7
496.9791135405634	422.7291116477513	6
360.3489374486149	487.86664535535283	6
336.0491580918916	536.1011421933136	5
213.06721890323544	387.78629063927093	7
125.12530145290319	175.29247934289089	5
282.44320425535045	327.58393345215734	3
338.33797254112096	89.9577827864139	2
338.8317265126996	202.8015093198132	7
378.4047527390976	420.18564074158337	2
562.6347376923843	215.37989521935438	3
204.8121427278278	215.03179989330806	5
83.77076700864725	204.34775212636694	3
485.08569661675597	508.9260024301336	2
466.9811136977694	591.8763829500842	4
329.89226499978736	110.0041312272175	2
111.73828125	209.5	3
564.48828125	604.0	3
59.88194914418968	32.66804374240583	2
539.9835071557455	202.03912515188335	2
502.234375	404.0	1
45.652975910039714	92.75722964763062	1
401.2223234558934	437.28408262454434	1
408.95209188080327	605.1304981773998	1
272.0247654966857	358.88213851761844	1
553.234375	305.0	1
437.234375	594.0	1
545.234375	584.0	1
529.4440817851137	245.0914114991324	1
