387.4136332143097	151.98929254824972	6
467.7419000773605	152.91250010834	6
585.0640451621841	372.0289926016805	3
480.2103571954409	374.62519159800195	2
271.4424701040888	148.9610945402698	5
341.7270671073835	250.15853190360255	5
197.41928137283415	50.48307678035596	3
468.862089001246	93.96412174654408	8
480.3434247604361	275.54141100800564	5
427.7985803087494	344.04697013906514	5
363.8384100413899	132.54870194101545	4
272.9194285698353	180.48184498177682	5
397.0714718957521	334.1523211057912	7
550.2719915062484	106.40202591375693	7
248.05673531111407	193.7138052558904	5
516.6782961900044	77.14373712286707	7
346.13748765554715	64.48709375582914	7
578.9987380695002	21.655037288696317	4
196.79847095536036	13.268255333576768	2
356.9691667785894	357.77474845339265	4
408.4417597395809	291.01094658216687	7
297.4527989197629	92.22677842176888	6
586.8997975695614	285.4023136727539	3
418.69596605716174	47.80494073309893	8
427.4599846457093	91.53563964583688	7
312.51501722310775	56.77387653441157	6
378.3575036841946	66.92023887659883	6
454.533196897984	197.94168363983047	5
592.079353319781	26.07016934427414	1
328.55939548874096	40.37894525598905	1
508.01362032608006	305.6761571791021	4
591.5601351054129	253.66468520129064	2
338.6033654988461	150.54732156801498	2
382.3008958824855	8.316639474975425	4
254.7450813147943	19.992688689518495	3
460.95079460948693	130.6663389239951	3
460.57871398679026	251.54129687149657	5
336.03886450891696	9.758004060596596	2
229.81381501246034	234.03061065125723	2
401.7988891011329	392.41003791479847	3
584.4818721020702	104.10017995437664	2
453.2250350203095	324.193618171055	5
453.6915535870164	288.9990489571429	4
577.5093210137936	147.57231684927729	6
377.2321328226059	228.83710760580976	2
388.76434380660606	267.0272284667247	3
343.28945718595264	316.3891559175728	4
386.7304276894531	111.15172154334948	3
492.871804468571	99.54707391490228	3
377.62203258964314	377.0152330820039	2
286.05534174054685	115.38630329533032	2
319.9336818530592	247.65092274296546	2
511.7954150876037	184.85988722441581	3
491.05393380395617	133.0313134468218	2
431.5415877866061	306.83475091130015	2
529.6161767532266	183.9726896345805	3
505.234375	104.0	1
446.234375	183.0	1
269.234375	209.0	1
287.234375	229.0	1
490.234375	487.0	1
421.234375	444.0	1
306.234375	331.0	1
245.234375	263.0	1
109.234375	237.0	1
187.234375	317.0	1
124.234375	281.0	1
600.171875	228.0	1
299.58581937031425	9.58050913634234	1
448.6159579603928	387.4783695142902	1
447.5514569704636	400.25238169607996	1
376.22989064521175	293.8022801811651	1
589.1300886310381	328.930813681087	1
617.8716153591247	258.6737466812432	1
547.614550023802	242.70623145400594	1
569.9690708123138	236.31922536311106	1
197.39372433711753	117.09511166640638	1
387.9394015344322	192.67468374199595	1
366.64938173584954	188.41667968139936	1
236.74474954760933	92.8444569322771	1
164.0084715942453	102.38364087342038	1
18.535915687517267	54.68772116770398	1
