501.3727458868375	197.49282932145798	9
373.69465422605674	84.775027054027	7
352.94975493074253	120.97748604003675	8
505.1228081117041	443.41764642466774	10
426.3867214820255	464.6495122893416	7
368.7409276914272	143.45743316123935	6
416.9026448837715	185.5228680654512	10
351.7697745914975	171.5122367573589	10
395.1163356657588	150.2040607153595	8
561.0486123387141	361.0967314300449	9
352.12306744838935	82.91275274817019	8
452.66650588360557	297.44672632039885	10
574.8598082757298	86.06975054826837	8
408.6023357431807	276.0941360250813	10
385.3483264758912	486.60219268539294	8
465.9088469865101	479.36074708596766	10
312.1697175791454	102.32546463321538	9
422.3017396138149	26.37368885926589	4
502.9538398157076	326.68069184981357	10
270.2565139897837	251.8585294863297	2
492.245359016081	77.11904680282805	8
415.76262234933307	514.8753321275742	6
546.937164971695	38.06789560624788	8
170.32262467782408	78.52589495975607	10
498.03043365764114	260.7530998611747	9
394.6631275780163	303.7295374687958	10
342.97536014673943	216.6494022451272	5
344.3360663802098	261.1664777013968	8
336.4918436814537	383.6767848925199	5
389.0923048091345	344.60262326689934	5
439.0776894351642	366.8133312132147	6
543.7461327311999	589.0658379991678	5
325.76467489652265	247.1544732534643	2
554.3381513049536	487.400263957435	4
363.2642981945186	366.5086813906942	9
613.6421839034217	139.84279121039685	2
459.04515646194375	211.44996070760712	5
265.61505243254203	314.85328011310094	5
357.8081839172299	423.13816308090645	4
547.279217925217	204.60373227911433	6
292.36962823182154	8.11494728890349	6
303.0529872360634	348.4361676551849	6
595.873627920699	363.61698232498304	8
610.8246110749571	385.218281082226	2
323.37723592271317	362.7623607070806	5
513.9309750694031	366.92758740435124	7
399.3599871953912	452.7796984707929	6
262.2642723729727	204.40371133697883	4
599.8359556415818	434.1563972943402	5
501.63904242966805	483.608992954828	4
372.42833461434884	399.96698375485846	3
539.2189864066095	426.8031410537643	3
536.7620214917504	95.96208026915727	4
547.4380743850556	303.7676190378363	6
242.75915427074656	127.3081983557822	2
199.72265625	165.75	3
317.203125	430.5	2
403.0390625	432.5	2
443.676897881692	138.84279121039685	2
238.906217261459	177.60638416258536	2
498.40089597549127	542.5569332296202	3
566.1028208195247	439.02245694224837	2
560.234375	459.0	1
405.40042012625963	232.7990550004304	2
539.6485822064149	140.81915050561568	2
438.5315566210614	64.58392920247734	1
474.10602298960356	7.928296072870275	1
294.91611831842806	254.31442154348701	1
590.0524318944819	22.42159757114185	1
425.234375	557.0	1
426.234375	112.0	1
449.234375	245.0	1
418.234375	216.0	1
553.9226173442459	28.454965329559954	1
582.5401693258973	162.0035405055659	1
613.515625	339.0	1
613.515625	412.0	1
301.33901385088376	226.53577473457457	1
