545.9870866664534	400.97029134798487	9
400.19223796097754	509.19743463806867	3
134.17306736890524	127.4701227724309	9
266.15644259455433	377.61008528940647	5
120.11968273514438	66.22763631100318	7
523.1179038858684	619.8131413465463	8
496.95198626736305	253.24264506318744	9
387.9677596889511	97.51766823188441	7
252.92743933597137	411.40938174750136	3
340.1287802259101	363.15136928592756	7
581.1464415148237	147.26638233824553	5
514.111727942467	181.169925008453	9
482.31494484326436	431.49550615217106	9
161.5497655498399	79.89987778250334	5
566.415688654097	342.66541728217305	9
237.9357818965638	152.20048004962217	7
302.68206208331867	194.2281155020283	8
367.30572809103353	276.57596062499937	7
233.92990736131844	293.9375546075697	8
488.08685490767255	560.3418200892673	9
170.44214257153482	238.87421746522205	7
169.90422275842354	183.8659240969728	4
195.22386380527507	332.7865667217208	3
249.99885825010043	71.89012800215347	9
546.2211519765747	464.2867962392792	9
360.9567071223186	390.3887526862388	7
190.67437946981465	27.48484498744668	9
341.0644500536991	222.64953168110517	5
334.5186374238288	65.4094174456106	8
306.9804074228018	421.01296635730415	7
576.7962263709089	632.7535530220209	2
507.73455986668773	487.4896339378778	9
372.1692022721908	174.56471019358963	9
604.0333763626878	489.60755627332895	8
171.99877298302863	135.1761023826918	3
564.7863346998412	204.52510786952763	4
299.6849070495173	360.5185914947655	6
294.78085651577584	28.032406793991278	8
566.4184157023236	541.9782840041138	8
181.00988352248424	271.06296829119367	7
488.1866921574856	362.2500520903145	9
325.80038138930036	155.18895130385323	8
208.938044100998	120.47746803226968	4
422.03121030048396	297.4159719117269	6
431.78283575321484	410.49524226736906	7
334.6100782228983	285.6483436357082	5
295.0513255779632	447.93438338107006	4
290.49944131992993	407.41646404447374	3
342.6533726554196	162.57960822855594	2
338.12782869180995	186.86028191342177	4
483.2503455517303	466.5462101416621	6
347.8448432758248	239.83170377692568	2
285.52157109292966	164.14653788382307	4
443.3177130308935	339.3461804644062	8
524.0859710118332	207.1113051479277	7
479.85688262105	122.90744591441359	6
177.17047943694814	103.56396519782854	3
611.2049145199376	154.1164632164072	6
413.0216428412194	153.83500696560796	2
566.7646785945526	93.01154279853552	4
610.6457991650175	299.09484396895056	4
427.2869685859405	501.78674059034824	2
421.96492013521146	472.69712645196404	3
163.5411760202342	155.0692018919952	2
592.8184286302753	242.1496093065672	3
396.8180323577278	382.41660552900305	2
564.4268424324652	10.325047316415628	2
330.03886450891696	263.4336248633453	2
494.234375	590.0	1
453.0248577341712	359.72025062182576	1
314.4888332293221	226.7387162267687	1
459.26096785968406	572.701546150242	1
445.42245499060533	383.2203654536936	1
260.19928274293636	293.8022801811651	1
142.5452894134572	160.81114251292297	1
467.4375	280.0	1
381.3125	210.0	1
98.171875	144.0	1
