157.10192414809524	130.83507078012002	4
69.3804134601938	171.6608790901351	9
33.90449456778265	181.35422707813774	9
488.89962685359217	468.61665006131426	4
149.59848220667018	140.02536534470158	5
78.86216984069806	351.2188798276658	2
243.09117854637486	258.4161722702642	5
263.3608571670818	368.13920314546533	5
397.7030652167141	391.17002615787044	2
289.2198537825451	346.88308032061013	3
174.48490084822018	361.03836754397395	3
41.38271949919192	356.39602246499464	3
25.5907484803149	117.40216610574915	3
34.39256600253439	278.97461147868904	1
61.660760552543806	295.75503923680566	1
54.3193235583105	339.80366210186185	1
587.097893996956	593.607631943376	1
545.14682545848	94.38990613940607	1
334.234375	287.0	1
317.234375	352.0	1
145.234375	342.0	1
400.234375	338.0	1
229.234375	317.0	1
211.234375	398.0	1
