52.158547555744164	8.861814979937563	6
244.01795392787417	353.5328804758175	5
232.7140642239213	164.38265582018138	7
129.53563440977211	39.10650847873099	3
187.0627433547115	52.437483299981984	2
523.2503692106748	367.7934331688663	6
598.8111605460194	463.97692545491174	5
152.8949893019573	302.46786591312946	3
563.7483819317613	314.0683609015988	4
487.91206207409255	378.18744455034897	2
134.86481398168291	264.9405012565374	2
271.14140335371985	301.959646722923	5
36.93554873031904	69.1223332988415	4
122.04736583068693	97.94189267826965	8
117.7593232384038	172.81342540386544	4
466.02304260501353	167.50240629048352	7
151.0549541628088	108.77331363796773	3
80.39222667088828	76.75618144314734	8
303.39818080165713	201.77269277356118	3
123.33723845167248	240.34100233363142	3
331.0375727357341	167.47103666384606	8
223.86350385888608	187.9855334563825	3
458.3988872861998	300.41971584967825	7
353.7820885444401	372.84441371483786	3
231.42129121202845	125.23838153406126	8
145.4015707873963	195.00855544919168	7
95.39930563385789	164.2420233471412	3
161.48775028701291	325.421986660642	6
359.26076462060826	228.64297725866362	7
222.54976391748846	299.57897507301504	3
115.85966734858334	47.547542854261124	4
382.98981381085787	345.729041911097	6
20.50001479332438	38.72545440137005	3
592.4240675857476	82.60086895808388	6
12.66923606507805	183.91160488131766	3
576.485451850019	255.24298539164917	4
5.16042466364527	20.58807087909973	2
341.844248772915	119.93396826883956	5
378.3592658537291	389.35830840658963	5
93.8158344051242	211.3532851207878	2
269.5979335680763	209.0426315476578	3
539.4857791619305	201.65817818125868	2
170.2734375	364.0	2
301.5568898243905	402.76757962763503	2
367.234375	355.0	1
194.234375	375.0	1
5.026818025601171	126.90198492075704	1
80.53874139485802	221.29189106016312	1
123.53858664679595	221.29189106016312	1
144.51412091603396	88.09724573011233	1
512.6347473411611	176.19449146022467	1
491.6592130719231	184.58470533928298	1
373.1474444507283	160.46284043699032	1
282.9526470930048	374.4132943529774	1
592.3417775642655	114.31666410216957	1
582.9027871431084	140.53608247422682	1
596.5368844181131	221.29189106016312	1
596.5368844181131	197.17002615787044	1
576.610126862337	329.31589475303895	1
579.7564570027228	395.3888290506232	1
550.3907090257895	444.6813355900908	1
313.36717178339995	376.510847822742	1
210.5870538641337	57.68272041852593	1
