497.2236294437777	587.349417510395	5
492.6920500258687	321.69104909213604	8
263.9576465542675	275.9554546382445	8
354.0577773587463	518.0991945087542	5
553.6868730378604	374.0267432091851	3
406.7327706903007	82.68085039000314	6
395.58837193986307	121.0898653023917	5
421.2896799885104	400.23116549648944	7
284.6246765707298	288.5250191418724	6
374.03749175642497	349.5700376567681	6
434.1232099466124	168.8213706989669	6
453.219746398632	140.32050028902427	6
311.3118352338854	274.9958613713443	3
516.6315529854965	178.13444319290875	7
328.7350977475443	236.84653580940383	4
340.0094796083547	274.9601720078018	5
578.3227056826581	240.2858045415139	7
405.50089960741917	485.31391023740855	8
426.89839764031916	125.61120988467584	3
390.74902171115104	14.265919049585126	2
572.5041244138563	418.486575371949	6
454.2960187479688	345.32824839091035	8
226.56978008491137	222.65663856986907	7
317.3304219221927	346.36013247312354	6
368.8181492499715	294.14095917265246	4
325.9831908931267	433.6115163771958	6
371.729538032315	267.18636940685616	4
446.06987359022145	578.9089067990946	4
441.29208962780115	96.89716542363513	3
341.3125	450.0	1
609.530009537828	436.4328881210563	4
365.1257948349946	241.52114253710448	2
564.8538378855335	335.4036613175113	3
521.7634855690824	263.0948054381414	5
588.5065323995258	344.5962615513862	3
342.31733006589025	396.7870422762539	5
473.4678754761909	446.0390461616444	4
605.2421875	571.5	2
566.0389978572025	559.687970838396	3
181.55933191876534	274.90651661674497	2
551.9925741018127	353.74740968916274	1
454.01217749466707	608.2419490338841	1
182.18345307970657	173.36767922235722	1
436.1615584696021	457.1606318347509	1
613.7791645215781	153.23035393983812	1
526.234375	390.0	1
341.3125	13.0	1
318.3125	54.0	1
277.3125	418.0	1
