330.2364618705343	409.8181048660412	7
489.1983044943238	433.51984532864543	6
320.2521270353986	179.48706536055008	9
555.8943757865102	472.31521068418186	8
266.7664063679873	56.31543402943397	6
519.6656139821794	334.50111894055505	6
433.487962568129	353.32772222696406	2
595.7829949556901	341.01967083555377	3
476.52237396262433	455.78597421435535	8
562.7626012031028	508.1352058726469	3
572.9653084084339	125.75152703898246	2
416.25577870664335	202.08674269763327	9
400.58293625860847	332.0780128969009	3
393.93775646521044	274.5283814644315	7
343.719411130057	239.9149982097888	6
476.7665418464068	546.2651242249381	6
420.08000669808087	482.463779748962	8
401.8765863811866	71.62636657745111	7
530.6569167836144	438.2791893141507	5
242.0196589663003	83.88355318694434	7
446.2211591605503	157.30664431371088	6
554.5882434383166	73.27390192864141	8
492.70214286615726	115.50589492608074	5
558.9187575889393	577.9121642473441	4
182.67213874582052	269.1530743419248	3
536.3366355706387	393.7951230878517	9
592.9646803622838	243.39990207641267	6
607.0239907050875	451.31607750921825	3
211.12150423060316	266.80327459240266	2
468.7533420579535	13.769497667344016	2
310.343949735411	370.69308228734167	5
448.63416494174	493.6678674253751	7
495.66781557775965	583.3074876062317	8
298.56710446044644	438.70239562873576	3
369.9690841361828	404.03653995451265	8
502.0755843922724	519.5877379271295	5
484.4911311832302	111.6704674148049	3
258.67215007133507	227.65419173951997	3
362.2263798745117	25.751032806804375	2
139.80159226218484	58.91687803046271	5
336.5274746050169	44.532928311057105	2
443.82746360873466	221.0623726779551	8
237.4862553462062	39.474866762780486	5
259.8963863268866	433.1235333784755	2
294.1609629246445	411.31639237169964	3
504.2352029441643	324.37827657182197	3
233.24007686472538	241.38493449051762	5
433.1698663148435	172.9917010232818	3
508.4437258358886	13.691951393529237	3
206.31348335094117	25.14083994024063	3
181.43637008694952	21.397298746393645	2
335.45518998392447	101.68709763878343	5
364.6290100416194	55.472186875056416	4
555.8792530687676	529.1826418386383	3
307.81377752965136	10.758488030003553	2
118.13680041616772	81.71470230862697	1
451.6210953194218	38.64884568651276	1
361.0603501169115	430.8683208071656	1
328.12090916853197	155.5775014680726	1
119.171875	106.0	1
510.33112772121774	206.9496756877656	1
421.1483884054832	587.6913442182956	1
194.76143475784937	336.15030194587337	1
