428.8933627170811	325.5687300456275	6
552.1722126010964	103.4549209301978	6
221.33977833059376	83.40051100898694	5
268.70952220494326	111.07553360167458	4
574.4937495549912	80.32301294865684	4
498.3409812669006	214.53638852440497	6
323.37180974607105	375.64844520754366	5
343.77121548801153	141.91287456335604	5
343.84300939854313	180.9808876365924	5
149.03156697364494	182.6536183767572	4
462.89419494425294	54.3641946141487	4
227.77783859303145	275.6987596921846	7
95.68605791880893	56.72469540112703	4
394.39376555717126	140.48736210921177	5
373.96018808538224	315.33127452302483	4
379.7232404770682	94.37270313593464	7
552.4739387153807	447.08577462815987	4
558.856794162064	32.35953374730935	4
417.6795414415659	97.7309991454434	6
536.8962823196505	57.92519326860358	3
472.02631550110164	508.202990263985	4
341.9788058663727	264.97194078324196	6
346.9973561980041	52.83966396280337	6
537.3084743615781	11.776438967897024	6
404.8740127307549	60.20479931854076	3
347.1408713727059	301.91139740962655	6
267.8659444381218	274.2356183780564	5
364.0130641545139	20.791907461497914	4
408.5636700328245	296.03699287410154	2
461.27970381063136	270.489975017142	6
372.6994071487285	230.17941713318857	4
299.642130745495	135.37901343661696	4
456.0092855548029	438.0437618522703	4
467.19122244474124	87.33859973133004	4
388.2025821403972	403.0750991862567	2
601.6649135205545	395.51801289995336	2
491.6287009996989	532.7860846138362	2
415.1651551972311	349.33205958835686	4
496.5241338406954	583.5127359479338	3
435.9805272951341	490.2399259653664	4
380.6437772476165	266.1145808019441	2
540.8216227212168	537.2608283180408	3
297.2032327005413	166.2055212805961	2
499.6402511590027	6.7205136739523335	2
467.61936037054454	573.7520621684084	2
543.0540423845835	387.6559180614875	4
333.4557678811814	232.76632422291146	5
599.368262889189	67.49361266860657	2
279.3481561696374	214.508262454435	2
354.44746384926975	94.64443352100676	3
220.46558378606295	210.31038882138517	3
419.47784247897545	34.23624976310036	2
404.7204690891324	182.8808048955405	4
224.94688317963494	8.597255921659244	2
100.54700809923898	19.386148238153098	2
428.4440815866735	531.3962416154717	2
500.9123343493048	90.85281661134445	5
268.6913903768575	8.76063183475091	2
311.90319170180703	69.18276883473644	3
286.2919322218369	82.20081818363681	2
420.25097927288044	470.4383245062829	2
165.41025749834404	73.14709422622221	2
530.8856247564106	312.49562111949706	4
418.35523886534173	261.920788626284	3
276.72068326729743	324.64377961739774	4
309.04250180548195	28.139319484001	4
189.55919738360495	50.438164052785595	3
250.61857176754904	213.85064590065375	4
485.20975591293313	433.22484821046913	2
589.5413886805567	14.979154363710158	2
425.3234014704724	424.49411199856286	2
360.1157887566417	474.16433778857834	3
412.34268251711126	210.56038882138517	2
425.9947477757291	159.08988321324932	4
315.0188678110312	205.804946959512	2
405.22814018089	241.2674168845745	3
190.73176797700455	145.2740131438111	2
482.10329507287366	346.11548109586073	3
404.08721326757137	492.9497158826669	3
475.9012551115194	152.55783480945027	2
288.1917057641847	17.668043742405832	1
224.14505310064584	187.72296476306198	1
480.77123314212076	294.5452454397491	2
341.1212630021912	105.22701534026562	2
562.3227221438458	586.1924184119898	3
490.28140974813095	266.8305878719242	2
393.34038875612265	192.27674251003808	1
268.8632781669734	354.08600765685867	2
320.3125	505.0	1
577.3125	631.0	1
533.3125	174.0	1
297.3125	417.0	1
577.3125	149.0	1
493.3125	35.0	1
488.3125	475.0	1
301.234375	233.0	1
372.234375	293.0	1
371.234375	175.0	1
531.234375	149.0	1
253.234375	295.0	1
304.7114173094819	260.97257389492745	1
236.74473135305976	381.4047711518613	1
167.58564739740217	225.20063411564013	1
534.8442311619287	352.7872193284315	1
435.44478698118064	447.71007927519815	1
70.65393723457856	32.02332928311057	1
202.06000045804623	26.50206561360875	1
467.08063216924154	15.459538274605103	1
427.3275374125622	130.301822600243	1
465.97637953711154	118.155042527339	1
606.216463817619	177.7846901579587	1
210.89402151508608	322.44179829890646	1
589.6526743356693	325.7545565006075	1
494.686947972491	405.26075334143377	1
463.7678742728516	369.9246658566221	1
607.320716449749	359.98639125151885	1
559.8378532681598	341.21409477521263	1
608.424969081879	265.0206561360875	1
612.8419796103989	431.7628189550425	1
584.1314111750195	450.53511543134874	1
465.97637953711154	479.2456865127582	1
563.1506111645498	511.26901579586877	1
502.4167163974009	562.0646415552856	1
431.74454794108215	563.1688942891859	1
338.9873268421638	339.0055893074119	1
183.28770571183657	115.94653705953827	1
141.3261056908973	107.11251518833535	1
373.2191584381932	120.36354799513973	1
