266.5006634935562	59.896996407847766	4
580.6410738113847	371.54250387871457	6
606.1768290753962	332.63329129083	6
299.03546146635483	407.96019021107236	5
550.7076465998232	348.29811631478896	5
190.96522585671667	339.068469164395	2
220.93539498480783	15.00311920646925	2
434.7439065860958	101.19139262260762	5
295.74097195318456	16.93556149079489	3
582.3330748760476	270.71580124430875	5
457.20102614560744	8.877088108445616	3
496.4186395365956	436.8166892135371	5
491.1748406941175	583.6478934582086	2
168.3073864439839	267.66108459723193	2
283.94174149281366	400.02855407047383	3
348.92560053133366	514.0296476306196	2
385.7480298797465	158.95407047387607	2
398.27132048288706	184.03159173754557	3
152.24937719003356	305.54325637910085	2
170.0366741262768	244.03985419198057	1
504.6252216616609	298.1482381530984	1
274.234375	162.0	1
499.234375	196.0	1
298.234375	333.0	1
340.234375	366.0	1
238.42670429219223	275.33226652594556	1
