8.572869482008583	196.02352294389453	7
273.0552738298802	367.22780594116705	10
507.205783986406	412.7650986326289	10
167.68312608079074	300.21153767077476	8
469.06833563665043	475.94087459255536	10
417.91384216351025	328.16023918142935	10
560.942295660198	141.9847910413228	8
43.87272298448328	240.386347487379	8
530.7077155968279	446.325762407184	10
418.0997492620003	373.7293069234719	8
409.8564617312332	276.38536192376733	8
87.04378466063865	245.92557427533387	8
495.6623780608078	298.36401684620074	6
80.53191376145918	284.5924017097272	5
21.186305595974705	154.29286647800544	8
303.8901718645782	219.1219093752028	7
311.30524836673993	174.72846632134994	8
608.0878462986502	357.2125925148358	9
339.00803573689757	296.9262963532851	2
379.33208540734057	356.0918991477484	7
274.24382712122645	336.2715821494897	7
447.88039962452353	354.4306253615383	6
6.070389109925278	18.299413822405818	4
65.93231338935107	95.49949799624395	4
89.67109041733121	165.16385889847805	4
463.4459764704951	181.00153311501356	2
96.3939057359421	12.369938031231154	7
161.0457414983669	283.69665028573377	3
21.26374834047409	282.0087089947664	3
57.75300919481344	13.198587526787211	1
379.171875	523.0	1
586.0491172834941	323.02323434374523	1
309.4810275009733	450.5638547251501	1
528.234375	277.0	1
