205.171875	9
228.171875	87
262.171875	36
309.171875	31
335.171875	125
401.171875	89
460.171875	91
460.171875	133
513.171875	94
340.171875	239
312.171875	323
430.171875	363
364.171875	388
537.171875	382
579.171875	418
576.171875	510
602.171875	362
349.171875	413
