359.6568701760762	284.90641408421703
361.0603501169115	373.3256460413878
275.44807372596017	373.3256460413878
205.2740766841968	339.64212910532274
278.2550336076307	136.13754761659632
88.78524159486962	68.77051374446617
418.6030276911574	401.3952434881087
412.9891079278164	451.9205188922063
525.2675031946378	391.5708843817564
449.4795863895333	508.05971378564806
574.3893011238721	242.8020179141357
420.0065076319927	346.659528467003
119.6618002932455	345.25604859466694
295.0967928976539	343.8525687223309
295.0967928976539	404.2022032327808
