93.171875	68
147.171875	20
221.171875	120
278.171875	137
452.171875	218
362.171875	292
273.171875	370
81.171875	336
121.171875	347
194.171875	334
75.171875	182
426.171875	420
360.171875	377
298.171875	407
401.171875	451
503.171875	393
566.171875	237
600.171875	481
459.171875	506
