528.0744630763083	345.25604859466694
529.4779430171436	405.60568310511684
492.98746455542664	408.41264284978894
456.49698609370967	425.2544013178215
485.9700648512503	449.1135591475342
553.3371020113431	429.46484093482957
275.44807372596017	324.20385050962625
260.0097943767722	259.6437763821682
198.25667698002047	270.8716153608566
121.06528023408077	225.96025944610315
46.6808433698116	182.4523834036858
21.418204434776786	151.5758262122928
81.76784189069329	256.83681663749616
118.25832035241024	275.0820549778647
290.8863530751481	286.3098939565531
363.867309998582	338.2386492329867
418.6030276911574	334.0282096159786
455.0935061528744	362.0978070626995
439.65522680368645	378.939565530732
424.2169474544985	371.92216616905176
229.13323567839635	238.59157829712754
