515.3125	424
463.3125	437
478.3125	492
551.3125	430
611.3125	503
524.3125	519
506.3125	599
495.3125	555
599.3125	524
465.3125	571
356.3125	360
335.3125	333
298.3125	463
277.3125	446
273.3125	352
445.3125	341
470.3125	274
576.3125	289
580.3125	345
522.3125	354
429.3125	219
376.3125	222
353.3125	225
340.3125	119
349.3125	41
436.3125	40
146.3125	56
224.3125	8
185.3125	70
150.3125	131
292.3125	89
259.3125	123
285.3125	172
267.3125	210
156.3125	262
136.3125	245
212.3125	117
201.3125	172
423.3125	318
355.3125	267
