365.3143933720597	105.92645022311126
261.48549873933155	122.70687798122789
357.9729563778264	268.48684412986614
330.704761827817	330.3646714879212
420.89955918554045	315.6817971995692
478.582278425945	146.82874288352056
336.9974221085884	17.829204492998922
502.7041428355687	594.6564086782582
344.3388591028217	353.4377596553316
352.7290728105169	218.14556085551624
348.5339659566693	123.75565471611017
289.80247000280286	92.29235266964149
218.48565348739362	29.36574857670411
181.77846851622712	69.21926450223111
549.8990949413542	435.2423449761502
