347.05171703553907	129.53778689017508
339.89732904012624	47.26232539781429
232.58150910893343	10.297987625884073
223.04232511504964	34.14594747874227
231.38911110969795	57.993907331600475
387.5932490095453	223.73722830896497
357.78329902865835	267.8559540367527
419.7879949889031	319.1290677203978
460.3295269629093	316.74427173511197
469.8687109567931	279.77993396318175
577.1845308879859	294.08870987489667
430.5195769820224	46.06992740517138
285.04702107529437	92.57344911824487
287.43181707376533	21.029569559670264
332.7429410447134	329.860649654184
444.8283529728481	351.32381352175634
513.9874369285056	426.4448870582597
546.1821829078635	430.0220810361884
485.36988494685426	432.40687702147426
465.09911895985124	434.79167300676005
527.1038149200959	520.6443284770496
504.4482529346219	601.7273919767675
317.2417670546522	421.6752950876881
364.93768702407124	102.11263305938814
429.3271789827869	11.490385618526982
