263.35842151869684	146.69842454156742
269.2263579000563	82.15111774327777
298.5660398068538	69.24165638361983
241.0602632695308	106.7964530662611
218.76210502036474	79.80394295061268
295.0452779780381	136.13613797457458
329.0793089899231	190.12115820587138
298.5660398068538	222.9816053031825
347.8567054102735	143.1776623525698
189.4224231135673	187.7739834132063
149.5204557203228	227.67595488851265
208.19981953391766	261.70998938215627
160.08274120676987	287.52891210147214
128.39588474742862	259.3628145894912
97.88261556435928	131.4417883892444
34.50890264567681	63.37371940195713
69.71652093383373	46.94349585330158
27.467378988045425	91.53981691393807
6.342808015151269	125.57385140758171
29.814553540589223	156.08712371222774
77.93163186773702	104.44927827359601
88.4939173541841	313.347834820788
103.75055194571877	346.20828191809915
164.77709031185745	323.91012138778086
164.77709031185745	349.72904410709674
276.2678815576877	255.8420524004936
298.5660398068538	353.2498062960944
336.1208326475545	341.51393233276895
371.32845093571143	374.37437943008007
400.66813284250884	312.1742474244555
474.6041312476384	227.67595488851265
599.0043825324595	242.93259104083566
608.3930807426348	279.3138003271444
373.6756254882552	455.3519097770253
422.9662910916749	424.8386374723793
417.09835471031545	455.3519097770253
427.66064019676253	479.9972451000086
489.8607658391731	326.25729618044596
491.03435311544496	524.5935661606451
557.9288278629432	361.46491807042213
522.7212095747863	364.9856802594198
591.9628588748282	396.67253996039835
129.5694720237005	25.818922719315868
