291.171875	27
188.171875	27
162.171875	81
120.171875	67
134.171875	127
98.171875	144
210.171875	115
238.171875	154
330.171875	153
370.171875	177
387.171875	97
335.171875	68
580.171875	147
515.171875	181
342.171875	225
172.171875	240
180.171875	275
232.171875	293
366.171875	275
505.171875	486
602.171875	487
523.171875	619
576.171875	630
566.171875	538
486.171875	561
547.171875	462
546.171875	401
481.171875	431
400.171875	509
485.171875	365
567.171875	344
422.171875	288
360.171875	388
266.171875	377
252.171875	412
305.171875	423
299.171875	357
339.171875	363
304.171875	193
248.171875	73
169.171875	137
168.171875	185
564.171875	208
496.171875	253
194.171875	331
