348.171875	107
180.171875	198
400.171875	181
337.171875	184
300.171875	178
396.171875	287
360.171875	323
393.171875	331
469.171875	307
426.171875	329
231.171875	228
205.171875	215
177.171875	130
361.171875	415
398.171875	424
285.171875	390
530.171875	461
405.171875	40
