484.234375	374
385.234375	316
379.234375	351
418.234375	243
449.234375	207
455.234375	170
489.234375	73
395.234375	157
352.234375	210
427.234375	199
591.234375	47
552.234375	9
513.234375	45
429.234375	71
452.234375	122
471.234375	230
434.234375	282
483.234375	300
455.234375	402
322.234375	372
262.234375	311
239.234375	262
189.234375	194
216.234375	123
446.234375	477
446.234375	507
497.234375	457
543.234375	385
586.234375	306
536.234375	287
584.234375	251
498.234375	181
545.234375	104
432.234375	100
309.234375	429
408.234375	465
555.234375	505
520.234375	528
595.234375	480
366.234375	111
311.234375	112
395.234375	219
