181.74876765256602	144.17176027778515
220.77269966629945	156.09574045113578
187.16875821002898	194.0356773663424
102.61690551360657	185.36369178572374
92.86092251017321	210.2956503300024
89.60892817569543	246.06759085005433
83.10493950673985	281.8395313701063
27.82103582061749	233.05961247912637
24.569041486139703	185.36369178572374
48.4169999389768	40.10793331036128
44.08100749300642	14.091976568505315
137.30484508136962	318.6954700877356
170.90878653764005	399.99533490603545
207.7647223283883	381.56736554722085
200.17673554794013	358.80340339809686
305.3245523627219	376.1473745593342
245.70465623062913	436.8512736236648
374.70043149824795	520.3191348371193
483.1002426475075	486.715190712222
555.7281161175114	499.72316908315
580.660072681841	555.0070771595939
467.92426908661116	522.487131232274
446.24430685675924	531.1591168128926
412.6403654004888	343.6274286320142
421.3123502924296	368.55938717629283
321.5845240351108	252.57158003551834
284.7285882443626	269.91555119675564
347.6004787109331	185.36369178572374
412.6403654004888	80.21586662072257
448.41230307974445	83.46786121345455
424.56434462690737	6.5039891854639915
253.2926430110773	54.19990987886659
206.6807242168957	56.36790627402126
402.88438239705545	174.52370980995045
594.7520481312448	160.43173324144513
592.5840519082597	308.9394863095396
512.3681916578075	278.5875367773743
466.8402709751186	255.82357462825033
491.77222753944824	273.16754578948763
12.645062259721156	156.09574045113578
35.40902260106566	144.17176027778515
