402.5028953064676	395.8941068096449	4
400.13058525366455	205.64698125823847	4
237.2682858331669	140.87935584762954	4
588.285534349702	433.767962001823	4
544.8671875	373.7416687011719	2
271.0487769750141	248.94077580896112	3
259.0630677495653	120.94234842773217	4
460.82906166402597	493.80411411641944	3
546.7137040781151	572.1263779253643	4
498.92436305513314	154.96902788231034	3
454.8671875	41.741668701171875	2
355.86237322710303	396.5096025688239	4
295.4167133563736	237.71341046904664	3
481.4695614313835	430.19336248737727	4
472.9163114555065	250.81870664068794	4
535.8159395481518	113.21998429651734	4
501.82658914073636	233.9806871026774	4
570.1864564459171	397.4924299806829	3
460.5203601895008	223.7384079452097	4
444.3145041520971	255.54879161443506	4
409.44746379748466	72.73404049412102	4
221.6393169360232	171.53318692039107	3
435.2011899163715	366.7858529501482	4
321.2740350031862	220.15933508957573	4
451.8379858768492	303.17727979541803	4
583.6899536751862	241.4096543848091	4
343.5223956618886	69.47464529557402	3
594.8222763732488	326.1454898806779	4
330.6525861190926	167.05582158047662	3
558.6254855540897	615.3275969294442	3
462.61146760160136	76.66194158402514	4
581.6822327592358	502.6268544517864	4
413.234375	357.0	1
518.6922443980184	535.8446963171516	4
470.0049183576001	336.4232853970798	4
164.74902055041835	87.7659031987869	2
484.24641472890676	294.61368063907184	2
368.8274318297198	153.1116431609532	2
311.66133719919424	36.932273344326234	2
169.67834102127281	50.816430279662136	3
548.60685846452	157.54561165178455	2
376.7614000203995	470.8723542695135	2
306.5579961350775	144.71888164275333	3
230.7593698059497	57.66814730765163	2
326.8764481330975	319.6759672060647	2
307.3141626466504	381.1024458125445	2
439.60108192719696	470.1327353640123	2
290.2518771602033	71.97005278014568	2
396.38971731616687	502.6497526108341	2
420.6255900788858	541.4931824613234	2
300.9132143593976	51.63784543863174	1
321.57454356105825	286.5061247519079	2
336.1208326475545	423.6650500760467	1
512.1589240883392	312.1742474244555	1
264.5	15.48333740234375	1
270.5	38.48333740234375	1
163.5	118.48333740234375	1
270.5	291.48333740234375	1
465.5	15.48333740234375	1
573.5	372.48333740234375	1
527.5	404.48333740234375	1
587.5	586.4833374023438	1
