400.0791999581512	463.77965840898605	2
145.48597908501807	33.510196895419185	4
161.03818587349457	218.82278042775812	3
259.33413103620114	275.40554813835274	4
408.444153628986	326.3238729502641	4
313.5916253592109	412.75071984156085	3
566.6004776601033	341.1518310509309	4
361.83264742467964	78.47663257194256	5
480.62065088277393	288.94493485725536	5
594.0329626333464	459.54242191807435	5
352.8829164881914	46.43360669376745	5
575.6775749367148	426.2882892676077	4
437.67793533700353	306.8470149253732	3
484.5845054270643	328.46750493860446	5
448.8021942824679	253.65154156812986	4
116.5476279168537	201.3066827343472	5
175.12423314166358	175.17679234977174	4
544.9974761504843	30.554816125557778	3
182.1225041667683	244.17943145099247	4
274.0745749735134	166.707031851054	3
605.4584128294048	323.70938639125154	4
312.72265625	351.0	3
489.4717812359928	129.47651883353583	4
569.1080942393324	87.33505467800728	3
359.94845490422335	209.5509416767922	4
324.203125	149.5	2
492.7421875	208.5	2
550.92600229565	174.8679829890644	4
397.22265625	83.0	3
514.7421875	459.0	2
323.2421875	110.0	2
527.203125	215.0	2
461.8968720042958	356.33681652490884	2
286.6609140660273	138.56792223572296	2
221.05286635212795	319.8145200486027	3
426.6026137723461	140.06792223572296	3
255.27303478227262	311.9496354799514	3
448.2192298954509	46.08505467800729	2
354.0058979638618	180.19447144592954	3
439.519624300866	388.796354799514	3
422.52032462595616	85.40947752126367	2
533.7198924163902	84.01373025516403	2
163.32276666674846	151.79769137302551	2
451.9667976597109	418.91227217496964	2
189.46954562017822	52.60631834750912	2
471.24869240068574	29.30315917375456	2
515.3989351754153	118.42114216281895	2
376.3090558654865	359.1389428918591	3
572.2137562429248	299.96986634264886	2
524.1156397842602	410.443134872418	2
564.6403667662099	357.62831105710814	2
492.2734375	184.5	2
404.7734375	268.0	2
577.7734375	206.0	2
460.7734375	179.5	2
239.7734375	204.5	2
399.3125	146.0	1
438.3125	195.0	1
409.234375	214.0	1
363.234375	301.0	1
345.234375	281.0	1
295.234375	298.0	1
346.234375	399.0	1
538.234375	426.0	1
505.234375	262.0	1
292.234375	376.0	1
403.234375	399.0	1
262.234375	353.0	1
249.234375	222.0	1
224.234375	127.0	1
210.234375	103.0	1
143.234375	81.0	1
195.234375	292.0	1
320.234375	221.0	1
389.234375	122.0	1
113.3125	42.0	1
81.3125	63.0	1
151.3125	260.0	1
582.3125	276.0	1
488.3125	417.0	1
483.3125	371.0	1
488.0614321797111	51.89987849331713	1
297.0257268212245	61.83815309842041	1
168.9324214941468	4.417010935601458	1
69.55936017580375	199.26757962763503	1
