207.47135408742875	322.91567436208993	4
291.76297239596624	25.789611178614823	4
484.68599347263665	304.71950182260025	4
269.61817606320915	262.2343256379101	5
30.429820384529815	158.78226002430134	3
380.6777994190992	488.59198055893074	3
234.76220763895364	348.12750607533417	5
399.1541541240724	436.98153098420414	4
83.37081447471094	161.5291616038882	4
372.8129152066443	521.9318347509113	3
380.4599934595496	163.93554070473877	4
230.41540396713026	54.30315917375456	4
457.6870804506071	390.25364520048606	4
574.3049450589898	198.934872417983	2
347.390073095182	208.52369380315918	3
436.4533092562556	189.4568043742406	4
563.9038351608151	517.1193803159174	3
412.7133048782333	406.9455042527339	3
499.91169418624816	556.7716889428918	3
243.3654748467181	247.228432563791	2
255.20501449695888	215.38444714459297	4
436.7312655523567	352.50516403402185	5
518.7858813497171	458.4116342648846	5
127.79365658617323	216.2801944106926	4
340.53064449073645	342.32272174969626	5
248.9231751483947	447.6692891859052	4
55.6593934189798	255.1142162818955	4
104.79755902252933	337.00279465370596	2
457.13495413454206	503.9391859052248	4
254.3396520198203	146.98493317132443	3
197.05198658256813	399.8560753341434	5
459.7975193575656	327.71470230862695	3
287.0154277870682	448.34641555285543	4
523.7774488833692	502.67615431348725	4
450.63356785709607	538.1616038882139	3
407.1527678466265	533.5727825030376	3
600.279197146423	456.2084447144593	5
516.7049298913204	292.32855407047384	3
107.30455499504532	300.6255315917375	5
326.3055541096767	379.14647630619686	4
310.25166554123274	274.29176792223575	5
482.595642904189	489.1479951397327	4
166.0157092222293	138.13821385176186	4
437.88232871038923	136.56190765492101	5
583.8161275626051	535.6249088699878	2
484.2764172978094	232.3793134872418	4
225.63309184813681	276.17208383961116	5
137.72609869240068	261.07272174969626	4
279.7470804178895	417.25947752126365	4
476.6642234513641	456.29700789793435	5
375.7421875	352.0	2
279.6795403884314	299.7088699878493	3
481.50232030069094	521.603645200486	2
47.01667808714984	131.1509113001215	2
592.4461679754725	395.16002430133653	4
39.047541242564925	298.17837181044956	2
473.88803111125696	215.40726002430134	4
297.2241514284499	5.521263669501822	2
76.37362500245382	31.471202916160387	2
217.52325444509336	251.2805589307412	2
271.2742145733954	489.1839611178615	2
358.51017251166377	317.47266099635476	2
439.1206146571524	101.59125151883353	2
311.0273093300747	510.1647630619684	2
489.91623573513147	89.44447144592952	2
490.234375	425.0	1
583.234375	432.0	1
41.2359653815198	54.10838396111786	1
64.42527065624938	78.40194410692588	1
77.67630224180915	108.21676792223572	1
259.87798654325593	104.90400972053463	1
98.65710225227878	220.8505467800729	1
65.52952328837937	287.1057108140948	1
293.0055655071553	234.10157958687728	1
357.0522181706942	188.82721749696233	1
189.20581808693717	438.3883353584447	1
251.04396548621605	378.758687727825	1
379.1372708132938	24.29356014580802	1
499.50080771546163	179.99319562575943	1
505.02207087611157	219.74629404617255	1
