143.634765625	186.875	4
197.8163333626258	167.48080194410693	5
522.4627754884839	224.81988153098422	5
487.634765625	319.125	4
59.046875	23.0	2
293.0282702111368	73.0215218712029	5
176.54044528586584	43.159295261239365	4
390.3468596904691	30.075789793438638	5
497.759765625	276.25	4
597.875	185.0	3
104.009765625	41.75	4
44.14453125	65.25	3
375.1670754793229	255.8020504252734	5
429.546875	366.0	2
470.546875	393.0	2
463.805880747509	90.83162211421629	5
489.8087965389801	242.17945018226004	5
513.9574596983214	102.03746962332929	5
199.90755441573953	69.58667982989064	5
491.08220180193143	185.49143377885784	5
559.046875	280.0	2
25.046875	15.5	2
525.1189103519677	270.0572904009721	3
563.9940759822025	415.9247569866343	4
176.68507872976417	131.90364520048604	3
292.0250969999812	129.89832928311057	4
307.27029700259857	263.90622721749696	4
317.79722611595605	44.04252733900364	3
289.9566731508837	242.43177399756985	3
260.84765625	141.25	3
151.84765625	143.0	3
571.7025812464624	140.11215066828674	4
363.05715737119084	299.4588699878493	3
229.01874962425893	141.8568347509113	4
339.57825490160593	168.31054070473877	4
451.63776017895293	254.77059538274605	4
324.5830548989885	71.7722964763062	4
472.6374100164079	20.27126366950182	3
416.34765625	83.25	3
444.078125	328.5	2
171.09765625	158.75	3
240.70650752064887	107.12706561360875	4
255.92032857507132	81.2722964763062	4
371.84765625	95.25	3
153.72039172001678	112.18450789793438	4
442.578125	23.0	2
546.578125	194.5	2
297.6171875	183.0	2
74.6171875	80.5	2
328.5623075311185	231.24401579586876	4
147.34765625	48.25	3
269.1171875	293.5	2
104.6171875	115.5	2
570.3690759822025	59.05315917375456	4
195.9696745683732	222.68590522478735	2
572.6171875	368.5	2
371.14187875332084	226.46263669501823	3
341.078125	111.0	2
351.234375	77.0	1
577.234375	439.0	1
220.8322952042559	6.625516403402187	1
50.77738985623891	110.42527339003645	1
440.921875	43.0	1
419.921875	61.0	1
553.921875	224.0	1
382.921875	275.0	1
578.921875	29.0	1
573.921875	187.0	1
611.921875	341.0	1
592.921875	359.0	1
459.921875	368.0	1
413.921875	342.0	1
573.921875	310.0	1
549.921875	261.0	1
571.921875	347.0	1
547.921875	360.0	1
511.921875	351.0	1
554.921875	324.0	1
518.921875	322.0	1
263.921875	225.0	1
249.921875	247.0	1
429.921875	173.0	1
397.921875	174.0	1
409.921875	141.0	1
330.921875	23.0	1
170.921875	205.0	1
595.921875	404.0	1
615.921875	264.0	1
589.921875	293.0	1
147.921875	18.0	1
389.921875	9.0	1
366.921875	121.0	1
385.921875	142.0	1
294.921875	206.0	1
392.921875	222.0	1
391.921875	201.0	1
394.921875	358.0	1
237.921875	269.0	1
212.921875	273.0	1
491.921875	377.0	1
612.921875	392.0	1
548.921875	173.0	1
521.921875	397.0	1
473.921875	336.0	1
534.921875	307.0	1
538.921875	336.0	1
580.921875	253.0	1
158.921875	59.0	1
66.921875	38.0	1
109.921875	68.0	1
88.921875	26.0	1
42.921875	30.0	1
288.171875	344.0	1
