245.68011405555774	61.36695018226003	2
584.7350194035747	332.7421628189551	2
427.22882989021616	199.98699878493318	2
340.66467526775614	240.58493614402215	2
465.05325095249077	325.98153098420414	2
280.5369591951337	324.61458334462895	3
244.4209464485087	291.23118941375594	2
269.5794320802444	291.73118941375594	2
303.13746517165146	267.51938516758446	3
291.03095496570427	348.42850742342455	3
256.5478756252068	231.0689548462171	3
549.61910360556	329.9294046172539	2
489.0857364406383	231.0689548462171	3
504.5121743174363	340.3530845665199	3
578.3481294115297	281.26279837051294	3
530.241321282815	268.13189951459026	3
483.67876674527065	308.88687727825027	2
446.8961712216226	467.450376981074	2
263.1607357363912	33.89634513357228	2
363.24886234707964	36.62923896881416	2
27.10153771202161	134.95004016881182	2
383.73037908953654	60.698261495319315	2
273.83642154649493	68.4636695018226	1
147.9516214836772	109.32102065613608	1
175.5579372869267	118.155042527339	1
97.1560004056981	244.03985419198057	1
87.21772671652826	196.5569866342649	1
348.234375	78.0	1
462.234375	251.0	1
429.234375	245.0	1
390.234375	245.0	1
390.234375	195.0	1
357.234375	198.0	1
249.234375	347.0	1
332.234375	312.0	1
597.234375	373.0	1
471.234375	366.0	1
368.234375	322.0	1
320.234375	207.0	1
274.234375	154.0	1
369.234375	298.0	1
413.234375	335.0	1
252.234375	140.0	1
175.234375	199.0	1
254.234375	193.0	1
346.234375	354.0	1
410.234375	284.0	1
474.234375	432.0	1
