224.9325700338792	227.88709432492317	5
301.73328811106273	244.8661654007667	4
509.664365771632	447.8894445299277	2
555.9837952811084	247.03483046407928	3
498.4685688550451	240.54923648463026	3
429.97206058988684	263.0483151254039	3
63.31684087443997	101.86567164179104	2
167.1961985632441	135.6437820641611	5
204.7560711759122	152.9368337815127	3
427.69845043865644	485.9175280447	5
172.16438426520745	277.08166145507107	5
487.403698333789	411.3658695564248	4
69.96503243335427	33.56379100850547	2
297.4515941891633	303.715920348722	3
370.68019684131406	429.1151674261938	3
331.4125672521569	32.193184069744404	2
517.1438416569438	485.55513176144245	3
417.45992571505303	86.02803645730137	2
367.703125	517.0	2
301.7015941891633	113.10739052902714	3
138.69549961112898	53.86704973251436	2
171.703125	99.5	2
595.6546418657355	390.7299385773727	3
364.086434058018	297.89964335248663	2
468.3140988381035	289.29661184862294	2
601.6696062881118	203.800772736279	2
523.4124229517438	389.8969966759604	3
217.24191051738416	302.92540122845253	2
457.66044158675743	490.478003883784	3
485.9226229740418	124.27273627897762	2
543.8283121877178	425.1852585694472	2
381.89874397960534	353.5814592285734	3
306.82146653692126	364.7860114919754	2
536.2805801262153	476.0531008519913	1
450.2713562115159	459.13244228432563	2
137.67598771331868	144.22430133657352	2
596.2562825642246	303.0741190765492	2
343.0587246050169	247.6763061968408	2
130.2835793695975	189.9314702308627	1
546.5868216826001	552.1263669501823	1
587.4441690714094	76.19343863912515	1
327.234375	305.0	1
461.234375	126.0	1
515.234375	115.0	1
233.234375	363.0	1
585.234375	273.0	1
367.234375	189.0	1
442.234375	208.0	1
332.234375	129.0	1
406.234375	118.0	1
461.3275324496432	311.9667128987517	1
612.2465068254438	444.6538537745195	1
451.1987422230794	49.63106796116505	1
264.171875	337.0	1
