208.19829184431129	133.19668852213263	5
281.8617990666281	171.19925583466716	3
460.16031265783676	353.50126779021645	5
460.5400063041578	485.838548410434	3
397.97627101404885	159.54292256675464	4
391.26922069542087	398.01184797661176	3
261.0033748068641	119.40919304004386	4
173.37361484922423	375.2526886119847	5
596.6459598736847	278.42587347768426	4
533.1896027235761	149.4236009751146	4
303.59341418929137	366.8725260478363	4
71.32117928178774	196.3019855802852	5
75.13621419316092	234.39949867455533	5
223.45805507272686	272.76503916729445	4
247.94153536855805	271.1871408757678	2
77.78655607101975	140.60721426660055	5
163.5244856085997	337.61923106923814	5
498.0130268886993	387.22526542545006	3
102.455819283174	212.09125151883353	2
442.95718080046544	404.10901677181107	2
71.01152298075769	8.97496615652478	2
547.0195312870264	424.8359884068793	4
131.7135439609661	148.91080800230682	3
226.58603763375498	214.6497839862206	4
610.6808093341417	352.8471908847739	2
412.29183352546073	367.51154023695955	2
309.37738620909664	419.18218187413447	2
239.84091973504678	325.9628404369903	2
545.9623199004843	181.59724573011232	2
483.8261619932545	369.16941067856595	1
144.63886358728723	367.7161603888214	1
16.171875	130.0	1
40.193612198870525	97.53623634405294	1
221.2752040800811	166.11214582920547	1
167.59261587929294	199.53715078264315	1
438.03131492854646	153.95759857340994	1
463.234375	412.0	1
430.234375	191.0	1
411.234375	445.0	1
