578.1006013959286	416.0033910648499	5
213.1553820474328	298.20460576088317	5
568.6240364742715	134.91652999508338	4
553.7498940594289	88.09346893013947	3
241.5153528427743	10.877665283191394	5
422.0875375454009	150.62241650282937	4
383.83287620760063	367.7765070636035	5
470.6622215198563	273.83985587721793	4
216.2773608319502	336.19559206861464	4
126.30703465933917	142.3587930545977	5
31.967684646107713	157.43497985817226	4
548.2957502095278	226.90895024320383	5
20.342883011492304	99.27646622560562	4
497.1941326880393	162.30555778503884	4
37.849706929951594	125.15094026154415	4
395.9070315570441	427.51745531634856	5
582.8378105711424	299.7403930966316	4
234.3116941270713	202.17439112513244	3
536.779562180107	273.4225835601132	4
604.0396114965104	141.0116609516789	4
425.4588498769624	292.4173458501981	3
507.28438103763744	213.8338537236728	4
156.78214555655248	316.47246756012794	4
48.36657470364632	184.88352610612128	2
115.05559431730916	300.6281934866929	3
75.90675678686712	83.42993521890583	3
310.1916400840587	19.505889029513824	3
317.2461795207375	407.41466973510967	2
34.18744671970819	226.25396638547832	3
330.06527052240034	376.09379438382484	3
22.202724526494702	197.1221142162819	2
526.3680720200002	195.01786148238153	2
388.0189031713591	171.10440360008386	3
312.48526367104427	362.19489671931956	1
488.96126004201096	451.8784426391916	2
511.0900502685747	102.13750743015652	2
461.7745142134934	322.53487220130773	2
311.84722458223405	296.3610065385377	2
524.1930824498257	471.46215573608083	2
332.234375	98.0	1
144.234375	336.0	1
177.234375	242.0	1
278.171875	401.0	1
287.1123405527458	313.9924707747177	1
