370.1401923528185	180.98258628767763	2
552.9324819983974	548.0383804466657	4
433.74037133919927	9.78548836274157	5
520.3656591931708	449.82527022095695	6
198.42164933931483	165.2816648446041	4
567.0576495256494	573.0826370451351	5
206.82296198180453	209.72334447144593	5
462.5792142481482	29.114402002763363	6
352.5006095591784	65.58130714898792	6
503.95930300941995	202.41833001512998	5
610.198986606047	345.48177582643234	5
309.11096587234823	157.29378806809308	5
385.3999196164312	125.68434697938333	6
163.20547003984632	243.9144346400125	4
497.4230820591878	550.1512758201701	3
260.8445761049813	270.875590280196	6
449.15296061591073	386.5119326991885	5
341.3003030926709	14.271263669501822	3
260.8828923613973	318.80415430267067	2
456.6796875	295.0	2
491.15549630395617	493.43198500702795	2
370.8823798528185	327.3686553178198	2
476.1719303392042	309.8848977042012	2
366.8823798528185	250.11111978759956	2
365.56648081715605	195.0326523283531	5
246.28882652050874	316.5450623535368	5
495.7605190116441	507.69186838395353	5
503.046875	614.0	2
529.921875	417.0	1
499.171875	398.0	1
118.4375	91.0	1
