268.7104902625697	49.47039381080427	3
238.77193861327157	228.9331229530212	3
413.7444626375574	382.32042268911994	4
328.81463959401265	197.64739560538115	3
345.6594918621337	365.1551433846972	4
66.36679985162304	18.95250044605117	2
382.234375	374.0	1
