433.203125	231.0	2
193.24271425828408	152.34671931956257	3
388.7583779329341	370.50995215499086	5
361.66845360334696	53.63680517630809	3
396.9256719885914	204.69550425273388	2
248.04768640897066	38.33110571081409	4
484.9915246416606	433.8814094775213	2
279.8481561696374	346.76342648845684	2
200.65903132642268	187.3319758138321	4
501.82554569870047	351.4719319562576	2
568.5756339372592	80.75804787567094	5
267.2615595921303	167.57523954989244	4
304.1341074647018	72.23508505467801	4
291.2069811486368	266.30470838396116	4
255.9001247920388	274.9636695018226	3
404.629811424765	405.87530719512506	5
612.6424299373294	168.87108140947754	2
147.62821930353647	65.181241672006	5
348.4746334403621	163.54517936398105	5
341.5587246050169	123.8902794653706	2
286.9577898955114	294.32278987869336	3
115.73889486542132	74.16751840688829	5
372.203125	275.0	2
462.838844317139	446.6658262454435	4
540.8584720252351	234.05078979343864	2
595.9517811032292	450.54182395945764	5
582.3376100344658	126.08192704476266	3
552.9318615019499	260.3539489671932	2
583.1864127459748	217.3640340218712	4
162.84113530747172	178.8679829890644	3
339.7015008163338	389.6894381919118	3
218.67079482847242	252.72549623018926	4
429.062252377751	446.72424838890066	3
25.2421875	126.5	2
249.77364722477705	191.39771872558393	2
457.14235848007166	19.876549210206562	1
546.5868216826001	115.94653705953827	1
608.424969081879	119.25929526123937	1
25.171875	16.0	1
33.171875	73.0	1
379.234375	156.0	1
333.234375	286.0	1
224.234375	207.0	1
575.234375	418.0	1
317.234375	342.0	1
310.234375	103.0	1
530.234375	191.0	1
