237.61980200337973	299.0652490886999	5
58.70879147158804	147.49160085054677	5
456.7882152780504	351.2620291616039	3
163.23828125	352.75	3
283.5399205187537	128.82545565006075	3
291.25390625	437.5	4
362.2734375	143.5	2
547.9572546446707	369.5942284325638	5
570.6995388558169	227.3058171324423	5
25.105738838803713	166.2898693803159	5
383.2957421739529	279.68502430133657	4
296.42218621583464	392.09954434993926	5
192.24720200207102	297.1472964763062	5
33.76331778634433	220.99717496962333	5
194.9906862125629	363.0551336573511	5
271.0158072676397	366.8507442284326	5
246.73196261974635	120.89301336573511	3
396.2734375	339.5	2
337.3512911842867	443.1267314702309	4
159.28869673781105	50.17472660996355	5
454.1495546420532	443.68836573511544	5
137.203125	298.5	2
364.6770994774183	432.9667679222357	3
193.07379825230822	98.29562575941677	2
477.8097914846751	411.2662970838396	5
602.6806500821211	129.38666464155529	4
23.3046875	16.5	2
208.875	81.5	2
524.4696345200002	397.81761846901577	2
475.78032924527065	499.0611178614824	2
337.171875	507.0	1
437.234375	418.0	1
