465.7734375	392.0	2
179.24979783812321	96.19551834032977	5
194.48504829618366	47.61201875716182	5
416.8635902878136	28.542537640616548	5
256.416547335009	12.105381611190953	5
410.16764429227464	219.49980766271733	4
218.72621192805366	92.24992306508693	3
546.2734375	353.5	2
451.9712597667235	338.3286659486075	2
470.8662322006713	354.1582166487152	3
439.72737619941404	107.0607785813202	2
384.2734375	118.0	2
138.04945437227752	123.15233112786584	3
453.19551370355464	237.18272041852595	3
596.9050343376807	175.99404807020503	4
196.89696911218581	155.5547391906447	3
150.4741175393283	60.75108010822116	4
57.0460389122547	149.89884568651274	3
491.6284070208821	316.352587396846	4
418.1955523905701	326.3411678719803	3
245.75535544942272	76.77468730117747	5
260.99306200780495	142.77050772555532	5
496.93328083817363	261.16440990921683	3
363.0187561477785	307.786313278966	3
388.234375	301.0	1
253.234375	48.0	1
254.63618708407765	222.97739975698664	2
393.28386494704694	349.62132635790124	3
237.0594858503406	198.56062471149409	2
540.0589442321234	128.97538082781966	2
416.05821461676237	267.24342206493304	3
138.26720871483926	177.45318840528228	3
318.0105543888167	140.34120633943684	2
546.9496608413001	398.52612393681653	2
280.41307833592384	184.88990613940607	2
44.3125	173.0	1
448.16775373554987	160.46284043699032	1
517.3870168240353	350.29142945068475	1
214.7821607179813	112.21911063240499	1
365.80600745649497	223.3894445299277	1
327.00126905840466	207.65779350669334	1
351.12313346802836	189.82858901369443	1
301.83062793531906	159.41406370210802	1
542.0004953180943	230.73088167410373	1
565.0735830142561	222.3406677950454	1
554.5858158796372	147.87751961840283	1
136.12390720833875	41.95106939529158	1
150.80678119680536	17.829204492998922	1
592.3417775642655	288.4136020926297	1
572.4150200084894	315.6817971995692	1
511.25073745444075	382.07144592952613	1
47.46463195984897	23.189307411907656	1
73.3125	181.0	1
110.3125	222.0	1
148.3125	202.0	1
210.3125	225.0	1
169.3125	290.0	1
432.3125	367.0	1
604.3125	248.0	1
281.3125	323.0	1
324.234375	106.0	1
311.234375	25.0	1
