439.49235378802416	441.4792624652788	5
334.37190154268444	312.1574161026175	5
110.98646831210286	270.50768270359197	2
321.11441490607194	218.46932558743032	4
140.89797216579933	209.17645022311126	3
486.848657135075	474.0350321981492	5
167.51820811494343	395.2133657351154	2
509.74255622722035	253.93693803159175	2
392.5605655547877	463.6172565290445	2
77.67355656203037	101.93852939708268	3
587.1496476323578	498.06305157798835	4
218.1302096426454	229.3410524696107	2
294.8373946138119	157.7558085859363	2
377.3125	224.0	1
382.3125	364.0	1
569.3125	237.0	1
117.03254778403773	141.34434993924665	1
39.73486353493911	135.82308626974483	1
