474.84105716509737	123.05418904525362	3
180.75608136448608	265.3524866990473	3
399.8024828676025	22.56053744692379	4
245.50365632299847	110.72025441057667	4
491.1766328455207	173.1838396111786	2
378.963892185012	256.01152002635416	3
125.42282222800895	140.06792223572296	2
263.119557119101	72.37278670968541	4
400.2534272697024	183.7243396077198	3
256.854230636945	164.32563918142748	3
509.8655754448828	76.72536462755183	4
217.24937645999134	322.8896120292925	4
139.26739484756834	292.5223383277771	3
515.9276644310805	338.39854191980555	2
390.3810117675416	114.47326852976914	2
164.81577450802106	84.70466182571877	3
444.7837207256212	79.35208390785235	3
580.2452956555314	247.23382763625472	4
477.6032433688058	296.76136087484815	2
185.08900140772175	304.6673754556501	3
612.0069273051995	383.08784933171324	2
425.6975798902161	239.25929526123934	2
186.83369987670528	73.04602497028705	3
535.9623378127801	18.834021871202914	2
562.7654957144049	303.7826245443499	2
534.6718139464169	223.47857111207128	3
580.4952641393147	364.3580801944107	2
239.54461142342774	24.251032806804375	2
525.3889483360653	125.09878493317133	2
345.50023922561365	267.36135249894505	2
214.800789338576	139.3670511044133	2
452.59958018914267	227.558045325975	2
398.22172023328073	374.46069957112763	2
419.8074896078676	293.66661849276	2
348.8407350813376	360.96265839197247	2
223.72953705470314	181.43837513463612	1
518.9805058793506	110.42527339003645	1
543.2740637862101	29.814823815309843	1
496.895453236751	55.212636695018226	1
542.1698111540802	186.6187120291616	1
490.2699374439711	221.95479951397326	1
584.1314111750195	341.21409477521263	1
426.22328478043227	345.6311057108141	1
440.57856899812197	467.0989064398542	1
399.7212216093127	467.0989064398542	1
448.30833742303184	445.0138517618469	1
470.3933900656315	461.5776427703524	1
594.0696848641893	439.4925880923451	1
256.16837943241524	284.8972053462941	1
309.1725057746543	226.37181044957472	1
343.4043373706837	13.251032806804375	1
556.5250953717698	473.72442284325655	1
427.3275374125622	147.96986634264886	1
155.68138990858705	193.2442284325638	1
613.9462322425289	160.11664641555285	1
587.4441690714094	141.34434993924665	1
430.64029530895215	174.4719319562576	1
385.365937391623	544.3965978128797	1
355.5511163241135	533.354070473876	1
516.7720006150906	578.628432563791	1
564.2548637966798	573.1071688942892	1
164.5154109656269	238.51859052247875	1
139.11760042663735	266.12490886998785	1
367.6978952775433	301.46099635479953	1
385.365937391623	334.58857837181046	1
62.9241688096687	183.3059538274605	1
39.73486353493911	301.46099635479953	1
96.05174777356811	395.3224787363305	1
372.1149058060632	424.03304981774	1
253.9598741681553	489.1839611178615	1
269.41941101797505	246.24835965978127	1
