493.0772735196832	251.75311893456603	4
446.1175659522691	490.4959301895736	4
340.38827195439944	155.14773132656504	4
221.85291926534603	292.0841861779236	4
464.7101586024192	273.41575815357294	3
537.4020411299441	229.09553128251676	3
386.97130472051197	510.413411596658	4
365.0186731279034	168.3938226169907	3
310.3557274611731	265.87983075040387	4
255.64459972059257	225.931770650682	4
324.22618549361914	337.1418551865401	3
399.85014861212653	213.99993115560687	2
418.9038019884679	413.7294871560907	3
469.79048547241587	457.6762373524477	2
584.36748566729	37.15388012280006	3
247.43183733852678	347.63203122446504	3
352.2167528147548	399.7700210909311	4
571.9267274094426	208.9102483050627	3
474.41314202451167	62.51711794310591	4
518.733143211608	422.1359590696125	4
481.4923966583869	489.66196413123805	3
555.7440570459728	512.0713551781123	3
557.4626779290777	345.33932574354367	2
234.20019050144901	371.13903690576194	3
281.7188338645025	451.62245167356343	3
364.82202741727247	106.02283233779119	2
285.3263693863771	17.748624117702377	2
130.17560086873377	135.91154313487243	2
292.39029564635234	181.10085054678007	2
141.19686402938368	199.38274605103283	2
206.37656930934804	361.4931956257594	2
264.03501142866253	391.90060753341436	2
165.29151666674846	162.6104495747266	2
474.0432641131407	627.5556500607534	2
549.5357272894951	587.6269744835965	2
212.03294825754304	20.886148238153098	2
606.2462957248745	558.7716889428918	2
169.70852719526837	18.334021871202914	2
267.6392640607926	86.72223572296477	2
354.86149566205677	493.456865127582	2
318.79770618010707	498.5089914945322	2
174.45368465479672	45.274362089914945	1
179.97494781544663	70.67217496962333	1
86.11347408439829	73.98493317132443	1
98.26025303782806	110.42527339003645	1
144.63886358728723	99.38274605103281	1
131.38783200172747	81.71470230862697	1
186.6004636082265	103.79975698663426	1
94.94749514143813	139.13584447144592	1
205.37275835443617	399.73948967193195	1
356.6553689562435	462.68189550425274	1
409.6594952984825	608.4432563791008	1
500.20821113314094	549.9178614823816	1
473.7061479620214	354.46512758201703	1
311.38101103891427	100.48699878493316	1
526.7102743042605	77.29769137302551	1
604.0079585533591	53.0041312272175	1
368.80214790967324	54.10838396111786	1
330.15330578512396	62.94240583232078	1
211.99827414721605	210.91227217496962	1
175.5579372869267	219.74629404617255	1
210.89402151508608	242.93560145808019	1
567.5676216930698	485.87120291616037	1
295.171875	428.0	1
545.171875	379.0	1
610.171875	595.0	1
584.508726485597	310.43791352515774	1
580.3136196317494	563.1931066317895	1
