497.267611097222	217.6878636530118	3
477.6266404292057	198.88274605103283	2
519.6074404396753	177.89234507897936	2
583.1828930875097	338.4506682867558	2
410.55118778137125	331.63791008505467	2
324.88108249617204	183.60085054678007	2
324.48533512830204	149.64131227217496	2
539.1499667609751	516.7908869987849	2
426.0724509420212	536.8334143377886	2
331.4023456568219	323.82515188335356	2
384.6437772476165	263.8539489671932	2
525.5765772842602	558.3238153098421	2
536.5457141288451	428.5686512758202	2
207.75144036115307	95.87861482381531	2
481.1266404292057	254.45820170109357	2
338.9873268421638	471.5159173754557	1
228.56206362916575	290.4184690157959	1
539.234375	395.0	1
528.234375	302.0	1
392.234375	233.0	1
431.234375	204.0	1
475.234375	360.0	1
394.234375	372.0	1
436.234375	443.0	1
388.234375	449.0	1
504.234375	339.0	1
489.234375	296.0	1
532.234375	202.0	1
442.234375	167.0	1
409.234375	149.0	1
363.234375	145.0	1
268.234375	183.0	1
266.234375	304.0	1
354.234375	414.0	1
496.234375	425.0	1
576.234375	432.0	1
600.234375	391.0	1
428.234375	246.0	1
301.234375	259.0	1
222.234375	63.0	1
289.234375	150.0	1
418.234375	359.0	1
382.234375	347.0	1
498.234375	481.0	1
469.234375	566.0	1
431.234375	569.0	1
510.234375	523.0	1
570.234375	380.0	1
585.234375	289.0	1
412.234375	291.0	1
324.234375	288.0	1
258.234375	271.0	1
505.234375	123.0	1
548.234375	107.0	1
