234.69074364471072	61.315674362089915	4
110.99628924781446	133.32545565006075	3
475.703125	298.5	2
458.5523752381227	430.3062575941677	4
312.889631049891	30.97976913730255	3
538.5635226112275	127.99863304981774	4
601.0041962990887	419.68897326852976	4
469.64359629123646	102.56087484811664	4
583.3347857718775	391.7642466585662	4
344.47265625	292.75	3
575.7421875	529.5	2
411.97265625	72.0	3
385.2391015489529	268.1666767922236	4
325.99630154502677	328.7323511543135	4
302.2421875	392.0	2
263.2421875	335.0	2
226.72265625	131.75	3
369.3306325066417	20.43827460510328	2
590.7421875	500.5	2
295.5455120696206	244.90604495747266	4
588.203125	459.0	2
406.9331889567506	510.06725394896716	3
412.171875	94.0	1
563.2421875	587.0	2
444.703125	196.5	2
388.171875	80.0	1
98.28637651891404	49.793560145808016	2
386.30632809790575	444.00346294046176	3
571.2734375	45.0	2
187.8910228100891	103.64781287970838	3
429.82279126117305	124.4451397326853	3
181.24797653985328	167.81895504252734	2
463.48806082036083	469.5494532199271	2
200.18625022902313	208.95613608748482	2
236.3542923431028	217.61251518833535	2
398.61696897718275	235.20583232077763	1
396.40846371292275	36.44034021871203	1
282.6704426035348	51.89987849331713	1
171.14092675840675	91.65297691373026	1
538.8570532576903	159.0123936816525	1
487.234375	208.0	1
504.234375	92.0	1
270.234375	164.0	1
596.234375	153.0	1
167.3125	219.0	1
212.3125	277.0	1
405.3125	317.0	1
405.3125	388.0	1
386.171875	140.0	1
347.171875	168.0	1
386.171875	191.0	1
351.171875	196.0	1
565.171875	200.0	1
597.171875	191.0	1
351.171875	457.0	1
494.171875	431.0	1
600.171875	544.0	1
591.171875	617.0	1
472.171875	533.0	1
439.171875	564.0	1
190.171875	303.0	1
