606.1941694088096	301.2304981773998	2
443.4873275707911	357.88061159303095	2
404.66290650851647	62.96287161733227	2
104.02882191530398	58.26269744835966	2
541.3987063888077	209.14984407112058	3
211.9886748810782	122.2776954326421	2
339.04818187659447	447.1202214304584	3
202.974887140293	377.8668034730831	3
426.2497062062811	460.7888213851762	2
35.16152877832415	250.10937874917482	2
321.0723061160213	260.94889733823794	4
490.3060309154073	460.7649852138004	4
372.22444710690536	510.2742986349709	3
271.93978665875795	202.61977251914715	4
280.37040858615046	154.72297344498256	3
521.2846957039353	407.7346294046173	2
571.1303799268599	509.0823815309842	2
231.2636668059805	418.88021693028014	3
483.3117486330658	156.7893600741974	2
230.34986050253025	160.8698241253668	4
122.51954853700205	200.98205785968923	3
176.7258942347715	131.72187817536832	4
347.2906091438058	258.0474261460898	3
294.90404960420443	427.56788192668955	2
590.0165272999647	273.82308626974486	2
580.8467381307199	162.75849737674903	2
336.75533791678447	154.14777845751183	3
287.5063315527333	309.87083111146717	3
414.0277907209714	119.7776954326421	2
362.5575428763277	73.32969961296764	3
217.8712963096673	309.81558411891285	4
281.29938888651384	128.82011551394652	3
569.5261272947298	469.810085054678	2
253.17012721620762	18.281895504252734	2
79.11305021784536	254.9089692273435	3
433.1668401601477	512.5293319450773	2
347.38926050483417	479.0879828507124	3
270.6408625272947	401.75926630080676	2
181.83404298804825	172.02746051032807	2
461.02200095249077	299.7304981773998	2
412.57991703703635	420.0081936100419	2
515.8155588593504	504.53025516403403	2
143.59261139725368	351.1804374240583	2
470.90032962667374	535.6050537357182	2
217.60633773425792	211.48699878493318	2
9.975481254237703	59.86574857670411	2
460.4182012720815	196.52790504522483	2
313.05260804321034	79.4671264639046	2
95.171875	156.0	1
12.171875	110.0	1
442.171875	320.0	1
405.171875	339.0	1
588.171875	361.0	1
535.171875	360.0	1
307.171875	376.0	1
387.3387043547596	25.170641637174953	1
334.57031631364384	34.2318347509113	1
417.3892637233924	262.81215066828673	1
545.4825690504701	246.24835965978127	1
596.2781901284492	326.8588092345079	1
194.33023203313635	239.6228432563791	1
183.28770571183657	332.3800729040097	1
46.360379327718995	205.3910085054678	1
170.0366741262768	205.3910085054678	1
133.59633726598744	26.50206561360875	1
152.3686320121971	71.7764277035237	1
161.20265306923696	345.6311057108141	1
500.20821113314094	364.40340218712026	1
513.4592427187007	302.5652490886999	1
391.99145318440287	205.3910085054678	1
64.02842144179868	162.32515188335358	1
