435.23702923480107	509.5823815309842	2
414.8930964786749	442.0606995524314	3
321.4374584625205	258.29654316385154	4
201.46582656457696	280.49265621199413	4
549.630185827408	493.4625326973381	2
139.6107228526104	60.71945683951377	3
99.7734375	96.5	2
483.17385937892215	223.91847753659457	4
198.7734375	133.5	2
325.401167313682	432.20270658519854	4
539.161294027565	236.27510049214038	4
280.4393449857024	440.35054678007293	2
323.58909656878245	189.3080240777299	3
451.5189239757759	379.4835965978129	2
418.03609652281557	405.934872417983	3
505.5731134629604	387.1921020656136	2
593.1130396433927	373.7706340745571	4
446.8104187115159	334.19003645200485	2
359.7734375	293.5	2
586.8162844151541	278.3115751053952	3
371.8223152803349	390.24448512220874	4
293.7734375	28.0	2
563.1692592989916	309.74922830449475	3
378.0230486541106	169.55358550348058	4
162.21435402520916	27.280466225573164	3
270.31873971741186	220.5843861949413	3
376.4519664117661	335.0911678719803	3
478.1657029292057	349.12831105710814	2
316.9465866002545	114.07631965811359	3
133.2734375	156.5	2
397.6507098174467	359.08425921961634	4
452.9285665165514	190.297402642747	4
516.2193123697984	168.69491049375387	4
576.7528187429248	475.810085054678	2
435.86045204350177	106.49380673949838	3
313.31009650972857	384.8460510328068	3
490.31321456393675	428.9260655485459	2
166.7734375	193.0	2
345.9202385924738	249.39114053811812	3
197.38692125234687	325.4628404369903	2
285.3042291981574	151.5370595382746	2
577.7661553122281	408.8937877207766	4
230.68381054877221	104.21941837205725	3
337.21167546054096	303.31312272174966	3
108.7734375	59.5	2
475.6657029292057	531.3121506682867	2
367.20222748097854	216.1762494444888	4
133.7734375	112.5	2
255.39899936966577	173.45091552546546	2
236.31485761624594	168.85305431604863	1
475.5205542831653	486.6698722880443	2
534.4400427291703	215.32928311057108	1
504.98192464689544	236.655042527339	2
465.49001830336	418.4591136836268	2
598.3147595766554	87.14221748667941	2
183.58186382749375	49.46420178298297	2
220.73548901862068	209.2295568418134	2
335.8220686798412	404.7330788529575	3
495.791200604621	149.0741190765492	1
414.3474718821917	275.38975226957996	2
271.234375	272.0	1
551.00383221112	115.94653705953827	1
400.8254742414427	104.90400972053463	1
58.3125	122.0	1
67.3125	96.0	1
75.3125	117.0	1
39.3125	114.0	1
45.3125	35.0	1
203.3125	87.0	1
256.3125	54.0	1
231.3125	29.0	1
197.3125	180.0	1
235.3125	307.0	1
266.3125	353.0	1
240.3125	384.0	1
280.3125	402.0	1
390.3125	470.0	1
