255.71470066800552	423.7770618556701	4
582.5478370411632	320.3039429506127	4
516.2629096780438	295.6674853879964	5
284.203125	391.5	2
315.97265625	371.0	3
285.04361162396896	469.252536543885	4
359.60258154809117	468.3349515701379	5
93.76281250849921	128.04351072421292	5
296.2421875	434.0	2
441.8407315689882	226.8375734103946	5
221.43741675895168	148.33988712049592	5
228.8244869603103	410.55450838590554	4
357.7421875	411.5	2
325.703125	423.0	2
84.03650287454826	265.11537578557693	3
152.09006513643328	74.55479668264127	2
384.8229366254871	444.30801790684995	2
422.5142005388571	289.7412328232215	4
52.319448459980975	198.28524104401288	4
34.82390768470246	53.90571641748214	2
510.63482801988914	325.37245183098844	4
407.2415470000701	462.2731296811777	3
226.21333943231122	239.82317135092558	4
393.4695545924387	369.07963382787614	2
284.2350906009774	243.18272966586096	3
493.72291783512117	274.36230526522127	2
293.5737946796988	129.28692570379087	2
398.0060348879584	205.30450838590554	2
178.42839958118975	269.7190336974919	3
89.95294268598278	186.59112940452377	3
63.56884541097807	160.43264348361288	3
259.3989993696658	115.23149715340821	2
350.0061122619894	233.41421757193416	2
607.9715454476103	292.901907985844	2
100.2734375	213.0	2
228.2734375	371.5	2
581.7734375	445.0	2
171.2734375	103.0	2
380.2734375	234.5	2
414.7734375	161.5	2
462.2734375	347.5	2
250.234375	354.0	1
-138.765625	253.0	1
179.234375	384.0	1
207.234375	311.0	1
334.234375	390.0	1
195.234375	165.0	1
534.234375	430.0	1
264.234375	296.0	1
463.234375	392.0	1
400.234375	513.0	1
352.234375	280.0	1
230.234375	300.0	1
411.234375	124.0	1
438.234375	127.0	1
503.234375	365.0	1
311.3125	164.0	1
247.3125	171.0	1
191.3125	217.0	1
389.3125	284.0	1
539.3125	167.0	1
237.3125	78.0	1
384.3125	104.0	1
399.3125	179.0	1
552.3125	37.0	1
221.3125	102.0	1
168.3125	303.0	1
25.3125	83.0	1
138.3125	11.0	1
580.3125	353.0	1
375.3125	313.0	1
318.1194412662742	231.77965840898602	1
573.1854624544778	557.4540132579563	1
