604.9270981258084	38.80473919064472
593.3905542777275	76.56070164640714
473.83000894307077	15.731651023234345
539.9029418911705	113.26788736728729
503.195756920004	84.95091552546546
449.708144533447	101.73134328358209
377.3425513045759	56.63394368364364
414.0497362757424	119.56054777658102
383.6352115853473	158.36528696722573
396.2205321468901	202.4139098322819
353.22068689495217	143.68241267887367
350.07435675456645	218.14556085551624
402.5131924276615	144.73118941375597
267.2209963910763	137.38975226957993
132.97757706795304	123.75565471611017
112.00204279871504	89.14602246499462
110.95326608525313	27.26819510693953
207.440723723748	240.16987228804433
265.1234429641525	324.0720110786275
295.53796765454763	334.5597784274504
295.53796765454763	254.85274657639638
322.80616220455704	259.04785351592557
361.6109006026474	250.65763963686723
358.4645704622617	276.87705800892445
340.63536633340937	305.1940298507463
336.44025947956175	411.12048007385755
423.4887266968995	289.46237882751194
479.07389251038023	297.85259270657025
472.78123222960886	396.43760578550547
509.48841720077536	445.7301123249731
499.00065006615637	470.90075396214803
475.9275623699946	500.26650253885214
441.31793082575183	435.2423449761502
418.24484312959004	465.6568702877366
399.3668622872758	423.70580089244504
372.0986677372664	438.38867518079707
308.12328821609043	456.217879673796
530.4639514700134	401.6814894599169
573.4637967219513	597.8027388829051
486.41532950461357	567.3882135713187
532.5615048969372	512.8518233574397
531.5127281834752	554.8028927527312
523.1225144757801	604.0953992921989
276.65998681223346	306.24280658562856
340.63536633340937	510.75426988767504
308.12328821609043	504.4616094783813
229.4650347064479	295.75503923680566
595.4881077046513	329.31589475303895
