452.87396192010925	62.80555989379978
415.61642727258965	79.83757613618617
303.8438233300308	57.483054818054036
244.23176789399935	15.967515227237232
206.97423324647974	19.16101827268468
166.5231956291727	35.128533499921915
186.7487144378262	51.09604872715914
287.87630848109376	71.32156801499298
391.1329045042196	88.35358425737935
366.64938173584954	144.77213806028425
403.9069163833692	149.03014212088084
585.9365856612508	101.12759643916914
598.7105975404004	169.25566140871467
536.9695401245107	293.8022801811651
482.67998963812494	332.12431672653446
409.22942133301484	309.76979540840233
386.874900544503	298.06028424176174
575.2915757619595	303.38278931750745
602.9686015001168	281.0282679993753
588.065587641109	496.05747305950337
333.64985104804646	419.4133999687647
311.2953302595347	270.38325784788384
296.39231640052685	248.02873652975168
272.9732946220859	134.12712790879277
217.61924314577107	285.2862720599719
285.7473065012355	345.9628299234734
255.94127878321981	332.12431672653446
311.2953302595347	333.1888177416836
199.52272631697582	176.7071685147587
