285.3125	346
310.3125	332
480.3125	332
355.3125	399
491.3125	398
571.3125	310
534.3125	293
568.3125	291
599.3125	282
554.3125	101
580.3125	103
589.3125	54
460.3125	44
452.3125	66
420.3125	83
387.3125	82
419.3125	33
323.3125	71
297.3125	61
278.3125	72
208.3125	18
198.3125	159
197.3125	176
224.3125	286
207.3125	275
369.3125	149
404.3125	149
274.3125	122
273.3125	140
359.3125	28
359.3125	269
457.3125	249
341.3125	199
406.3125	300
420.3125	318
588.3125	489
310.3125	271
297.3125	253
282.3125	234
243.3125	18
591.3125	169
607.3125	167
493.3125	345
539.3125	324
333.3125	420
503.3125	473
495.3125	461
543.3125	543
178.3125	72
189.3125	49
164.3125	38
