499.234375	431
269.234375	59
581.234375	375
555.234375	349
604.234375	332
306.234375	408
282.234375	402
153.234375	303
274.234375	162
499.234375	196
397.234375	184
387.234375	160
298.234375	333
340.234375	366
190.234375	341
583.234375	271
