292.6087162927046	19.876549210206562
456.0381058479417	7.729769137302552
435.0573058374721	96.06998784933171
266.1066531215851	57.42114216281895
396.40846371292275	178.88894289185905
583.0271585428894	270.5419198055893
615.0504848746589	339.0055893074119
580.8186532786295	375.44592952612396
557.6293480038998	350.04811664641556
489.1656848118411	587.4624544349939
299.2342320854845	408.5735115431349
283.7746952356648	398.6352369380316
170.0366741262768	244.03985419198057
164.5154109656269	270.5419198055893
151.26437938006714	308.0865127582017
504.6252216616609	298.1482381530984
347.82134789920366	513.4775212636695
