233.5563841359192	219.17676595405476	5
457.87659777820096	431.2748408950939	6
385.3633939196107	267.52983169858237	6
295.85986029409787	245.25925178785758	6
405.5034182403731	321.42328096369613	3
472.45090386086133	102.29981079341869	6
565.0184755023051	200.59096036303552	3
385.46582608757205	441.9322853753896	6
349.2444425815872	292.5940337113144	5
300.1746467403998	392.8086216829905	3
268.54177494198683	158.84055643786138	3
397.5641950182301	237.48985824192886	2
539.8482451126375	129.2836628865718	7
431.4866398573747	126.36680299509335	5
408.7079145451269	507.1178126319219	5
469.21275952120675	301.81216868381057	4
560.9564159992299	583.8620157928627	3
468.29806661305724	531.9144440302301	2
325.7142927808253	327.3553065819966	6
354.36694040266997	461.2281553838367	3
435.66886652478036	198.95159991581812	4
572.5304071855693	600.1276985122174	1
481.05597345064604	284.1251228522046	1
564.4344634618079	528.7784678211949	3
602.2491535984076	422.8122217897986	6
198.10261335880455	206.39118884866656	4
571.745805792293	43.07747239444226	4
187.45793337097055	102.97461618060156	4
98.28637651891404	49.793560145808016	2
404.13479512625963	388.35342680918444	2
181.11622606348487	168.5088081513225	4
462.7253358793039	471.36199904609333	3
412.95695334076885	72.27766541118353	5
235.47659497114256	61.53554632446017	5
581.9959160061696	392.24175676852883	5
210.901570403629	279.0042718123168	2
228.73320023690022	131.35342833118506	4
265.09038418728437	335.8185576332791	3
312.05575328235227	33.229246952327955	4
590.7421875	500.5	2
296.60990342867956	351.00626269700865	2
286.66676826887726	50.96550955196644	3
593.7928504669644	154.17231893523163	3
111.49649035125574	132.35736972447583	4
494.67953162251797	428.29944689789374	2
388.97661848393693	76.90346962341599	2
370.79212059566345	18.768784184248442	3
442.145647881692	560.0193036401158	2
588.203125	459.0	2
412.171875	94.0	1
486.5992767228921	204.1469670704192	2
171.14092675840675	91.65297691373026	1
396.40846371292275	36.44034021871203	1
538.8570532576903	159.0123936816525	1
525.4913632997201	459.8557882462475	1
496.5047610735005	38.23247193289266	1
576.8767036098367	2.6580046189533393	1
244.8483508367761	285.93617026698865	1
504.234375	92.0	1
386.171875	140.0	1
347.171875	168.0	1
386.171875	191.0	1
351.171875	196.0	1
597.171875	191.0	1
600.171875	544.0	1
591.171875	617.0	1
190.171875	303.0	1
283.1335753074938	102.39146593845516	1
167.3125	219.0	1
497.6876886751775	277.1952418070288	1
512.933427630998	519.7410783881791	1
528.1791665868186	492.0215542074762	1
