17.768872622079883	103.72084162177342	5
251.2915996770767	7.4377431453044	5
451.5054238388419	343.2701900815563	6
491.54668031303834	210.90722553736578	8
31.61466162509831	245.88173576655134	8
433.8248686179814	380.4376673930758	2
583.6904526706047	182.29329673203534	7
184.91340019139702	352.9189675577415	8
104.10751609085878	343.94501534132155	5
285.0983590677407	369.45180593461754	4
6.671014049319836	191.60550600304896	5
263.78130621079697	113.08464929373771	7
597.2297614925627	323.3085464768059	6
79.65596725482176	313.65717444846797	4
362.5873633638138	504.83903818514386	3
189.09153978140114	129.64763816620723	5
414.75732120583444	453.5373864136578	4
383.68933302260143	303.6409332029288	8
373.5348756486827	361.73527087403596	6
451.4619186663832	483.0666035530566	8
525.2216222056215	434.0947586033068	5
453.4587542345299	405.3318709878429	4
358.6434421033308	423.1852585694472	2
330.2753758151269	295.47534236036313	3
218.89743365982818	271.82293429758425	3
507.6652371856169	534.9786680555469	5
588.3890774562603	496.03569779966153	2
141.38330710003578	346.0635381484519	2
264.234375	199.0	1
579.234375	465.0	1
531.2670553587718	469.6422226074367	1
