271.4562738575038	272.29462166682765	3
451.7241260548865	190.50908204764926	9
590.1083709568364	374.0447772597362	10
378.5701182530128	173.58593428723478	10
99.7734375	96.5	2
339.6634612224449	407.4414426387416	8
481.04501417680297	223.51979234199868	10
160.09662758283926	26.69231812447039	9
505.87365270436896	236.03560630039914	4
536.9861996287194	220.7735525156841	5
318.4746435768326	257.7539035174672	10
164.84825580545217	193.32455139363935	4
376.40326875669496	391.89699582441324	9
432.8166676551099	101.59247639610291	6
228.71454226098558	107.12762377288075	8
139.92545362120222	56.73187284414818	8
199.7585009593975	128.96814852927352	7
107.24861338672699	57.427206842749946	4
364.82420185209173	222.5380316551956	10
294.6697528709011	28.815379499401125	4
415.3883413502672	279.3680737580178	6
380.25737881133875	338.1408590032468	7
133.2262893020847	155.50596245576241	3
420.20894282069474	407.4806420745373	9
515.6668027573472	163.19032759122848	10
362.47073197905524	297.2146428299024	6
143.88463792406742	118.5071362869243	3
400.07070537306794	360.867873041631	9
328.31947693440947	433.5607061125836	10
341.32693305118374	309.8584447004297	9
586.0119394118403	408.28606037839637	9
316.24793793357736	386.21645859378725	8
201.8258364125137	287.30517444021547	8
447.17213827977923	333.96799072543627	7
317.0832661161476	115.76739686781262	8
237.46376798374757	170.9012945788634	7
345.4853603392287	246.91895229777083	7
221.38896555511133	54.253517199524005	4
281.70444859876454	24.294831985228114	2
273.15643215962723	395.9974762183224	6
254.80807774122692	53.50249211157271	6
599.4645502658152	86.65996273401788	4
550.4028059978734	115.31628461705387	5
125.33762282429538	13.204054867629775	2
288.110043283786	148.91395924977076	6
281.55043923941906	438.5837600769322	4
539.428844155522	239.40804137105724	7
474.4533775360508	527.6668574654277	4
584.6356092909436	280.28988136098087	8
416.54312458256925	444.23529935868714	9
183.50726871802493	50.974985535867674	6
563.6479162560684	309.4771677590214	9
363.5978906742839	329.6398804443707	2
484.03609413187326	478.15549104464174	5
225.91054598568127	141.92767016956225	3
505.6768021148764	387.82518395924546	6
299.12719644439017	12.171002413014346	2
322.0039016700981	190.50907764582746	7
200.67627148666006	6.166277101788557	3
273.0086021609528	227.928237953004	8
221.9251414424217	206.60854584572286	6
577.6075957104595	477.04746550860773	6
56.1474333838231	16.381833632810363	2
397.1159328081287	109.23224864815262	4
440.2769861399311	121.58463301617319	4
494.41539077536675	430.73665558568734	6
391.99255107810217	477.1526995335147	3
229.3832783940428	29.30159999834284	5
240.06952759107614	306.6815323696468	4
382.73948079267365	203.70695491614094	2
476.85346571758265	353.2050348049042	5
270.68172623669	355.64441594253367	4
604.1069080123868	423.2464066248583	3
467.3477546304784	493.55443145099247	3
490.784478419136	149.26229804117915	3
265.1279869264969	72.86829501711092	3
467.5093289589118	420.84527505943583	5
235.84949920707157	343.42621941837206	2
146.15454710128603	95.67056470226188	2
129.42122919679542	115.84136020926297	3
517.8124137407733	191.8655177719649	2
262.8363046042365	168.5240806277889	3
425.2150150619117	250.20687798122788	2
560.84375	253.0	1
196.52264704289814	323.9808432066472	3
548.0050040027947	495.2230895107152	5
452.0413174692751	380.27281654600733	4
434.1042509792188	509.49656063546183	3
198.1815050080264	179.67041083243578	2
38.42569807146005	114.68272041852593	2
47.193969995500495	35.329204492998926	2
64.37656102065866	96.61760829073687	3
238.03509749360967	386.54808432066477	2
204.85222350514306	83.87790429296815	2
58.3125	122.0	1
75.3125	117.0	1
567.5468131833837	508.6313503064448	2
188.5627428814338	97.53623634405294	1
611.2197584065798	297.85259270657025	1
591.2930008508037	523.3395907062626	1
602.8295446988845	554.8028927527312	1
592.3417775642655	584.1686413294353	1
506.34208706038964	538.0224649946146	1
458.09835824114225	538.0224649946146	1
490.6104363584612	552.7053392829666	1
332.2451526257142	460.41298661332513	1
421.3911732699757	317.7793506693338	1
356.3670170353379	281.07216494845363	1
194.8554031622052	201.36513309739962	1
136.12390720833875	173.04816125557778	1
78.44118796793421	37.75596245576243	1
79.48996468139612	169.90183105093092	1
174.9286456064291	218.14556085551624	1
213.7333840045194	304.145253115864	1
215.5751463116844	423.68837362047765	1
457.6936612115552	-28.2777685269984	1
463.0740726537745	-64.14809726886156	1
426.84375	373.0	1
