459.7315718742133	248.09343616305722	9
478.1561584830962	158.48361401910148	2
411.39216343967996	105.89585812265881	2
591.3278628250034	250.75215111676772	8
452.38542897814386	289.2100966490942	6
496.1204166803272	132.67356413024726	3
414.45714064681874	182.56217398512035	6
369.2788088773938	202.06584884603967	2
447.99107048212363	434.2065587640848	8
285.3519787922535	355.7359438576248	2
395.11374154802206	204.06470978647332	7
552.1880121507785	106.61464297558948	3
439.28963432318176	532.0231275253558	7
519.3958424042282	113.77922105155683	3
596.4007903477558	202.28165752050288	3
262.42485192233676	151.61933926764073	2
202.37239548298095	196.93745688121874	3
517.3091621056719	517.5403590646641	2
247.42377342748009	288.1290117779598	3
290.7527271257902	309.7493057898425	2
519.6462468319705	24.54403747994712	2
289.65780672353367	128.46336479155934	2
163.07328177710804	187.22317234578153	2
357.52272525555895	433.3061012638518	2
575.8680205680064	313.6442849398643	2
496.83520217315856	104.54503186065365	3
312.92733086258477	350.83633190266175	3
424.060074949119	366.89931306847785	2
327.627015525132	389.4926795300247	2
596.024806583526	396.9219479493016	2
570.7555207591739	506.4831053901851	2
213.4322427475735	160.3774590386228	4
537.4757160240576	300.4062061643541	3
154.00033243319248	120.43787506568758	3
595.6873943580456	66.68338612949283	4
493.5410370055919	498.31069119543395	3
565.0492122013142	546.6072442040047	2
169.19592995539745	34.36916409311499	2
217.90810574706774	321.0131991463968	2
322.9474911240696	377.92439092691126	1
447.65182638770943	167.75330294732578	3
526.6646908164385	163.67123574156474	3
596.5291180141517	390.6491178941473	1
214.9573186884908	101.6359633604234	4
157.26466557957275	98.93450098966774	2
406.95271055588717	330.92387044870634	3
435.2787718653046	132.36900562968543	3
342.2700655986155	462.8539503243687	3
570.4339785874895	533.7915149817978	3
183.5970097972655	242.41508137213265	2
365.9447444312377	271.060131365912	4
539.377447705416	503.32363945023417	2
353.9350163626351	67.94543695696342	2
276.8234585017773	99.83153400980979	2
508.1823330509094	342.4972310044968	2
202.1968401564385	173.04816125557778	1
469.8891230073665	473.22125840188926	3
429.7569082331762	308.7246195800211	4
354.7593082043117	45.80901708204985	1
262.37465862776435	240.44024602288948	3
446.65344147461565	58.821398567309046	2
140.37131178303713	14.031175481095378	2
239.92290977769454	31.9487601948643	3
397.538134958141	386.62543030557487	2
476.7718951488135	560.6789245581709	2
577.7430294699077	42.461073248047	2
604.4206784529233	574.0162068876028	2
545.0520839214411	548.0408148977878	3
555.6084508148642	443.17837624593534	2
420.63389605448543	466.7408265177121	2
453.7526689880947	402.1562601120883	2
384.0261799181344	92.89050686082331	1
406.93068821590873	436.4581349761972	1
384.02617991813446	421.18846261551374	1
471.82679505960266	229.04508541024924	1
525.2706477544094	372.8345001400168	1
537.9953745865062	578.9750770092412	1
454.234375	375.0	1
577.171875	623.0	1
237.0041016160559	79.06864246230504	1
269.9051483795417	71.63937404302806	1
572.382513785782	351.82892585576	1
569.1985415183478	180.9557522123894	1
388.7734463637484	150.17735447538473	1
322.9713528367768	214.91812212908417	1
309.1741396778957	248.88049204577896	1
333.58459372822387	269.04564918381647	1
394.08006680947193	280.7202138426803	1
371.7922609374332	327.41847247813564	1
309.1741396778957	383.6686476526614	1
265.65985202296287	386.8526198323515	1
253.98528704237114	329.5411205979291	1
220.02291618974064	283.9041860223704	1
270.9664724686864	190.5076687514598	1
232.75880525947707	221.28606648846446	1
217.90026801145123	249.94181610567566	1
204.1030548525701	235.0832792671217	1
129.8103686124409	148.05470635559132	1
119.19712772099388	131.07352139724392	1
119.19712772099388	84.3752627617886	1
182.87657306967606	106.66306801961956	1
311.2967878561851	153.3613266550749	1
299.62222287559337	110.9083642592064	1
326.15532510421093	85.43658682168531	1
345.25915870881556	120.46028079827681	1
330.40062146078975	107.72439207951626	1
311.2967878561851	100.29512366023928	1
610.5901809949913	150.17735447538473	1
579.8117824097949	157.6066228946617	1
587.2410510338078	128.9508732774505	1
549.0333838245986	80.12996652220176	1
478.98599394104815	101.35644772013599	1
400.44801134434016	14.327874808605612	1
328.27797328250034	54.658189084680664	1
318.726056480198	20.69581916798588	1
344.1978346196709	16.450522928399035	1
217.90026801145123	16.450522928399035	1
183.93789715882073	55.71951314457738	1
604.2222364601231	17.511846988295748	1
470.4954012278905	314.6825837593751	1
371.7922609374332	381.54599953286794	1
352.6884273328285	368.8101108141074	1
349.5044550653944	345.46098149637976	1
556.4626524486115	401.7111566709055	1
605.2835605492678	520.5794513793372	1
611.651505084136	367.7487867542107	1
584.0570787663737	446.2867671865674	1
351.6271032436838	170.34251161342226	1
325.0940010150662	198.9982612306335	1
292.19295425158043	208.5501777697039	1
208.34835120914892	55.71951314457738	1
353.7497514219732	410.2017491500792	1
294.31560242986984	450.53206342615425	1
