410.13114819584735	331.80400639485737	4
329.13083721387056	323.2693259228146	4
429.3193997852524	536.0431506487787	4
499.51130175760625	481.1408112428619	3
478.09442876155157	200.4021012237208	4
429.89532609631664	203.37454874289068	3
506.68210935263465	122.67944838021873	2
222.3351742783918	61.22865656913781	2
477.0179591962054	359.97080364214446	2
581.9155021618805	337.0800009667778	4
432.9585962103491	569.998025991042	2
324.48533512830204	149.64131227217496	2
499.19347034679174	220.06317445540907	4
549.9816815628858	108.35053992709265	2
411.6604808846562	293.17453057294176	2
518.1019270993763	179.06645231654957	4
524.6731487327787	558.381826170674	3
486.7275052373356	297.0809546736364	2
583.2910731633309	286.91026687389285	2
384.74147499329695	264.5860414603947	4
466.8635712007926	564.3246330167918	2
391.2219368032686	449.5278561111493	2
509.35602827322407	519.9809598710514	3
324.9712094801629	182.00117842009888	3
209.06243961880912	96.25781450912442	4
326.9930842439882	285.81406787757135	2
536.6518055845715	428.6781391123986	4
539.2151542348661	514.9955550432114	4
565.6556901698293	378.91378858696635	2
603.3112521553035	386.79858457225214	2
523.1925261835909	300.5646548297503	2
537.79106385246	201.51081711150454	3
397.859835042872	231.81646423107378	3
375.9259864301975	450.0557122222986	1
481.6479352651338	253.36079309536171	4
380.14525847089124	431.77219891326774	1
438.64720506777815	249.5781690625215	2
564.5205017926091	236.96183691527364	2
425.14363342681446	506.6065603793669	1
416.79684743216615	487.52819249708034	1
582.5401693258973	197.7754802848532	1
453.7611854084659	373.057985203361	1
338.9873268421638	471.5159173754557	1
228.56206362916575	290.4184690157959	1
489.84633152892957	164.55161978127794	1
373.11313840306826	97.04326294793314	1
460.3114272440731	414.89510970493154	1
553.1354121393363	464.1199532292455	1
533.445475949432	475.3713460348029	1
411.0865867693123	116.7332003576587	1
539.234375	395.0	1
394.234375	372.0	1
436.234375	443.0	1
504.234375	339.0	1
442.234375	167.0	1
409.234375	149.0	1
363.234375	145.0	1
268.234375	183.0	1
266.234375	304.0	1
354.234375	414.0	1
496.234375	425.0	1
576.234375	432.0	1
301.234375	259.0	1
289.234375	150.0	1
418.234375	359.0	1
382.234375	347.0	1
258.234375	271.0	1
