608.1399755142776	210.4723763825171	3
352.0933443850991	72.25714970282911	9
88.2691568737552	214.94018368095817	5
581.5058957633189	113.05999229994086	10
268.6302114904547	70.0650326069429	8
334.95701299076404	39.83036017431723	10
294.1997386452913	277.3938379734831	5
399.05730393265435	22.25800414367153	7
495.2037372962708	96.68301034538084	3
215.51266537090686	60.966279641292175	9
519.2185320362446	389.3175286402824	6
351.84047813187476	372.84033916278395	8
434.6991885525129	61.707441710524996	8
367.13715507730393	216.75399993852082	7
139.52254727053793	148.50319441364485	6
606.7680773416247	295.79862066856265	3
315.2713333422588	192.93976061363003	8
187.6478665213964	188.0738576126646	2
576.0861111596209	157.32379872611708	8
163.02066338078816	219.35752874488446	10
423.66945903069836	8.967589326468278	3
517.6655396551209	79.92070590520525	7
545.7439868971449	372.84475190386127	6
420.9738399861567	177.21990962118704	8
330.6663595934026	213.1901004941742	8
509.2698195343559	333.1985775713091	3
264.5457754927429	46.669729172795044	6
250.61877383357415	42.580040605965955	1
269.171948218019	111.62317578534228	3
303.0241212364855	130.8052302395368	3
58.85276307961314	104.59284223851748	4
468.00207271403565	106.76371833404895	2
17.11287549243988	93.5567388079852	2
531.4384858669705	201.00364963503648	2
489.7622676937418	124.56710310314821	4
237.67947919383988	118.0863799669018	3
333.24908267009016	94.90963945965932	4
592.1699084325747	394.8366680978961	2
501.94218332644243	25.8099430496656	3
486.5983461971899	62.59801749398841	4
126.52566345354155	203.0643408164456	3
354.3313027586174	258.519428939459	3
82.92189999680946	112.89471778535462	3
537.2031870262123	446.3208399826841	5
529.1091171420835	286.4876341777587	2
547.8035360678737	53.0832546157149	2
144.3326202435615	37.752220815332564	4
114.70604811281942	217.59716879519925	2
597.4734689225185	17.438990613940607	2
236.1126469566286	380.69435563619174	3
546.1476989764202	414.32710724716435	2
552.3106338617386	511.41641947907567	4
394.7734375	86.5	2
382.55395941341413	391.10622419338466	3
252.2734375	283.5	2
267.2734375	243.5	2
438.7734375	239.5	2
224.2734375	254.0	2
53.3125	125.0	1
565.3125	182.0	1
392.72203555244346	169.71969028051348	2
302.18484521765953	83.42668102785044	3
253.81308363111202	200.13378981381751	2
380.234375	270.0	1
112.234375	116.0	1
148.234375	98.0	1
559.234375	90.0	1
202.234375	283.0	1
362.234375	304.0	1
513.234375	252.0	1
451.234375	220.0	1
253.5868991160716	17.829204492998922	1
210.5870538641337	14.682874288352055	1
166.53843189873388	13.634097553469765	1
10.270701592910674	51.390060009232194	1
83.68507153524372	89.14602246499462	1
451.8056979603708	182.48715186951839	1
480.12266922384214	153.12140329281428	1
578.7076802892608	327.21834128327436	1
236.80647170068121	182.48715186951839	1
490.6104363584612	174.09693799046008	1
318.6110553507095	145.77996614863827	1
432.92771711805665	102.78012001846439	1
602.8295446988845	337.70610863209725	1
259.87955939684304	383.85228496691803	1
281.9038703795429	309.3891367902755	1
112.3125	256.0	1
516.3125	491.0	1
524.3125	352.0	1
41.3125	221.0	1
404.2144190217501	114.7218548733362	1
282.5538035314481	27.67702639387787	1
607.2266054598334	374.7043573325004	1
