507.5615547180658	489.45393395203865	5
419.4641233562037	275.6951831284355	7
566.6050121394044	376.00164219875	7
181.22316587001396	41.83253883142031	6
263.39873778324863	307.06697838126996	4
299.9637348654531	314.08189721495614	4
488.5267908972261	467.06135593734723	8
368.43893047848087	495.2625355331877	7
281.0034749784137	100.56408014422938	6
323.72949406543626	287.5540765486703	4
525.9166860365624	513.9485858915849	7
515.1203669133438	411.3412881853081	6
478.008268587222	329.5625665909911	4
421.4219770614325	495.4845881492098	4
523.1299524748451	447.3555423986946	5
276.12835472859126	232.37964763061967	3
443.1833195251891	456.8410524696107	3
214.76085719507415	294.76996271481687	3
159.8689616227449	50.07090668100067	5
599.6840906436705	482.3649436544895	3
138.24026819818639	100.00681372218699	3
270.2564381623733	362.46724889692456	3
96.44275546710901	89.22223572296477	2
421.3911732699757	260.09663025080783	1
310.3125	240.0	1
116.3125	63.0	1
538.407184555838	389.8970240141451	1
169.0844827237113	100.47026825448306	1
209.78535190521097	52.232475627872724	1
574.5857349393932	588.8779185989127	1
493.2651524144116	619.8270503154332	1
298.1299794533545	204.28675577156744	1
535.5442953613003	576.4199270959903	1
