568.555976542134	178.85668127272487
548.9592617510415	31.1284413537307
457.0054461928386	7.009545040425533
301.73916746341393	14.546700138333398
226.3671874976738	193.93099146854058
176.62168072028533	189.40869840979587
300.2317278640991	189.40869840979587
352.9921138401172	275.33226652594556
431.3789730044869	316.032904054648
523.3327885626899	421.55307542535814
475.0947213846162	193.93099146854058
425.34921460722774	184.88640535105114
386.15578502504286	89.91825111741205
478.1096005832458	104.99256131322778
527.8551073606343	145.69319884193024
559.5113389462451	311.5106109959033
450.97568779557935	284.376852643435
324.35076145313593	242.16878409515093
184.15887871685933	62.784492764943735
449.46824819626454	118.55944048946193
413.2896978127093	213.52759472310103
411.78225821339447	409.49362726870555
270.08293587780304	189.40869840979587
