527.171875	48
12.171875	157
104.171875	23
89.171875	178
152.171875	229
301.171875	223
349.171875	191
227.171875	317
278.171875	305
443.171875	293
403.171875	100
343.171875	123
247.171875	76
547.171875	366
570.171875	411
539.171875	444
408.171875	468
485.171875	458
532.171875	529
567.171875	542
193.171875	341
442.171875	136
298.171875	12
