1.303730579255899	48.03063803712308
85.87942216306217	38.63333929072944
93.18843254684789	1.0441443051548498
130.77762880631735	14.618020272167895
14.877607006286535	110.67929634641406
31.583916454939626	132.6063267546659
78.57041177927644	115.90001787218831
114.07131935766425	92.92884315878162
181.94070149281742	52.20721525774248
339.60649691448094	1.0441443051548498
92.14428820630708	160.79822299384685
56.64338062791926	159.754078688692
31.583916454939626	172.2838103505502
40.98121551980699	231.80003574437663
114.07131935766425	228.6676028289121
367.79839410908306	39.67748359588429
361.53352806583814	65.78109122475553
330.2091978496136	61.604514004136135
319.7677544442054	95.01713176909132
290.5317129090625	99.19370898971071
297.8407232928482	126.34146092373682
168.3668250657868	176.4603875711696
179.8524128117358	210.91714964127965
119.29204106036835	290.2721168330482
156.8812373198378	365.4505068041974
212.22088736850117	313.2432915464549
227.88305247661344	340.391043480481
242.50107324418488	297.5811269691322
248.7659392874298	241.1973344907703
438.8002092658587	35.50090637526489
548.4353650226446	139.91533689074987
504.58130271993025	95.01713176909132
258.1632383522971	322.6405902928486
253.98666099013388	374.84780555059103
215.3533203901236	364.40636249904253
188.20556753606235	400.9514131794623
544.2587876604813	275.6540965608803
500.40472535776695	292.36040544335793
461.77138475775666	304.8901371052161
473.2569725037057	345.61176500625527
491.0074262928996	424.9667321980238
485.7867045901955	471.9532259299921
484.7425602496547	509.54242091556665
560.9650971091344	542.9550386805219
527.5524782118282	584.7208108867159
598.5542933686039	581.5883779712512
