490.1188222740259	294.7062625019234
544.6552113740447	341.90121557162644
585.5575031990588	271.633174334513
400.9728016297643	163.60917064163718
210.09543977969844	80.75580858593631
200.65644935854132	36.70718572088014
162.9004876739129	18.877981227881214
156.6078273931415	65.02415756270196
182.82724522968903	104.87767348822896
84.24223416427036	45.097399599938456
53.82770947387524	11.536544083705186
38.09605877194672	180.38959839975382
153.4614972527558	339.80366210186185
173.3882548085319	292.6087090321588
147.1688369719844	259.04785351592557
131.4371862700559	282.1209416833359
77.94957388349894	287.36482535774735
28.65706835078962	255.90152331127868
62.21792318157044	212.9016771811048
283.5098097220315	297.85259270657025
390.4850344951453	291.55993229727653
367.41194679898354	200.31635636251733
354.82662623744073	338.7548853669796
367.41194679898354	458.3154331435606
448.16775373554987	496.071395599323
459.70429758363076	521.2420372364979
590.8013867663684	464.6080935528543
309.729227558579	463.55931681797205
279.3147028681839	485.5836282505001
590.8013867663684	190.87736574857672
174.43703152199382	356.58408985997846
144.0225068315987	405.8765963994461
341.19252896243603	423.70580089244504
