231.26942547160314	228.12026255367365
196.2284529435083	109.19332689391358
155.8782421535809	106.00778397445572
149.50715623938186	25.307363348189945
185.6099764198432	35.925839746382806
257.8156167807659	93.26561229662428
265.24855034733145	127.24473677084144
347.01081957955273	64.59572602150354
400.10320219787826	133.61582260975717
441.5152606401722	176.08972820252862
508.41166273926234	162.2857088848779
540.2670923102576	199.45037627855294
549.8237211815563	142.11060372831145
580.617303100185	129.36843205048
497.7931862155972	32.74029682692495
567.8751312717869	183.52266168126363
606.1016467569813	186.7082046007215
558.3185024004883	296.078511502108
498.8550338679637	399.0777325645788
435.14417472597313	394.83034200530165
495.66949091086417	456.41750511482024
486.1128620395656	486.1492390297603
364.00038201741694	423.5002282804224
306.66060878962537	335.36687417542163
318.340932965657	255.7283011889751
459.56667073040285	263.1612346677101
463.8140613398689	195.20298571927577
558.3185024004883	398.0158849247595
582.7409984049181	470.22152443247097
605.0397991046148	539.2416210207246
440.4534129878057	33.80214446674424
246.13529260473427	292.89296858265016
