235.3125	229
443.3125	33
349.3125	67
210.3125	27
512.3125	169
433.3125	397
499.3125	400
557.3125	397
591.3125	469
365.3125	424
309.3125	334
536.3125	302
550.3125	240
609.3125	189
464.3125	263
163.3125	106
