5.503031938909719	11.042527339003644
40.83911616706909	16.56379100850547
94.94749514143813	8.834021871202916
241.8130952147255	12.14678007290401
71.75818986670853	60.733900364520046
22.066821420859423	76.19343863912515
67.34117933818862	99.38274605103281
204.26850572230617	45.274362089914945
138.01334779450735	100.48699878493316
199.85149519378626	69.56792223572296
15.441305628079542	97.17424058323208
162.30690570136693	102.6955042527339
89.42623198078823	130.301822600243
430.64029530895215	133.6145808019441
329.04905315299396	139.13584447144592
545.4825690504701	224.163304981774
569.7761269573297	253.97812879708383
437.265811101732	221.95479951397326
367.6978952775433	199.86974483596597
203.1642530901762	167.8464155528554
171.14092675840678	186.6187120291616
120.34530568042767	157.90814094775212
80.59221092374838	171.1591737545565
281.5661899714048	266.12490886998785
210.89402151508608	252.87387606318347
194.33023203313635	224.163304981774
429.5360426768222	273.8546780072904
384.261684759493	228.58031591737546
358.8638742205034	321.33754556500605
405.24248476996263	284.8972053462941
321.3192847280841	272.75042527339
368.80214790967324	268.33341433778855
488.0614321797111	271.64617253948967
567.5676216930698	283.79295261239366
528.9187795685204	290.4184690157959
484.7486742833212	306.98226002430135
431.74454794108215	340.1098420413123
387.57444265588293	327.9630619684083
568.6718743251997	345.6311057108141
547.69107431473	364.40340218712026
464.87212690498154	372.13317132442285
437.265811101732	380.9671931956258
525.6060216721305	390.905467800729
568.6718743251997	394.21822600243013
558.7336006360299	425.13730255164035
518.9805058793506	424.03304981774
389.7829479201429	409.67776427703524
306.9640005103944	383.1756986634265
219.7280425721259	284.8972053462941
188.80896887248647	319.12904009720535
225.2493057327758	346.73535844471445
129.17932673746753	242.93560145808019
482.54016901906124	435.07557715674363
442.78707426238196	458.26488456865127
609.5292217140089	172.26342648845687
