311.3125	164
448.3125	221
223.3125	153
152.3125	74
173.3125	106
63.3125	162
53.3125	197
92.3125	129
98.3125	212
89.3125	188
247.3125	171
191.3125	217
228.3125	238
389.3125	284
511.3125	326
539.3125	167
313.3125	371
233.3125	409
359.3125	467
353.3125	411
469.3125	345
237.3125	78
418.3125	165
384.3125	104
180.3125	275
87.3125	263
286.3125	243
399.3125	179
552.3125	37
36.3125	55
229.3125	374
259.3125	426
296.3125	437
585.3125	321
607.3125	289
424.3125	287
377.3125	237
221.3125	102
168.3125	303
25.3125	83
138.3125	11
257.3125	113
406.3125	465
583.3125	448
580.3125	353
393.3125	372
375.3125	313
518.3125	295
