393.63136463553104	369.16941067856595
406.21668519707384	400.63271272503465
427.1922194663119	446.7788890598554
343.2900823893598	161.51161717187262
264.63182887971726	166.75550084628406
248.90017817778875	195.07247268810588
221.63198362777933	253.8039698415141
112.55920542774167	71.31681797199569
202.75400278546513	189.82858901369443
149.2663903989082	62.92660409293738
599.1916004740635	447.8276657947377
327.5584316874313	383.85228496691803
356.92417966436454	52.43883674411448
568.7770757836685	79.70703185105401
577.1672894913637	123.75565471611017
288.75369328934096	291.55993229727653
