596.6402960368044	291.20646172090557
529.4440817851137	274.0780144956755
485.9641784457843	296.4767531748225
449.0721392487776	358.4026777583465
488.59932410271335	444.0449138844967
451.7072849057066	408.4704465705574
430.62611965027423	416.37588375143275
380.55835216862226	386.0717078914104
258.0240791214214	339.9566576696372
227.71990406673726	359.72025062182576
221.13203992441464	316.24034612701104
105.18563101953636	86.98266788162431
97.28019404874921	267.49015017827935
235.6253410375244	276.713160222634
557.1131111828687	429.55161238622514
541.3022372412944	391.34199934532734
289.64582700457	200.29393414083842
153.9358256727238	320.1930647174487
55.11786353788438	204.24665273127613
109.13834950492995	226.64539141042312
182.9224278989434	154.17888391906524
74.88145596485226	52.72577343116423
9.002814541625982	47.455481977247295
200.05087466898223	272.7604416321963
431.94369247873874	474.34908974451906
541.3022372412944	503.33569274106225
578.1942764383011	469.07879829060215
