176.171875	157
45.171875	208
113.171875	226
101.171875	266
124.171875	261
152.171875	322
203.171875	278
238.171875	257
234.171875	284
222.171875	317
228.171875	363
378.171875	381
451.171875	363
435.171875	416
584.171875	410
550.171875	434
485.171875	459
484.171875	295
537.171875	269
594.171875	300
349.171875	281
106.171875	93
78.171875	52
541.171875	506
261.171875	348
