365.3125	80
328.3125	80
276.3125	58
223.3125	62
155.3125	101
156.3125	18
198.3125	24
283.3125	25
405.3125	49
410.3125	79
340.3125	134
328.3125	161
228.3125	105
193.3125	158
194.3125	193
137.3125	225
112.3125	189
112.3125	132
73.3125	111
45.3125	131
228.3125	267
206.3125	263
333.3125	312
408.3125	372
444.3125	404
562.3125	332
527.3125	335
362.3125	191
390.3125	229
533.3125	48
575.3125	46
591.3125	72
528.3125	127
601.3125	146
519.3125	203
280.3125	319
284.3125	237
282.3125	195
361.3125	48
461.3125	212
490.3125	263
248.3125	330
363.3125	414
571.3125	460
473.3125	366
