475.171875	158
441.171875	318
482.171875	440
463.171875	406
594.171875	307
324.171875	380
474.171875	194
362.171875	238
160.171875	136
106.171875	167
74.171875	209
185.171875	311
120.171875	51
205.171875	54
366.171875	170
243.171875	151
