384.51107065401584	393.9771450722858
350.25417711393817	432.1867581131836
592.6875775514109	375.53112498357655
248.80106932216967	55.3609191581227
34.03669828245197	118.60441660512592
568.9712666390494	552.0858886897939
608.4984514929852	546.8155972358769
426.67340116488066	458.53821538276827
437.2139837925969	537.5925871915223
