559.8378532681598	379.8629404617254
565.3591164288098	350.04811664641556
515.6677479829607	325.7545565006075
526.7102743042605	395.3224787363305
480.3316637548013	472.620170109356
256.16837943241524	300.3567436208991
