591.2930008508037	620.8758270503155
431.87894040459474	484.5348515156178
427.6838335507471	403.7790429296815
414.0497362757424	471.94953069703035
450.7569212469089	450.97399599938456
500.0494267796183	452.0227727342668
562.9760295873323	423.70580089244504
591.2930008508037	404.8278196645638
527.3176213296276	379.65717802738885
516.8298541950087	425.8033543622096
470.68367880268505	352.38898292044934
379.4401047314997	393.2912755808586
381.5376581584235	464.6080935528543
518.9274076219325	490.82751192491156
483.26899936422785	253.8039698415141
443.41548425267564	259.04785351592557
534.659058323861	259.04785351592557
588.1466707104179	41.95106939529158
515.7810774815467	101.73134328358209
402.5131924276615	122.70687798122789
313.36717178339995	178.29204492998923
273.51365667184774	231.77965840898602
301.83062793531906	29.36574857670411
435.0252705449804	6.292660409293738
591.2930008508037	105.92645022311126
562.9760295873323	267.4380673949839
419.29361984305194	224.43822126480998
341.68414304687127	147.87751961840283
320.7086087776333	204.51146330204648
566.122359727718	31.46330204646869
560.8784761604085	512.8518233574397
381.5376581584235	310.43791352515774
610.1709816931178	199.26757962763503
416.1472897026662	165.70672411140177
278.7575402391572	147.87751961840283
224.2211511391384	22.024311432528084
324.90371563148085	263.2429604554547
372.0986677372664	73.41437144176028
443.41548425267564	53.48761347899677
464.3910185219136	195.07247268810588
557.7321460200228	126.90198492075704
547.2443788854038	486.6324049853824
466.48857194883743	587.3149715340822
360.5621238891855	404.8278196645638
335.39148276609984	389.0961686413295
328.05004577186656	353.4377596553316
314.41594849686186	275.8282812740422
405.65952256804724	346.09632251115556
