379.3212232096184	154.1620593629016
466.81860244980993	297.2133396726211
544.5940506633136	312.49066087074647
572.3709964538506	280.5471710928479
550.149439821421	277.7694763295524
568.20445458527	320.82374516063305
559.8713708481089	369.4334035183047
507.09517384608864	436.0980778373973
491.81785366129327	527.7620050261496
501.53978468798124	574.9828160021735
527.9278831889914	587.4824424370033
493.2067009508201	316.65720301568973
287.65730210084627	313.8795082523942
337.6558045238129	183.3278543775046
315.4342478913833	179.1613122325613
300.1569277065879	186.10554914080012
229.32571594071854	205.5494124838688
377.93237592009154	91.6639271887523
411.26471086873596	148.60666983631054
462.6520605812294	145.82897507301502
440.4305039487998	61.10928479250153
290.43499667989994	45.83196359437615
222.3814794930843	80.5531481355702
257.1026617312555	94.44162195204783
212.65954846639633	102.7747062419344
187.66029725491302	58.331590029206005
312.65655331232955	415.26536711268085
287.6573021008463	413.8765197310331
