171.4090954862492	93.6758754719993
196.0857240769342	54.41837236372753
270.11560984898927	88.06766074224619
238.70899164266285	158.7311663371354
334.05051119758224	194.6237406075553
469.7719684463498	197.98866944540717
472.01529831823024	166.58266695878976
568.4784828090898	241.73274433748145
386.7687631867729	242.85438728343206
362.09213459608793	208.0834559589628
340.78050081322357	229.3946719320246
356.48380991638675	176.67745347234535
279.08892933651106	232.75960076987647
227.4923422832606	123.9602350126661
144.48913702368375	46.56687174207317
114.2041837532976	48.81015763397441
118.69084349705851	10.674297471653258
77.18924086727009	81.33780306654246
28.9576486218403	15.160869255455747
301.5222280553156	285.4768192295557
309.3738826068972	325.8559652837781
390.1337579945936	376.3298978515561
445.09533985566475	321.3693934999756
431.63536062438203	350.5321100946918
476.5019580619911	350.5321100946918
469.7719684463498	376.3298978515561
458.55531908694746	409.9791862300748
538.1935295387036	414.4657580138773
604.371760759177	362.87018250014864
594.276776335715	313.5178928783213
498.93525678079567	349.4104671487412
106.35252920171601	165.46102401283915
33.44430836560121	164.3393810668885
72.70258112350918	206.96181301301215
345.2671605569845	57.78330120157939
303.7655579271961	172.19088168854287
588.6684516560139	132.9333785802711
539.3151944746438	138.5415933100242
263.3856202333479	117.23037733696238
450.7036645353659	277.62531860790136
496.6919269089152	277.62531860790136
560.6268282575082	301.17982047286444
550.5318438340462	329.22089412163
404.71540216181654	320.247750554025
