204.29439358336228	62.92660409293738
259.87955939684304	57.68272041852593
177.02619903335287	31.46330204646869
292.39163751416197	53.48761347899677
374.1962211641902	34.609632251115556
404.61074585458533	8.390213879058317
436.0740472584423	52.43883674411448
512.6347473411611	36.70718572088014
528.3663980430896	128.99953839052162
586.0491172834941	124.80443145099247
542.0004953180943	154.17018002769657
484.31777607768976	237.02354208339747
453.90325138729463	183.53592860440068
402.5131924276615	40.902292660409294
266.1722196776144	92.29235266964149
117.24592636602453	65.02415756270196
184.36763602758617	180.38959839975382
224.2211511391384	166.75550084628406
268.2697731045382	184.58470533928298
250.44056897568592	163.60917064163718
229.4650347064479	199.26757962763503
281.9038703795429	171.99938452069551
371.0498910238045	201.36513309739962
409.8546294218948	76.56070164640714
433.97649383151855	180.38959839975382
564.0248063007942	228.63332820433914
592.3417775642655	266.38929066010155
587.097893996956	329.31589475303895
380.4888814449616	233.8772118787506
295.53796765454763	207.65779350669334
325.95249234494275	221.29189106016312
360.5621238891855	225.48699799969228
339.58658961994746	278.97461147868904
303.92818136224287	290.5111555623942
266.1722196776144	276.87705800892445
166.53843189873388	220.24311432528083
236.80647170068121	316.73057393445146
151.85555791026727	204.51146330204648
420.34239655651385	265.3405139252193
444.46426096613754	335.60855516233266
431.87894040459474	409.02292660409296
457.04958152768035	419.51069395291586
395.1717554334282	426.8521310970919
353.22068689495217	421.60824742268045
400.4156390007377	321.9744576088629
597.5856611315751	491.87628865979383
527.3176213296276	554.8028927527312
351.12313346802836	498.1689490690876
284.00142380646673	418.4619172180336
417.19606641612813	467.7544237575012
363.7084540295712	462.5105400830897
405.65952256804724	357.6328665948608
276.65998681223346	303.0964763809817
490.6104363584612	145.77996614863827
562.9760295873323	540.1200184643792
514.7323007680849	610.3880597014926
501.0982034930802	546.4126788736729
557.7321460200228	514.9493768272042
517.8786309084705	533.8273580550855
609.122204979656	514.9493768272042
320.7086087776333	353.4377596553316
313.36717178339995	457.2666564086783
