437.234375	413
455.234375	340
482.234375	241
458.234375	191
431.234375	182
407.234375	83
443.234375	47
511.234375	33
531.234375	124
544.234375	159
588.234375	119
563.234375	216
597.234375	270
585.234375	323
386.234375	430
351.234375	424
318.234375	351
337.234375	291
305.234375	290
334.234375	219
298.234375	209
288.234375	172
254.234375	162
227.234375	168
189.234375	181
154.234375	207
175.234375	228
235.234375	193
196.234375	68
268.234375	92
415.234375	259
469.234375	421
517.234375	541
563.234375	540
265.234375	277
383.234375	232
369.234375	204
300.234375	51
260.234375	55
378.234375	38
