497.70631537433826	50.72504460829115
429.8715334051721	34.14330339289385
467.55752338804217	103.48513029364621
316.81356345656195	7.009545040425533
336.4102782476544	245.18364613431407
443.43848979900537	257.24309429096667
523.3327885626899	272.3174044867824
553.4815805489859	230.10933593849833
601.7196477270596	236.13906001682463
598.70476852843	114.03714743071721
446.453368997635	288.8991457021797
515.7955905661158	319.04776609381116
597.1973289291152	450.194264797408
515.7955905661158	442.65710969950015
556.4964597476155	389.8970240141451
458.5128857921534	314.52547303506645
372.58882863120965	148.7080608810934
440.42361060037575	426.07536848410285
460.0203253914682	468.28343703238687
389.1706642236725	469.79086805196846
369.57394943258004	507.47664354150777
604.7345269256892	297.94373181966915
375.60370782983927	68.81421684327003
336.4102782476544	41.68045849080171
541.4220637544676	471.29829907155005
408.7673790147649	322.0626281329743
374.09626823052446	398.94161013163455
