536.6485479934303	468.20315917375456
596.2781901284492	448.326609963548
521.1890111436105	445.0138517618469
495.791200604621	454.95212636695015
491.37419007610106	489.1839611178615
451.6210953194218	461.5776427703524
435.0573058374721	431.7628189550425
443.8913268945119	369.9246658566221
367.6978952775433	511.26901579586877
376.5319163345831	398.6352369380316
327.94480052086396	396.42673147023083
308.0682531425243	425.13730255164035
301.44273734974445	397.53098420413124
288.1917057641847	489.1839611178615
331.2575584172539	251.76962332928312
446.0998321587719	295.9397326852977
457.14235848007166	319.12904009720535
514.5634953508306	315.81628189550423
555.42084273964	231.89307411907654
600.6952006569692	110.42527339003645
516.7720006150906	118.155042527339
463.7678742728516	102.6955042527339
428.4317900446922	33.12758201701094
323.5277899923441	7.729769137302552
368.80214790967324	144.65710814094774
284.87894786779475	178.88894289185905
251.75136890389535	196.5569866342649
204.26850572230617	102.6955042527339
224.14505310064584	67.35941676792224
133.59633726598744	279.3759416767922
154.57713727645708	106.008262454435
