262.0630073902319	79.46159297897356
313.0316947038244	129.36843205048
382.0517921076476	197.32668099891436
419.21645994047543	69.90496422059998
404.3505928073443	16.81258222963565
340.6397336653537	26.36921098800923
239.76420669053522	155.91462304596217
208.97062477190642	246.17167243060155
315.15539000855745	235.55319603240866
99.60031657815587	165.47125180433576
230.20757781923663	118.74995565228716
512.6590533487283	115.5644127328293
561.5040453575879	395.89218964512094
507.34981508689583	306.6969879003009
300.2895228754263	353.41828405234946
377.80440149818156	413.9435995220488
572.122521881253	227.05841491385436
529.6486157865925	494.64402014831455
453.1955848162038	471.28337207229026
138.88867971571676	39.111382665840665
