200.58722730690494	27.67702639387787
194.20022136733016	7.451507106044042
377.29439163514087	35.128533499921915
590.1945896209673	203.31969389348743
551.8725539835185	276.7702639387787
598.7105975404004	388.5428705294393
548.6790510137312	383.2203654536936
565.7110668525972	372.5753553022021
494.38950052734543	384.2848664688427
470.9704787489045	376.8333593627987
502.90550844677847	451.3484304232391
446.48695598053445	431.1229111354053
365.58488074592043	254.41574262064657
243.16726690407023	125.61111978759956
191.00671839754276	93.6760893331251
144.16867484066094	72.38606903014212
39.84757782760599	63.87006090894893
36.654074857818586	154.35264719662658
135.65266692122788	147.9656411057317
212.2967381961254	189.4811806965485
260.19928274293636	158.6106512572232
222.94174809541673	153.28814618147743
200.58722730690494	207.57769795408404
275.1022966019442	350.22083398407
429.4549401416684	349.1563329689208
399.64891242365263	399.18788068093085
514.6150193359989	408.76838981727315
79.23411445498388	238.44822739340935
93.0726273240626	254.41574262064657
78.16961346505474	263.9962517569889
