529.921875	462
604.921875	286
552.921875	254
500.921875	200
577.921875	143
509.921875	147
511.921875	112
396.921875	188
404.921875	217
352.921875	209
333.921875	158
398.921875	148
366.921875	133
421.921875	68
350.921875	12
298.921875	76
234.921875	66
201.921875	45
208.921875	15
156.921875	17
109.921875	16
88.921875	97
70.921875	123
146.921875	120
348.921875	325
369.921875	349
411.921875	359
314.921875	305
306.921875	267
243.921875	246
195.921875	181
163.921875	182
187.921875	91
30.921875	138
117.921875	161
285.921875	323
503.921875	501
433.921875	505
345.921875	496
340.921875	421
219.921875	347
238.921875	280
108.921875	290
536.921875	188
592.921875	213
579.921875	75
559.921875	101
338.921875	292
401.921875	316
139.921875	188
73.921875	12
96.921875	339
277.921875	244
314.921875	398
149.921875	218
