262.81675425844276	158.59322557397303
307.72811236517134	234.38113868011942
307.72811236517134	328.4142901266344
244.5715150275843	298.9412128075775
272.64111384428963	289.1168537012251
208.08103656586735	206.31154123339854
139.31051946493923	158.59322557397303
130.88963981992765	117.89230927622773
76.15392212735222	200.69762174405435
46.6808433698116	172.62802429733347
143.52095928744504	259.6437763821682
358.25339023524094	291.9238134458972
344.2185908268883	276.48553485020074
309.1315923060066	50.5252754040976
331.58727135937085	43.50787604241738
306.3246324243361	36.49047668073715
255.79935455426644	23.859157829712757
403.1647483419695	261.04725625450425
352.63947047189987	411.21960259446104
365.2707899394173	449.1135591475342
257.2028344951017	519.2875527643364
268.43067402178383	491.2179553176156
185.62535751250306	442.096159785854
66.32956254150534	421.0439617008133
80.36436194985802	461.7448779985586
46.6808433698116	345.25604859466694
