310.2767584067843	235.20583232077763
177.76644255118666	335.6928311057108
47.46463195984897	341.21409477521263
61.819916177538715	429.5543134872418
77.27945302735844	458.26488456865127
96.05174777356811	583.0454434993925
47.46463195984897	613.9645200486027
158.994147804977	554.334872417983
188.80896887248647	514.5817739975698
282.6704426035348	600.7134872417982
398.61696897718275	516.7902794653706
342.3000847385537	577.5241798298906
371.01065317393324	448.326609963548
353.34261105985354	404.1565006075334
308.0682531425243	329.06731470230864
309.1725057746543	371.0289185905225
240.70884258259554	299.25249088699877
247.33435837537542	268.33341433778855
145.74311621941723	265.0206561360875
100.46875830208803	292.6269744835966
75.07094776309849	202.0782503037667
48.56888459197895	168.95066828675576
139.11760042663735	152.3868772782503
131.38783200172747	120.36354799513973
208.6855162508261	207.59951397326853
401.9297268735727	259.4993924665857
435.0573058374721	281.58444714459296
355.5511163241135	298.1482381530984
341.1958321064238	273.8546780072904
361.0723794847634	335.6928311057108
394.1999584486628	164.53365735115432
393.0957058165328	100.48699878493316
345.61284263494366	197.66123936816524
259.48113732880523	160.11664641555285
391.99145318440287	60.733900364520046
306.9640005103944	40.857351154313484
225.2493057327758	125.88481166464156
253.9598741681553	22.08505467800729
223.04080046851584	76.19343863912515
187.70471624035648	441.7010935601458
171.14092675840678	492.49671931956254
252.8556215360253	517.894532199271
278.25343207501487	554.334872417983
271.627916282235	491.3924665856622
220.8322952042559	435.07557715674363
270.523663650105	288.20996354799513
418.4935163555224	436.179829890644
352.23835842772354	612.8602673147024
207.5812636186961	103.79975698663426
171.14092675840678	118.155042527339
329.04905315299396	181.09744835965978
371.01065317393324	171.1591737545565
