486.88830310903774	488.34059086013235	2
299.2985310756574	9.744964237985206	6
585.8628802821466	297.9551984215742	10
190.02725757063496	85.98213054469339	10
442.5191152082375	304.5618463089735	8
569.3086586264218	476.8189806977555	6
260.1428267060999	397.2436100634054	7
149.7879146555157	60.17199935567751	5
143.02078917574286	200.7527518345609	9
424.3521851545362	436.9804614051947	7
224.1064681878015	279.85392152905763	10
590.880360139292	452.12774934342934	8
309.61900064113314	350.6582048445941	3
512.8478471042149	216.27961083999656	9
271.6035085062251	25.71672074167047	7
387.1855394579045	371.2177371595941	9
361.09621089247213	341.8581809160611	8
169.49120337451853	281.15355488693524	9
534.6300878313386	248.2884371756314	7
183.28211821077034	254.8437716721358	10
111.18912942459933	296.81620425534453	7
339.76185793773084	277.6550884884231	9
39.146433652956475	147.06641750033614	5
505.86758181670245	451.7069289136497	7
315.76738714509776	194.47034718779466	10
34.249034179893044	211.4441407214614	4
478.5423215981112	370.8244306941909	10
427.4047015436521	261.2504616809207	10
390.2655601603111	138.97522515685347	10
217.07776384321366	128.12719913438335	10
96.61238222800552	233.80924342856488	8
339.023808159	391.2866411116159	8
570.6650807010858	250.9185872801488	10
471.3188788709771	256.19559796927814	6
562.7038782845651	411.70524834459064	4
569.7730139949192	57.3017974131202	5
231.74728100655182	334.0625640059667	6
551.2873930968032	358.35996641743463	2
306.25003552150235	228.8088734536662	6
475.64731853352396	274.9012943115947	6
502.9778294391149	113.64610939160877	4
373.5823449548615	400.0971876838154	8
258.21485647542545	231.54816675837577	5
602.7301980670265	163.4804297581224	6
472.9108283926507	413.76910669309746	2
612.4994614640789	373.7006955162548	2
277.68841383616075	298.46443489025296	2
200.92022512008964	55.811957807367335	4
350.2226479771159	448.3389623407645	4
196.18968750206943	358.1609365000704	5
302.55146991104607	355.4358130141709	5
425.5916233103186	225.2828444294541	5
356.96344150544496	365.5694989127659	4
9.745513070434423	153.92308669975773	3
546.9156002840019	427.6788339247257	2
256.05348656106054	38.831950541098095	2
424.234375	86.0	1
531.234375	107.0	1
75.234375	104.0	1
123.234375	151.0	1
359.234375	192.0	1
138.22146063526256	308.34036005539315	1
525.2200679027039	490.82751192491156	1
609.122204979656	420.5594706877981	1
540.9517186046324	506.5591629481459	1
593.3905542777275	524.3883674411449	1
427.6838335507471	457.2666564086783	1
596.2781901284492	346.73535844471445	1
