407.35143475742484	332.5089530153295	9
548.6481966121702	195.80617133803952	6
518.9214349753232	371.28560276868	9
213.961966995843	101.75933301681239	8
498.18870265821647	157.78098049296153	6
314.5189962330928	372.72092202833056	3
456.64523607319757	339.8648129427738	10
206.30339423643014	34.22673763356039	10
359.096516828336	270.6075315500958	10
159.74569547792726	161.48279321237283	5
259.80452216746266	320.16116143312547	10
477.1453816856748	424.42305438843016	9
257.88890217110634	195.13401777615337	9
366.4841182465266	396.62755088763106	10
440.59506792689115	86.56024471316046	10
458.8945218118279	495.5182789855035	6
438.39046113713084	213.10942071112424	9
421.7464206378994	155.22328158030527	7
570.0870453896085	380.9739902504293	6
368.5833941203915	37.231400856214144	7
309.8709916627101	190.00406937218042	8
588.9335427474105	240.4159780342243	8
410.88214416192204	117.28840367912926	10
490.82824376731526	69.46519297030551	8
484.11834905587233	360.14562330563956	10
267.0387722837247	406.46882539201897	2
117.13938752622994	123.02510913017564	3
592.2967999996094	522.5497495331102	4
479.95544581913947	532.1917817894475	6
526.6129750586206	501.6009084072442	10
167.82585257665573	55.52722974971395	8
303.50189604970944	309.5069350638105	6
481.64901087649366	393.2207450571458	9
217.55067263839106	172.36384034340557	8
256.42588663242515	118.17959061748743	2
561.0530692616003	467.0175724152512	10
283.9608542069334	38.725770608736994	2
374.01410933401496	352.8131432740705	3
582.8647293406963	551.2057629236295	2
329.67489499582905	457.15252282480833	4
559.106667375644	250.3859648997794	3
407.41584186895636	371.63041676482976	2
553.5811454826714	367.2764732364853	7
150.03695007321465	91.25703745803789	6
538.259896638776	226.58525764777227	4
136.6873946903564	19.294892201038877	5
536.4962912811277	576.4737622989223	3
362.08809811685825	178.5371084754047	3
391.3966169728262	274.4353927265886	4
358.48447743585376	463.3351752225085	4
143.37984790738534	143.22815665546185	3
234.3828125	103.5	2
425.2064827248819	485.2342678008357	5
396.01082194205776	499.3488299128517	4
197.16747305330105	225.44837566649494	4
319.43747775360225	304.1683223190889	6
405.96484375	220.0	3
448.3979184600546	271.25612993909107	2
175.83428207779713	233.16261059335258	6
460.0236459302462	62.50743554138431	8
478.3471257528818	193.22027512805153	3
368.84615071709584	207.95250397136192	5
393.8828125	250.0	2
516.7848186652852	469.69283184747843	8
561.839797646985	269.19330508550865	5
187.58062858082246	135.57939206288574	7
586.1393860301733	21.90500820721395	3
440.921875	61.0	1
512.921875	228.0	1
554.3990997996558	168.27480283549764	3
439.6943707324006	259.4875326801349	4
451.63967055768563	473.3567020488768	1
399.64891242365263	512.0249882867406	1
495.921875	560.0	1
473.921875	560.0	1
569.8709585743693	135.29461182801435	1
