494.03464047285	384.05254808598625	6
431.7694820102756	54.60923131308368	7
357.80277922510186	272.8715118209675	5
237.69082224338268	324.1958090592616	3
176.1827874158287	26.543558913127697	2
481.0558598073924	172.61391543421485	9
343.90610522560064	242.83268004090206	6
545.1372082507871	362.16377430976	9
547.6971555710318	429.76941994533126	7
222.71325728352616	92.38843799796015	6
375.4983039898909	50.09972609064842	6
232.59643114082488	140.7181545450828	9
493.65206070814384	126.4758569999743	7
549.0625477539038	465.8780696618178	8
286.8802097813792	381.01030633463427	7
316.70326272207683	422.04110218832534	5
244.33898839532168	18.416304858219092	7
473.17670227365886	349.5818985260199	8
588.9919335374614	421.2061462195652	5
444.32861125064665	102.00268373297895	6
441.70970910941105	276.72877872613367	3
382.30549092673414	420.58709903053733	5
305.094278726113	121.84929071382116	8
274.15154284401126	249.92408611438375	7
469.0276619651031	464.74737726305204	3
389.5462653278437	326.7483023038088	5
325.8800680600891	299.9412219252923	4
405.15390762573327	133.38898589054187	7
510.5204740105519	507.27483694577927	5
436.5232985363141	264.5102281258911	7
544.1184786444638	520.3429555274885	6
393.7253744809407	362.7815413652477	3
525.5394813250192	83.95656149148992	2
503.9101223279678	80.92398564326325	4
391.2056560867757	166.61244481559442	6
550.4648018434962	152.5536564803175	4
429.7390009127264	403.6552695114575	3
450.9980719030001	384.2969369266773	6
316.01261128160377	164.95641101709407	4
464.49793210736675	443.5339123256043	6
282.99380015611325	84.84265117301892	3
569.9832665217999	388.47032973777465	3
375.9108942535354	367.1415280474639	7
468.9974717674456	311.934241388552	4
576.4181932705145	536.2141655666725	4
489.70345220457756	494.82635268868876	5
453.804875023339	146.32245381784492	3
320.22745579280064	40.76255559460577	3
601.2719326952922	491.5010046600431	3
193.03149356620418	245.13343584472938	3
286.4632545005112	52.83194375078597	2
196.6332278299251	183.8394399724683	2
493.7390568220633	226.6044287774822	4
292.4339281866467	291.3824269716153	4
211.4261717536623	283.147769943679	2
149.08447950362685	119.40805501690971	2
568.5779657649805	479.1660744692951	2
487.00085617823436	34.32082424675097	3
521.5457436571796	12.171002413014346	2
510.9636308637572	50.17069121291309	2
158.10128936509	156.89907972963414	2
359.9114479007	24.30269412536154	2
421.7208896557709	159.55247012737362	2
517.8201619798771	331.9483126636826	2
261.6518968312506	72.38369400864349	2
317.653755971113	67.09263749343145	2
344.5548049290638	364.0238856531154	2
179.74273047926405	149.54191830519127	2
591.7526364892983	382.3431667558894	4
294.26331442066856	32.99953146962361	1
99.171875	58.0	1
570.0634161414488	282.8694216238534	1
611.48460941955	100.06309542401999	1
340.63536633340937	61.877827358055086	1
612.2685351200416	198.21880289275273	1
568.2199131546419	518.0957070318511	1
519.9761843353944	384.9010617018003	1
360.5621238891855	420.5594706877981	1
205.34317029682418	310.43791352515774	1
217.928490858367	6.292660409293738	1
596.5368844181131	452.0227727342668	1
