473.2931488580931	180.2518200428918	9
394.61448531328256	46.509229276326664	10
606.5787736239306	89.71908687493439	10
402.61201847959643	189.98396230419058	8
451.695144309708	65.377552453522	9
289.51784700759833	300.67127937306844	10
563.3747804144842	567.6990924607211	4
338.5978368820721	69.35981832456682	9
581.2972275461967	596.5220109342349	4
488.7946142568605	521.8557867053424	9
517.8286470165712	350.9618472571511	10
358.29144418394606	306.22652593052385	5
593.339809149541	191.98702518372028	9
399.6316545224172	398.86092682821624	8
425.28247038092957	460.1420054236987	5
329.2576341699662	123.99360616714432	8
431.6073816815954	34.10495446823528	5
550.2828139236528	121.54648597103542	9
522.4259524764457	78.25414419961908	9
567.207011766033	411.861640670786	9
455.80845216161566	432.1496952066429	10
511.24167705636785	480.8165272619972	4
242.90309045650235	151.8418967319462	9
371.4159687944783	217.49539978000743	9
302.30572367248766	241.1964735066353	10
512.4030222355233	544.9627943593985	5
215.0883831203237	18.55538104784703	6
371.00826179299156	462.4015326204095	3
517.6128654202732	507.6819559635745	7
405.1757359352874	72.323913774692	7
555.1706088534271	345.70316687157157	7
261.30390944603255	185.91745100997144	6
200.50136323482837	201.30239001909246	4
221.76987338881503	68.24885989103541	5
184.89579372898396	78.41878806809308	2
520.073168701975	474.9666128314889	4
575.8020378809797	34.06426674996096	2
404.4416437118263	154.20857410588786	2
271.078125	147.5	2
410.0455840526553	455.36373931843923	2
186.3125	15.0	1
213.69495632920842	89.82271182950684	1
352.3125	14.0	1
312.3125	414.0	1
423.84375	56.0	1
560.84375	294.0	1
176.1037045385349	63.87006090894893	1
363.45587876606214	124.54661877245042	1
395.3909084639361	127.74012181789786	1
371.97188668549524	145.8366390754334	1
201.65172829683408	234.19022333281276	1
599.86068440215	617.2614400964104	1
