570.877504400026	129.6229424958733	2
375.2298168375753	174.32397270990342	10
427.60004671475895	344.72356414688574	6
190.09266017084184	295.2539989446324	7
407.0250464714661	216.02817467077352	4
85.01242956321894	91.76796430220034	2
177.72042286265685	359.49547723850765	10
493.35414904467325	168.89918128439277	6
325.70668530272513	178.81643329743036	2
263.931176579806	164.84975873000525	10
84.19375080568861	251.3150939154988	9
500.22163692551095	419.50357014912714	10
520.6147734752255	236.05592768572495	8
403.8335648132344	132.56460707977493	10
473.2783813306219	383.17588776512684	10
413.0363294627375	329.63635927841676	6
470.8910218009222	10.455517150238178	10
434.97911992890533	215.22062926234926	9
124.2611027714801	208.25818806220678	3
316.83647668382514	155.17796278807762	8
312.31143938629765	204.5550994764254	7
34.671147317047705	171.47499615325435	2
268.23058174069786	399.77896678000934	3
277.95357545955505	6.013912812798077	6
400.45384121262214	37.13492293497434	5
217.19962572638553	172.65579387201734	2
139.9895460624092	74.96867509245745	5
597.3196883806281	302.88521846458923	7
97.7619729647042	119.93430988635134	2
609.1100908923363	215.0906925387481	3
400.41106546677855	389.05920364823237	5
463.35560670767535	499.0872954657759	3
183.5774022045413	193.98275623403265	4
23.865701671418325	114.49178814283573	5
404.40222695554303	282.4325587804236	2
324.35425641783024	435.113998864509	6
454.3630763828851	199.0165358648503	2
440.6730659329917	141.4630236196141	6
190.838885222552	113.44748348049434	2
544.0453591495848	135.60464836367294	7
434.9502148030105	84.4212683458837	7
594.2891729246271	103.62632061039957	5
541.9492903601716	323.156597248181	7
237.68114246884244	56.447678556772075	2
354.74452042791347	355.3588391297512	4
213.5229420022597	249.35320818587476	2
366.7542809382022	257.5249982876244	4
402.21298467151115	245.07909831311207	8
281.81824405347595	234.5415220997641	2
487.47723167810426	244.25678647944318	7
368.1917906365054	375.16463103925884	9
347.40549878666513	236.95361341527826	8
553.3626438290906	363.86029582863756	3
38.29658421995827	153.75606631322103	3
179.0014987645102	255.23073113220335	5
511.79139238285165	360.46537589575894	5
394.16354081411635	55.4693593013749	3
522.3239148237594	377.9084367552736	4
7.5146904324192825	41.686259494738586	5
470.52255874136256	447.99668894289186	4
612.9729871730694	451.26755771567434	2
428.476397654476	440.7462940461726	2
158.959238636633	188.06630289302996	1
521.1890111436105	206.49526123936818	1
147.9516214836772	268.33341433778855	1
515.6677479829607	500.2264884568651	1
344.5085900028137	295.9397326852977	1
229.66631626129575	415.19902794653706	1
494.686947972491	475.9329283110571	1
610.1709816931178	25.170641637174953	1
442.36670753921373	111.1703338975227	1
401.4644157141996	314.63302046468687	1
260.92833611030494	39.853515925527006	1
230.5138114199098	29.36574857670411	1
93.12406195640082	71.31681797199569	1
48.0266632775391	52.43883674411448	1
6.075594739063072	90.19479919987691	1
9.221924879448775	132.1458685951685	1
74.2460811140866	28.31697184182182	1
263.02588953722875	73.41437144176028	1
254.6356758295335	121.6581012463456	1
414.0497362757424	472.9983074319126	1
268.2697731045382	263.2429604554547	1
218.9772675718289	289.46237882751194	1
284.00142380646673	289.46237882751194	1
261.97711282376684	313.5842437298046	1
