27.39353510444588	47.59911280771374	4
79.97482481372825	360.4584496202758	6
399.07657880412205	249.23944514283667	5
459.5802355856099	423.6552906549155	6
384.6571063179658	532.2281834306684	7
393.09949233856685	277.57513565785916	6
346.4487933158025	186.63274543846498	7
274.3180872143257	399.12612212394816	6
524.2801979326322	445.18883849131214	6
379.42205017690355	400.8486051851156	5
455.1206333865143	312.9998878618669	7
269.3955351852871	100.411674460531	7
286.38480927196406	166.29597344038336	6
402.6769424851446	310.76190258071233	4
599.241710312029	521.5332121238946	6
202.89379306155485	384.48720284209105	5
548.8553632579429	555.7037638291922	6
110.43315100733356	30.69436847532147	4
208.55959500892448	322.31358806050673	6
526.4267238423046	249.93021100685667	7
174.43785307612967	368.94607600568315	7
373.9037982694365	465.19497627608234	2
125.59806785195659	400.75321338833953	3
128.72136526984258	216.15812161801148	2
355.33906407305915	413.3790283012955	2
339.65641191464647	486.1272634626972	2
347.40306247120134	381.5831353552675	2
332.9976255004142	463.7691076913842	2
499.86956803675025	84.53861535037446	2
43.12048404172248	93.90785372263437	3
473.37069021116747	585.9629171727732	1
527.234375	382.0	1
513.234375	188.0	1
338.234375	38.0	1
295.234375	96.0	1
365.234375	323.0	1
100.234375	273.0	1
