383.19960816855803	511.2124287007615	9
133.3612337275798	78.68705043865434	7
447.77880028109223	139.77189203957852	4
94.86169303519884	277.64442283544736	9
386.2386329237201	382.2698896730446	8
516.461357231237	370.5622465831573	9
542.8352098640845	497.8029661079139	9
240.01455468869284	315.62989909343054	5
445.12342920623723	552.6068339294435	6
254.61453797328386	250.221238146419	6
265.90108334669117	419.05029191041876	9
497.1728320984636	591.7341554932216	6
420.2789396888309	491.2030113843641	9
200.0992525415034	289.3668435705244	8
555.005614393536	62.65868514975223	6
433.0129646385318	62.989485163194274	3
102.27771705850468	310.9871527560492	9
162.85827153718657	27.646148331608813	2
358.2334343373701	560.749633425922	8
147.86969198267303	208.79367903509146	5
588.74040848613	33.0350602062865	3
403.14539012442515	42.96507252086461	4
574.8889382822717	118.84825665853077	7
483.5281599169731	311.98270738185215	9
181.0297293130723	368.37657068987744	9
429.13188305560277	158.7445571538804	5
552.6911777256828	315.21257116479455	3
550.1898868340536	208.62138039115857	5
506.66280008841966	186.65381217087418	6
524.8811891233319	299.48444761421223	8
532.6172631854665	555.1196035133394	6
383.3894045431297	429.99846130173876	2
203.26237957109365	174.0950051485027	3
230.42936717478244	197.29245648776646	6
560.3792069882929	580.7550227559822	5
160.36290053178232	307.9148379157173	8
471.8184475014221	19.380186569669284	6
270.24598825385203	171.10675240058742	3
486.90604343282433	410.59706569460957	9
102.19251395155906	98.8285376033335	8
530.6557979212378	176.85598123123415	6
501.6099926575823	237.27189072195753	5
537.6445206103035	430.84475674153566	8
101.07850702930105	198.6965813745446	7
302.03250146765953	400.29196799507616	2
385.6931600742062	289.60280861338384	3
439.34879940660284	421.21994680786275	4
253.30688102901792	462.389829204493	3
208.23455444960106	348.68997281855053	4
225.4481569744596	365.6229898147261	6
286.999716671187	322.46031208474795	6
390.8373284717386	206.1975455024316	4
219.8532747682299	466.8586641004308	3
476.5559351350862	470.0056339949948	8
480.50216528066784	526.7342648845687	3
532.6695904360179	409.7300145979562	7
515.7905051990234	271.9630679403225	3
342.41048230997376	358.7432681951069	2
472.2658084947782	218.29827814405803	4
297.68702177820626	448.0050500448963	3
397.2651135583253	312.3329599551946	2
210.5856972350448	415.5363779990087	3
344.9592590234356	318.24334513002	2
433.65481174959416	371.00357042845144	3
320.234375	352.0	1
56.16514306775171	190.80249009046446	5
337.16166684479776	95.72659736230099	2
167.57911030290714	133.69467578306117	5
244.40390898977262	33.42663841097854	4
267.27697521071195	494.4065047201099	4
434.6853088210435	513.9081746075108	3
444.4430962422706	477.5359925891038	4
456.32160440397496	301.51198893516226	5
608.6993500913443	458.4294576037616	4
454.71790360940713	81.45400534914913	4
429.6309768679125	322.2636039529027	2
7.362478409179246	271.0320710710331	2
51.66779253807407	286.85335536168805	4
251.0010574865351	8.580447305006453	3
5.789313338986395	188.69256288985108	2
213.91127668605256	252.6904905265294	2
129.08356638899903	301.7084037813559	3
260.16431472441934	206.36564150258232	2
117.2607170566445	41.761244789418306	3
608.5773018015077	355.2221018762949	3
46.95237093320148	84.20611738140983	4
460.0200784001921	188.9189793877726	3
305.7742721732849	518.6686095470982	3
55.50597851340672	156.67903038734738	2
135.61738792055468	145.56283341326596	5
127.76379382488773	118.99480154262994	5
371.3234774408321	123.62436427019887	4
319.1063032946046	173.47310467962888	4
190.5225634885037	267.1145049976826	2
286.67584804982243	46.79079816122062	5
59.24850765341016	27.337191850808598	2
417.76494903471246	90.20400440978271	4
10.229906545615032	215.71110752236365	2
606.1819929776636	243.582170358668	2
337.4359477086183	14.064527187796404	4
366.42663712081117	78.69576844058028	3
327.67982472365304	276.4047052987951	4
384.79021856185307	190.1097620704066	2
269.7447168370568	86.8064818940943	5
494.88027126971673	120.22272698266184	2
391.52781777212374	181.4443927098328	5
367.0575616183088	330.8274822798709	2
126.31385143313102	360.66448037004943	4
499.4625805313947	97.44952333963104	3
324.56183971938003	26.547668945385006	2
298.0919165173585	222.17375057464199	4
493.45883067416725	73.8034164099692	1
475.0468661148044	166.28019695337744	2
335.4739331667047	159.13386674873058	2
503.0834099628853	277.9141406370211	2
4.209418642969354	145.98471686488602	2
531.8179132350067	10.243883674411448	2
544.5861851590471	448.9869979996923	2
18.98956022049579	34.15848592091091	2
559.8296994469466	30.4145253115864	1
610.1709816931178	109.07278042775812	1
592.3417775642655	102.78012001846439	1
394.1229787199663	106.97522695799354	1
45.9291098506153	103.82889675334667	1
32.295012575610585	167.80427758116633	1
40.685226283305795	223.3894445299277	1
288.19653066031435	5.243883674411448	1
478.0251157969183	125.85320818587476	1
570.3174665815656	197.17002615787044	1
318.6110553507095	380.7059547622711	1
537.8053884642467	598.8515156177874	1
78.44118796793421	380.7059547622711	1
251.48934568914783	333.51100169256813	1
349.0255800411046	441.5350053854439	1
554.5858158796372	617.7294968456686	1
216.41528467573596	29.814823815309843	1
593.234375	327.0	1
270.234375	384.0	1
246.234375	382.0	1
407.234375	459.0	1
391.2476706376272	595.938654281843	1
