416.2283619761604	283.8549621931909	4
601.7108049075821	325.0981074693626	6
437.75181791642126	245.03733903805283	5
363.4574027582125	192.82894573567944	7
436.94911560687683	459.60511385977645	7
566.2349709001032	386.0619172849497	5
586.24935204807	242.11093197491303	8
171.7421875	319.0	2
468.2421875	496.0	2
457.3169630383369	269.73761031976375	4
381.42263137078066	126.22870749441617	7
489.3869452933516	310.9984625005809	5
394.9088422368046	200.43645568340207	6
535.8279856223985	196.66279896398092	6
437.19796673480107	430.7250303766707	2
579.5469598994713	326.6990886727525	6
598.5153043339017	173.75488057173646	8
166.96055314646793	43.92186199943838	8
517.6792915086796	235.4264815045619	8
517.1595667557403	112.26476306196841	2
514.381435367761	63.461741223179686	5
478.10924494546884	348.54909662136066	3
378.5289433970861	364.5911880039766	4
433.2313990141939	93.36733639993056	4
356.78849302992677	348.8155528554071	2
171.2508109333869	172.0867359963471	4
561.8236800049269	433.55365240015146	5
503.01214344289934	371.3325362094777	3
387.82734658277616	249.8822868203176	6
297.8480230210655	274.88433220850175	3
443.7322012452967	341.44879519022896	4
368.234375	114.0	1
399.234375	138.0	1
546.90625	358.0	3
240.2734375	185.0	2
170.7734375	253.5	2
233.31153808617862	272.3346616970275	5
231.68585329638853	42.438311688311686	2
296.97939200105645	33.0487012987013	3
292.2629928733747	200.42011109702526	5
563.6598818250106	486.8116883116883	2
229.078125	149.0	2
542.7194273194294	521.3815712206704	2
303.0513792859584	242.83186308721844	6
100.78090390982253	109.21346675701358	4
472.66247234774767	381.5035802211329	3
170.83134794727192	90.52597402597402	2
153.53264652084079	104.10064935064935	2
199.92875080013408	171.4025974025974	2
412.32009450597513	334.5998237256839	4
143.83403481204607	267.36135249894505	2
162.00266019752985	124.3668458969733	2
583.7540172160989	457.81168831168833	1
600.3514200689611	441.2142857142857	1
168.81894589454376	149.37662337662337	1
419.3125	307.0	1
269.3125	279.0	1
48.3125	116.0	1
96.3125	147.0	1
437.3125	395.0	1
123.3125	294.0	1
181.3125	63.0	1
207.3125	58.0	1
38.3125	171.0	1
200.234375	257.0	1
389.234375	54.0	1
349.234375	130.0	1
335.234375	75.0	1
457.234375	161.0	1
386.234375	482.0	1
377.234375	433.0	1
144.171875	209.0	1
