365.8389581517299	61.768586617597876	7
592.0038157813119	400.22258894030165	6
234.69546130368138	70.28887809299177	3
159.20462857813027	78.19597320267964	4
228.5965429671445	28.581597572967844	4
503.38261869470375	42.72803312984529	6
544.08806952078	408.26116345569096	3
566.1631751315169	220.10526653468958	6
541.4564508144226	186.47338599092615	3
559.4761534079432	349.54278772745374	6
352.96923026768536	198.79028705053037	2
564.6095036107948	471.91433778857834	2
305.35981933552216	216.63377885783717	2
300.9485269693843	183.98062639891373	3
416.94463186169617	161.85211827589848	2
493.66782901011413	124.28362362939667	4
582.3395993217822	257.5075698853835	3
553.408295053755	131.99683273519375	2
386.76268452653414	427.5812751245068	3
568.0338108465348	38.11821791137844	2
294.7401423067969	52.63752205309828	2
600.0976003284845	298.42004051162144	2
431.07014765447605	88.51603079108682	2
327.22970474466103	189.2194662811712	2
575.0499580196864	174.56104720179474	3
511.73507450220495	168.61017320745287	4
201.0188873141894	86.28251667262137	3
205.04063180934804	55.2958606817308	2
424.56292442786946	473.6881679050969	3
551.1997897894951	63.6086188834319	2
520.6816544872764	129.30358621227094	2
517.8445055718053	207.54142568780614	2
600.2539792766795	222.21906845815852	2
467.29031608462077	92.27666262583773	2
495.5934739862455	278.72113407176727	2
583.4801442645621	326.0938732628013	2
332.3764481330975	82.47005278014568	2
382.772703534028	119.7438303728818	3
377.5	137.48333740234375	1
339.6394107889519	143.83085460639666	2
255.5	64.48333740234375	1
415.7052634420212	218.16694209120834	2
488.6518118888665	230.45641907755692	2
491.35410556657047	513.2197974982557	2
554.5	200.48333740234375	1
469.5	118.48333740234375	1
570.5	116.48333740234375	1
406.3063322513767	384.6373812142534	4
427.5	182.48333740234375	1
529.5	47.48333740234375	1
511.5856774877684	422.9723113539526	4
345.8274430226902	455.23376874858013	3
412.48945433632275	435.64965010160563	3
595.8462380939757	44.38321520832554	2
514.0173380018628	15.392754544680145	2
290.1875656986456	108.48157700273202	3
238.08925402366725	282.8309658597499	2
360.24926017148533	334.905874200441	3
212.60814476429425	160.11812746335556	2
341.42750422219024	9.12803785809232	2
201.37160775093457	134.40163171611965	3
149.92214007474593	44.51172248206724	3
450.68153093143883	423.1074938949141	2
548.6003451455907	500.5523528510916	2
341.19187883086477	393.8568578993503	3
467.96095046193795	453.10846178106885	2
569.7584546481473	525.2849832243198	1
506.8992496894163	386.9986151715649	1
398.61696897718275	14.355285540704738	1
602.9037059212291	130.301822600243	1
471.4976426977614	153.49113001215068	1
265.0024004894551	177.7846901579587	1
156.78564254071702	120.36354799513973	1
606.216463817619	347.8396111786148	1
489.1656848118411	408.5735115431349	1
489.1656848118411	438.3883353584447	1
526.7102743042605	482.5584447144593	1
513.4592427187007	337.9013365735115	1
332.3618110493839	351.1523693803159	1
249.3208355618338	98.57485049572071	1
317.3434362272041	422.4914626797142	1
420.61911653913114	31.686859700978566	1
177.6865503508483	156.08712371222774	1
471.5	53.48333740234375	1
550.5	98.48333740234375	1
537.5	152.48333740234375	1
496.5	90.48333740234375	1
406.5	75.48333740234375	1
524.5	235.48333740234375	1
548.5	308.48333740234375	1
467.5	262.48333740234375	1
471.5	190.48333740234375	1
431.5	135.48333740234375	1
530.5	527.4833374023438	1
505.5	537.4833374023438	1
470.5	552.4833374023438	1
442.5	536.4833374023438	1
448.5	498.48333740234375	1
424.5	367.48333740234375	1
243.5	250.48333740234375	1
399.5	512.4833374023438	1
