116.27068713692202	380.01238524658294	5
457.60438306537634	268.3479616322511	9
439.8918292850348	305.1219397698886	8
566.2745666253192	258.4510333230502	7
501.141412704711	154.69246999127324	6
493.7197947868225	202.73104938440497	10
330.52412736989044	344.7618864440683	3
275.8031269314626	165.3293948406675	10
533.250233987296	145.46523240038456	9
430.6112482625112	191.00428488220695	8
372.8376017839254	266.8252621153405	9
431.88893248255874	236.4474556949315	7
153.53455211196962	323.907417036219	7
365.3863218359918	310.8694106123296	7
229.41081369452883	46.07903711092428	6
198.06003040389587	177.51508754669274	6
466.5584097866131	93.60876694571238	8
380.3027001586105	170.71304098456903	6
86.87750147870265	144.93508099438253	4
459.52956776238307	20.07839866481885	6
525.441506816828	205.23400070195933	6
555.2856161152954	163.9939817980353	6
514.4805090640431	311.0322514660793	7
103.78151619847797	87.78809234507898	2
614.5092100685013	384.8652411241135	3
250.4985308668249	48.21825521533806	3
569.8274864141563	375.3724369720642	5
97.45817944607711	228.64301401075443	3
562.8703290896128	32.95387739950484	3
599.8547356774434	373.37997706722615	3
499.4586065066744	349.6936134739926	6
325.61358183131165	54.06817752784801	7
277.92477266528573	259.8895887412442	5
584.2459639805406	321.14714333445284	6
359.71564247619324	401.85044003397786	4
263.6441251033161	303.0000062234109	4
316.33998307179615	318.10227756115285	6
199.98123750146186	328.6690146774554	4
66.18725514352789	80.75758382945011	3
608.2374978738412	228.72060346804577	3
426.30473446302494	477.30210628532564	3
418.46248150255553	255.57599603993197	4
73.43538531226051	111.47476872716287	2
521.6735211816795	454.57052435153946	2
450.16300635595184	541.3716107844225	4
186.84547079182258	229.9138469762155	4
177.2664516937463	109.4715505553786	6
496.687513380943	454.14104870307887	1
233.48632078014776	402.3651330973996	2
156.45312158429778	359.21918756731804	3
433.1187936232609	382.0071408569029	2
321.56548018941254	368.1629795575469	3
98.34022276185516	194.4630712417295	2
475.5642036439268	320.98541965665106	5
232.7734375	366.0	2
162.00177417601458	56.59863829835915	4
342.5227098801666	192.38990613940607	2
317.2116397319121	166.71470230862695	2
269.9957044910381	468.139829204493	3
584.740035265928	171.4060475776177	2
130.7734375	284.5	2
312.0924568053332	120.62116088707543	3
459.35086374433166	323.5460510328068	1
446.0998321587719	248.456865127582	1
399.234375	425.0	1
385.234375	447.0	1
283.234375	117.0	1
208.42494963519803	77.62083450014002	1
100.46875830208803	119.25929526123937	1
307.0745115026285	84.95091552546546	1
214.7821607179813	157.31651023234343	1
592.3417775642655	338.7548853669796	1
420.34239655651385	329.31589475303895	1
292.39163751416197	311.48669026004	1
296.58674436800953	238.07231881827974	1
317.5622786372476	476.1446376365595	1
285.05020051992864	476.1446376365595	1
122.48980993333404	199.26757962763503	1
212.6846072910575	17.829204492998922	1
534.3125	242.0	1
480.3125	384.0	1
446.3125	414.0	1
481.3125	541.0	1
251.3125	234.0	1
35.3125	76.0	1
207.3125	50.0	1
282.3125	65.0	1
153.3125	135.0	1
48.3125	205.0	1
213.3125	211.0	1
408.3125	217.0	1
285.3125	349.0	1
271.3125	364.0	1
344.3125	245.0	1
230.3125	438.0	1
194.3125	372.0	1
301.3125	440.0	1
300.3125	404.0	1
543.3125	430.0	1
567.3125	498.0	1
599.3125	555.0	1
241.51434154455123	17.723383395773762	1
164.0084715942453	212.0842561965681	1
402.4880714413404	523.3001322763677	1
