362.2275672746367	366.5271308887254	9
562.0122972187742	521.1451088637397	4
463.9295580319248	467.65973697393736	5
175.9261592884062	440.338071648113	3
476.5771218847935	220.75664987049993	7
295.0394564119558	462.3255118712999	5
45.25554228432244	440.64485996813687	5
245.68589155758912	563.178032700815	4
211.65456068931516	525.3174891867425	8
370.89786851629594	489.8924780744221	5
518.6567409723372	401.3671083031607	9
172.9673585799772	546.9375132579514	3
192.92418943773964	585.0869723045175	6
534.2167770126146	372.34842243386424	9
335.646168979292	291.5590169209765	7
13.504601102294268	451.3952048585953	5
503.79341792368723	268.79758233098545	7
66.88735585222581	549.3236242620284	4
508.8854230330147	218.30708274555167	6
444.5913548372168	421.76341010205454	6
277.3752932326403	628.419826101936	6
290.7322080197749	421.8867380837622	4
577.7867535870466	556.2030145772496	3
537.7686671464382	267.1161272372592	4
569.3023468222116	472.99936694296895	4
257.83186497843127	290.3411505313508	4
600.9866029997402	401.3009601891064	3
613.286203990412	602.8650088998447	3
554.8786660762912	346.94125151073354	6
569.5460556149858	376.8997263913281	5
595.8831489165502	257.61724389040506	2
434.48916187516124	297.4205510633751	2
429.4212694082214	269.7326993527996	5
199.2302817214883	300.4994614556085	2
454.88746473961606	403.96777176860746	2
439.899473198475	248.5639516463604	2
106.63850288061201	384.8872242903112	4
306.5922492386874	253.00011675473297	4
163.9693541508728	344.31005877470386	4
509.20984877680996	556.2252616862077	2
442.31768400165623	330.5231714991004	4
434.43368595649315	453.95636191903156	2
483.79222482232717	387.64411529517145	3
233.8479889981497	422.6294381589016	2
284.09064188526713	398.3278890104698	4
549.7039698236609	317.9020690163194	2
591.427662361464	542.0969197944898	6
445.22657064378666	367.2830568007752	2
461.6856859459898	488.5391764316457	3
560.3579579013674	263.6981996667831	4
307.9362196321946	364.00275564824256	3
138.14689870051603	568.4113263078843	3
384.2053661314543	265.8072649563503	3
469.03316348672286	450.7950214584681	2
590.7569269677994	518.9987849331714	1
541.0655585219502	516.7902794653706	1
411.8680005627425	253.97812879708383	1
597.3824427605792	580.8369380315918	1
265.0024004894551	607.3390036452005	1
338.9873268421638	495.80947752126366	1
457.14235848007166	548.8136087484812	1
150.16012674793714	416.3032806804374	1
147.9516214836772	373.2374240583232	1
550.3907090257895	438.38867518079707	1
398.3180855738139	401.6814894599169	1
323.85493891801895	385.94983843668257	1
220.0260442852908	375.46207108785967	1
130.88002364102925	600.949069087552	1
107.80693594486743	438.38867518079707	1
499.00065006615637	480.33974457608866	1
381.5376581584235	375.46207108785967	1
365.80600745649497	249.60886290198493	1
441.31793082575183	571.5833205108479	1
162.34332504488626	314.63302046468687	1
274.56243338530965	250.65763963686723	1
