592.8965496256272	506.34921435925156	8
524.6184782523845	92.61559446471323	4
434.6179980744969	320.2424269306493	7
383.6161986133785	353.7674226451589	5
391.3022717749473	418.1914116743683	8
460.7138069920897	446.561474343998	6
413.6527650466767	452.2508560426051	8
556.8425367308215	306.17715702943036	8
241.9974656880664	177.8710880032013	4
448.6357741689538	212.23218406525964	9
560.0995299443787	254.91037786322593	9
422.2422678349155	167.4288418297625	10
540.9967468621394	400.5237399801144	5
464.1817625190335	422.8928846166548	5
502.6795974399244	269.3877053387668	9
427.3017253614032	95.45288855864956	6
546.1398372209904	106.28762417156187	10
531.8312236143363	266.10879898850715	8
571.4126170997304	473.33691997136793	9
369.5173345941682	398.3812836783545	4
424.72300217458485	398.23073341277984	7
411.0833282470703	392.98333740234375	1
414.22960444647083	222.64831344526579	10
524.3643612447945	53.57673049081089	3
461.74455957438363	39.666390523125536	5
501.0199099029371	495.44953064908896	5
392.8219611678137	54.61986535198385	3
609.0642572771098	611.8767822100987	2
167.5239834539547	117.36237964851304	3
416.58915010305344	267.71515208126664	5
496.26523131688896	398.37523673162536	4
574.3460056436365	336.64196480939614	4
536.938798821315	25.09048068613495	9
567.082897238826	48.74911609723495	4
521.1153940306926	588.5980084138112	2
490.54875993751693	467.7373944242528	3
397.31771359252605	236.9176308389474	5
469.2876616738115	250.39797900632973	5
364.79799781301153	284.7019894171914	5
553.515785686775	368.0243364319625	4
283.3808448223398	163.32540021548678	3
271.7449087845988	201.26065577363588	3
232.21841508626773	61.82935770728674	2
346.86236995352715	69.66078400749649	2
180.1285765146482	84.56152035355541	2
345.0406926396319	280.29532848139223	4
596.4412362702002	24.274012181789786	2
457.65416137415633	275.7757258334614	4
195.38982883661592	123.17127848197376	3
456.644663327185	482.94082865546204	2
591.0730138684462	110.3149126686353	2
205.62136948439297	215.67174287417293	2
227.95005998334278	141.18790884174143	3
255.4138870717122	283.79705642248894	2
365.2896054092386	176.774926424567	7
299.7687264158169	144.49316038179603	6
589.8166673645576	395.1938148644615	2
608.7959917148104	62.30602842417617	2
293.9459070351779	80.72761264345276	2
575.5305149629066	172.5281949580102	2
553.5671950771775	495.44097650156016	2
225.30907664793978	11.131899755866574	3
276.7542720716498	316.97186874792214	4
295.5848931576453	367.5441328857657	2
178.28759791402572	162.0901109113733	3
166.94604819621338	35.39371233146338	5
316.24768003050815	393.43004685873063	2
308.02541275283454	195.62070862515276	2
580.6567395318161	434.7357473875494	2
612.2347242433882	247.69083383507638	3
320.862874256375	289.73483344195057	4
312.55392332646466	73.85408700280995	2
342.2130960319162	384.73515600315693	2
214.9081377519957	227.56013677519405	2
266.8562815141026	171.0584059037506	3
571.9618492224793	6.4466336690217165	2
233.4760679822477	242.72411369670468	2
528.7259075289999	462.23828874261363	2
305.80449801688496	405.2001643878582	3
270.63708580097205	234.99836014368265	2
249.38183397003206	82.95806504269052	8
533.1607553014314	503.8531107827947	4
374.0730191201353	460.2086660091934	2
449.1732805765807	361.5502462868161	2
466.18542059434634	558.8670857315706	2
533.3357900970403	374.3416767922236	1
363.79178517240064	311.2910896079358	4
342.8522110546187	143.0007290400972	2
457.56770636005376	335.1914337788578	3
142.4303583230273	113.73803159173754	1
430.6443381973866	131.62268674182684	2
403.7826382121354	501.92966602595965	1
260.5853899609352	374.34167679222355	1
383.6813975747157	128.804622833047	1
366.64938173584954	8.516008121193192	1
500.7765064669202	97.9340933937217	1
589.1300886310381	142.64313602998595	1
242.1027659141411	130.9336248633453	1
229.3287540349915	153.28814618147743	1
293.19881343073945	120.28861471185382	1
328.3273460984008	121.35311572700297	1
251.6832748235033	15.967515227237232	1
245.2962688839285	210.7712009995315	1
284.68280551130636	249.09323754490083	1
400.7134134135818	255.48024363579572	1
399.64891242365263	316.1568014992972	1
324.06934213868425	338.51132281742935	1
468.84147676904627	394.92987662033426	1
358.1333738164165	91.54708730282681	1
400.7134134135818	17.032016242386383	1
452.87396192010925	3.1935030454474465	1
427.3259381618101	26.612525378728723	1
573.1625737821012	87.2890832422302	1
474.1639817186919	152.22364516632828	1
522.0665262655028	161.8041543026706	1
536.9695401245107	190.54568171169765	1
532.7115361647942	221.41621115102296	1
494.38950052734543	223.54521318132126	1
314.4888332293221	42.580040605965955	1
327.26284510847165	254.41574262064657	1
222.94174809541673	261.8672497266906	1
523.131027255432	447.0904263626425	1
499.71200547699107	424.7359050445104	1
599.7750985303295	183.09417460565362	1
491.19599755755803	191.6101827268468	1
468.84147676904627	179.90067156020615	1
334.7143520379756	29.80602842417617	1
278.2957995717316	37.25753553022021	1
292.13431244081033	11.709511166640638	1
368.77838371570783	223.54521318132126	1
361.3268767862039	245.8997344994534	1
347.4883639171252	224.6097141964704	1
501.84100745684935	357.672341090114	1
478.4219856784084	372.5753553022021	1
377.29439163514087	79.83757613618617	1
516.7440213158571	529.057004529127	1
557.1950589331642	545.0245197563643	1
611.48460941955	526.9280024988287	1
588.065587641109	566.3145400593472	1
491.19599755755803	516.2829923473372	1
465.64797379925886	502.44447915039825	1
439.0354490510305	492.86397001405595	1
457.13196587982577	519.4764953927846	1
515.679520325928	547.1535217866625	1
547.614550023802	568.4435420896455	1
527.3890312151485	570.5725441199438	1
457.1319658798258	180.9651725753553	1
