150.87182309305422	337.88620309608734	8
480.8527807846075	431.3227384464632	6
330.0731134667193	503.24484480998075	3
351.9260995618662	417.4322946711652	8
342.02886644913434	280.50758195913704	7
324.01235753011133	196.94437604297752	8
370.0689679417094	514.974688413602	2
111.23739756932167	310.10456793589316	8
404.03373519952163	254.19636765400588	8
335.8968289355534	464.0916967473075	7
398.769492693419	406.7822062552548	8
553.7392988668935	415.2822386168077	7
222.21889543257066	390.50088500522617	7
73.70037705485022	315.40591223918847	6
532.6702936815602	390.71629908766465	8
170.71710963799984	382.0293268565569	8
545.2137715421725	503.58196919946613	6
91.64666040463814	243.8234353494745	7
291.6484473806043	384.61963465899885	5
376.8568715936141	385.41677516959635	6
384.6423392358206	327.52422178932704	4
187.0839581880686	81.05742756234393	4
380.84530572340543	356.420216259163	3
411.31417160599136	341.0584487380429	6
590.0924961286131	520.8174153052922	5
81.51995590243632	186.11693904551953	2
219.39407465282778	431.40129461277263	2
557.2299426371774	470.9133712878904	3
524.4688835511275	266.8254983251627	3
312.20712621477617	338.17621941837206	3
610.1709816931178	366.0230804739191	1
537.8053884642467	355.5353131250962	1
612.2685351200416	470.90075396214803	1
334.342706052638	323.02323434374523	1
