302.3867474954686	131.10151883353583	3
126.05488614595852	256.7153340348585	6
513.5081805387954	93.73811582722901	9
378.0023019356644	79.99999769713693	6
455.92571264479295	66.44418430431355	9
497.5567281143652	134.34857054641373	5
174.491397566878	65.21268750028706	5
431.55465453839884	275.5666258764527	8
10.372503366034788	125.06537952602055	7
79.96736543293159	247.70952688934156	5
324.05437184435607	167.7662030591511	9
175.50149288331585	97.82337966114679	5
467.23773878511685	118.54252967749062	9
389.0485801902937	164.486022409871	8
545.3332751677463	161.12062707547818	4
160.81844683325284	217.40396632058562	8
578.6674552617686	252.5310714061328	6
12.4738941591378	67.9392194006783	6
68.45945135598832	103.23742871309719	8
598.2229083036394	124.01578995821201	5
364.7198783628864	114.1172580926707	9
542.103602215627	135.7674550122898	7
114.0707999096758	172.20151081974169	8
330.73126616103565	103.81006543164139	7
98.71358941554377	283.4854802256858	7
279.33335054752877	250.97963031054076	8
523.7877355015034	315.22796977943307	5
545.1968635419175	97.97262075178774	4
546.84030702474	292.1322826667965	4
366.78650518393465	400.43376269527886	4
465.5014341310083	91.59313204169108	3
535.4367780142968	36.622430183383756	7
134.37672032250464	214.99059038360292	2
214.29365389352398	81.56993699632	4
202.06019250727996	233.77681171475527	5
140.14799930173183	65.58632014767505	6
475.3788303756561	383.4977004160239	5
553.52243709054	327.3213708762611	7
469.4943252330383	420.800959392849	4
426.29183427734125	228.48532953578552	3
194.2443632905106	264.2028068972844	5
394.68395471469813	416.6949266606525	4
164.5154109656269	273.8546780072904	1
353.0216608179036	243.0896761821298	4
460.3810699953915	182.18205614615323	2
236.5495250578516	193.55983778195986	2
236.9901323662406	356.27637980101815	4
74.06968294120578	29.520963809060316	3
544.3282193772338	378.67250343853703	2
187.83618341698337	103.77620050261496	2
79.95026264069189	202.11332113182132	3
595.7158519645576	213.75636634196894	2
331.56874172220176	62.77276404224493	4
269.3429063692795	65.8304119657129	3
211.87754016591083	181.5138494977072	2
237.16889275988612	292.94012769136725	2
309.203125	371.5	2
494.82778089354076	286.05776725318367	3
298.98547029113683	172.47185039891855	2
494.2636304420429	192.35217460244897	3
517.5082325893021	11.121812995420203	3
490.234375	418.0	1
248.5063819954529	146.82549222864418	3
473.08308176166804	331.7019317972213	5
407.7870890197239	22.57847170182582	2
372.16550806560485	215.2712283811321	3
301.6941420019179	38.091050272420475	2
254.87135772868118	280.9877506340131	2
599.2623540638724	314.75530549795167	2
272.26969121708237	406.7074480677111	5
216.26229205441825	158.00587112677923	2
445.57888405345363	429.6601915370509	2
242.68100077705208	230.56771612671486	2
271.72061090645144	195.11967556391974	1
298.8205636937663	202.70766294696105	1
272.804609017944	156.09574045113578	1
46.249003715991606	16.25997296365998	1
307.3125	79.0	1
107.171875	70.0	1
447.171875	462.0	1
544.171875	440.0	1
574.171875	391.0	1
312.8755576989647	230.73088167410373	1
446.07020030862606	8.390213879058317	1
30.75462177771342	194.02369595322358	1
131.39849274084125	126.0965955873698	1
28.89259998743467	221.06474982100892	1
408.7673790147649	290.40657672176127	1
359.0218722373764	11.531838099170253	1
613.7791645215781	23.591286255822837	1
155.234375	361.0	1
393.234375	340.0	1
398.61696897718275	245.14410692588092	1
430.64029530895215	88.34021871202916	1
171.14092675840678	34.2318347509113	1
60.71566354540874	139.13584447144592	1
43.04762143132905	255.0823815309842	1
62.9241688096687	281.58444714459296	1
101.573010934218	331.27582017010934	1
