604.4531610216886	455.668244405828	8
549.619788138061	233.6802484447704	4
371.88775005014736	316.9995074414355	8
604.7713471958657	394.81735182806653	5
210.14093325252753	363.1243496390374	4
243.60706545753524	138.99855928653852	6
167.13704471865856	246.86140368503297	9
124.95901861157273	131.2780552855519	8
253.10767132013768	94.29251469436093	6
368.19065163676555	232.47640436942493	7
332.08450450078647	394.34445282919836	4
585.7566769923556	182.96050521697612	8
586.4331351205185	446.3990820536012	2
323.0614488635663	79.42649640923372	8
77.90068333098475	163.9414086868396	6
312.2558443230791	161.1019102188227	8
283.41278146003003	118.22796014542845	4
379.8357678588219	284.6892372730428	7
48.535493098329404	146.86776745714366	6
409.9099354318747	281.88756547123864	7
249.45286832944566	203.6683182507846	4
302.6467154953274	287.8497940079924	5
262.1328472234096	366.4756935208306	4
339.18419508279413	297.7169288806762	7
70.68349550340045	198.5122549838073	6
457.9263170608685	430.0386026463588	9
152.0102935766855	177.67832616939742	8
68.23510268174272	64.87136641888867	4
558.4686310278025	157.46935047280408	3
413.1257378558953	501.8074427399345	9
469.8010100797043	206.07874579713302	6
179.0531958525739	59.76178478763454	6
270.69502713059387	420.6129570640518	5
347.61177074502336	247.10868371308726	5
436.43963889777143	196.8184999817496	4
484.9603693704366	436.4938960561806	4
367.01826145483665	84.06585662211421	2
178.28535331095392	33.28960971096217	3
203.93855053600163	235.9386059393753	2
91.79979307994387	330.49545321331425	3
145.74311621941723	253.97812879708383	1
288.5145583282471	438.1830476189462	2
185.234375	181.0	1
122.234375	93.0	1
129.234375	38.0	1
174.234375	218.0	1
342.234375	189.0	1
156.234375	213.0	1
524.234375	489.0	1
580.617303100185	150.60538484686575	1
402.2268975026113	337.49056945506015	1
13.590656736468546	109.19332689391358	1
228.56206362916575	405.26075334143377	1
280.3634795816458	272.6819510693953	1
607.1808786645207	318.8754918539695	1
