518.302219262453	78.65254557027251	8
333.6578609792564	440.74200789139775	8
133.7652632812658	234.1669816342322	9
515.2303379240986	456.974511749292	8
41.62974054420081	150.077586227347	8
309.70397022112877	446.46383979751545	8
406.8146380966276	481.1089819587876	3
111.35736239702108	81.76228529429007	3
434.2239496814748	150.03490735836135	6
575.8632549824841	115.89814784171092	6
437.75101009793684	89.67115502529357	5
564.2244351454938	501.4517049420814	4
230.75156833864796	137.99152060732985	7
392.47046867400115	145.08123282577577	8
450.8454872963011	111.7443552707731	5
333.399934782222	153.2052634818558	8
508.00888654763514	169.43895969701225	3
131.5402543605856	101.71945793366515	7
93.00133284975715	37.13665203693063	4
595.2219241399748	459.3452828545658	5
267.93634725063714	202.34747916252715	4
303.9195052941975	165.19729550432288	8
87.6870743092795	131.96067286798404	7
553.4171893900439	35.034476115388486	4
276.48852710931504	478.8581527755126	2
592.8362286773697	225.6296555652612	7
139.07112522132405	20.805858194815723	4
246.2082109131782	440.1364812821341	3
599.4457246285697	560.6892075477383	3
264.5174825516922	312.57853971929285	6
299.42840507597367	397.07992760519505	8
178.51248822505426	32.05053061197941	7
364.413893438924	117.152116090168	6
312.5771777517497	127.5275264724362	3
212.87522111242157	253.59628560959044	3
531.4987966605563	121.60126683427548	6
169.1190204546217	244.05530613979005	3
283.6380255695484	261.956442450781	7
601.5850010208187	522.167963149642	3
58.42503845535014	77.85599226538461	3
384.29404876261384	342.37309600419974	3
483.8076670888675	378.1702503518462	3
278.695405931319	102.18554373987516	2
573.7930717646846	433.9077423515313	3
448.9073813033981	302.90699799501203	3
302.41321818015933	113.44071745319073	1
609.9636690250131	92.14515434291638	3
439.6942029367119	497.83516274471515	2
455.2443769751724	66.98481087745802	3
491.52537352659004	270.2727683507138	2
367.4353845087637	10.88400443340574	2
615.2866041208928	237.64649103640622	1
12.45893302844725	102.5709315077001	2
492.81713298690073	249.98771290620488	2
150.16012674793714	316.92053462940464	1
361.0723794847634	156.80388821385176	1
394.1999584486628	215.32928311057108	1
385.365937391623	247.35261239368165	1
350.0298531634636	196.5569866342649	1
554.3165901075099	72.88068043742406	1
228.56206362916575	186.6187120291616	1
245.12585311111545	277.1674362089915	1
52.985895120498874	217.53778857837182	1
101.573010934218	282.6886998784933	1
510.14648482231075	512.3732685297691	1
471.4976426977614	200.97399756986633	1
19.858316156599464	78.40194410692588	1
46.360379327718995	40.857351154313484	1
606.216463817619	49.691373025516405	1
391.6084209789462	21.0599727889128	1
422.40200289757496	388.4592561663859	1
336.39234305588764	252.54275826951726	1
436.171875	433.0	1
417.171875	452.0	1
308.6804508451171	225.48699799969228	1
