377.3582857645108	407.8263390711764	9
523.2026434219604	387.0213403576443	6
563.8458251936502	285.6287921383634	10
50.11811728192093	19.09551861744354	9
555.9200093226972	424.65719534241833	5
216.0102800221206	348.8411578074388	9
360.58673740132645	195.73102469731438	10
437.3897701876311	217.00280256783452	9
510.6171875	572.0	2
70.72848436036783	103.95356970296694	10
68.23639504743483	64.91206181652886	10
81.82438342540217	162.01439970102615	9
159.84822846369886	106.32327071293554	8
458.3456044880703	367.38745418395115	9
300.88043337869	382.28799482596605	9
187.19320736651707	318.4834112368141	10
588.6489980708735	447.19472226496384	3
408.7165338135839	284.4412516788086	10
174.1654488803417	293.17402084230724	8
212.51232148824886	247.47489589106706	10
320.0930174051874	271.97550620207085	9
463.1171875	582.5	2
279.27126624844664	266.32346097898653	10
384.7370836306634	226.88033657321694	9
486.4453125	534.75	3
203.07462456794659	172.10802572928569	10
357.2919238655654	459.79227573472843	4
363.73932031963597	326.092006162512	10
249.9160952882052	377.8676463031098	8
435.757565364287	335.77047763401407	9
192.53796022161325	224.32100142336384	7
327.29060734637585	140.98899722933493	10
203.84574645814354	73.35026674855692	5
128.86270679557813	248.654048205061	9
561.0678184261844	345.45107751001734	6
484.1774435117701	271.5612126790636	9
137.3000037183751	94.30920301698391	9
308.0945097767134	192.14214814948195	4
541.5789081478704	364.23420857360185	6
242.40076035097746	14.43261214853932	8
104.13372778769835	8.53832521472518	7
306.6437181772061	352.60046921967864	3
485.73285016420226	310.6136725166623	7
384.7744399804208	321.03945297264346	3
451.1151062115159	433.98566221142164	2
295.6300509106122	442.50692588092346	2
123.67755195382932	161.08447385213202	4
161.31174595937415	181.5299340190299	8
205.40967024745038	82.71273506774176	6
368.28103767457213	269.41135152233096	3
546.5383774322853	222.02487985644484	3
348.2774641638214	337.30427758116633	3
432.16936626903276	267.80018006240346	7
483.6156241998789	430.9671733511347	4
389.97365014652127	465.3040467764272	2
87.47874546041324	128.9887202854089	4
429.8994405031568	135.53229433059755	7
442.04150367740465	459.54143877542054	4
589.509884498478	497.06008616710267	2
221.46440473243018	284.471398244837	4
511.93490213812703	419.6082487058262	5
205.48751829043022	44.6047723300468	7
390.6798333628665	432.5480073857517	3
546.3277477040871	254.01439108457532	3
137.17268392180065	190.87736574857672	1
15.293886216356094	82.40964459295262	5
572.3142509401882	254.14585516215436	4
438.093843050866	383.4835965978129	2
572.2968746625999	392.60911300121506	2
18.68159031403977	100.08712029161603	2
330.078125	408.5	2
608.3817983570045	172.13171324422842	2
5.503031938909719	11.042527339003644	1
528.9187795685204	290.4184690157959	1
364.234375	511.0	1
262.234375	442.0	1
70.234375	196.0	1
438.234375	512.0	1
554.921875	404.0	1
351.921875	477.0	1
464.921875	541.0	1
174.921875	413.0	1
148.921875	415.0	1
136.921875	302.0	1
119.921875	291.0	1
419.921875	424.0	1
236.921875	465.0	1
330.921875	498.0	1
448.921875	561.0	1
494.80554321230875	511.80304662255736	1
57.3125	419.0	1
422.3125	572.0	1
