205.38430055270157	169.00986031224323	2
54.25604102691888	123.07639455294711	9
145.295866651491	146.10026251708862	8
388.41332516791954	373.4288425047247	9
102.79363179098141	101.69946987171805	5
179.2453634796553	410.07505103930083	5
290.3371862407537	117.58779245026417	6
295.9113484669209	466.1798018981966	3
543.0180781262636	283.5123258794305	6
204.28548870023826	117.91972887593343	9
325.6217292355711	392.73911891808496	9
427.12509983184896	460.4203787928281	6
447.16232983501754	528.2392665437374	3
411.7379214361639	32.408210198259624	6
224.37678864595185	155.4329042868833	6
132.85424910123322	31.166427749108642	4
436.6051417414526	491.67420459809557	4
519.9517840226991	221.3914303677431	6
508.9966310999423	368.0542088372114	3
359.1072831457803	422.6817971995692	3
83.89375033654859	59.96845998380206	3
245.07865852811202	11.255900787400556	5
81.72817392210071	26.53288868971741	3
122.16957997005167	8.080888626569788	5
286.8114339142597	258.88918416727444	3
165.65901314449337	98.69968870029284	6
515.4877897559404	329.0101214721787	5
76.93705964235153	273.0977360219287	5
368.7332999218784	99.30086604912299	3
525.8850336052045	405.3187077278202	3
154.67346584354527	357.7485040573273	7
33.27941508664801	93.75143050916563	6
386.9310945714182	83.73522472307934	5
156.60366913460322	68.03102562558928	3
268.0401263474288	98.91593105173484	3
130.41238327881032	54.33272146966888	3
241.80629595904767	83.1313093037585	4
108.54511705501488	245.51375759781249	4
294.5000067062842	173.79851534480284	6
460.7043048276603	207.760158173906	6
558.2922936879684	383.99349773156234	7
515.1445484568546	273.21283853932476	2
36.732293761523096	51.728390363810675	3
601.5536237908422	458.3881138966909	2
209.98145022061254	319.77549594880503	5
211.26492604634083	444.76437967744175	2
554.8684324858365	301.03432806771457	6
389.55229873133993	186.55225390862137	3
46.521780612552476	185.85870758570576	5
153.75302593846874	263.4071139522768	5
370.5575230232972	325.9474689087832	7
123.6177511835994	273.2209493035165	8
86.44469992067982	237.10798793795178	2
251.63536789421522	405.9161820184752	4
283.75256417360697	295.87849505040367	2
493.7079115434728	402.30907677733853	5
315.9227151753547	373.06031697184187	2
577.8109114383725	370.9451102115113	4
82.26043779612417	160.9579274617057	5
109.09155767958222	141.86082798606088	3
157.65524872701678	199.70334102717084	3
177.25717698875565	175.5239596887214	4
108.85571265832934	284.2184951531005	1
474.87878565653267	393.2912755808586	1
136.12390720833875	206.60901677181107	1
536.7566117507848	210.80412371134022	1
174.42848364139184	295.1936273108969	5
239.97160879129777	304.33475091130015	2
258.8581079798814	381.28058347878203	4
336.9971943505479	369.04207869473214	3
142.92274963062277	223.36007035937504	3
131.60605563214364	90.6654642018002	2
531.8783866038443	372.86655849383544	2
7.711537203169679	101.59125151883353	2
10.7405533078291	184.33482280659211	2
313.59402884948236	133.5973226650254	2
217.5302485801625	276.2616164649784	2
432.289155550866	246.07205346294046	2
591.8611795999293	298.1482381530984	1
405.3125	412.0	1
263.04862601451066	188.61568637845576	1
562.232104786467	467.2032231558301	1
324.4121015470456	449.92521926450223	1
175.234375	381.0	1
427.234375	372.0	1
31.246235862148687	209.75534697645793	1
114.09959622563883	195.07247268810588	1
134.02635378141494	339.80366210186185	1
592.3417775642655	531.7298045853208	1
573.4637967219513	254.85274657639638	1
448.65936781998516	388.04739190644716	1
458.09835824114225	414.2668102785044	1
605.9758748392702	386.9986151715649	1
590.2442241373417	413.21803354362214	1
611.2197584065798	98.58501307893522	1
267.2209963910763	325.12078781350976	1
340.63536633340937	334.5597784274504	1
108.85571265832934	313.5842437298046	1
261.97711282376684	457.2666564086783	1
