604.921875	461
513.921875	438
529.921875	401
495.921875	404
446.921875	411
440.921875	440
416.921875	460
569.921875	552
533.921875	560
460.921875	522
425.921875	515
500.921875	551
577.921875	610
598.921875	573
529.921875	357
503.921875	316
511.921875	283
492.921875	233
451.921875	227
421.921875	200
392.921875	185
467.921875	168
609.921875	151
549.921875	115
459.921875	85
422.921875	80
460.921875	27
225.921875	51
216.921875	89
124.921875	81
158.921875	127
161.921875	160
231.921875	159
233.921875	200
299.921875	188
204.921875	223
316.921875	232
312.921875	266
544.921875	255
537.921875	289
538.921875	324
598.921875	279
564.921875	294
557.921875	344
555.921875	309
511.921875	72
306.921875	155
338.921875	417
393.921875	429
373.921875	451
281.921875	264
486.921875	50
488.921875	17
197.921875	154
589.921875	346
293.921875	380
575.921875	317
251.921875	102
360.921875	256
564.921875	368
379.921875	380
404.921875	371
386.921875	356
