178.87069518331663	274.9589307411908
228.56206362916575	223.05905224787364
182.18345307970657	173.36767922235722
262.7938952251952	270.5419198055893
332.3618110493839	234.10157958687728
372.1149058060632	278.27168894289184
338.9873268421638	270.5419198055893
400.8254742414427	86.13171324422844
426.22328478043227	129.19756986634266
398.61696897718275	122.57205346294046
458.24661111220166	136.9273390036452
435.0573058374721	170.05492102065614
514.5634953508306	175.57618469015796
520.0847585114806	262.81215066828673
577.5058953822396	238.51859052247875
495.791200604621	324.65030376670717
451.6210953194218	352.25662211421627
371.01065317393324	345.6311057108141
321.3192847280841	348.9438639125152
287.0874531320547	292.6269744835966
340.0915794742938	437.28408262454434
422.9105268840423	401.94799513973265
341.1958321064238	394.21822600243013
406.3467374020926	483.66269744835967
436.1615584696021	457.1606318347509
475.91465322628136	446.1181044957473
573.0888848537196	424.03304981774
611.7377269782689	439.4925880923451
565.3591164288098	558.7518833535844
354.44686369198354	520.1030376670717
