598.921875	307
538.921875	276
586.921875	412
550.921875	390
553.921875	439
459.921875	417
379.921875	386
481.921875	309
355.921875	279
259.921875	352
224.921875	370
225.921875	316
197.921875	280
159.921875	327
89.921875	276
118.921875	231
189.921875	161
81.921875	61
70.921875	160
60.921875	126
63.921875	212
40.921875	205
55.921875	174
550.921875	514
429.921875	477
446.921875	372
238.921875	280
122.921875	265
66.921875	44
107.921875	104
113.921875	79
330.921875	339
309.921875	296
334.921875	309
241.921875	262
464.921875	355
432.921875	231
366.921875	187
286.921875	201
148.921875	85
481.921875	458
427.921875	420
347.921875	381
