532.4375	271
481.4375	301
542.4375	393
552.4375	430
589.4375	406
595.4375	294
452.4375	416
430.4375	419
453.4375	363
381.4375	385
348.4375	378
349.4375	278
289.4375	203
261.4375	347
227.4375	363
225.4375	330
234.4375	282
239.4375	257
202.4375	277
157.4375	328
126.4375	259
99.4375	272
114.4375	221
178.4375	157
53.4375	202
31.4375	204
51.4375	31
8.4375	53
435.4375	479
545.4375	514
