481.7596250287445	296.1342530629054
588.4241005322248	409.816122722125
543.5127424254962	387.36044476474825
452.28654627120386	415.43004221146913
431.23434715867484	421.0439617008133
257.2028344951017	343.8525687223309
380.70906928860524	383.1500051477401
222.11583597422	366.3082466797076
224.92279585589054	321.39689076495415
199.66015692085574	275.0820549778647
234.74715544173742	284.90641408421703
240.3610752050785	258.24029650983215
184.2218775716678	151.5758262122928
115.4513604707397	220.34633995675898
97.20612123988123	265.2576958715124
48.08432331064686	203.50458148872644
529.4779430171436	266.66117574384845
351.2359905310646	277.8890147225368
