508.25839256954185	156.24521597900127
395.20042262093165	156.24521597900127
432.8864126038017	148.7080608810934
245.96390228876623	62.784492764943735
214.30767070315537	17.561562177496544
297.2168486654695	8.516976060007106
99.74226115523038	95.94797519573834
51.50419397715671	38.665596451638564
87.68274436071196	25.09871727540441
53.01163357647151	121.57430252862508
236.91926469287742	222.57218084059048
292.6945298675251	114.03714743071721
490.1691173777642	251.21337021264037
309.2763654599879	252.72080123222193
140.44313033673006	14.546700138333398
24.370281189490264	70.3216478628516
270.08293587780304	212.02016370351947
34.92235838469388	19.068993197078118
