316.8230951809101	356.93377708347487
337.6558045238129	386.09957209807783
314.0454006018564	243.04829178835837
266.8245927579435	211.10480201045982
552.9271344004746	416.65421449432864
229.32571594071854	265.26984989472254
173.77182435964454	287.49140800108677
366.82159760387674	341.6564558853495
343.2111936819203	319.43489777898526
508.4840211356155	455.5419411804659
518.2059521623034	411.0988249677376
518.2059521623034	352.76723493853154
219.6037849140306	245.82598655165387
168.21643520153714	202.77171772057326
126.55101651573162	105.55240100522991
59.8863466184428	88.88623242545677
43.22017914412059	116.663180058412
57.1086520393891	136.1070434014807
