97.1560004056981	15.459538274605103
79.4879582916184	86.13171324422844
25.379579317249366	45.274362089914945
146.8473688515472	29.814823815309843
55.194400384758836	118.155042527339
25.379579317249366	91.65297691373026
87.21772671652826	145.76136087484812
18.754063524469483	117.05078979343864
141.3261056908973	244.03985419198057
156.78564254071702	273.8546780072904
44.15187406345903	326.8588092345079
22.066821420859423	256.18663426488456
104.88576883060796	339.0055893074119
60.71566354540874	365.5076549210207
365.4893900132833	8.834021871202916
379.84467423097306	40.857351154313484
345.61284263494366	29.814823815309843
418.4935163555224	29.814823815309843
502.4167163974009	28.710571081409476
566.4633690609397	37.54459295261239
421.8062742519123	122.57205346294046
340.0915794742938	261.7078979343864
373.2191584381932	263.91640340218714
337.8830742100338	239.6228432563791
311.38101103891427	199.86974483596597
439.474316365992	181.09744835965978
458.24661111220166	130.301822600243
312.48526367104427	166.74216281895505
221.93654783638587	47.48286755771567
554.3165901075099	129.19756986634266
556.5250953717699	207.59951397326853
574.1931374858497	241.83134872417983
599.5909480248391	269.43766707168896
580.8186532786295	135.82308626974483
513.4592427187007	193.2442284325638
422.9105268840423	302.5652490886999
453.8296005836817	277.1674362089915
457.14235848007166	311.39927095990276
504.6252216616609	300.3567436208991
470.3933900656315	272.75042527339
427.3275374125622	227.47606318347508
521.1890111436105	341.21409477521263
481.43591638693124	390.905467800729
449.41259005516184	392.0097205346294
398.61696897718275	395.3224787363305
373.2191584381932	374.34167679222355
348.9256005313336	347.8396111786148
308.0682531425243	363.2991494532199
311.38101103891427	397.53098420413124
239.60458995046557	333.4843256379101
185.4962109760965	335.6928311057108
535.5442953613003	442.80534629404616
369.90640054180324	443.9095990279465
378.74042159884306	410.7820170109356
366.5936426454133	472.620170109356
346.71709526707366	431.7628189550425
253.9598741681553	416.3032806804374
210.89402151508608	372.13317132442285
185.4962109760965	403.05224787363306
112.61553725551782	375.44592952612396
241.8130952147255	115.94653705953827
313.58951630317426	108.21676792223572
