469.2891374335015	367.7161603888214
449.41259005516184	384.27995139732684
442.78707426238196	355.5693803159174
497.99970586888094	315.81628189550423
515.6677479829607	276.06318347509114
530.0230322006504	304.7737545565006
558.7336006360299	363.2991494532199
597.3824427605792	157.90814094775212
602.9037059212291	121.46780072904009
571.9846322215897	69.56792223572296
613.9462322425289	34.2318347509113
575.2973901179796	14.355285540704738
500.20821113314094	119.25929526123937
442.78707426238196	113.73803159173754
427.3275374125622	173.36767922235722
378.74042159884306	121.46780072904009
314.6937689353042	77.29769137302551
167.82816886201684	1.1042527339003645
120.34530568042767	55.212636695018226
114.82404251977778	143.5528554070474
331.2575584172539	244.03985419198057
366.5936426454133	187.72296476306198
485.8529269154512	251.76962332928312
512.3549900865708	223.05905224787364
495.791200604621	419.6160388821385
478.1231584905413	446.1181044957473
502.4167163974009	458.26488456865127
544.3783164183401	427.34580801944105
583.0271585428894	443.9095990279465
450.5168426872918	504.6434993924666
549.89957957899	589.6709599027946
560.9421059002898	521.207290400972
382.05317949523305	541.0838396111786
383.157432127363	459.3691373025516
346.71709526707366	447.2223572296476
312.48526367104427	488.07970838396113
301.44273734974445	320.2332928311057
271.627916282235	331.27582017010934
259.48113732880523	281.58444714459296
255.0641268002853	162.32515188335358
177.76644255118666	348.9438639125152
206.47701098656614	354.46512758201703
183.28770571183657	375.44592952612396
205.37275835443617	386.4884568651276
220.8322952042559	409.67776427703524
234.08332678981566	390.905467800729
119.2410530482977	278.27168894289184
260.5853899609352	77.29769137302551
335.67456894577384	17.668043742405832
343.4043373706837	51.89987849331713
351.1341057955936	528.9370595382746
