499.32754056445026	262.65815742673857
544.313573858307	286.7200439587035
592.4381676145258	256.38114354883464
528.6207715464965	257.4273125284853
412.4940344390989	170.5952872174813
380.0622429946906	194.6571737494463
394.70885848571373	162.2259353802761
478.40380414870293	129.79469701110594
583.0224862274395	101.54813456053837
597.6691017184626	67.0245582320669
599.7614753600374	26.223968025691523
558.9601893493301	24.131630066390223
471.0804964031914	77.4862480285734
315.19866010587396	172.6876251767826
271.2588136328046	159.08742844132416
369.60037478681693	118.28683823494877
315.19866010587396	347.39784477844125
460.61862819531774	322.28978926682566
335.0762097008339	271.0275092639438
336.1223965216213	329.61297212438024
311.0139128227245	385.0599280458647
287.99780276540247	388.19843498481663
268.1202531704425	360.99804151389975
205.34904392320058	145.4872317058657
213.7185384894995	240.68860885407491
155.13207652540703	98.40962762158642
536.9902661127954	427.95285621154136
474.2190568655535	414.3526594760829
416.6787817222484	424.8143492725894
452.24913362901884	419.58350437433614
533.8517056504334	541.9852749934623
432.37158403405886	530.4774162173052
560.0063761701175	484.4459811126765
604.9924094639741	467.7072774382661
567.3296839156291	598.4783998945974
476.3114305071282	214.53438436280865
343.44570426713284	208.25737048490473
361.23088022051803	165.36444231922806
576.7453653027153	177.91847007503586
498.2813537436629	11.577602310582416
444.9258258835073	25.177799046040874
477.3576173279156	22.039292107088922
395.7550453065011	388.19843498481663
