381.55168248445585	196.89937409725565
494.06560356962336	270.03342733337917
530.6326279223027	258.78203452782174
460.3114272440731	317.8518467569984
478.5949394204128	419.1143820070156
449.06003513555646	421.9272302084051
423.7444028913937	433.17862301396246
568.6060762885468	485.21631473966573
599.5474045869679	471.15207373271886
541.8840200308196	289.72336474310475
592.5152845191449	260.1884586285164
477.18851540684824	127.98459316321618
309.82405779266156	351.6060251736708
339.358962077518	270.03342733337917
322.4818739147429	172.99016438544604
273.25703343998214	156.11307517710983
207.15510480244623	153.30022697572048
363.2681703081161	120.95247265974275
582.6703164241927	102.66895935071187
605.1731006412263	64.69550863195543
562.9803802342884	29.53490611458835
444.84076309486255	21.096361510420248
533.4454759494321	430.36577481257314
