396.77769477591676	156.26773349746117
471.24084143171166	77.60947838128943
329.6559851143551	270.58439759963073
384.19237421437396	188.77981227881213
475.4359482855593	124.80443145099247
576.1185127779017	99.63378981381751
590.8013867663684	253.8039698415141
528.9235606721162	253.8039698415141
500.6065894086449	262.1941837205724
542.5576579471209	291.55993229727653
575.0697360644399	313.5842437298046
602.3379306144493	470.90075396214803
474.3871715720974	418.4619172180336
450.2653071624737	424.7545776273273
418.80200575861664	425.8033543622096
459.70429758363076	320.92568087398064
270.9244891604887	156.26773349746117
368.46072351244544	125.85320818587476
312.8755576989647	173.04816125557778
206.94910963931272	149.97507308816742
