513.6332078435394	320.1930647174487
248.80106932216967	162.08432109994064
181.60485507047886	98.84082365293742
149.98310718733023	13.198587526787211
385.82864348248035	69.85422065639428
532.0792274420427	144.9558738747106
576.8767036098366	156.8140296460237
588.7348590660173	206.88179845823458
532.0792274420427	238.50354718173622
472.78845016113905	287.25374313046785
400.32194459559014	305.69976321917716
418.7679641940935	212.15208991215152
354.20689559933174	220.05752709302695
500.4574795588941	158.13160250950295
475.4235958180681	129.1449995129598
443.80184793491946	102.79354224337511
517.5859263289329	61.948783475518866
562.3834024967268	288.5713159939471
590.0524318944819	322.8282104444072
608.4984514929852	437.4570495671005
526.8089361281847	458.53821538276827
503.09262521582315	476.9842354714776
439.8491294495259	421.6461752053497
367.382623883977	366.3081149392219
326.5378662015767	376.84869784705575
304.1391281176798	276.713160222634
275.1525258914602	313.6052004000525
318.6324292307895	318.8754918539695
399.00437176712563	245.0914114991324
509.6804893581458	222.6926728199854
608.4984514929852	254.31442154348701
528.1265089566491	98.84082365293742
595.32272320834	63.2663563389981
421.4031098510226	50.09062770420576
462.24786753342283	151.54373819210676
513.6332078435394	362.3553963487842
525.4913632997201	401.8825822531612
565.0185481536558	425.59889379578743
400.32194459559014	459.8557882462475
442.48427510645496	504.65326560454145
371.33534236937055	280.6658788130717
312.0445650884669	183.1654869156084
338.39602165775744	100.15839651641664
260.6592247783504	276.713160222634
234.3077682090599	235.86840145477774
294.91611831842806	214.78723563911
317.314856402325	13.198587526787211
226.40233123827272	51.40820056768499
207.95631163976938	198.9763612773592
458.29514904802926	396.6122907992443
500.4574795588941	419.01102947839127
425.35582833641615	471.7139440175606
258.0240791214214	214.78723563911
555.7955383544041	224.01024568346463
558.4306840113333	133.0977181033975
334.44330317236387	450.63277820189285
341.03116731468646	349.1796677139919
287.0106813476409	164.71946682689912
566.3361209821203	92.25295933554125
460.9302947049583	258.2671401339247
387.14621631094485	130.46257237643903
160.52368981504645	127.82742664948054
218.49689426748557	21.104024707662614
