245.84375	165
170.84375	85
173.84375	112
328.84375	105
416.84375	48
437.84375	104
470.84375	122
492.84375	164
516.84375	65
535.84375	35
559.84375	135
584.84375	210
561.84375	222
527.84375	242
513.84375	225
361.84375	230
411.84375	211
281.84375	315
264.84375	287
310.84375	184
402.84375	307
373.84375	288
460.84375	299
465.84375	265
461.84375	392
