416.79684743216615	47.53333321184652
519.3430753664171	63.034507116204345
475.22434939470446	125.03920273363568
497.8799113801785	162.0035405055659
557.4998113419523	136.96318266006477
583.7325673251328	207.31466422599647
508.6114933732978	225.20063411564013
510.99628937176874	330.1316574682162
588.5021593220746	319.40007553443
301.134241506325	275.28134980664237
259.40031153308337	286.01293174042854
240.32194354531575	166.77313247613753
292.7874555116767	165.5807344834946
314.25061949791524	189.4286943363528
296.3646495093831	216.85384816713974
230.78275955143195	49.91812919713234
156.85408359883246	132.19359068949313
394.1412854466921	306.283697615358
354.7921514719214	225.20063411564013
612.3501193067841	260.97257389492745
440.64480741687566	286.01293174042854
404.8728674398114	246.6637979832125
366.71613146427615	284.82053374778565
458.5307774054078	396.9059450562192
522.9202693641234	458.9106406736505
206.93479956672243	201.35267426278193
172.35525758889364	79.72807901320509
334.5213854849183	460.1030386662934
524.1126673633589	402.86793501943373
567.038995335836	425.52349687964903
605.1957313113713	433.8702828281494
367.9085294635116	364.7111992548606
229.59036155219647	247.8561959758554
285.6330675162638	417.17671093114865
146.12250160571315	21.30057737370249
440.64480741687566	503.02936640143815
212.8967895628998	314.6304835638584
537.2290453549492	315.8228815565013
