436.234375	426
368.234375	374
399.234375	257
357.234375	231
304.234375	275
268.234375	288
241.234375	169
235.234375	252
364.234375	183
418.234375	208
527.234375	244
528.234375	147
536.234375	327
473.234375	291
402.234375	304
271.234375	325
233.234375	326
205.234375	317
206.234375	211
402.234375	461
442.234375	507
481.234375	540
532.234375	460
559.234375	219
495.234375	162
486.234375	27
418.234375	57
386.234375	76
418.234375	151
362.234375	144
338.234375	104
289.234375	176
302.234375	209
474.234375	123
442.234375	99
512.234375	224
504.234375	328
326.234375	380
338.234375	425
505.234375	480
378.234375	207
