398.76508526299426	69.4423690823881
522.372494030884	218.04903891869864
433.48626750116557	265.26984989472254
397.3762379734674	249.99252869659716
390.4320015258332	219.4378863003464
255.7138144417287	61.10928479250153
362.6550557352962	151.38436459960607
352.9331247086082	234.71520749847178
526.5390358994645	374.9887930448958
523.7613413204108	423.59845140256743
469.59629702886366	430.5426883108062
447.37474039643405	336.10106635875843
436.26396208021924	329.1568294505196
455.7078241335952	272.2140868029614
497.3732428194007	80.5531481355702
425.15318376400444	108.33009576852544
434.8751147906924	123.60741696665082
291.82384396942683	287.49140800108677
219.6037849140306	208.32710724716432
230.7145632302454	259.7144603681315
380.7100704991452	329.1568294505196
322.3784843390175	308.3241187258032
