398.87524820284057	73.41437144176028
356.92417966436454	154.17018002769657
517.3870168240353	227.58455146945684
253.09528503163637	66.07293429758425
429.28977289323564	329.31589475303895
317.0706645528123	22.024311432528084
496.4114825547973	80.75580858593631
415.65567561823093	198.21880289275273
523.6796771048067	380.7059547622711
521.5821236778829	423.70580089244504
472.28961814517356	433.1447915063856
