480.70707534507847	252.7702234598927
452.93012955454145	259.7144603681315
429.319725632585	170.82822794267474
470.9851443183905	184.71670175915236
482.0959226346053	197.2163281939822
512.650563004196	224.99327582693746
569.5933018747969	302.76872919921215
575.1486910329043	256.93676560483595
584.8706220595923	443.0423147456361
545.9828979528404	426.37614616586296
495.98439552987384	423.59845140256743
479.31822805555163	447.2088568905794
487.6513117927127	481.9300414317734
514.0394102937229	504.15159953813765
489.04015908223954	548.594715750866
554.3159816900015	586.0935950553555
429.319725632585	577.760510765469
380.7100704991452	549.9835631325137
347.3777355505008	531.9285471710929
315.4342478913833	491.65197310330774
294.6015385484805	395.8215037696122
275.1576764951046	409.7099775860898
258.4915090207824	418.0430618759764
233.4922578092991	391.6549616246689
220.99263220355743	406.93228282279426
207.10415930828893	387.4884194797256
189.04914454443988	383.32187733478224
183.49375538633248	351.3783875568838
219.6037849140306	318.0460503973375
262.6580508893629	281.9360184744957
227.9368686511917	297.2133396726211
189.04914454443988	305.5464239625077
220.99263220355743	186.10554914080012
307.10116415422215	206.93825986551656
330.7115680761786	236.10405488011955
386.2654596572526	459.70848332540925
444.5970458173803	390.26611424302115
489.04015908223954	352.76723493853154
468.2074497393368	372.21109828160024
472.37399160791733	338.87876112205396
448.7635876859609	352.76723493853154
494.59554824034694	312.49066087074647
525.1501886099377	309.71296610745094
534.8721196366256	205.5494124838688
504.3174792670349	187.4943965224479
377.93237592009154	120.8297222033553
305.7123168646953	141.66243292807172
375.1546813410378	181.93900699585683
451.5412822650147	499.9850573931943
258.4915090207824	77.77545337227467
277.9353710741583	69.4423690823881
466.81860244980993	540.2616314609794
607.0921786920219	290.2691027643823
