456.0381058479417	172.26342648845687
430.64029530895215	167.8464155528554
432.84880057321215	129.19756986634266
414.07650582700245	102.6955042527339
375.4276637024531	70.67217496962333
389.7829479201429	26.50206561360875
448.30833742303184	17.668043742405832
573.0888848537196	286.0014580801944
539.9613058898202	314.7120291616039
503.5209690295309	316.92053462940464
507.9379795580508	364.40340218712026
527.8145269363904	411.88626974483594
461.5593690085916	401.9479951397327
430.64029530895215	406.3650060753341
462.6636216407216	258.3951397326853
510.14648482231075	162.32515188335358
398.61696897718275	206.49526123936818
355.5511163241135	205.3910085054678
336.77882157790384	133.6145808019441
287.0874531320547	41.96160388821385
246.23010574324545	89.44447144592952
280.4619373392748	129.19756986634266
353.34261105985354	251.76962332928312
333.4660636815139	281.58444714459296
324.632042624474	309.19076549210206
245.12585311111545	301.46099635479953
261.6896425930652	192.13997569866342
204.26850572230617	187.72296476306198
241.8130952147255	229.6845686512758
66.23692670605864	155.69963547995138
102.67726356634799	70.67217496962333
163.4111583334969	36.44034021871203
163.4111583334969	170.05492102065614
138.01334779450735	150.17837181044956
406.3467374020926	262.81215066828673
397.51271634505275	353.3608748481166
378.74042159884306	429.5543134872418
260.5853899609352	374.34167679222355
144.63886358728723	189.9314702308627
579.7144006464995	122.57205346294046
606.216463817619	269.43766707168896
220.8322952042559	146.86561360874848
198.7472425616563	130.301822600243
152.3686320121971	87.2359659781288
93.84324250930815	223.05905224787364
107.09427409486791	192.13997569866342
452.7253479515518	335.6928311057108
439.474316365992	305.87800729040094
512.3549900865708	206.49526123936818
208.6855162508261	313.6077764277035
174.45368465479672	290.4184690157959
141.3261056908973	244.03985419198057
121.44955831255766	258.3951397326853
45.25612669558901	18.772296476306195
