161.84375	31
147.84375	81
102.84375	71
43.84375	20
90.84375	9
65.84375	150
216.84375	153
198.84375	133
165.84375	171
137.84375	154
107.84375	191
141.84375	189
198.84375	193
250.84375	193
275.84375	125
247.84375	86
279.84375	41
433.84375	139
409.84375	105
437.84375	21
512.84375	161
460.84375	168
425.84375	167
392.84375	207
362.84375	202
338.84375	136
336.84375	280
352.84375	240
322.84375	309
286.84375	341
245.84375	309
212.84375	278
496.84375	308
533.84375	266
541.84375	310
569.84375	277
454.84375	329
458.84375	255
507.84375	366
457.84375	403
431.84375	407
529.84375	370
567.84375	407
528.84375	406
382.84375	26
377.84375	66
