325.19571523488446	311.2419957653459
251.15815987541262	302.6992147843254
168.57780966677095	171.70990640867797
359.36689463156375	203.03343667241975
396.3856723112997	205.8810303327599
463.30423196313	255.71391938871275
498.8992105013376	311.2419957653459
508.86580449203575	366.7700721419791
459.0328345385451	406.63638338674133
525.9513941903754	409.4839770470815
437.6758474156205	403.7887897264012
537.3417873226018	311.2419957653459
604.2603469744322	268.5280908602435
340.8575057916958	133.26739199408578
386.41907832060156	25.058832901159626
447.64244140631865	16.51605192013914
436.2520482740922	121.87701735272513
161.45881395912943	32.177817052010035
98.81165173188403	73.46792512694238
254.00575815846923	86.28209659847312
275.3627452813938	123.30081418289522
431.9806508495073	166.01471908799766
567.2415692946962	279.91846550160415
379.30008261296	430.84092949963275
283.9055401305636	39.296801202860436
255.42955729999753	194.49065569139927
333.73851008405427	279.91846550160415
