228.92719681715425	48.03063803712308
161.05781468200107	20.882886103096993
263.38396005500124	58.47208108867158
483.69841590911386	29.23604054433579
522.3317565091241	24.01531901856154
532.7731999145324	1.0441443051548498
506.66959140101187	46.98649373196824
411.6524564117974	57.427936783516735
402.25515734693005	83.53154441238797
323.9443318063687	77.26667858145888
324.98847614690953	113.81172926187861
279.0461251631135	153.4892128577629
291.57585724960336	192.12255214849233
271.7371147793278	222.40273699798297
217.44160907120525	253.72706615262848
241.45692890364407	228.6676028289121
310.37045537933807	238.06490157530573
544.2587876604813	199.4315622845763
590.2011386442773	243.28562310107998
542.1704989793997	233.88832435468632
516.0668904658793	245.37391171138967
505.62544706047106	215.09372686189903
400.1668686658484	257.90364337324786
381.3722705361137	242.24147879592513
356.3128063631341	297.5811269691322
330.2091978496136	317.4198687670743
275.9136921414911	353.964919447494
306.19387801717477	353.964919447494
307.2380223577156	414.5252891464753
268.60468175770535	392.5982587382235
377.1956931739504	404.08384609492686
468.0362508010016	317.4198687670743
536.9497772766956	349.78834222687465
492.0515706334404	348.7441979217198
450.2857970118077	351.87663083718434
395.9902913036851	356.0532080578038
408.52002339017497	455.24691704751444
510.8461687631751	376.9360941609007
539.0380659577772	391.5541144330686
567.2299631523794	422.8784435877141
453.4182300334301	465.68836009906295
436.71192058477703	482.3946689815406
500.40472535776695	480.30638037123083
519.1993234875017	507.45413230525696
560.9650971091344	469.8649373196824
463.85967343883834	499.10097786401815
608.995736774012	598.2946868537289
594.3777160064406	566.9703576990834
