149.75800448334346	26.21941837205724
170.73353875258147	79.70703185105401
215.8309374314432	22.024311432528084
238.90402512760502	35.658408985997845
243.09913198145262	160.46284043699032
227.3674812795241	56.63394368364364
171.78231546604337	108.02400369287584
164.44087847181007	134.24342206493307
155.00188805065295	197.17002615787044
206.3919470102861	210.80412371134022
241.0015785545288	213.95045391598708
233.6601415602955	244.36497922757349
258.83078268338113	288.4136020926297
210.5870538641337	314.63302046468687
238.90402512760502	325.12078781350976
211.63583057759558	346.09632251115556
247.2942388353002	386.9986151715649
284.00142380646673	423.70580089244504
322.80616220455704	376.510847822742
268.2697731045382	345.0475457762733
269.3185498180001	318.82812740421605
301.83062793531906	276.87705800892445
315.46472521032376	324.0720110786275
293.4404142276238	218.14556085551624
285.05020051992864	164.65794737651947
336.44025947956175	102.78012001846439
309.17206492955233	13.634097553469765
417.19606641612813	55.58516694876135
440.2691541122899	17.829204492998922
482.22022265076595	33.56085551623327
386.781541725733	76.56070164640714
411.9521828488186	154.17018002769657
389.9278718661187	135.29219879981537
357.4157937487998	221.29189106016312
313.36717178339995	186.68225880904757
363.7084540295712	182.48715186951839
416.1472897026662	207.65779350669334
402.5131924276615	249.60886290198493
419.29361984305194	310.43791352515774
392.02542529304253	309.3891367902755
359.5133471757236	361.8279735343899
329.09882248532847	352.38898292044934
400.4156390007377	459.36420987844286
311.26961835647614	362.87675026927224
376.293774591114	373.36451761809514
408.8058527084329	427.90090783197417
438.1716006853661	418.4619172180336
364.75723074303306	510.75426988767504
330.1475991987904	454.1203262040314
478.0251157969183	549.5590090783197
466.48857194883743	500.26650253885214
508.43964048731345	477.1934143714418
501.0982034930802	414.2668102785044
521.0249610488563	459.36420987844286
543.0492720315561	497.1201723342053
501.0982034930802	511.80304662255736
603.8783214123464	571.5833205108479
601.7807679854226	432.09601477150335
565.0735830142561	422.6570241575627
523.1225144757801	403.7790429296815
518.9274076219325	359.7304200646253
512.6347473411611	330.3646714879212
540.9517186046324	318.82812740421605
491.6592130719231	323.02323434374523
472.78123222960886	292.6087090321588
463.3422418084517	262.1941837205724
611.2197584065798	262.1941837205724
586.0491172834941	212.9016771811048
556.6833693065608	223.3894445299277
526.2688446161658	247.51130943222034
507.39086377385155	225.48699799969228
539.9029418911705	235.97476534851518
553.5370391661752	135.29219879981537
579.7564570027228	168.85305431604863
496.90309663923256	163.60917064163718
471.73245551614696	125.85320818587476
435.0252705449804	225.48699799969228
442.36670753921373	195.07247268810588
453.90325138729463	155.21895676257887
384.6839882988092	205.56024003692877
591.2930008508037	68.17048776734883
588.1466707104179	9.438990613940607
588.1466707104179	51.390060009232194
559.8296994469466	100.68256654869981
521.0249610488563	63.97538082781967
439.220377398828	106.97522695799354
511.58597062769917	103.82889675334667
588.1466707104179	319.8769041390983
370.0011143103426	284.2184951531005
564.0248063007942	292.6087090321588
459.14713495460416	394.3400523157409
421.3911732699757	474.04708416679495
437.1228239719042	503.41283274349905
562.9760295873323	590.461301738729
445.51303767959945	288.4136020926297
599.6832145584988	348.19387598092015
368.9523375968807	454.1203262040314
301.83062793531906	446.7788890598554
396.2205321468901	177.24326819510694
531.5127281834752	207.65779350669334
486.41532950461357	275.8282812740422
451.8056979603708	349.2426527158025
550.3907090257895	6.292660409293738
411.9521828488186	8.390213879058317
462.29346509498987	216.04800738575167
