403.07035505668813	252.7551931066318
325.4608782605075	194.02369595322358
92.63244787196555	239.12109555316204
108.36409857389407	309.3891367902755
172.33947809507	383.85228496691803
149.2663903989082	337.70610863209725
342.24130567589793	282.1209416833359
534.1674442394258	390.14494537621175
561.4356387894352	469.85197722726576
550.9478716548161	414.2668102785044
338.0461988220503	464.6080935528543
352.7290728105169	419.51069395291586
412.5093454778453	335.60855516233266
399.9240249163024	411.12048007385755
292.9488001431886	386.9986151715649
538.3625510932733	499.21772580396987
587.6550566259826	526.4859209109094
