474.1639817186919	61.741058878650634
416.68092826251876	36.19303451507106
367.71388272577866	23.419022333281276
383.6813975747157	59.61205684835234
430.5194411315975	44.70904263626425
512.4860173561407	95.8050913634234
535.9050391345816	119.22411369670468
547.614550023802	176.7071685147587
588.065587641109	239.5127284085585
589.1300886310381	298.0602842417617
498.64750448706195	238.44822739340935
482.67998963812494	188.41667968139936
518.8730232957155	217.15820709042637
579.549579721676	393.8653756051851
594.4525935806838	430.05841012025616
544.4210470540146	414.0908948930189
614.6781123893373	415.1553959081681
601.9041005101877	498.18647508980166
555.066056953306	317.2213025144464
323.00484114875513	171.38466343901297
296.39231640052685	103.25659846946743
269.7797916522985	199.06168983289083
242.1027659141411	141.5786350148368
220.81274611555844	151.15914415117913
255.94127878321981	124.54661877245042
383.6813975747157	106.45010151491489
432.6484431114558	154.35264719662658
442.2289520208179	108.57910354521319
604.0331024900461	129.86912384819615
448.61595796039273	219.28720912072467
536.9695401245107	270.38325784788384
515.679520325928	261.8672497266906
472.0349797388336	230.9967202873653
394.326407474007	219.28720912072467
367.71388272577866	161.80415430267064
500.7765064669202	309.76979540840233
494.38950052734543	278.899265969077
464.5834728093297	253.35124160549742
475.228482708621	281.0282679993753
496.51850250720366	401.31688271122914
396.45540945386523	381.0913634233953
507.163512406495	436.44541621115104
528.4535322050776	395.9943776354834
550.8080529935894	439.6389192565985
614.6781123893373	550.3470248321099
357.0688728264874	273.57676089333125
412.42292430280224	307.64079337810404
395.3909084639361	288.4797751054193
428.3904391517392	246.96423551460254
410.29392232294396	254.41574262064657
427.3259381618101	283.1572700296736
439.0354490510305	342.76932687802594
488.0024945877706	332.12431672653446
459.26096785968406	333.1888177416836
500.7765064669202	364.0593471810089
526.3245302252194	369.38185225675466
547.614550023802	369.38185225675466
608.2911064497625	353.4143370295174
460.3254688496132	455.6064344838357
491.19599755755803	486.476963923161
517.8085223057864	496.05747305950337
544.4210470540146	517.3474933624864
573.1625737821012	474.7674527565204
555.066056953306	466.25144463532723
590.1945896209673	566.3145400593472
320.87583916889685	38.32203654536936
356.0043718365582	128.804622833047
342.1658589674795	112.83710760580978
343.23035995740867	77.70857410588786
349.6173658969834	149.03014212088084
276.1667975918733	147.9656411057317
258.0702807630781	168.19116039356553
284.68280551130636	173.51366546931126
291.06981145088116	202.25519287833828
352.8108688667708	199.06168983289083
295.3278154105977	226.7387162267687
359.1978748063456	227.80321724191785
327.26284510847165	227.80321724191785
338.97235599769215	248.02873652975168
308.1018272897473	241.6417304388568
276.1667975918733	245.8997344994534
291.06981145088116	296.99578322661256
336.84335401783386	359.8013431204123
346.42386292719607	307.64079337810404
303.8438233300308	282.09276901452444
262.3282847227946	79.83757613618617
264.4572867026529	47.9025456817117
300.65032036024337	51.09604872715914
234.65125898463717	43.6445416211151
204.84523126662148	85.16008121193191
198.45822532704668	106.45010151491489
