568.4375	227
601.4375	133
550.4375	368
524.4375	397
481.4375	407
455.4375	436
458.4375	353
293.4375	390
275.4375	369
339.4375	442
197.4375	360
190.4375	300
234.4375	298
33.4375	222
24.4375	161
57.4375	145
158.4375	56
210.4375	82
248.4375	125
285.4375	127
381.4375	275
22.4375	19
473.4375	499
369.4375	431
294.4375	434
