443.234375	292
340.234375	257
295.234375	322
346.234375	300
350.234375	162
359.234375	126
338.234375	106
337.234375	82
416.234375	70
489.234375	84
549.234375	64
523.234375	139
531.234375	192
554.234375	262
592.234375	300
521.234375	368
518.234375	320
545.234375	417
494.234375	430
513.234375	476
386.234375	430
319.234375	434
333.234375	362
300.234375	376
289.234375	345
282.234375	305
272.234375	254
257.234375	219
286.234375	178
282.234375	134
296.234375	95
413.234375	138
444.234375	140
483.234375	152
485.234375	200
487.234375	256
289.234375	236
324.234375	199
584.234375	343
609.234375	384
393.234375	507
365.234375	463
529.234375	544
572.234375	509
274.234375	200
374.234375	199
206.234375	106
219.234375	145
