379.8324912613169	383.7895671371472
381.0248892605523	332.51645345350204
340.48335728654615	284.82053374778565
329.7517752934269	221.62344013771138
272.51667133012404	218.04624615978267
302.3266213110109	145.30996860856516
249.86110934465	91.65205893963419
223.62835336146955	128.6163967115644
365.52371527049115	158.42634652763715
400.10325724831995	213.27665418921103
479.9939231970968	207.31466422599647
469.26234120397754	283.6281357551427
510.99627117721917	281.2433397698569
388.1792772559652	446.9866607472214
489.5331071909806	420.7539049090774
437.0675952246197	472.0270185927225
420.374023235323	495.8749784455807
509.8038731779837	504.2217643940811
503.84188318180634	537.6089081880825
543.191017156577	532.8393162175109
587.3097431282896	528.0697242469392
561.0769871451091	551.9176840997975
401.29565524755543	22.4929753663454
435.8751972253842	45.14853722656069
251.05350734388549	27.262567336917044
224.820751360705	45.14853722656069
319.0201933003076	49.91812919713234
304.7114173094819	311.05328958592963
353.5997352781364	311.05328958592963
421.5664212345585	303.8989016300722
422.758819233794	368.2883932327893
602.8109171183509	170.35032645406625
576.5781611351704	84.49767098377673
563.4617831435801	121.46200875570695
534.8442311619287	116.69241678513531
546.7682111542834	36.80175127806032
503.84188318180634	17.723383395773762
497.87989318562893	52.30292518241816
463.30035120780013	89.26726295434837
415.6044312383811	142.9251726232793
355.98453127660736	53.49532317506107
359.56172527431374	6.9918014619875715
395.333665251378	296.7445136742147
462.10795320856465	343.2480353872882
546.7682111542834	337.2860454240737
568.231375140522	356.36441330636023
577.7705591344059	195.39068429956737
606.3881111160572	12.953791425202121
402.4880532467908	99.99884488813454
404.8728492452619	120.26961076306402
454.9535652131518	117.88481477777822
272.51667133012404	144.11757061592223
346.44534728272356	34.4169552927745
509.8038731779837	320.5924735270729
