500.0048642596029	85.61227221249871
469.1283055612271	54.73571502110573
415.7960678094869	102.45403068053125
380.70906928860524	94.03315144651498
349.83251059022933	51.92875527643364
307.72811236517134	74.38443323381036
340.00815100438246	102.45403068053125
420.0065076319927	150.17234633995676
405.97170822364006	178.24194378667764
393.34038875612265	192.27674251003808
396.1473486377932	138.9445073612684
345.6220707677235	138.9445073612684
342.815110886053	179.6454236590137
222.11583597422	77.19139297848244
264.220234199278	106.66447029753938
250.18543479092537	209.1185009780706
317.5524719510182	200.69762174405435
334.3942312410414	230.1706990631113
342.815110886053	263.85421599917635
347.0255507085588	310.1690517862658
275.44807372596017	328.4142901266344
231.94019556006688	276.48553485020074
268.43067402178383	279.29249459487284
412.9891079278164	296.1342530629054
417.19954775032215	255.43333676516008
463.514385797886	270.8716153608566
494.3909444962619	266.66117574384845
501.4083442004382	214.73242046741478
554.7405819521783	103.85751055286728
574.3893011238721	81.40183259549057
539.3023026029905	16.841758468032534
563.1614615971899	39.297436425409245
537.8988226621552	58.94615463811387
480.3561450879092	294.7307731905693
525.2675031946378	311.57253165860186
546.3197023071667	388.7639246370843
431.23434715867484	324.20385050962625
551.9336220705078	449.1135591475342
455.0935061528744	436.4822402965098
420.0065076319927	423.8509214454854
387.7264689927816	404.2022032327808
424.2169474544985	471.56923710491094
438.2517468628512	489.8144754452795
404.5682282828048	488.4109955729435
435.44478698118064	447.71007927519815
469.1283055612271	502.4457942963039
492.98746455542664	533.3223514876969
495.7944244370972	583.8476268917944
560.3545017155194	583.8476268917944
484.56658491041503	428.0613610624936
417.19954775032215	348.06300833933904
327.3768315368651	376.1326057860599
375.09514952526416	317.18645114794606
373.6916695844289	228.76721919077525
