448.07610644869806	98.24359106352311
370.88470970275836	117.89230927622773
332.9907513002061	105.26099042520333
231.94019556006688	84.20879234016269
196.8531970391852	60.34963451044991
171.5905581041504	92.62967157417893
172.99403804498567	196.48718212704622
161.76619851830353	168.41758468032532
210.8879964475379	237.18809842479152
208.08103656586735	284.90641408421703
203.87059674336155	324.20385050962625
349.83251059022933	384.55348502007615
304.9211524835008	391.5708843817564
320.35943183268876	425.2544013178215
340.00815100438246	451.9205188922063
344.21859082688826	414.0265623391331
408.7786681053106	395.78132399876455
443.86566662619225	388.7639246370843
530.8814229579789	412.6230824667971
564.5649415380252	436.4822402965098
606.6693397630833	463.14835787089464
463.514385797886	479.9901163389272
386.3229890519463	437.88572016884586
372.2881896435936	477.1831565942551
432.6378270995101	552.9710697004015
514.0396636679557	606.3033048491712
606.6693397630833	578.2337074024502
335.79771118187665	244.20549778647174
